{
    "name": "Abattoir",
    "factions": ["Orgoth"],
    "armies": ["Sea Raiders"],
    "cost": 2,
    "rng": "SELF",
    "aoe": "CTRL",
    "off": "NO",
    "text": "Models in the spellcaster's battlegroup currently in its control range can immediately make one basic melee attack. Abattoir can be cast only once per turn."
}
