{
    "name": "Assail",
    "cost": 2,
    "rng": 6,
    "dur": "UP",
    "off": "NO",
    "text": "Target friendly Faction warjack can charge or make slam or trample power attacks without spending focus. The warjack gains +2\" movement when it charges or makes a slam or trample power attack. Models slammed by the warjack are moved +2\"."
}
