{
    "name": "Cleansing Fire",
    "cost": 3,
    "rng": 8,
    "aoe": 2,
    "pow": "14/8",
    "off": "YES",
    "text": "Cleansing Fire causes fire damage. On a critical hit, models hit suffer the Fire continuous effect."
}
