{
    "name": "Electrify",
    "factions": ["Cygnar"],
    "armies": ["Storm Legion"],
    "cost": 2,
    "rng": 6,
    "dur": "UP",
    "off": "NO",
    "text": "Target friendly Faction warjack gains +2 to its melee attack damage rolls, Resistance: Electricity, and Repulsor Field. (When a model with Repulsor Field is hit with a melee attack, after the attack is resolved the attacking model is pushed 1\" directly away from the model hit."
}
