{
    "name": "Hellwrought",
    "cost": 2,
    "rng": 6,
    "dur": "UP",
    "off": "NO",
    "text": "Target warjack in the spellcaster's battlegroup gains +2 ARM and Retaliation. (If a model with Retaliation was damaged by an enemy attack during the last round, during your Maintenance Phase it can advance up to 3\" and make on basic melee attack."
}
