{
    "name": "Onslaught",
    "factions": ["Cygnar"],
    "armies": ["Storm Legion"],
    "cost": 2,
    "rng": "SELF",
    "aoe": "CTRL",
    "dur": "TURN",
    "off": "NO",
    "text": "The spellcaster and friendly Faction models beginning their activations in its control range gain Relentless Charge for one turn."
}
