{
    "name": "Shadowmancer",
    "cost": 3,
    "rng": "SELF",
    "aoe": "Ctrl",
    "dur": "RND",
    "off": "NO",
    "text": "While in the spellcaster's control range, models in its battlegroup gain Stealth and Dark Shroud. Shadowmancer lasts for one round. (While within 2\" of a model with Dark Shroud, enemy models suffer -2 ARM.)"
}
