{
    "name": "Tempest",
    "factions": ["Khador"],
    "armies": ["Winter Korps"],
    "cost": 4,
    "rng": 8,
    "aoe": 3,
    "pow": "12/12",
    "off": "YES",
    "text": "On a direct hit, models hit become knocked down."
}
