{
    "name": "Dhunian Knot",
    "edition": 3,
    "revision": "2020 v1",
    "keywords": [
        "Trollblood",
        "Trollkin",
        "Unit"
    ],
    "unit size": [
        {
            "only": [
                {"Leader": 1},
                {"Grunts": 2},
                {"point cost": 6}
            ]
        }
    ],
    "field allowance": 2,
    "models": [
        {
            "Leader & Grunts": {
                "spd": 6,
                "str": 6,
                "mat": 5,
                "rat": 4,
                "def": 13,
                "arm": 13,
                "cmd": 7,
                "boxes": 1,
                "advantages": ["Tough"],
                "base size": 40,
                "attacks": [
                    {
                        "Ritual Blade": {
                            "type": "melee",
                            "rng": 0.5,
                            "pow": 2,
                            "p+s": 8,
                            "weapon qualities": ["Damage Type: Magical"]
                        }
                    }
                ],
                "abilities": [
                    {
                        "Magic Ability [6]": [
                            "Heal [d3]",
                            "Puppet Master"
                        ]
                    },
                    "Prayer Circle",
                    "Wild Communion"
                ]
            }
        }
    ]
}
