{
    "name": "Dire Troll Brawler",
    "edition": 3,
    "revision": "2021 v1",
    "keywords": [
        "Trollblood",
        "Northkin",
        "Heavy",
        "Warbeast"
    ],
    "point cost": 14,
    "field allowance": "U",
    "models": [
        {
            "Brawler": {
                "spd": 5,
                "str": 12,
                "mat": 6,
                "rat": 3,
                "def": 12,
                "arm": 18,
                "cmd": 3,
                "advantages": ["Immunity: Cold"],
                "base size": 50,
                "fury": 4,
                "threshold": 8,
                "boxes": {
                    "Spiral 1": 6,
                    "Spiral 2": 5,
                    "Spiral 3": 7,
                    "Spiral 4": 7,
                    "Spiral 5": 6,
                    "Spiral 6": 5 
                },
                "attacks": [
                    {
                        "Flail": {
                            "type": "melee",
                            "rng": 2,
                            "pow": 5,
                            "p+s": 17,
                            "weapon qualities": ["Chain Weapon"],
                            "abilities": ["Beat Back"]
                        }
                    },
                    {
                        "Flail": {
                            "type": "melee",
                            "rng": 2,
                            "pow": 5,
                            "p+s": 17,
                            "weapon qualities": ["Chain Weapon"],
                            "abilities": ["Beat Back"]
                        }
                    }
                ],
                "abilities": [
                    "Regeneration [d3]",
                    "Snacking"
                ],
                "animus": "Ornery"
            }
        }
    ]
}
