{
    "name": "Fell Caller Hero",
    "edition": 3,
    "revision": "2021 v1",
    "keywords": [
        "Trollblood",
        "Trollkin",
        "Solo"
    ],
    "point cost": 4,
    "field allowance": 2,
    "models": [
        {
            "Fell Caller": {
                "spd": 5,
                "str": 7,
                "mat": 6,
                "rat": 6,
                "def": 12,
                "arm": 15,
                "cmd": 9,
                "boxes": 8,
                "advantages": ["Tough"],
                "base size": 40,
                "attacks": [
                    {
                        "Sonic Blast": {
                            "type": "ranged",
                            "rng": "SP 8",
                            "rof": 1,
                            "pow": 12
                        }
                    },
                    {
                        "Sword": {
                            "type": "melee",
                            "rng": 1,
                            "pow": 3,
                            "p+s": 10,
                            "weapon qualities": ["Weapon Master"]
                        }
                    },
                    {
                        "Sword": {
                            "type": "melee",
                            "rng": 1,
                            "pow": 3,
                            "p+s": 10,
                            "weapon qualities": ["Weapon Master"]
                        }
                    }
                ],
                "abilities": [
                    {
                        "Fell Calls": [
                            "March",
                            "Reveille",
                            "War Cry"
                        ]
                    }
                ]
            }
        }
    ]
}
