{
    "name": "Grim Angus",
    "edition": 3,
    "revision": "2021 v1",
    "keywords": [
        "Trollblood",
        "Trollkin",
        "Warlock"
    ],
    "warbeast points": 29,
    "field allowance": "C",
    "models": [
        {
            "Grim 1": {
                "spd": 6,
                "str": 7,
                "mat": 6,
                "rat": 7,
                "def": 16,
                "arm": 15,
                "fury": 6,
                "cmd": 8,
                "boxes": 17,
                "advantages": [
                    "Pathfinder",
                    "Tough"
                ],
                "base size": 40,
                "attacks": [
                    {
                        "Headhunter": {
                            "type": "ranged",
                            "rng": 13,
                            "rof": 1,
                            "pow": 13,
                            "weapon qualities": ["Damage Type: Magical"],
                            "abilities": [
                                "Bait The Line",
                                "Witch Mark"
                            ]
                        }
                    },
                    {
                        "Snare Gun": {
                            "type": "ranged",
                            "rng": 8,
                            "rof": 1,
                            "abilities": [
                                "Cumbersome",
                                "Knockdown"
                            ]
                        }
                    },
                    {
                        "Gun Blade": {
                            "type": "melee",
                            "rng": 1,
                            "pow": 5,
                            "p+s": 12
                        }
                    }
                ],
                "abilities": [
                    "Take Down",
                    "True Sight"
                ],
                "feat": {
                    "name": "Spread The Net",
                    "flavor": "Grim Angus is a tenacious huntsman, a tireless stalker, and a master of traps and ambush. He provokes his adversaries into the killing lane and then unleashes his sorcerous power in a net of unseen bonds to hold them fast.",
                    "text": "While in Grim's control range, enemy models suffer -3 DEF. Enemy models beginning their activations in Grim's control range suffer -3 SPD and cannot charge or make poewr attacks or special attacks. Spread the Net lasts for one round."
                },
                "spells": [
                    "Bear Trap",
                    "Marked For Death",
                    "Return Fire",
                    "Weald Secrets"
                ]
            }
        }
    ]
}
