{
    "name": "Hoarluk Doomshaper, Dire Prophet & Scroll Bearers",
    "edition": 3,
    "revision": "2016 v1",
    "keywords": [
        "Trollblood",
        "Warlock",
        "Unit"
    ],
    "warbeast points": 26,
    "field allowance": "C",
    "models": [
        {
            "Doomshaper 3": {
                "spd": 5,
                "str": 7,
                "mat": 5,
                "rat": 4,
                "def": 13,
                "arm": 15,
                "fury": 7,
                "cmd": 8,
                "boxes": 16,
                "advantages": [
                    "Officer",
                    "Tough"
                ],
                "base size": 40,
                "attacks": [
                    {
                        "Kriel Staff": {
                            "type": "melee",
                            "rng": 2,
                            "pow": 6,
                            "p+s": 13,
                            "weapon qualities": ["Damage Type: Magical"],
                            "abilities": ["Critical Smite"]
                        }
                    }
                ],
                "abilities": [
                    "Field Marshal [Hyper-Regeneration]",
                    "Hyper-Regeneration",
                    "Trollkin",
                    "Warlock Unit (Doomshaper 3)"
                ],
                "feat": {
                    "name": "Blood of Dhunia",
                    "flavor": "Through decades of study and deep introspection, Hoarluk Doomshaper has mastered the secrets of the blood ties shared between trolls and trollkin. By calling on these secrets, Doomshaper unleashes the true might of Dhunia's children, turning muscle to stone and mending even severe wounds as fast as the enemy can inflict them.",
                    "text": "While within Doomshaper's control range, models in his battlegroup gain an additional die on melee attack rolls. When a model in Doomshaper's battlegroup that is in his control range is hit by an enemy attack, after the attack is resolve remove d3 + 3 damage points from the model. Blood of Dhunia lasts for one round."
                },
                "spells": [
                    "Admonition",
                    "Implacability",
                    "Repudiate",
                    "Stranglehold",
                    "Unminding"
                ]
            }
        },
        {
            "Scroll Bearers": {
                "spd": 5,
                "str": 5,
                "mat": 5,
                "rat": 4,
                "def": 13,
                "arm": 13,
                "cmd": 8,
                "boxes": 5,
                "advantages": ["Tough"],
                "base size": 40,
                "abilities": [
                    "Pyg",
                    {
                        "Scroll Bearer": [
                            "Scroll of the Call of Troqal",
                            "Scroll of the Hand of Yolandi",
                            "Scroll of the Strength of the Molgur"
                        ]
                    }
                ]
            }
        }
    ]
}
