{
    "name": "Krielstone Bearer & Stone Scribes",
    "edition": 3,
    "revision": "2021 v1",
    "keywords": [
        "Trollblood",
        "Trollkin",
        "Unit"
    ],
    "unit size": [
        {
            "min": [
                {"Leader": 1},
                {"Grunts": 3},
                {"point cost": 5}
            ]
        },
        {
            "max": [
                {"Leader": 1},
                {"Grunts": 5},
                {"point cost": 7}
            ]
        }
    ],
    "field allowance": 1,
    "models": [
        {
            "Leader": {
                "spd": 5,
                "str": 6,
                "mat": 5,
                "rat": 4,
                "def": 12,
                "arm": 13,
                "cmd": 6,
                "boxes": 1,
                "advantages": ["Tough"],
                "base size": 40,
                "abilities": [
                    "Awaken the Stone",
                    "Fury Vault",
                    "Protective Aura [4\"]",
                    "Self-Sacrifice"
                ]
            }
        },
        {
            "Grunts": {
                "spd": 5,
                "str": 6,
                "mat": 5,
                "rat": 4,
                "def": 12,
                "arm": 13,
                "cmd": 6,
                "boxes": 1,
                "advantages": ["Tough"],
                "base size": 40,
                "attacks": [
                    {
                        "Hand Weapon": {
                            "type": "melee",
                            "rng": 1,
                            "pow": 5,
                            "p+s": 11
                        }
                    }
                ]
            }
        }
    ]
}
