{
    "name": "Madrak Ironhide, Thornwood Chieftain",
    "edition": 3,
    "revision": "2017 v1",
    "keywords": [
        "Trollblood",
        "Trollkin",
        "Warlock"
    ],
    "warbeast points": 29,
    "field allowance": "C",
    "models": [
        {
            "Madrak 1": {
                "spd": 6,
                "str": 8,
                "mat": 7,
                "rat": 6,
                "def": 14,
                "arm": 17,
                "fury": 5,
                "cmd": 9,
                "boxes": 18,
                "advantages": ["Tough"],
                "base size": 40,
                "attacks": [
                    {
                        "Thrown Rathrok": {
                            "type": "ranged",
                            "rng": 8,
                            "rof": 1,
                            "pow": 15,
                            "weapon qualities": ["Damage Type: Magical"],
                            "abilities": [
                                "Blood Boon",
                                "Ricochet",
                                "Thrown"
                            ]
                        }
                    },
                    {
                        "Rathrok": {
                            "type": "melee",
                            "rng": 2,
                            "pow": 7,
                            "p+s": 15,
                            "weapon qualities": ["Damage Type: Magical"],
                            "abilities": ["Blood Boon"]
                        }
                    }
                ],
                "abilities": [
                    "Scroll of Grindar's Perseverance",
                    "Tactician [Faction Warrior]"
                ],
                "feat": {
                    "name": "Grim Determination",
                    "flavor": "The greatest chieftain ever to rise to dominance from the Thornwood Forest, Madrak Ironhide inspires his kin and the trolls he commands to tremendous feats of resilience. Together they stand resolute and unmoveable against all who would oppose kith and kriel.",
                    "text": "Remove d3 + 3 damage points from friendly Faction models currently in Madrak's control range. While in Madrak's control range, friendly Faction models cannot be charged or slam power attacked. Grim Determination lasts for one round."
                },
                "spells": [
                    "Even Ground",
                    "Guided Hand",
                    "Jackhammer"
                ]
            }
        }
    ]
}
