{
    "name": "Pyg Burrowers",
    "edition": 3,
    "revision": "2021 v1",
    "keywords": [
        "Trollblood",
        "Unit"
    ],
    "unit size": [
        {
            "min": [
                {"Leader": 1},
                {"Grunts": 5},
                {"point cost": 7}
            ]
        },
        {
            "max": [
                {"Leader": 1},
                {"Grunts": 9},
                {"point cost": 11}
            ]
        }
    ],
    "field allowance": 1,
    "models": [
        {
            "Leader & Grunts": {
                "spd": 6,
                "str": 5,
                "mat": 4,
                "rat": 5,
                "def": 13,
                "arm": 12,
                "cmd": 7,
                "boxes": 1,
                "advantages": [
                    "Advance Deploy",
                    "Gunfighter",
                    "Pathfinder",
                    "Tough"
                ],
                "base size": 30,
                "attacks": [
                    {
                        "Slug Gun": {
                            "type": "ranged",
                            "rng": 4,
                            "rof": 1,
                            "pow": 14
                        }
                    },
                    {
                        "Hand Weapon": {
                            "type": "melee",
                            "rng": 0.5,
                            "pow": 3,
                            "p+s": 8
                        }
                    }
                ],
                "abilities": [
                    "Burrow [4]",
                    "Dig In"
                ]
            }
        }
    ]
}
