{
    "name": "Skaldi Bonehammer",
    "edition": 3,
    "revision": "2021 v1",
    "keywords": [
        "Trollblood",
        "Northkin",
        "Trollkin",
        "Champion",
        "Command Attachment"
    ],
    "point cost": 3,
    "field allowance": "C",
    "models": [
        {
            "Skaldi 1": {
                "spd": 5,
                "str": 8,
                "mat": 8,
                "rat": 4,
                "def": 12,
                "arm": 16,
                "cmd": 9,
                "boxes": 8,
                "advantages": [
                    "Immunity: Cold",
                    "Officer",
                    "Tough"
                ],
                "base size": 40,
                "attacks": [
                    {
                        "Hammer": {
                            "type": "melee",
                            "rng": 1,
                            "pow": 4,
                            "p+s": 12,
                            "weapon qualities": ["Weapon Master"]
                        }
                    }
                ],
                "abilities": [
                   "Attachment [Trollkin Champion]",
                   "Defensive Line",
                   "Granted: Practiced Maneuvers",
                   "Rapid Strike",
                   "Sanguine Bond",
                   "Tactics: Northkin",
                   "Tactics: Overtake" 
                ]
            }
        }
    ]
}
