{
    "name": "Stone Scribe Elder",
    "edition": 3,
    "revision": "2016 v1",
    "keywords": [
        "Trollblood",
        "Trollkin",
        "Command Attachment"
    ],
    "point cost": 3,
    "field allowance": 1,
    "models": [
        {
            "Elder": {
                "spd": 5,
                "str": 6,
                "mat": 5,
                "rat": 4,
                "def": 12,
                "arm": 13,
                "cmd": 8,
                "boxes": 5,
                "advantages": [
                    "Officer",
                    "Tough"
                ],
                "base size": 40,
                "attacks": [
                    {
                        "Hand Weapon": {
                            "type": "melee",
                            "rng": 1,
                            "pow": 4,
                            "p+s": 10
                        }
                    }
                ],
                "abilities": [
                    "Attachment [Krielstone Bearer & Stone Scribe]",
                    {
                        "Stone Warp": [
                            "Combat Warding",
                            "Spirit Chaser",
                            "Stone Strength"
                        ]
                    }
                ]
            }
        }
    ]
}
