{
    "name": "Trollkin Skinner",
    "edition": 3,
    "revision": "2021 v1",
    "keywords": [
        "Trollblood",
        "Scout",
        "Solo"
    ],
    "point cost": 3,
    "field allowance": 2,
    "models": [
        {
            "Skinner": {
                "spd": 6,
                "str": 7,
                "mat": 7,
                "rat": 3,
                "def": 13,
                "arm": 14,
                "cmd": 6,
                "boxes": 5,
                "advantages": [
                    "Advance Deploy",
                    "Pathfinder",
                    "Tough"
                ],
                "base size": 40,
                "attacks": [
                    {
                        "Skinning Knife": {
                            "type": "melee",
                            "rng": 0.5,
                            "pow": 2,
                            "p+s": 9,
                            "weapon qualities": ["Weapon Master"]
                        }
                    }
                ],
                "abilities": [
                    "Ambush",
                    "Dismember",
                    "Duck",
                    "Leadership [Trollkin Scouts]",
                    "Prowl",
                    "Treewalker"
                ]
            }
        }
    ]
}
