{
    "name": "Trollkin Barrage Team",
    "edition": 3,
    "revision": "2021 v1",
    "keywords": [
        "Trollblood",
        "Unit"
    ],
    "unit size": [
        {
            "only": [
                {"Leader": 1},
                {"Grunts": 2},
                {"point cost": 8}
            ]
        }
    ],
    "field allowance": 3,
    "models": [
        {
            "Leader & Grunts": {
                "spd": 5,
                "str": 7,
                "mat": 5,
                "rat": 6,
                "def": 12,
                "arm": 15,
                "cmd": 7,
                "boxes": [
                    {"Model A": 5},
                    {"Model B": 5},
                    {"Model C": 5}
                ],
                "advantages": [
                    "Combined Ranged Attack",
                    "Tough"
                ],
                "base size": 40,
                "attacks": [
                    {
                        "Rocket Launcher": {
                            "type": "ranged",
                            "rng": 14,
                            "rof": 1,
                            "aoe": 3,
                            "pow": 14,
                            "abilities": [
                                "Arcing Fire",
                                "Barrage",
                                "High-Explosive"
                            ]
                        }
                    },
                    {
                        "Axe": {
                            "type": "melee",
                            "rng": 0.5,
                            "pow": 4,
                            "p+s": 11
                        }
                    }
                ]
            }
        }
    ]
}
