{
    "name": "Troll Champions",
    "edition": 3,
    "revision": "2020 v1",
    "keywords": [
        "Trollblood",
        "Unit"
    ],
    "unit size": [
        {
            "min": [
                {"Leader": 1},
                {"Grunts": 2},
                {"point cost": 10}
            ]
        },
        {
            "max": [
                {"Leader": 1},
                {"Grunts": 4},
                {"point cost": 16}
            ]
        }
    ],
    "field allowance": 2,
    "models": [
        {
            "Leader & Grunts": {
                "spd": 5,
                "str": 8,
                "mat": 7,
                "rat": 4,
                "def": 12,
                "arm": 16,
                "cmd": 7,
                "boxes": [
                    {"Model A": 5},
                    {"Model B": 5},
                    {"Model C": 5},
                    {"Model D": 5},
                    {"Model E": 5}
                ],
                "advantages": ["Tough"],
                "base size": 40,
                "attacks": [
                    {
                        "Hand Weapon": {
                            "type": "melee",
                            "rng": 1,
                            "pow": 4,
                            "p+s": 12,
                            "weapon qualities": ["Weapon Master"]
                        }
                    },
                    {
                        "Hand Weapon": {
                            "type": "melee",
                            "rng": 1,
                            "pow": 4,
                            "p+s": 12,
                            "weapon qualities": ["Weapon Master"]
                        }
                    }
                ],
                "abilities": [
                    "Defensive Line",
                    "Relentless Charge",
                    "Sanguine Bond"
                ]
            }
        }
    ]
}
