{
    "name": "War Wagon",
    "edition": 3,
    "revision": "2017 v1",
    "keywords": [
        "Trollblood",
        "Battle Engine"
    ],
    "point cost": 16,
    "field allowance": 2,
    "models": [
        {
            "War Wagon": {
                "spd": 7,
                "str": 14,
                "mat": 6,
                "rat": 5,
                "def": 9,
                "arm": 19,
                "cmd": 10,
                "boxes": 38,
                "advantages": [
                    "Cavalry",
                    "Construct",
                    "Pathfinder"
                ],
                "base size": 120,
                "attacks": [
                    {
                        "Pounder": {
                            "type": "ranged",
                            "rng": 12,
                            "rof": 1,
                            "aoe": 5,
                            "pow": 17,
                            "abilities": [
                                "Arcing Fire",
                                "Quake"
                            ]
                        }
                    },
                    {
                        "Scattergun": {
                            "type": "ranged",
                            "rng": "SP 8",
                            "rof": 1,
                            "pow": 12
                        }
                    },
                    {
                        "Mount": {
                            "type": "mount",
                            "rng": 0.5,
                            "pow": 14,
                            "abilities": [
                                "Knockdown",
                                "Ton of Bricks",
                                "Trampling Hooves" 
                            ]
                        }
                    }
                ],
                "abilities": [
                    "Crushing Weight",
                    "Dual Attack",
                    "Line Breaker",
                    "Reposition [3\"]",
                    "Shooting Gallery"
                ]
            }
        }
    ]
}
