{
    "name": "Choir of Menoth",
    "keywords": [
        "Protectorate",
        "Exemplar",
        "Unit"
    ],
    "unit size": [
        {"Grunts": 3}
    ],
    "point cost": 3,
    "field allowance": 3,
    "models": [
        {
            "Grunts": {
                "spd": 6,
                "mat": 4,
                "rat": 4,
                "def": 12,
                "arm": 12,
                "boxes": 1,
                "base size": 30,
                "attacks": [
                    {
                        "Battle Staff": {
                            "type": "melee",
                            "rng": 2,
                            "pow": 6
                        }
                    }
                ],
                "abilities": [
                    {
                        "Hymn": [
                            "Battle",
                            "Passage",
                            "Shielding"
                        ]
                    }
                ]
            }
        }
    ]
}
