{
    "name": "Exemplar Errant Officer & Standard",
    "keywords": [
        "Protectorate",
        "Exemplar",
        "Command Attachment"
    ],
    "point cost": 4,
    "field allowance": 3,
    "models": [
        {
            "Officer": {
                "spd": 5,
                "mat": 8,
                "rat": 7,
                "def": 12,
                "arm": 16,
                "boxes": 5,
                "advantages": [
                    "Advance Deploy",
                    "Pathfinder"
                ],
                "base size": 30,
                "attacks": [
                    {
                        "Crossbow": {
                            "type": "ranged",
                            "rng": 10,
                            "rof": 1,
                            "pow": 10,
                            "weapon qualities": [
                                "Blessed",
                                "Damage Type: Magical"
                            ]
                        }
                    },
                    {
                        "Sword": {
                            "type": "melee",
                            "rng": 1,
                            "pow": 9,
                            "weapon qualities": ["Weapon Master"]
                        }
                    },
                    {
                        "Shield": {
                            "type": "melee",
                            "rng": 1,
                            "pow": 9
                        }
                    }
                ],
                "abilities": [
                    "Command Attachment [[Exemplar Errant]]",
                    "Purity",
                    "Granted: [Dual Attack]",
                    "Self-Sacrifice"
                ]
            }
        },
        {
            "Standard Bearer": {
                "spd": 5,
                "mat": 7,
                "rat": 6,
                "def": 12,
                "arm": 16,
                "boxes": 1,
                "advantages": [
                    "Advance Deploy",
                    "Pathfinder"
                ],
                "base size": 30,
                "attacks": [
                    {
                        "Shield": {
                            "type": "melee",
                            "rng": 1,
                            "pow": 9
                        }
                    }
                ],
                "abilities": [
                    "Granted: [Inspiration]",
                    "Granted: [Rise]",
                    "Self-Sacrifice",
                    "Take Up"
                ]
            }
        }
    ]
}
