{
    "name": "Reclaimer Gatekeeper",
    "keywords": [
        "Protectorate",
        "Exemplar",
        "Solo"
    ],
    "point cost": 2,
    "field allowance": 2,
    "models": [
        {
            "Reclaimer": {
                "spd": 5,
                "mat": 5,
                "rat": 4,
                "def": 13,
                "arm": 13,
                "boxes": 5,
                "advantages": [
                    "Resistance: Fire"
                ],
                "base size": 30,
                "attacks": [
                    {
                        "Torch": {
                            "type": "melee",
                            "rng": 1,
                            "pow": 10,
                            "weapon qualities": ["Continuous Effect: Fire"]
                        }
                    }
                ],
                "abilities": [
                    "Ashen Veil",
                    {
                        "Soul Mastery": [
                            "Ashes of Urcaen",
                            "Glimpse of Fate"
                        ]
                    },
                    {
                        "Soul Taker: Requiem [[Faction]]": [
                            "Soul Transfer"
                        ]
                    }
                ]
            }
        }
    ]
}
