{
    "name": "Vanquisher",
    "keywords": [
        "Protectorate",
        "Exemplar",
        "Heavy",
        "Warjack"
    ],
    "point cost": 15,
    "field allowance": 4,
    "models": [
        {
            "Vanquisher": {
                "spd": 4,
                "mat": 6,
                "rat": 5,
                "def": 10,
                "arm": 19,
                "advantages": [
                    "Construct",
                    "Dual Attack",
                    "Headbutt Power Attack",
                    "Slam Power Attack",
                    "Trample Power Attack"
                ],
                "base size": 50,
                "boxes": {
                    "grid": [
                        [2,1],
                        [3,1],
                        [4,1],
                        [5,1],
                        [1,2],
                        [2,2],
                        [3,2],
                        [4,2],
                        [5,2],
                        [6,2],
                        [1,3],
                        [2,3],
                        [3,3],
                        [4,3],
                        [5,3],
                        [6,3],
                        [1,4],
                        [2,4],
                        [3,4],
                        [4,4],
                        [5,4],
                        [6,4],
                        [1,5],
                        [2,5],
                        [3,5],
                        [4,5],
                        [5,5],
                        [6,5],
                        [2,6],
                        [3,6],
                        [4,6],
                        [5,6]
                    ],
                    "systems": [
                        {
                            "Left Arm": [
                                [5,1],
                                [4,2],
                                [5,2]
                            ]
                        },
                        {
                            "Movement": [
                                [6,2],
                                [5,3],
                                [6,3]
                            ]
                        },
                        {
                            "Cortex": [
                                [5,4],
                                [6,4],
                                [6,5]
                            ]
                        },
                        {
                            "Right Arm": [
                                [4,5],
                                [5,5],
                                [5,6]
                            ]
                        }
                    ]
                },
                "attacks": [
                    {
                        "Flame Belcher": {
                            "type": "melee",
                            "loc": "L",
                            "rng": 10,
                            "rof": 1,
                            "aoe": 3,
                            "pow": "14/8",
                            "weapon qualities": [
                                "Continuous Effect: Fire",
                                "Damage Type: Fire"
                            ]
                        }
                    },
                    {
                        "Blazing Star": {
                            "type": "melee",
                            "loc": "R",
                            "rng": 2,
                            "pow": 16,
                            "weapon qualities": ["Chain Weapon"],
                            "abilities": ["Thresher"]
                        }
                    }
                ]
            }
        }
    ]
}
