{
    "name": "Bane Witch Agathia",
    "edition": 3,
    "version": "2020 v1",
    "keywords": [
        "Cryx",
        "Warcaster"
    ],
    "warjack points": 29,
    "field allowance": "C",
    "models": [
        {
            "Agathia 1": {
                "spd": 6,
                "str": 6,
                "mat": 7,
                "rat": 4,
                "def": 15,
                "arm": 15,
                "focus": 7,
                "cmd": 9,
                "boxes": 16,
                "advantages": [
                    "Undead"
                ],
                "base size": 30,
                "attacks": [
                    {
                        "Death Kiss": {
                            "type": "melee",
                            "rng": 2,
                            "pow": 6,
                            "p+s": 12,
                            "weapon qualities": ["Damage Type: Magical"]
                        }
                    }
                ],
                "abilities": [
                    "Apparition",
                    "Ghostly",
                    "Henchmen [[Small-Based Bane]]",
                    "Irregulars [Bane Knight] (Bane Witch Agathia)",
                    "Soul Taker: Cull Soul"
                ],
                "feat": {
                    "name": "Shadowfall",
                    "flavor": "From her time in the void, Agathia learned mastery over darkness itself. She can create shadows so dark they serve as holes into reality, enabling her army to vanish in once place and reappear in another to take her enemies completely by surprise.",
                    "text": "Friendly Faction models/units currently in Agathia's control range are affected by Ghost Walk. While in Agathia's control range, friendly Faction models gain Stealth. Additionally, when a model in Agathia's battlegroup ends its activation in her control range, you can immediately place that model anywhere completely within 3\" of its location. Shadowfall lasts for one round."
                },
                "spells": [
                    "Ghost Walk",
                    "Hellfire",
                    "Hellwrought",
                    "Parasite",
                    "Vanish"
                ]
            }
        }
    ]
}
