{
    "name": "Bile Thralls",
    "edition": 3,
    "revision": "2021 v1",
    "keywords": [
        "Cryx",
        "Unit"
    ],
    "unit size": [
        {
            "min": [
                {"Leader": 1},
                {"Grunts": 5},
                {"point cost": 6}
            ]
        },
        {
            "max": [
                {"Leader": 1},
                {"Grunts": 9},
                {"point cost": 9}
            ]
        }
    ],
    "field allowance": 3,
    "models": [
        {
            "Leader & Grunts": {
                "spd": 5,
                "str": 4,
                "mat": 2,
                "rat": 3,
                "def": 10,
                "arm": 13,
                "cmd": 6,
                "boxes": 1,
                "advantages": ["Undead"],
                "base size": 30,
                "attacks": [
                    {
                        "Bile Cannon": {
                            "type": "ranged",
                            "rng": "SP 8",
                            "rof": 1,
                            "pow": 12,
                            "weapon qualities": [
                                "Continuous Effect: Corrosion",
                                "Damage Type: Corrosion"
                            ],
                            "abilities": ["Purge"]
                        }
                    }
                ]
            }
        }
    ]
}
