{
    "name": "Black Ogrun Ironmongers",
    "edition": 3,
    "revision": "2021 v1",
    "keywords": [
        "Cryx",
        "Unit"
    ],
    "unit size": [
        {
            "only": [
                {"Leader": 1},
                {"Grunts": 2},
                {"point cost": 5}
            ]
        }
    ],
    "field allowance": 2,
    "models": [
        {
            "Leader & Grunts": {
                "spd": 6,
                "str": 9,
                "mat": 6,
                "rat": 4,
                "def": 13,
                "arm": 15,
                "cmd": 7,
                "boxes": [
                    {"Model A": 5},
                    {"Model B": 5},
                    {"Model C": 5}
                ],
                "advantages": ["Tough"],
                "base size": 40,
                "attacks": [
                    {
                        "Tool": {
                            "type": "melee",
                            "rng": 1,
                            "pow": 3,
                            "p+s": 12
                        }
                    }
                ],
                "abilities": [
                    "Curse [Faction Warjacks]",
                    "Dismantle",
                    "Repair [d3 + 1]"
                ]
            }
        }
    ]
}
