{
    "name": "Brute Thrall",
    "edition": 3,
    "revision": "2021 v1",
    "keywords": [
        "Cryx",
        "Mechanithrall",
        "Weapon Attachment"
    ],
    "point cost": 2,
    "field allowance": "U",
    "models": [
        {
            "Brute Thrall": {
                "spd": 6,
                "str": 9,
                "mat": 6,
                "rat": 4,
                "def": 12,
                "arm": 14,
                "cmd": 5,
                "boxes": 8,
                "advantages": ["Undead"],
                "base size": 40,
                "attacks": [
                    {
                        "Heavy Steamfist": {
                            "type": "melee",
                            "rng": 1,
                            "pow": 5,
                            "p+s": 14,
                            "abilities": ["Combo Strike"]
                        }
                    },
                    {
                        "Heavy Steamfist": {
                            "type": "melee",
                            "rng": 1,
                            "pow": 5,
                            "p+s": 14,
                            "abilities": ["Combo Strike"]
                        }
                    }
                ],
                "abilities": [
                    "Attachment [Mechanithralls]",
                    "Shield Guard"
                ]
            }
        }
    ]
}
