{
    "name": "Deathripper",
    "edition": 3,
    "revision": "2021 v1",
    "keywords": [
        "Cryx",
        "Light",
        "Warjack"
    ],
    "point cost": 5,
    "field allowance": "U",
    "models": [
        {
            "Deathripper": {
                "spd": 7,
                "str": 7,
                "mat": 5,
                "rat": 5,
                "def": 14,
                "arm": 14,
                "advantages": [
                    "Arc Node",
                    "Construct"
                ],
                "base size": 40,
                "boxes": {
                    "grid": [
                        [4,1],
                        [5,1],
                        [6,1],
                        [4,2],
                        [5,2],
                        [6,2],
                        [3,3],
                        [4,3],
                        [5,3],
                        [6,3],
                        [3,4],
                        [4,4],
                        [5,4],
                        [6,4],
                        [4,5],
                        [5,5],
                        [6,5],
                        [4,6],
                        [5,6],
                        [6,6]
                    ],
                    "systems": [
                        {
                            "Head": [
                                [5,1],
                                [6,1],
                                [5,2]
                            ]
                        },
                        {
                            "Movement": [
                                [6,4],
                                [6,5],
                                [5,6],
                                [6,6]
                            ]
                        },
                        {
                            "Cortex": [
                                [6,2],
                                [5,3],
                                [6,3]
                            ]
                        },
                        {
                            "Arc Node": [
                                [5,4],
                                [5,5]
                            ]
                        }
                    ]
                },
                "attacks": [
                    {
                        "Mandibles": {
                            "type": "melee",
                            "loc": "H",
                            "rng": 0.5,
                            "pow": 5,
                            "p+s": 12,
                            "abilities": ["Sustained Attack"]
                        }
                    }
                ]
            }
        }
    ]
}
