{
    "name": "Iron Lich Overseer",
    "edition": 3,
    "revision": "2021 v1",
    "keywords": [
        "Cryx",
        "Solo"
    ],
    "point cost": 3,
    "field allowance": 2,
    "models": [
        {
            "Iron Lich Overseer": {
                "spd": 6,
                "str": 7,
                "mat": 6,
                "rat": 3,
                "def": 14,
                "arm": 16,
                "cmd": 9,
                "boxes": 8,
                "advantages": [
                    "Jack Marshall",
                    "Undead"
                ],
                "base size": 40,
                "attacks": [
                    {
                        "Fell Staff": {
                            "type": "melee",
                            "rng": 2,
                            "pow": 5,
                            "p+s": 12,
                            "weapon qualities": ["Damage Type: Magical"]
                        }
                    }
                ],
                "abilities": [
                    "Circular Vision",
                    "Drive: Dark Shroud",
                    {
                        "Magic Ability [7]": [
                            "Cloak of Darkness",
                            "Dark Fire"
                        ]
                    },
                    {
                        "Soul Taker: Soul Harvest": [
                            "Soul-Powered",
                            "Strength of Death"
                        ]
                    }
                ]
            }
        }
    ]
}
