{
    "name": "Jussika Bloodtongue",
    "edition": 3,
    "revision": "2021 v1",
    "keywords": [
        "Cryx",
        "Blighted",
        "Trollkin",
        "Bloodgorger",
        "Command Attachment"
    ],
    "point cost": 4,
    "field allowance": "C",
    "models": [
        {
            "Jussika 1": {
                "spd": 5,
                "str": 8,
                "mat": 7,
                "rat": 6,
                "def": 12,
                "arm": 17,
                "cmd": 9,
                "boxes": 5,
                "advantages": [
                    "Officer",
                    "Tough"
                ],
                "base size": 40,
                "attacks": [
                    {
                        "Blunderbuss": {
                            "type": "ranged",
                            "rng": 8,
                            "rof": 1,
                            "pow": 12
                        }
                    },
                    {
                        "Hand Weapon": {
                            "type": "melee",
                            "rng": 1,
                            "pow": 4,
                            "p+s": 12
                        }
                    },
                    {
                        "Hand Weapon": {
                            "type": "melee",
                            "rng": 1,
                            "pow": 4,
                            "p+s": 12
                        }
                    }
                ],
                "abilities": [
                    "Attachment [Blighted Trollkin]",
                    "Bloodthirst",
                    "Granted: Vengeance",
                    "No Sleeping On The Job [Blighted Trollkin]",
                    "Overtake",
                    "Tactics: Relentless Charge",
                    "Unyielding"
                ]
            }
        }
    ]
}
