{
    "name": "Leviathan",
    "edition": 3,
    "revision": "2021 v1",
    "keywords": [
        "Cryx",
        "Heavy",
        "Warjack"
    ],
    "point cost": 14,
    "field allowance": "U",
    "models": [
        {
            "Leviathan": {
                "spd": 5,
                "str": 12,
                "mat": 6,
                "rat": 5,
                "def": 12,
                "arm": 18,
                "advantages": [
                    "Amphibious",
                    "Construct",
                    "Pathfinder"
                ],
                "base size": 50,
                "boxes": {
                    "grid": [
                        [2,1],
                        [3,1],
                        [4,1],
                        [5,1],
                        [2,2],
                        [3,2],
                        [4,2],
                        [5,2],
                        [6,2],
                        [1,3],
                        [2,3],
                        [3,3],
                        [4,3],
                        [5,3],
                        [6,3],
                        [1,4],
                        [2,4],
                        [3,4],
                        [4,4],
                        [5,4],
                        [6,4],
                        [2,5],
                        [3,5],
                        [4,5],
                        [5,5],
                        [6,5],
                        [2,6],
                        [3,6],
                        [4,6],
                        [5,6]
                    ],
                    "systems": [
                        {
                            "Left Arm": [
                                [5,1],
                                [4,2],
                                [5,2]
                            ]
                        },
                        {
                            "Movement": [
                                [6,2],
                                [5,3],
                                [6,3]
                            ]
                        },
                        {
                            "Cortex": [
                                [5,4],
                                [6,4],
                                [6,5]
                            ]
                        },
                        {
                            "Right Arm": [
                                [4,5],
                                [5,5],
                                [5,6]
                            ]
                        }
                    ]
                },
                "attacks": [
                    {
                        "Spiker": {
                            "type": "ranged",
                            "loc": "L",
                            "rng": 13,
                            "rof": "d3",
                            "pow": 13,
                            "abilities": ["Volume Fire"]
                        }
                    },
                    {
                        "Crushing Claw": {
                            "type": "melee",
                            "loc": "R",
                            "rng": 1,
                            "pow": 5,
                            "p+s": 17,
                            "weapon qualities": ["Open Fist"]
                        }
                    }
                ],
                "abilities": ["Steady"]
            }
        }
    ]
}
