{
    "name": "Lich Lord Terminus",
    "edition": 3,
    "revision": "2021 v1",
    "keywords": [
        "Cryx",
        "Warcaster"
    ],
    "warjack points": 29,
    "field allowance": "C",
    "models": [
        {
            "Terminus 1": {
                "spd": 6,
                "str": 9,
                "mat": 7,
                "rat": 5,
                "def": 14,
                "arm": 18,
                "focus": 6,
                "cmd": 10,
                "boxes": 20,
                "advantages": [
                    "Assault",
                    "Flying",
                    "Undead"
                ],
                "base size": 50,
                "attacks": [
                    {
                        "Dragon Fire": {
                            "type": "ranged",
                            "rng": "SP 10",
                            "rof": 1,
                            "pow": 14,
                            "weapon qualities": [
                                "Continuous Effect: Corrosion",
                                "Damage Type: Corrosion"
                            ]
                        }
                    },
                    {
                        "Doomsayer": {
                            "type": "melee",
                            "rng": 2,
                            "pow": 7,
                            "p+s": 16,
                            "weapon qualities": ["Damage Type: Magical"]
                        }
                    },
                    {
                        "Scything Claw": {
                            "type": "melee",
                            "rng": 0.5,
                            "pow": 5,
                            "abilities": ["Critical Pitch"]
                        }
                    }
                ],
                "abilities": [
                    "Sacrificial Pawn [Undead Model]",
                    "Shadow of Death",
                    "Soul Taker: Cull Soul"
                ],
                "feat": {
                    "name": "Dragon's Call",
                    "flavor": "When Terminus calls upon Toruk's unholy name, he unleashes a dreadful howl that bathes the battlefield in malignant energy. The cacophony of evil devours the souls of the fallen while strengthening his own towering iron frame.",
                    "text": "When a living enemy model is destroyed in Terminus' control range, Terminus gains the destroyed model's soul token regardless of the proximity of other models. Terminus gains +1 for each would token on him. Dragons' call lasts for one round."
                },
                "spells": [
                    "Annihilation",
                    "Hellfire",
                    "Malediction",
                    "Ravager"
                ]
            }
        }
    ]
}
