{
    "name": "Lord Exhumator Scaverous",
    "edition": 3,
    "revision": "2016 v1",
    "keywords": [
        "Cryx",
        "Warcaster"
    ],
    "warjack points": 27,
    "field allowance": "C",
    "models": [
        {
            "Scaverous 1": {
                "spd": 6,
                "str": 8,
                "mat": 6,
                "rat": 4,
                "def": 14,
                "arm": 17,
                "focus": 7,
                "cmd": 7,
                "boxes": 18,
                "advantages": ["Undead"],
                "base size": 40,
                "attacks": [
                    {
                        "Avernus": {
                            "type": "melee",
                            "rng": 2,
                            "pow": 6,
                            "p+s": 14,
                            "weapon qualities": ["Damage Type: Magical"],
                            "abilities": ["Thresher"]
                        }
                    }
                ],
                "abilities": [
                    "Knowledge of the Damned",
                    "Soul Taker: Cull Soul"
                ],
                "feat": {
                    "name": "Black Gate",
                    "flavor": "Through profane rites known by only a few masters of necromancy, Lord Exhumator Scaverous tears an opening in the shroud between life and death to releast a backlash of foul energies inimical to life. This unholy surge empowers the magic of death wielded by his allies while hindering the feeble arcane efforts of his enemies.",
                    "text": "While in Scaverous' control range, friendly Faction models gain boosted magic attack rolls. When Scaverous casts a spell, reducte the COST of the spell by 1. When an enemy model casts a spell while in Scaverous' control range, increase the COST by 1. Black Gate lasts for one round."
                },
                "spells": [
                    "Death Ward",
                    "Excarnate",
                    "Feat of Worms",
                    "Icy Grip",
                    "Soul Harvester",
                    "Telekinesis"
                ]
            }
        }
    ]
}
