{
    "name": "Master Gurglepox",
    "edition": 3,
    "revision": "2019 v1",
    "keywords": [
        "Cryx",
        "Necrotech",
        "Solo"
    ],
    "point cost": 7,
    "field allowance": "C",
    "models": [
        {
            "Gurglepox 1": {
                "spd": 7,
                "str": 7,
                "mat": 6,
                "rat": 3,
                "def": 14,
                "arm": 14,
                "cmd": 5,
                "boxes": 15,
                "advantages": [
                    "Cavalry",
                    "Construct",
                    "Undead"
                ],
                "base size": 40,
                "attacks": [
                    {
                        "Scrap Saw": {
                            "type": "melee",
                            "rng": 1,
                            "pow": 6,
                            "p+s": 13,
                            "abilities": ["Critical Shred"]
                        }
                    },
                    {
                        "Mount": {
                            "type": "melee",
                            "rng": 0.5,
                            "pow": 12
                        }
                    }
                ],
                "abilities": [
                    "Channeler [Friendly Faction Warcaster]",
                    "Dismantle",
                    "Dodge",
                    "Leadership [Faction Light Warjack]",
                    "Repair [d3+1]",
                    "Reposition [3\"]",
                    "Steady"
                ]
            }
        }
    ]
}
