{
    "name": "Master Necrotech Mortenebra",
    "edition": 3,
    "revision": "2021 v2",
    "keywords": [
        "Cryx",
        "Warcaster"
    ],
    "warjack points": 28,
    "field allowance": "C",
    "models": [
        {
            "Mortenebra 1": {
                "spd": 6,
                "str": 7,
                "mat": 6,
                "rat": 4,
                "def": 15,
                "arm": 16,
                "focus": 7,
                "cmd": 8,
                "boxes": 16,
                "advantages": [
                    "Construct",
                    "Undead"
                ],
                "base size": 40,
                "attacks": [
                    {
                        "Scavengers": {
                            "type": "melee",
                            "rng": 2,
                            "pow": 5,
                            "p+s": 12,
                            "weapon qualities": ["Damage Type: Magical"]
                        }
                    },
                    {
                        "Scavengers": {
                            "type": "melee",
                            "rng": 2,
                            "pow": 5,
                            "p+s": 12,
                            "weapon qualities": ["Damage Type: Magical"]
                        }
                    }
                ],
                "abilities": [
                    "Interface",
                    "Repair [d3 + 3]",
                    "Soul Taker: Cull Soul",
                    "Steady"
                ],
                "feat": {
                    "name": "Recalibration",
                    "flavor": "Master Necrotech Mortenebra is a virttuoso of the twisted occult science that gave rise to the war machines of Cryx. By extending her power she can impart mechanical perfection to her entire army to maximize their killing efficiency. Though some would protest that the walking dead need no encouragement for slaughter, Mortenebra contends there is always room for improvement.",
                    "text": "While in Mortenebra's control range, friendly Faction models can reroll attack and damage rolls this turn. Each roll can be rerolled only once as a result of Recalibration."
                },
                "spells": [
                    "Doom Spiral",
                    "Jumpstart",
                    "Overrun",
                    "Sacrificial Lamb",
                    "Spectral Steel",
                    "Void Gate"
                ]
            }
        }
    ]
}
