{
    "name": "Mechanithralls",
    "edition": 3,
    "revision": "2017 v1",
    "keywords": [
        "Cryx",
        "Thrall",
        "Unit"
    ],
    "unit size": [
        {
            "min": [
                {"Leader": 1},
                {"Grunts": 5},
                {"point cost": 6}
            ]
        },
        {
            "max": [
                {"Leader": 1},
                {"Grunts": 9},
                {"point cost": 9}
            ]
        }
    ],
    "field allowance": "U",
    "models": [
        {
            "Leader & Grunts": {
                "spd": 6,
                "str": 7,
                "mat": 5,
                "rat": 4,
                "def": 12,
                "arm": 12,
                "cmd": 6,
                "boxes": 1,
                "advantages": ["Undead"],
                "base size": 30,
                "attacks": [
                    {
                        "Steamfist": {
                            "type": "melee",
                            "rng": 0.5,
                            "pow": 3,
                            "p+s": 10,
                            "abilities": ["Combo Strike"]
                        }
                    },
                    {
                        "Steamfist": {
                            "type": "melee",
                            "rng": 0.5,
                            "pow": 3,
                            "p+s": 10,
                            "abilities": ["Combo Strike"]
                        }
                    }
                ]
            }
        }
    ]
}
