{
    "name": "Necrosurgeon & Stitch Thralls",
    "edition": 3,
    "revision": "2021 v1",
    "keywords": [
        "Cryx",
        "Thrall",
        "Unit"
    ],
    "unit size": [
        {
            "only": [
                {"Necrosurgeon": 1},
                {"Grunts": 3},
                {"point cost": 2}
            ]
        }
    ],
    "field allowance": 2,
    "models": [
        {
            "Necrosurgeon": {
                "spd": 6,
                "str": 4,
                "mat": 5,
                "rat": 4,
                "def": 14,
                "arm": 12,
                "cmd": 7,
                "boxes": 5,
                "advantages": [
                    "Officer",
                    "Undead"
                ],
                "base size": 30,
                "attacks": [
                    {
                        "Gut Splitter": {
                            "type": "melee",
                            "rng": 0.5,
                            "pow": 5,
                            "p+s": 9
                        }
                    }
                ],
                "abilities": [
                    "Body Snatcher",
                    "Necrosurgery",
                    "Resurrectionist",
                    "Sacrificail Pawn [Thrall]"
                ]
            }
        },
        {
            "Stitch Thrall Grunts": {
                "spd": 6,
                "str": 4,
                "mat": 3,
                "rat": 4,
                "def": 14,
                "arm": 12,
                "cmd": 7,
                "boxes": 1,
                "advantages": ["Undead"],
                "base size": 30
            }
        }
    ]
}
