{
    "name": "Satyxis Blood Witches",
    "edition": 3,
    "revision": "2021 v1",
    "keywords": [
        "Cryx",
        "Unit"
    ],
    "unit size": [
        {
            "min": [
                {"Leader": 1},
                {"Grunts": 5},
                {"point cost": 7}
            ]
        },
        {
            "max": [
                {"Leader": 1},
                {"Grunts": 9},
                {"point cost": 11}
            ]
        }
    ],
    "field allowance": 2,
    "models": [
        {
            "Leader & Grunts": {
                "spd": 6,
                "str": 5,
                "mat": 6,
                "rat": 4,
                "def": 13,
                "arm": 12,
                "cmd": 7,
                "boxes": 1,
                "advantages": ["Stealth"],
                "base size": 30,
                "attacks": [
                    {
                        "Blood Razor": {
                            "type": "melee",
                            "rng": 0.5,
                            "pow": 5,
                            "p+s": 10,
                            "weapon qualities": ["Damage Type: Magical"],
                            "abilities": [
                                {
                                    "Attack Type": [
                                        "Blood Shadow",
                                        "Death Strike",
                                        "Grievous Wounds"
                                    ]
                                }
                            ]
                        }
                    },
                    {
                        "Horns": {
                            "type": "melee",
                            "rng": 0.5,
                            "pow": 3,
                            "p+s": 8,
                            "abilities": ["Critical Knockdown"]
                        }
                    }
                ],
                "abilities": ["Gang"]
            }
        }
    ]
}
