{
    "name": "Scavenger",
    "edition": 3,
    "revision": "2021 v1",
    "keywords": [
        "Cryx",
        "Light",
        "Warjack"
    ],
    "point cost": 6,
    "field allowance": "U",
    "models": [
        {
            "Scavenger": {
                "spd": 7,
                "str": 7,
                "mat": 7,
                "rat": 4,
                "def": 15,
                "arm": 13,
                "advantages": [
                    "Construct",
                    "Flight"
                ],
                "base size": 40,
                "boxes": {
                    "grid": [
                        [4,1],
                        [5,1],
                        [3,2],
                        [4,2],
                        [5,2],
                        [6,2],
                        [3,3],
                        [4,3],
                        [5,3],
                        [6,3],
                        [3,4],
                        [4,4],
                        [5,4],
                        [6,4],
                        [3,5],
                        [4,5],
                        [5,5],
                        [6,5],
                        [4,6],
                        [5,6]
                    ],
                    "systems": [
                        {
                            "Head": [
                                [5,1],
                                [6,2],
                                [6,3]
                            ]
                        },
                        {
                            "Movement": [
                                [6,4],
                                [6,5],
                                [5,6]
                            ]
                        },
                        {
                            "Cortex": [
                                [5,2],
                                [5,3],
                                [5,4],
                                [5,5]
                            ]
                        }
                    ]
                },
                "attacks": [
                    {
                        "Snapping Jaws": {
                            "type": "melee",
                            "loc": "H",
                            "rng": 0.5,
                            "pow": 4,
                            "p+s": 11,
                            "abilities": ["Assimilation"]
                        }
                    }
                ],
                "abilities": [
                    "Finisher",
                    "Sprint"
                ]
            }
        }
    ]
}
