{
    "name": "Scharde Pirates",
    "edition": 3,
    "revision": "2021 v1",
    "keywords": [
        "Cryx",
        "Unit"
    ],
    "unit size": [
        {
            "min": [
                {"Leader": 1},
                {"Grunts": 5},
                {"point cost": 8}
            ]
        },
        {
            "max": [
                {"Leader": 1},
                {"Grunts": 9},
                {"point cost": 13}
            ]
        }
    ],
    "field allowance": "U",
    "models": [
        {
            "Leader & Grunts": {
                "spd": 6,
                "str": 6,
                "mat": 5,
                "rat": 5,
                "def": 13,
                "arm": 11,
                "cmd": 7,
                "boxes": 1,
                "advantages": [
                    "Assault",
                    "Tough"
                ],
                "base size": 30,
                "attacks": [
                    {
                        "Deck Sweeper": {
                            "type": "ranged",
                            "rng": "SP 6",
                            "rof": 1,
                            "pow": 12,
                            "weapon qualities": ["Critical Continuous Fire"]
                        }
                    },
                    {
                        "Hand Weapon": {
                            "type": "melee",
                            "rng": 0.5,
                            "pow": 3,
                            "p+s": 9
                        }
                    }
                ],
                "abilities": ["Gang"]
            }
        }
    ]
}
