{
    "name": "Seether",
    "edition": 3,
    "revision": "2021 v2",
    "keywords": [
        "Cryx",
        "Heavy",
        "Warjack"
    ],
    "point cost": 12,
    "field allowance": "U",
    "models": [
        {
            "Seether": {
                "spd": 6,
                "str": 10,
                "mat": 8,
                "rat": 5,
                "def": 12,
                "arm": 17,
                "advantages": ["Construct"],
                "base size": 50,
                "boxes": {
                    "grid": [
                        [3,1],
                        [4,1],
                        [5,1],
                        [2,2],
                        [3,2],
                        [4,2],
                        [5,2],
                        [6,2],
                        [1,3],
                        [2,3],
                        [3,3],
                        [4,3],
                        [5,3],
                        [6,3],
                        [1,4],
                        [2,4],
                        [3,4],
                        [4,4],
                        [5,4],
                        [6,4],
                        [2,5],
                        [3,5],
                        [4,5],
                        [5,5],
                        [6,5],
                        [3,6],
                        [4,6],
                        [5,6]
                    ],
                    "systems": [
                        {
                            "Left Arm": [
                                [5,1],
                                [4,2],
                                [5,2]
                            ]
                        },
                        {
                            "Movement": [
                                [6,2],
                                [5,3],
                                [6,3]
                            ]
                        },
                        {
                            "Cortex": [
                                [5,4],
                                [6,4],
                                [6,5]
                            ]
                        },
                        {
                            "Right Arm": [
                                [4,5],
                                [5,5],
                                [5,6]
                            ]
                        }
                    ]
                },
                "attacks": [
                    {
                        "Talon": {
                            "type": "melee",
                            "loc": "L",
                            "rng": 1,
                            "pow": 7,
                            "p+s": 17,
                            "weapon qualities": ["Open Fist"]
                        }
                    },
                    {
                        "Talon": {
                            "type": "melee",
                            "loc": "R",
                            "rng": 1,
                            "pow": 7,
                            "p+s": 17,
                            "weapon qualities": ["Open Fist"]
                        }
                    },
                    {
                        "Tusks": {
                            "type": "melee",
                            "rng": 1,
                            "pow": 2,
                            "p+s": 12,
                            "abilities": ["Hard Head"]
                        }
                    }
                ],
                "abilities": [
                    "Berserk",
                    "Countercharge",
                    "Uncontrollable Rage"
                ]
            }
        }
    ]
}
