{
    "name": "Wraith Engine",
    "edition": 3,
    "revision": "2017 v2",
    "keywords": [
        "Cryx",
        "Battle Engine"
    ],
    "point cost": 15,
    "field allowance": 2,
    "models": [
        {
            "Wraith Engine": {
                "spd": 7,
                "str": 10,
                "mat": 7,
                "rat": 4,
                "def": 12,
                "arm": 18,
                "cmd": 10,
                "boxes": 26,
                "advantages": [
                    "Construct",
                    "Incorporeal",
                    "Undead"
                ],
                "base size": 120,
                "attacks": [
                    {
                        "Scything Blade": {
                            "type": "melee",
                            "field of fire": "Left",
                            "loc": "L",
                            "rng": 2,
                            "pow": 5,
                            "p+s": 15
                        }
                    },
                    {
                        "Scything Blade": {
                            "type": "melee",
                            "field of fire": "Right",
                            "loc": "R",
                            "rng": 2,
                            "pow": 5,
                            "p+s": 15
                        }
                    }
                ],
                "abilities": [
                    "Dark Shroud",
                    "Inscrutable",
                    "Rapid Strike",
                    "Soul Bondage",
                    "Unhallowed"
                ]
            }
        }
    ]
}
