{
    "name": "Wraith Witch Deneghra",
    "edition": 3,
    "revision": "2018 v1",
    "keywords": [
        "Cryx",
        "Warcaster"
    ],
    "warjack points": 28,
    "field allowance": "C",
    "models": [
        {
            "Deneghra 2": {
                "spd": 7,
                "str": 5,
                "mat": 6,
                "rat": 4,
                "def": 16,
                "arm": 15,
                "focus": 7,
                "cmd": 8,
                "boxes": 16,
                "advantages": [
                    "Parry",
                    "Undead"
                ],
                "base size": 30,
                "attacks": [
                    {
                        "Eclipse": {
                            "type": "melee",
                            "rng": 2,
                            "pow": 7,
                            "p+s": 12,
                            "weapon qualities": ["Damage Type: Magical"],
                            "abilities": ["Dark Banishment"]
                        }
                    }
                ],
                "abilities": [
                    "Soul Taker: Cull Soul",
                    "Wraith Walker"
                ],
                "feat": {
                    "name": "Web of Shadows",
                    "flavor": "Deneghra's tenebrous powers reached their apex upon her death. Now the Wraith Witch can call upon the power of darkness itself to compel her warriors to join her as spectral beings, rendering the weapons of their foes impotent.",
                    "text": "Choose d3 + 3 friendly non-warcaster Faction models currently in Deneghra's control range. The chosen models gain Incorporeal for one round."
                },
                "spells": [
                    "Breath Stealer",
                    "Curse of Shadows",
                    "Damnation",
                    "Hellmouth",
                    "Shadow Step",
                    "Venom"
                ]
            }
        }
    ]
}
