{
    "name": "Infiltration",
    "type": "Command Card",
    "point cost": 0,
    "text": "Play this card any time during the activation of one of your warrior models/units. Those models gain Stealth for one round."
}
