{
    "name": "Deliverer Skyhammers",
    "edition": 3,
    "revision": "2021 v1",
    "keywords": [
        "Protectorate",
        "Unit"
    ],
    "unit size": [
        {
            "min": [
                {"Leader": 1},
                {"Grunts": 5},
                {"point cost": 7}
            ]
        },
        {
            "max": [
                {"Leader": 1},
                {"Grunts": 9},
                {"point cost": 11}
            ]
        }
    ],
    "field allowance": 2,
    "models": [
        {
            "Leader & Grunts": {
                "spd": 5,
                "str": 4,
                "mat": 4,
                "rat": 5,
                "def": 12,
                "arm": 11,
                "cmd": 7,
                "boxes": 1,
                "advantages": ["Combined Ranged Attack"],
                "base size": 30,
                "attacks": [
                    {
                        "Skyhammer": {
                            "type": "ranged",
                            "rng": 16,
                            "rof": 1,
                            "aoe": 3,
                            "pow": 10,
                            "abilities": [
                                "Arcing Fire",
                                "Inaccurate"
                            ]
                        }
                    },
                    {
                        "Sword": {
                            "type": "melee",
                            "rng": 0.5,
                            "pow": 3,
                            "p+s": 7
                        }
                    }
                ],
                "abilities": ["Rocket Volley"]
            }
        }
    ]
}
