{
    "name": "Exemplar Cinerators",
    "edition": 3,
    "keywords": [
        "Protectorate",
        "Unit"
    ],
    "unit size": [
        {
            "min": [
                {"Leader": 1},
                {"Grunts": 2},
                {"point cost": 8}
            ]
        },
        {
            "max": [
                {"Leader": 1},
                {"Grunts": 4},
                {"point cost": 13}
            ]
        }
    ],
    "field allowance": 2,
    "models": [
        {
            "Leader & Grunts": {
                "spd": 4,
                "str": 7,
                "mat": 7,
                "rat": 4,
                "def": 11,
                "arm": 17,
                "cmd": 8,
                "boxes": [
                    {"Model A": 5},                    
                    {"Model B": 5},                    
                    {"Model C": 5},                    
                    {"Model D": 5},                    
                    {"Model E": 5}                    
                ],
                "advantages": ["Immunity: Fire"],
                "base size": 40,
                "attacks": [
                    {
                        "Blazing Sword": {
                            "type": "melee",
                            "rng": 2,
                            "pow": 4,
                            "p+s": 11,
                            "weapon qualities": [
                                "Continuous Effect: Fire",
                                "Damage Type: Magical",
                                "Weapon Master"
                            ]
                        }
                    }
                ],
                "abilities": ["Vengeance"]
            }
        }
    ]
}
