{
    "name": "Exemplar Errant Seneschal",
    "edition": 3,
    "keywords": [
        "Protectorate",
        "Solo"
    ],
    "point cost": 3,
    "field allowance": 2,
    "models": [
        {
            "Seneschal": {
                "spd": 5,
                "str": 6,
                "mat": 8,
                "rat": 7,
                "def": 12,
                "arm": 16,
                "cmd": 10,
                "boxes": 5,
                "advantages": [
                    "Advance Deploy",
                    "Pathfinder"
                ],
                "base size": 30,
                "attacks": [
                    {
                        "Heavy Crossbow": {
                            "type": "ranged",
                            "rng": 10,
                            "rof": 1,
                            "pow": 10,
                            "weapon qualities": [
                                "Blessed",
                                "Damage Type: Magical"
                            ]
                        }
                    },
                    {
                        "Sword": {
                            "type": "melee",
                            "rng": 0.5,
                            "pow": 3,
                            "p+s": 9,
                            "weapon qualities": ["Weapon Master"]
                        }
                    }
                ],
                "abilities": [
                    "Call To Sacrifice [Exemplar Errant Trooper]",
                    "Leadership [Exemplar Errants]",
                    "Quick Work",
                    "Unyielding"
                ]
            }
        }
    ]
}
