{
    "name": "Eye of Truth",
    "edition": 3,
    "revision": "2021 v1",
    "keywords": [
        "Protectorate",
        "Heavy",
        "Warjack"
    ],
    "point cost": 17,
    "field allowance": "C",
    "models": [
        {
            "Eye of Truth 1": {
                "spd": 5,
                "str": 11,
                "mat": 7,
                "rat": 6,
                "def": 10,
                "arm": 19,
                "advantages": [
                    "Construct",
                    "Immunity: Fire"
                ],
                "base size": 50,
                "boxes": {
                    "grid": [
                        [2,1],
                        [3,1],
                        [4,1],
                        [5,1],
                        [1,2],
                        [2,2],
                        [3,2],
                        [4,2],
                        [5,2],
                        [6,2],
                        [1,3],
                        [2,3],
                        [3,3],
                        [4,3],
                        [5,3],
                        [6,3],
                        [1,4],
                        [2,4],
                        [3,4],
                        [4,4],
                        [5,4],
                        [6,4],
                        [1,5],
                        [2,5],
                        [3,5],
                        [4,5],
                        [5,5],
                        [6,5],
                        [2,6],
                        [3,6],
                        [4,6],
                        [5,6]
                    ],
                    "systems": [
                        {
                            "Left Arm": [
                                [5,1],
                                [4,2],
                                [5,2]
                            ]
                        },
                        {
                            "Movement": [
                                [6,2],
                                [5,3],
                                [6,3]
                            ]
                        },
                        {
                            "Head": [
                                [4,3],
                                [4,4]
                            ]
                        },
                        {
                            "Cortex": [
                                [5,4],
                                [6,4],
                                [6,5]
                            ]
                        },
                        {
                            "Right Arm": [
                                [4,5],
                                [5,5],
                                [5,6]
                            ]
                        }
                    ]
                },
                "attacks": [
                    {
                        "Gaze of Justice": {
                            "type": "ranged",
                            "loc": "H",
                            "rng": 8,
                            "rof": 1,
                            "pow": 14,
                            "weapon qualities": [
                                "Continuous Effect: Fire",
                                "Damage Type: Fire",
                                "Damage Type: Magical"
                            ]
                        }
                    },
                    {
                        "Shield": {
                            "type": "melee",
                            "loc": "L",
                            "rng": 1,
                            "pow": 2,
                            "p+s": 13,
                            "weapon qualities": ["Shield"]
                        }
                    },
                    {
                        "Holy Wrath": {
                            "type": "melee",
                            "loc": "R",
                            "rng": 2,
                            "pow": 7,
                            "p+s": 18,
                            "weapon qualities": [
                                "Continuous Effect: Fire",
                                "Damage Type: Magical"
                            ],
                            "abilities": ["Flame Burst"]
                        }
                    }
                ],
                "abilities": [
                    "Ashen Veil",
                    "Bond [Malekus]",
                    "Holy Light",
                    "Oracular Vision"
                ]
            }
        }
    ]
}
