{
    "name": "Feora the Forsaken",
    "edition": 3,
    "revision": "2020 v1",
    "keywords": [
        "Protectorate Warcaster"
    ],
    "warjack points": 28,
    "field allowance": "C",
    "models": [
        {
            "Feora 4": {
                "spd": 6,
                "str": 7,
                "mat": 7,
                "rat": 5,
                "def": 15,
                "arm": 17,
                "focus": 6,
                "cmd": 9,
                "boxes": 16,
                "advantages": ["Immunity: Corrosion"],
                "base size": 30,
                "attacks": [
                    {
                        "Flamesaw": {
                            "type": "melee",
                            "rng": 1,
                            "pow": 5,
                            "p+s": 12,
                            "weapon qualities": [
                                "Continuous Effect: Fire",
                                "Damage Type: Magical"
                            ],
                            "abilities": ["Critical Shred"]
                        }
                    }
                ],
                "abilities": [
                    "Field Marshal [Aggressive]",
                    "Hatred",
                    "Spite",
                    "Resourceful",
                    "Watch The World Burn"
                ],
                "feat": {
                    "name": "Burnt Out",
                    "flavor": "In a moment of unbridled rage, Feora pours her seething anger directly into the cortexes of the warjacks at her command. A few mechanical twitches and gouts of vented steam are the only warning the enemy receives before each of these warjacks erupts into a blazing effigy.",
                    "text": "Enemy models currently within 3\" of one or more warjacks in Feora's battlegroup in her control range suffer an unboostable POW 13 fire damage roll and the Fire continuous effect."
                },
                "spells": [
                    "Death March",
                    "Firestarter",
                    "Hellwrought",
                    "Road To War",
                    "Scorn"
                ]
            }
        }
    ]
}
