{
    "name": "Grand Scrutator Severius",
    "edition": 3,
    "revision": "2016 v1",
    "keywords": [
        "Protectorate",
        "Warcaster"
    ],
    "warjack points": 28,
    "field allowance": "C",
    "models": [
        {
            "Severius 1": {
                "spd": 5,
                "str": 5,
                "mat": 4,
                "rat": 4,
                "def": 14,
                "arm": 14,
                "focus": 8,
                "cmd": 9,
                "boxes": 16,
                "base size": 30,
                "attacks": [
                    {
                        "Staff of Judgment": {
                            "type": "melee",
                            "rng": 2,
                            "pow": 8,
                            "p+s": 13,
                            "weapon qualities": ["Damage Type: Magical"]
                        }
                    }
                ],
                "abilities": [
                    "Eye of Menoth",
                    "Sacred Ward"
                ],
                "feat": {
                    "name": "Divine Might",
                    "flavor": "Endowed with the authority to pass judgment on his fellow man, Grand Scrutator Severius may invoke the prohibition of Menoth to deny the use of profane magic in his presence.",
                    "text": "While in Severius' control range, enemy models cannot cast spells or be used to channel spells and enemy warcaster/warlock models suffer -2 FOCUS and FURY. Divine Might lasts for one round."
                },
                "spells": [
                    "Ashes to Ashes",
                    "Death Sentence",
                    "Defender's Ward",
                    "Immolation",
                    "Influence",
                    "Vision"
                ]
            }
        }
    ]
}
