{
    "name": "Grand Exemplar Kreoss",
    "edition": 3,
    "version": "2018 v1",
    "keywords": [
        "Protectorate",
        "Warcaster"
    ],
    "warjack points": 28,
    "field allowance": "C",
    "models": [
        {
            "Kreoss 2": {
                "spd": 5,
                "str": 7,
                "mat": 8,
                "rat": 4,
                "def": 14,
                "arm": 17,
                "focus": 7,
                "cmd": 10,
                "boxes": 18,
                "advantages": [
                    "Tough"
                ],
                "base size": 30,
                "attacks": [
                    {
                        "Justifier": {
                            "type": "melee",
                            "rng": 2,
                            "pow": 7,
                            "p+s": 14,
                            "weapon qualities": ["Damage Type: Magical"],
                            "abilities": [
                                "Life Trader",
                                "Smite"
                            ]
                        }
                    }
                ],
                "abilities": [
                    "Imperishable Conviction",
                    "Paragon of the Faith"
                ],
                "feat": {
                    "name":"Strength of Arms",
                    "flavor": "In battle Grand Exemplar Kreoss issues commands underscored by a righteousness impossible to ignore. Following his divine example, Kreoss' forces push themselves beyond normal limitations.",
                    "text":"When a friendly Faction model makes a melee attack against an enemy model while the enemy model is in Kreoss' control range, friendly Faction models can make one additional melee attack during their Combat Actions. Strength of Arms lasts for one turn."
                },
                "spells": [
                    "Battle-Charged",
                    "Castigate",
                    "Chasten",
                    "Cleansing Fire",
                    "Inviolable Resolve",
                    "Sacrosanct"
                ]
            }
        }
    ]
}
