{
    "name": "High Allegiant Amon Ad-Raza",
    "edition": 3,
    "revision": "2016 v1",
    "keywords": [
        "Protectorate",
        "Warcaster"
    ],
    "warjack points": 29,
    "field allowance": "C",
    "models": [
        {
            "Amon 1": {
                "spd": 6,
                "str": 8,
                "mat": 7,
                "rat": 4,
                "def": 16,
                "arm": 14,
                "focus": 6,
                "cmd": 8,
                "boxes": 17,
                "advantages": [
                    "Parry",
                    "Pathfinder",
                    "Tough"
                ],
                "base size": 30,
                "attacks": [
                    {
                        "Oblivion": {
                            "type": 2,
                            "rng": 6,
                            "pow": 14,
                            "weapon qualities": [
                                "Chain Weapon",
                                "Damage Type: Magical"
                            ],
                            "abilities": ["Trip"]
                        }
                    }
                ],
                "abilities": [
                    "Field Marshal [Parry]",
                    "Preternatural Reflexes",
                    "Resourceful",
                    "Steady"
                ],
                "feat": {
                    "name": "Union",
                    "flavor": "His spirit always centered even in the heat of battle, High Allegiant Amon Ad-Raza is able to open his mind utterly to the warjacks of his battlegroup. When the time comes, his calm erupts into a terrible storm that washes away all who would stand against him.",
                    "text": "For each focus point Amon spends this activation, allocate 1 focus point to a warjack in his battlegroup that was in his control range when he spent the focus."
                },
                "spells": [
                    "Convection",
                    "Flashing Blade",
                    "Fortify",
                    "Mobility",
                    "Synergy"
                ]
            }
        }
    ]
}
