{
    "name": "Malekus, The Burning Truth",
    "edition": 3,
    "revision": "2020 v1",
    "keywords": [
        "Protectorate",
        "Warcaster"
    ],
    "warjack points": 30,
    "field allowance": "C",
    "models": [
        {
            "Malekus 1": {
                "spd": 5,
                "str": 7,
                "mat": 6,
                "rat": 6,
                "def": 14,
                "arm": 16,
                "focus": 7,
                "cmd": 9,
                "boxes": 18,
                "advantages": ["Immunity: Fire"],
                "base size": 40,
                "attacks": [
                    {
                        "Scouring Flames": {
                            "type": "ranged",
                            "rng": "SP 10",
                            "rof": 1,
                            "pow": 13,
                            "weapon qualities": [
                                "Continuous Effect: Fire",
                                "Damage Type: Fire"
                            ]
                        }
                    },
                    {
                        "Burning Blades": {
                            "type": "melee",
                            "rng": 1,
                            "pow": 5,
                            "p+s": 12,
                            "weapon qualities": ["Continuous Effect: Fire"]
                        }
                    }
                ],
                "abilities": [
                    "Ashen Veil",
                    {
                        "Divine Passages": [
                            "Fable of Ash",
                            "Hymn of Might",
                            "Verse of Cinders"
                        ]
                    }
                ],
                "feat": {
                    "name": "Raging Inferno",
                    "flavor": "Few Menites have hearts as filled with righteous conviction as Malekus, the Burning Truth. When he unleashes the cleansing fires of judgment, flames leap ever higher and their roar becomes a chorus that is silenced only once the faithless have been consumed",
                    "text": "When an enemy model suffers a fire damage roll while in Malekus' control range, add an additional die to the damage roll. Additionally, Fire continuous effects that affect enemy models in Malekus' control range cannot expire. Ragin Inferno lasts for one round."
                },
                "spells": [
                    "Banishing Ward",
                    "Brand of Fire",
                    "Ignite",
                    "Open Fire",
                    "Scourge"
                ]
            }
        }
    ]
}
