{
    "name": "Monolith Bearer",
    "edition": 3,
    "revision": "2021 v1",
    "keywords": [
        "Protectorate",
        "Holy Zealot",
        "Command Attachment"
    ],
    "point cost": 2,
    "field allowance": 3,
    "models": [
        {
            "Bearer": {
                "spd": 6,
                "str": 6,
                "mat": 5,
                "rat": 4,
                "def": 12,
                "arm": 12,
                "cmd": 8,
                "boxes": 5,
                "advantages": ["Officer"],
                "base size": 30,
                "attacks": [
                    {
                        "Mace": {
                            "type": "melee",
                            "rng": 0.5,
                            "pow": 3,
                            "p+s": 9
                        }
                    }
                ],
                "abilities": [
                    "Attachment [Holy Zealot]",
                    "Greater Destiny",
                    "Holy Monolith",
                    "Sacrificial Pawn [Holy Zealot]"
                ]
            }
        }
    ]
}
