{
    "name": "Repenter",
    "edition": 3,
    "version": "2021 v1",
    "keywords": [
        "Protectorate",
        "Light",
        "Warjack"
    ],
    "point cost": 7,
    "field allowance": "U",
    "models": [
        {
            "Repenter": {
                "spd": 5,
                "str": 9,
                "mat": 6,
                "rat": 5,
                "def": 12,
                "arm": 17,
                "advantages": ["Construct"],
                "base size": 40,
                "boxes": {
                    "grid": [
                        [3,1],
                        [4,1],
                        [5,1],
                        [2,2],
                        [3,2],
                        [4,2],
                        [5,2],
                        [6,2],
                        [2,3],
                        [3,3],
                        [4,3],
                        [5,3],
                        [6,3],
                        [2,4],
                        [3,4],
                        [4,4],
                        [5,4],
                        [6,4],
                        [2,5],
                        [3,5],
                        [4,5],
                        [5,5],
                        [6,5],
                        [3,6],
                        [4,6],
                        [5,6]
                    ],
                    "systems": [
                        {
                            "Left Arm": [
                                [5,1],
                                [4,2],
                                [5,2]
                            ]
                        },
                        {
                            "Movement": [
                                [6,2],
                                [5,3],
                                [6,3]
                            ]
                        },
                        {
                            "Cortex": [
                                [5,4],
                                [6,4],
                                [6,5]
                            ]
                        },
                        {
                            "Right Arm": [
                                [4,5],
                                [5,5],
                                [5,6]
                            ]
                        }
                    ]
                },
                "attacks": [
                    {
                        "Flamethrower": {
                            "type": "ranged",
                            "loc": "L",
                            "rng": "SP 8",
                            "rof": 1,
                            "pow": 12,
                            "weapon qualities": [
                                "Continuous Effect: Fire",
                                "Damage Type: Fire"
                            ]
                        },
                        "War Flail": {
                            "type": "melee",
                            "loc": "R",
                            "rng": 1,
                            "pow": 4,
                            "p+s": 13,
                            "weapon qualities": ["Chain Weapon"]
                        }
                    }
                ]
            }
        }
    ]
}
