{
    "name": "Temple Flameguard Officer & Standard",
    "edition": 3,
    "revision": "2021 v1",
    "keywords": [
        "Protectorate",
        "Command Attachment"
    ],
    "point cost": 3,
    "field allowance": "U",
    "models": [
        {
            "Officer": {
                "spd": 6,
                "str": 6,
                "mat": 7,
                "rat": 4,
                "def": 13,
                "arm": 13,
                "cmd": 7,
                "boxes": 5,
                "advantages": [
                    "Combined Melee Attack",
                    "Officer"
                ],
                "base size": 30,
                "attacks": [
                    {
                        "Flame Spear": {
                            "type": "melee",
                            "rng": 2,
                            "pow": 5,
                            "p+s": 11,
                            "weapon qualities": ["Critical Effect Fire"]
                        }
                    }
                ],
                "abilities": [
                    "Attachment [Temple Flameguard]",
                    "Granted: Practiced Maneuvers",
                    "Iron Zeal",
                    "Relentless Charge",
                    "Set Defense"
                ]
            }
        },
        {
            "Standard Bearer": {
                "spd": 6,
                "str": 6,
                "mat": 6,
                "rat": 4,
                "def": 13,
                "arm": 13,
                "cmd": 7,
                "boxes": 5,
                "base size": 30,
                "abilities": [
                    "Attachment [Temple Flameguard]",
                    "Standard Bearer",
                    "Take Up"
                ]
            }
        }
    ]
}
