{
    "name": "Temple Flameguard",
    "edition": 3,
    "revision": "2021 v1",
    "keywords": [
        "Protectorate",
        "Unit"
    ],
    "unit size": [
        {
            "min": [
                {"Leader": 1},
                {"Grunts": 5},
                {"point cost": 7}
            ]
        },
        {
            "max": [
                {"Leader": 1},
                {"Grunts": 9},
                {"point cost": 11}
            ]
        }
    ],
    "field allowance": "U",
    "models": [
        {
            "Leader & Grunts": {
                "spd": 6,
                "str": 6,
                "mat": 6,
                "rat": 4,
                "def": 13,
                "arm": 13,
                "cmd": 7,
                "boxes": 1,
                "advantages": ["Combined Melee Attack"],
                "base size": 30,
                "attacks": [
                    {
                        "Flame Spear": {
                            "type": "melee",
                            "rng": 2,
                            "pow": 5,
                            "p+s": 11,
                            "weapon qualities": ["Critical Continuous Fire"]
                        }
                    }
                ],
                "abilities": [
                    "Relentless Charge",
                    "Set Defense",
                    "Shield Wall (Order)"
                ]
            }
        }
    ]
}
