{
    "name": "Vassal Mechanik",
    "edition": 3,
    "revision": "2021 v1",
    "keywords": [
        "Protectorate",
        "Solo"
    ],
    "point cost": 1,
    "field allowance": 3,
    "models": [
        {
            "Mechanik": {
                "spd": 5,
                "aat": 5,
                "mat": 4,
                "rat": 4,
                "def": 12,
                "arm": 12,
                "cmd": 5,
                "boxes": 1,
                "base size": 30,
                "attacks": [
                    {
                        "Multi Tool": {
                            "type": "melee",
                            "rng": 0.5,
                            "pow": 3,
                            "p+s": 8
                        }
                    }
                ],
                "abilities": [
                    "Iron Sentinel",
                    "Repair [d3 + 1]"
                ]
            }
        }
    ]
}
