{
    "name": "Fortune's Path",
    "edition": 3,
    "revision": "2017 v1",
    "type": "arcana",
    "trump": "no",
    "flavor": "The Defier claims a piece of luck from the enemy and deftly turns it to the benefit of the Wicked Harvest.",
    "text": "The warlock can play this card when an enemy model misses a friendly Faction model in the warlock's control range with an attack. For one round, friendly Faction models gain +1 to attack and damage rolls against enemy models in the warlock's control range."
}

