{
    "name": "Pandemonium",
    "edition": 3,
    "revision": "2017 v1",
    "type": "arcana",
    "trump": "no",
    "flavor": "The Defier transforms a call to arms into senseless babble, leaving enemies who hear this gibberish in a state of bewildered disarray.",
    "text": "The warlock can play this card when an enemy non-warcaster, non-warlock model issues an order while in the warlock's control range. The model's unit is not affected by the order. Warlock and warcaster units are not affected by Pandemonium."
}
