{
    "name": "Shroud",
    "edition": 3,
    "revision": "2017 v1",
    "type": "arcana",
    "trump": "no",
    "flavor": "As the enemy attempts to shoot the grymkin down, a shimmering mirage rises from nothingness, obscuring the forces of the Wicked Harvest from all eyes.",
    "text": "The warlock can play this card when a friendly faction model is destroyed by an enemy ranged attack while in the warlock's command range. For one round, friendly Faction models gain Stealth while in the warlock's control range."
}
