{
    "name": "Wrath",
    "edition": 3,
    "revision": "2017 v1",
    "type": "arcana",
    "trump": "yes",
    "warlock": "The Child",
    "flavor": "The Child's all-consuming temper erupts when anyone dares to harm one of her toys, driving her and every nightmare at her command to an unimaginable rampage of destruction.",
    "text": "The warlock can play this card when an enemy model damages a model in the warlock's battlegroup with an attack. The warlock gains 1 fury point and the FURY stats of models in the warlock's battlegroup currently in its control range are increased by 1. Wrath lasts for one round, when wrath expires increase the warlock's control range by 2\" until the end of your next maintenance phase."
}
