{
    "name": "Accretion Servitors",
    "edition": 3,
    "revision": "2016 v1",
    "keywords": [
        "Convergence",
        "Solo"
    ],
    "point cost": 2,
    "field allowance": 3,
    "models": [
        {
            "Servitor": {
                "spd": 6,
                "str": 3,
                "mat": 5,
                "rat": 5,
                "def": 12,
                "arm": 13,
                "boxes": 1,
                "advantages": [
                    "Construct",
                    "Pathfinder"
                ],
                "base size": 30,
                "abilities": [
                    "Repair [1]",
                    "Stead",
                    "Strip"
                ]
            }
        },
        {
            "Servitor": {
                "spd": 6,
                "str": 3,
                "mat": 5,
                "rat": 5,
                "def": 12,
                "arm": 13,
                "boxes": 1,
                "advantages": [
                    "Construct",
                    "Pathfinder"
                ],
                "base size": 30,
                "abilities": [
                    "Repair [1]",
                    "Stead",
                    "Strip"
                ]
            }
        },
        {
            "Servitor": {
                "spd": 6,
                "str": 3,
                "mat": 5,
                "rat": 5,
                "def": 12,
                "arm": 13,
                "boxes": 1,
                "advantages": [
                    "Construct",
                    "Pathfinder"
                ],
                "base size": 30,
                "abilities": [
                    "Repair [1]",
                    "Stead",
                    "Strip"
                ]
            }
        }
    ]
}
