{
    "name": "Cipher",
    "edition": 3,
    "revision": "2021 v1",
    "keywords": [
        "Convergence",
        "Heavy",
        "Warjack"
    ],
    "point cost": 13,
    "field allowance": "U",
    "models": [
        {
            "Cipher": {
                "spd": 4,
                "str": 12,
                "mat": "*",
                "rat": "*",
                "def": 10,
                "arm": 19,
                "advantages": ["Construct"],
                "base size": 50,
                "boxes": {
                    "grid": [
                        [3,1],
                        [4,1],
                        [5,1],
                        [6,1],
                        [1,2],
                        [2,2],
                        [3,2],
                        [4,2],
                        [5,2],
                        [6,2],
                        [1,3],
                        [2,3],
                        [3,3],
                        [4,3],
                        [5,3],
                        [6,3],
                        [1,4],
                        [2,4],
                        [3,4],
                        [4,4],
                        [5,4],
                        [6,4],
                        [1,5],
                        [2,5],
                        [3,5],
                        [4,5],
                        [5,5],
                        [6,5],
                        [3,6],
                        [4,6],
                        [5,6],
                        [6,6]
                    ],
                    "systems": [
                        {
                            "Left Arm": [
                                [5,2],
                                [4,3],
                                [5,3]
                            ]
                        },
                        {
                            "Movement": [
                                [6,1],
                                [6,2],
                                [6,5],
                                [6,6]
                            ]
                        },
                        {
                            "Interface Node": [
                                [6,3],
                                [6,4]
                            ]
                        },
                        {
                            "Right Arm": [
                                [4,4],
                                [5,4],
                                [5,5]
                            ]
                        }
                    ]
                },
                "attacks": [
                    {
                        "Servipod Mortar": {
                            "type": "ranged",
                            "rng": 1,
                            "aoe": 4,
                            "abilities": [
                                "Arcing Fire",
                                {
                                    "Attack Type": [
                                        "Bombardment",
                                        "Crater",
                                        "Flare"
                                    ]
                                },
                                "Reload [1]"
                            ]
                        }
                    },
                    {
                        "Piston Spike": {
                            "type": "melee",
                            "loc": "L",
                            "rng": 1,
                            "pow": 6,
                            "p+s": 18
                        }
                    },
                    {
                        "Piston Spike": {
                            "type": "melee",
                            "loc": "R",
                            "rng": 1,
                            "pow": 6,
                            "p+s": 18
                        }
                    }
                ],
                "abilities": ["Steady"]
            }
        }
    ]
}
