{
    "name": "Conservator",
    "edition": 3,
    "revision": "2021 v1",
    "keywords": [
        "Convergence",
        "Heavy",
        "Warjack"
    ],
    "point cost": 11,
    "field allowance": "U",
    "models": [
        {
            "Conservator": {
                "spd": 5,
                "str": 10,
                "mat": "*",
                "rat": "*",
                "def": 11,
                "arm": 18,
                "advantages": [
                    "Construct",
                    "Pathfinder"
                ],
                "base size": 50,
                "boxes": {
                    "grid": [
                        [2,1],
                        [3,1],
                        [4,1],
                        [1,2],
                        [2,2],
                        [3,2],
                        [4,2],
                        [5,2],
                        [1,3],
                        [2,3],
                        [3,3],
                        [4,3],
                        [5,3],
                        [6,3],
                        [1,4],
                        [2,4],
                        [3,4],
                        [4,4],
                        [5,4],
                        [6,4],
                        [1,5],
                        [2,5],
                        [3,5],
                        [4,5],
                        [5,5],
                        [2,6],
                        [3,6],
                        [4,6]
                    ],
                    "systems": [
                        {
                            "Left Arm": [
                                [4,2],
                                [4,3],
                                [5,3]
                            ]
                        },
                        {
                            "Movement": [
                                [4,1],
                                [5,2],
                                [5,5],
                                [4,6]
                            ]
                        },
                        {
                            "Interface Node": [
                                [6,3],
                                [6,4]
                            ]
                        },
                        {
                            "Right Arm": [
                                [4,4],
                                [5,4],
                                [4,5]
                            ]
                        }
                    ]
                },
                "attacks": [
                    {
                        "Ablator Blade": {
                            "type": "melee",
                            "loc": "L",
                            "rng": 1,
                            "pow": 5,
                            "p+s": 15,
                            "weapon qualities": [
                                "Buckler",
                                "Open Fist"
                            ]
                        }
                    },
                    {
                        "Ablator Blade": {
                            "type": "melee",
                            "loc": "R",
                            "rng": 1,
                            "pow": 5,
                            "p+s": 15,
                            "weapon qualities": [
                                "Buckler",
                                "Open Fist"
                            ]
                        }
                    }
                ],
                "abilities": [
                    "Hand of Vengeance",
                    "Shield Guard"
                ]
            }
        }
    ]
}
