{
    "name": "Corollary",
    "edition": 3,
    "revision": "2021 v1",
    "keywords": [
        "Convergence",
        "Light",
        "Warjack"
    ],
    "point cost": 5,
    "field allowance": 1,
    "models": [
        {
            "Corollary": {
                "spd": 6,
                "str": 6,
                "mat": "*",
                "rat": "*",
                "def": 13,
                "arm": 15,
                "advantages": [
                    "Construct",
                    "Pathfinder"
                ],
                "base size": 40,
                "boxes": {
                    "grid": [
                        [4,1],
                        [3,2],
                        [4,2],
                        [5,2],
                        [2,3],
                        [3,3],
                        [4,3],
                        [5,3],
                        [6,3],
                        [2,4],
                        [3,4],
                        [4,4],
                        [5,4],
                        [6,4],
                        [3,5],
                        [4,5],
                        [5,5],
                        [4,6]
                    ],
                    "systems": [
                        {
                            "Movement": [
                                [4,1],
                                [5,2],
                                [5,5],
                                [4,6]
                            ]
                        },
                        {
                            "Interface Node": [
                                [5,3],
                                [6,3],
                                [5,4],
                                [6,4]
                            ]
                        }
                    ]
                },
                "attacks": [
                    {
                        "Bash": {
                            "type": "melee",
                            "rng": 0.5,
                            "pow": 0,
                            "p+s": 6
                        }
                    }
                ],
                "abilities": [
                    "Attached [Controlling Warcaster]",
                    "Accumulator [Warcaster]",
                    "Arcane Repeater",
                    "Focus Battery",
                    "Power Transfer"
                ]
            }
        }
    ]
}
