{
    "name": "Diffuser",
    "edition": 3,
    "revision": "2022 v1",
    "keywords": [
        "Convergence",
        "Light",
        "Warjack"
    ],
    "point cost": 5,
    "field allowance": "U",
    "models": [
        {
            "Diffuser": {
                "spd": 5,
                "str": 7,
                "mat": "*",
                "rat": "*",
                "def": 12,
                "arm": 16,
                "advantages": ["Construct"],
                "base size": 40,
                "boxes": {
                    "grid": [
                        [5,1],
                        [6,1],
                        [4,2],
                        [5,2],
                        [6,2],
                        [1,3],
                        [2,3],
                        [3,3],
                        [4,3],
                        [5,3],
                        [6,3],
                        [1,4],
                        [2,4],
                        [3,4],
                        [4,4],
                        [5,4],
                        [6,4],
                        [4,5],
                        [5,5],
                        [6,5],
                        [5,6],
                        [6,6]
                    ],
                    "systems": [
                        {
                            "Head": [
                                [5,2],
                                [5,3],
                                [5,4],
                                [5,5]
                            ]
                        },
                        {
                            "Movement": [
                                [6,1],
                                [6,2],
                                [6,5],
                                [6,6]
                            ]
                        },
                        {
                            "Interface Node": [
                                [6,3],
                                [6,4]
                            ]
                        }
                    ]
                },
                "attacks": [
                    {
                        "Homing Ripspike": {
                            "type": "ranged",
                            "loc": "H",
                            "rng": 11,
                            "rof": 1,
                            "pow": 11,
                            "abilities": [
                                "Beacon",
                                "Luck"
                            ]
                        }
                    },
                    {
                        "Bash": {
                            "type": "melee",
                            "rng": 0.5,
                            "pow": 0,
                            "p+s": 7
                        }
                    }
                ],
                "abilities": ["Circular Vision"]
            }
        }
    ]
}
