{
    "name": "Elimination Servitors",
    "edition": 3,
    "revision": "2016 v1",
    "keywords": [
        "Convergence",
        "Solo"
    ],
    "point cost": 3,
    "field allowance": 3,
    "models": [
        {
            "Servitor": {
                "spd": 6,
                "str": 3,
                "mat": 5,
                "rat": 5,
                "def": 12,
                "arm": 13,
                "boxes": 1,
                "advantages": [
                    "Construct",
                    "Gunfighter",
                    "Pathfinder"
                ],
                "base size": 30,
                "attacks": [
                    {
                        "Spike Ejector": {
                            "type": "ranged",
                            "rng": 9,
                            "rof": 1,
                            "abilities": ["Puncture"]
                        }
                    }
                ],
                "abilities": ["Steady"]
            }
        },
        {
            "Servitor": {
                "spd": 6,
                "str": 3,
                "mat": 5,
                "rat": 5,
                "def": 12,
                "arm": 13,
                "boxes": 1,
                "advantages": [
                    "Construct",
                    "Gunfighter",
                    "Pathfinder"
                ],
                "base size": 30,
                "attacks": [
                    {
                        "Spike Ejector": {
                            "type": "ranged",
                            "rng": 9,
                            "rof": 1,
                            "abilities": ["Puncture"]
                        }
                    }
                ],
                "abilities": ["Steady"]
            }
        },
        {
            "Servitor": {
                "spd": 6,
                "str": 3,
                "mat": 5,
                "rat": 5,
                "def": 12,
                "arm": 13,
                "boxes": 1,
                "advantages": [
                    "Construct",
                    "Gunfighter",
                    "Pathfinder"
                ],
                "base size": 30,
                "attacks": [
                    {
                        "Spike Ejector": {
                            "type": "ranged",
                            "rng": 9,
                            "rof": 1,
                            "abilities": ["Puncture"]
                        }
                    }
                ],
                "abilities": ["Steady"]
            }
        }
    ]
}
