{
    "name": "Monitor",
    "edition": 3,
    "revision": "2020 v2",
    "keywords": [
        "Convergence",
        "Heavy",
        "Warjack"
    ],
    "point cost": 14,
    "field allowance": "U",
    "models": [
        {
            "Monitor": {
                "spd": 4,
                "str": 12,
                "mat": "*",
                "rat": "*",
                "def": 10,
                "arm": 19,
                "advantages": ["Construct"],
                "base size": 50,
                "boxes": {
                    "grid": [
                        [3,1],
                        [4,1],
                        [5,1],
                        [6,1],
                        [1,2],
                        [2,2],
                        [3,2],
                        [4,2],
                        [5,2],
                        [6,2],
                        [1,3],
                        [2,3],
                        [3,3],
                        [4,3],
                        [5,3],
                        [6,3],
                        [1,4],
                        [2,4],
                        [3,4],
                        [4,4],
                        [5,4],
                        [6,4],
                        [1,5],
                        [2,5],
                        [3,5],
                        [4,5],
                        [5,5],
                        [6,5],
                        [3,6],
                        [4,6],
                        [5,6],
                        [6,6]
                    ],
                    "systems": [
                        {
                            "Left Arm": [
                                [5,2],
                                [4,3],
                                [5,3]
                            ]
                        },
                        {
                            "Movement": [
                                [6,1],
                                [6,2],
                                [6,5],
                                [6,6]
                            ]
                        },
                        {
                            "Interface Node": [
                                [6,3],
                                [6,4]
                            ]
                        },
                        {
                            "Right Arm": [
                                [4,4],
                                [5,4],
                                [5,5]
                            ]
                        }
                    ]
                },
                "attacks": [
                    {
                        "Ellipsaw Flinger": {
                            "type": "ranged",
                            "loc": "R",
                            "rng": 13,
                            "rof": 1,
                            "pow": 13,
                            "abilities": ["Ricochet"]
                        }
                    },
                    {
                        "Spring-Spike Fist": {
                            "type": "melee",
                            "loc": "L",
                            "rng": 1,
                            "pow": 5,
                            "p+s": 17,
                            "weapon qualities": ["Open Fist"],
                            "abilities": ["Sustained Attack"]
                        }
                    }
                ],
                "abilities": [
                    "Steady",
                    "True Sight"
                ]
            }
        }
    ]
}
