{
    "name": "Prefect Hypatia",
    "edition": 3,
    "revision": "2021 v1",
    "keywords": [
        "Convergence",
        "Angel",
        "Solo"
    ],
    "point cost": 5,
    "field allowance": "C",
    "models": [
        {
            "Hypatia 1": {
                "spd": 7,
                "str": 5,
                "mat": 7,
                "rat": 7,
                "def": 14,
                "arm": 14,
                "cmd": 7,
                "boxes": 5,
                "advantages": [
                    "Flight",
                    "Construct",
                    "Advance Deploy"
                ],
                "base size": 30,
                "attacks": [
                    {
                        "Primorial Beam": {
                            "type": "ranged",
                            "rng": 10,
                            "rof": 1,
                            "pow": 12,
                            "weapon qualities": [
                                "Damage Type: Electrical",
                                "Damage Type: Magical"
                            ],
                            "abilities": ["Thunderbolt"]
                        }
                    },
                    {
                        "Primorial Blade": {
                            "type": "melee",
                            "rng": 2,
                            "pow": 6,
                            "p+s": 11,
                            "weapon qualities": [
                                "Weapon Master",
                                "Damage Type: Magical"
                            ]
                        }
                    }
                ],
                "abilities": [
                    "Apparition",
                    "Blade Shield",
                    "Dogfighter",
                    "Leadership [Angels]",
                    "Quick Work",
                    "Soul Vessel"
                ]
            }
        }
    ]
}
