{
    "name": "Transfinite Emergence Projector",
    "edition": 3,
    "revision": "2021 v1",
    "keywords": [
        "Convergence",
        "Battle Engine"
    ],
    "point cost": 16,
    "field allowance": 2,
    "models": [
        {
            "Projector": {
                "spd": 5,
                "str": 10,
                "rat": 5,
                "def": 10,
                "arm": 19,
                "cmd": 10,
                "boxes": 31,
                "advantages": [
                    "Construct",
                    "Pathfinder"
                ],
                "base size": 120,
                "attacks": [
                    {
                        "Aperture Pulse": {
                            "type": "ranged",
                            "rng": "SP 10",
                            "rof": 2,
                            "pow": 11,
                            "abilities": ["Firing Formulae"]
                        }
                    }
                ],
                "abilities": [
                    "Gun Platform",
                    "Sacrificial Pawn [Permutation Servitor]",
                    "Servitor Satellites"
                ]
            }
        },
        {
            "Servitor": {
                "spd": 6,
                "str": 3,
                "mat": 5,
                "rat": 5,
                "def": 12,
                "arm": 13,
                "boxes": 1,
                "advantages": [
                    "Construct",
                    "Pathfinder"
                ],
                "base size": 30,
                "abilities": [
                    "Orbit",
                    "Steady"
                ]
            }
        }
    ]
}
