{
    "name": "",
    "keywords": [],
    "unit size": [
        {"": }
    ],
    "point cost": ,
    "field allowance": ,
    "models": [
        {
            "": {
                "spd": ,
                "aat": ,
                "mat": ,
                "rat": ,
                "def": ,
                "arm": ,
                "arc": ,
                "ctrl": ,
                "boxes": ,
                "advantages": [],
                "base size": ,
                "attacks": [
                    {
                        "": {
                            "type": "",
                            "rng": ,
                            "rof": ,
                            "aoe": ,
                            "pow": ,
                            "weapon qualities": [],
                            "abilities": []
                        }
                    }
                ],
                "abilities": []
            }
        }
    ]
}
