{
    "name": "Battle-Driven",
    "text": "When one or more models in this unit are damaged by an enemy attack, after the attack is resolved models in this unit gain +2 ARM, +2 to their melee attack damage rolls, and Pathfinder for one round."
}
