{
    "name": "Berserk",
    "text": "When this model destroys one or more models with a melee attack during its Combat action, immediately after the attack is resolved it must make one additional melee attack against another model in its melee range, regardless of whether that model is a friendly model or an enemy model."
}
