{
    "name": "Bounding Leap",
    "text": "Once per activation, after making a full advance as its Normal Movement but before performing its Combat Action, this model can spend 1 focus point to be placed completely within 5\" of its current location."
}
