{
    "name": "Chain Attack: Smite",
    "text": "If this model hits the same model with both its initial attacks with this weapon, after resolving the attacks it can immediately make one additional melee attack against the model hit. If the additional attack hits, the target is slammed d6\" directly away from this model and suffers a damage roll with POW equal to the POW of this weapon. The POW of collateral damage is equal to the POW of this weapon."
}
