{
    "name": "Dark Fire",
    "text": "Dark Fire is a RNG 10, POW 12 arcane attack. When a living enemy model is destroyed by Dark Fire, the spellcaster gains the destroyed model's soul token regardless of the proximity of other models."
}
