{
    "name": "Death Ride",
    "text": "Friendly Faction undead models activating within 5\" of this model gain +1\" movement when advancing as part of their Normal Movement. Death Ride lasts for one turn."
}
