{
    "name": "Desperate Pace [x]",
    "type": "special action",
    "text": "RNG 5. Target friendly [x] unit. If the unit is in range, [x] models in the unit gain +2\" movement during their Normal Movement this turn."
}
