{
    "name": "Desperate Mission",
    "text": "RNG 5. Target friendly Faction warrior model. If the model is in range, it gains Last Word for one turn. Desperate Mission lasts for one round. (When a model with Last Word is disabled by an enemy attack, it can immediately advance up to 3\" and can make one basic melee attack.)"
}
