{
    "name": "Direct Spirits",
    "text": "When a friendly living Faction warrior model is destroyed within 10\" of this model and generates a soul token, you choose which model with the Soul Taker ability gains the destroyed model's soul, regardless of the proximity of other models. Enemy models are not eligible to gain soul tokens from friendly models destroyed within 10\" of this model."
}
