{
    "name": "Flank [x]",
    "text": "When a model with Flank [x] makes a melee attack against an enemy model in the melee range of a friendly [x] model, the model with Flank gains +2 to attack rolls and gains an additional damage die."
}
