{
    "name": "Shielding",
    "type": "special action",
    "text": "RNG 3. Target friendly Faction warjack. If the target warjack is in range, it cannot be targeted by enemy spells. Shielding lasts for one round."
}
