{
    "name": "Shock Field",
    "text": "If a warjack hits this model with a melee attack, immediately after the attack is resolved the attacker suffers 1 damage point to its first available Cortex system box. This model loses Shock Field while this weapon system is crippled."
}
