{
    "name": "Skewer",
    "text": "When this weapon damages an enemy model with an equal or smaller base, immediately after the attack is resolved the damaged model can be pushed directly toward this model until it contacts a model, an obstacle, or an obstruction."
}
