{
    "name": "Special Order",
    "text": "RNG 5. Target friendly Faction warrior model/unit. If the model/unit is in range, it gains Reposition [3\"] for one turn. (At the end of a model/unit with Reposition [3\"]'s activation, it can advance up to 3\", then its activation ends.)"
}
