{
    "name": "Void Bringer",
    "text": "This model can use Void Bringer once per game at any time during its unit's activation. When this model uses Void Bringer, return d3 + 1 destroyed troopers to this unit. Place the returned troopers completely within 3\" of this model. Returned troopers must forfeit their Combat Actions this activation."
}
