{
    "name": "Argus Moonhound",
    "edition": 3,
    "revision": "2021 v1",
    "keywords": [
        "Circle",
        "Light",
        "Warbeast"
    ],
    "point cost": 5,
    "field allowance": "U",
    "models": [
        {
            "Argus Moonhound": {
                "spd": 6,
                "str": 7,
                "mat": 5,
                "rat": 4,
                "def": 14,
                "arm": 14,
                "cmd": 5,
                "advantages": ["Pathfinder"],
                "base size": 40,
                "fury": 3,
                "threshold": 9,
                "boxes": {
                    "Spiral 1": 5,
                    "Spiral 2": 4,
                    "Spiral 3": 5,
                    "Spiral 4": 4,
                    "Spiral 5": 5,
                    "Spiral 6": 4
                },
                "attacks": [
                    {
                        "Bite": {
                            "type": "melee",
                            "rng": 0.5,
                            "pow": 4,
                            "p+s": 11
                        }
                    },
                    {
                        "Bite": {
                            "type": "melee",
                            "rng": 0.5,
                            "pow": 4,
                            "p+s": 11
                        }
                    }
                ],
                "abilities": [
                    "Circular Vision",
                    "Mark Target"
                ],
                "animus": "Hunting Howls"
            }
        }
    ]
}
