{
    "name": "Baldur the Stonecleaver",
    "edition": 3,
    "revision": "2019 v1",
    "keywords": [
        "Circle",
        "Blackclad",
        "Warlock"
    ],
    "warbeast points": 31,
    "field allowance": "C",
    "models": [
            {
                "model name": "Baldur 1",
                "spd": 5,
                "str": 7,
                "mat": 7,
                "rat": 4,
                "def": 14,
                "arm": 16,
                "fury": 6,
                "cmd": 8,
                "boxes": 17,
                "advantages": ["Pathfinder"],
                "base size": 30,
                "attacks": [
                        {
                            "attack name": "Tritus",
                            "type": "melee",
                            "rng": 2,
                            "pow": 7,
                            "p+s": 14,
                            "weapon qualities": ["Damage Type: Magical"],
                            "abilities": ["Weight of Stone"]
                        }
                ],
                "abilities": [
                    "Elemental Mastery",
                    "Forest Walk"
                ],
                "feat": {
                    "name": "Broken Earth",
                    "flavor": "For Baldur, earth and stone are living things -- the skin and bones of Orboros. Boulders spring from the ground, crevices pull apart, and rumbling earth makes every footstep perilous for the enemy while wide paths are carved for the friends of Orboros.",
                    "text": "While in Baldur's control range, friendly Faction models gain cover. While in Baldur's control range, enemy models never have Pathfinder and treat open terrain as rough terrain. Broken Earth lasts for one round."
                },
                "spells": [
                    "Earth Spikes",
                    "Rapid Growth",
                    "Solid Ground",
                    "Stone Skin"
                ]
            }
    ]
}
