{
    "name": "Blackclad Wayfarer",
    "edition": 3,
    "revision": "2021 v1",
    "keywords": [
        "Circle",
        "Solo"
    ],
    "point cost": 3,
    "field allowance": 2,
    "models": [
        {
            "Wayfarer": {
                "spd": 6,
                "str": 6,
                "mat": 7,
                "rat": 4,
                "def": 14,
                "arm": 13,
                "cmd": 7,
                "boxes": 5,
                "advantages": ["Pathfinder"],
                "base size": 30,
                "attacks": [
                    {
                        "Voulge": {
                            "type": "melee",
                            "rng": 2,
                            "pow": 4,
                            "p+s": 10,
                            "weapon qualities": ["Damage Type: Magical"]
                        }
                    }
                ],
                "abilities": [
                    "Battle Wizard",
                    {
                        "Magic Ability [7]": [
                            "Hunter's Mark",
                            "Phase Jump",
                            "Stone Spray"
                        ]
                    },
                    "Prowl"
                ]
            }
        }
    ]
}
