{
    "name": "Chuck Dogwood",
    "edition": 3,
    "revision": "2020 v1",
    "keywords": [
        "Circle",
        "Blackclad",
        "Solo"
    ],
    "point cost": 4,
    "field allowance": "C",
    "models": [
        {
            "Dogwood 1": {
                "spd": 6,
                "str": 6,
                "mat": 6,
                "rat": 4,
                "def": 14,
                "arm": 13,
                "cmd": 6,
                "boxes": 5,
                "advantages": [
                    "Pathfinder",
                    "Stealth"
                ],
                "base size": 30,
                "attacks": [
                    {
                        "Whistling Staff": {
                            "type": "melee",
                            "rng": 2,
                            "pow": 4,
                            "p+s": 10,
                            "weapon qualities": ["Damage Type: Magical"],
                            "abilities": ["Banish"]
                        }
                    }
                ],
                "abilities": [
                    {
                        "Magic Ability [7]": [
                            "Craft Talisman",
                            "Phase Slide",
                            "Puppet Master"
                        ]
                    },
                    "Vetaran Leader [Construct]"
                ]
            }
        }
    ]
}
