{
    "name": "Death Wolves",
    "edition": 3,
    "revision": "2018 v1",
    "keywords": [
        "Circle",
        "Wolf Sworn",
        "Unit"
    ],
    "unit size": [
        {
            "only": [
                {"Skoll": 1},
                {"Tala": 1},
                {"Caleb": 1},
                {"point cost": 9}
            ]
        }
    ],
    "field allowance": "C",
    "models": [
        {
            "Skoll 1": {
                "spd": 6,
                "str": 7,
                "mat": 7,
                "rat": 4,
                "def": 14,
                "arm": 14,
                "cmd": 6,
                "boxes": 5,
                "advantages": [
                    "Advance Deploy",
                    "Officer",
                    "Pathfinder"
                ],
                "base size": 30,
                "attacks": [
                    {
                        "Headsman's Axe": {
                            "type": "melee",
                            "rng": 2,
                            "pow": 7,
                            "p+s": 14
                        }
                    }
                ],
                "abilities": [
                    "Cannibal Magic",
                    "Heart Eater",
                    "Overtake",
                    "Prowl"
                ]
            }
        },
        {
            "Tala 1": {
                "spd": 6,
                "str": 7,
                "mat": 7,
                "rat": 4,
                "def": 14,
                "arm": 14,
                "cmd": 6,
                "boxes": 5,
                "advantages": [
                    "Advance Deploy",
                    "Pathfinder"
                ],
                "base size": 30,
                "attacks": [
                    {
                        "Cleft Sword": {
                            "type": "melee",
                            "rng": 1,
                            "pow": 5,
                            "p+s": 12,
                            "abilities": ["Powerful Charge"]
                        }
                    },
                    {
                        "Cleft Sword": {
                            "type": "melee",
                            "rng": 1,
                            "pow": 5,
                            "p+s": 12,
                            "abilities": ["Powerful Charge"]
                        }
                    }
                ],
                "abilities": [
                    "Cannibal Magic",
                    "Heart Eater",
                    "Overtake",
                    "Prowl"
                ]
            }
        },
        {
            "Caleb 1": {
                "spd": 6,
                "str": 7,
                "mat": 7,
                "rat": 4,
                "def": 14,
                "arm": 14,
                "cmd": 6,
                "boxes": 5,
                "advantages": [
                    "Advance Deploy",
                    "Pathfinder"
                ],
                "base size": 30,
                "attacks": [
                    {
                        "Iron Claw": {
                            "type": "melee",
                            "rng": 0.5,
                            "pow": 4,
                            "p+s": 11,
                            "weapon qualities": ["Damage Type: Magical"],
                            "abilities": ["Combo Strike"]
                        }
                    }
                ],
                "abilities": [
                    "Cannibal Magic",
                    "Heart Eater",
                    "Overtake",
                    "Prowl"
                ]
            }
        }
    ]
}
