{
    "name": "Druid Wilder",
    "edition": 3,
    "revision": "2016 v1",
    "keywords": [
        "Circle",
        "Blackclad",
        "Solo"
    ],
    "point cost": 3,
    "field allowance": 1,
    "models": [
        {
            "Wilder": {
                "spd": 6,
                "str": 5,
                "mat": 5,
                "rat": 4,
                "def": 14,
                "arm": 11,
                "cmd": 6,
                "boxes": 5,
                "advantages": ["Pathfinder"],
                "base size": 30,
                "attacks": [
                    {
                        "Staff": {
                            "type": "melee",
                            "rng": 2,
                            "pow": 3,
                            "p+s": 8,
                            "weapon qualities": ["Damage Type: Magical"]
                        }
                    }
                ],
                "abilities": [
                    "Attached",
                    "Arcane Support",
                    "Herding",
                    {
                        "Magic Ability": [
                            "Medicate",
                            "Shepherd's Call"
                        ]
                    }
                ]
            }
        }
    ]
}
