{
    "name": "Feral Warpwolf",
    "edition": 3,
    "revision": "2021 v1",
    "keywords": [
        "Circle",
        "Heavy",
        "Warbeast"
    ],
    "point cost": 14,
    "field allowance": "U",
    "models": [
        {
            "Warpwolf": {
                "spd": 6,
                "str": 12,
                "mat": 7,
                "rat": 3,
                "def": 14,
                "arm": 16,
                "cmd": 3,
                "advantages": ["Pathfinder"],
                "base size": 50,
                "fury": 4,
                "threshold": 9,
                "boxes": {
                    "Spiral 1": 6,
                    "Spiral 2": 5,
                    "Spiral 3": 7,
                    "Spiral 4": 6,
                    "Spiral 5": 6,
                    "Spiral 6": 6
                },
                "attacks": [
                    {
                        "Bite": {
                            "type": "melee",
                            "rng": 1,
                            "pow": 3,
                            "p+s": 15
                        }
                    },
                    {
                        "Claw": {
                            "type": "melee",
                            "rng": 1,
                            "pow": 4,
                            "p+s": 16,
                            "weapon qualities": ["Open Fist"]
                        }
                    },
                    {
                        "Claw": {
                            "type": "melee",
                            "rng": 1,
                            "pow": 4,
                            "p+s": 16,
                            "weapon qualities": ["Open Fist"]
                        }
                    }
                ],
                "abilities": [
                    {
                        "Controlled Warping": [
                            "Protective Plates",
                            "Warp Speed",
                            "Warp Strength"
                        ]
                    },
                    "Regeneration [d3]"
                ],
                "animus": "Primal"
            }
        }
    ]
}
