{
    "name": "Gnarlhorn Satyr",
    "edition": 3,
    "revision": "2021 v1",
    "keywords": [
        "Circle",
        "Heavy",
        "Warbeast"
    ],
    "point cost": 10,
    "field allowance": "U",
    "models": [
        {
            "Satyr": {
                "spd": 5,
                "str": 12,
                "mat": 6,
                "rat": 3,
                "def": 12,
                "arm": 18,
                "cmd": 5,
                "advantages": ["Pathfinder"],
                "base size": 50,
                "fury": 3,
                "threshold": 8,
                "boxes": {
                    "Spiral 1": 5,
                    "Spiral 2": 5,
                    "Spiral 3": 6,
                    "Spiral 4": 6,
                    "Spiral 5": 5,
                    "Spiral 6": 5
                },
                "attacks": [
                    {
                        "Horns": {
                            "type": "melee",
                            "rng": 1,
                            "pow": 4,
                            "p+s": 16,
                            "abilities": ["Hard Head"]
                        }
                    },
                    {
                        "Claw": {
                            "type": "melee",
                            "rng": 1,
                            "pow": 3,
                            "p+s": 15,
                            "abilities": ["Open Fist"]
                        }
                    },
                    {
                        "Claw": {
                            "type": "melee",
                            "rng": 1,
                            "pow": 3,
                            "p+s": 15,
                            "abilities": ["Open Fist"]
                        }
                    }
                ],
                "abilities": [
                    "Counterslam",
                    "Follow Up",
                    "Grand Slam"
                ],
                "animus": "Earth's Blessing"
            }
        }
    ]
}
