{
    "name": "Kaya the Moonhunter",
    "edition": 3,
    "revision": "2018 v1",
    "keywords": [
        "Circle",
        "Blackclad",
        "Warlock"
    ],
    "warbeast points": 24,
    "field allowance": "C",
    "models": [
        {
            "Kaya 2": {
                "spd": 7,
                "str": 6,
                "mat": 6,
                "rat": 4,
                "def": 16,
                "arm": 14,
                "fury": 6,
                "cmd": 8,
                "boxes": 16,
                "advantages": ["Pathfinder"],
                "base size": 30,
                "attacks": [
                    {
                        "Glimmer": {
                            "type": "melee",
                            "rng": 2,
                            "pow": 5,
                            "p+s": 11,
                            "weapon qualities": ["Damage Type: Magical"]
                        }
                    }
                ],
                "abilities": [
                    "Field Marshal [Unyielding]",
                    "Flank [Friendly Faction Warbeast]",
                    "Unyielding"
                ],
                "feat": {
                    "name": "Call of the Hunt",
                    "flavor": "Kaya the Moonhunter can immerse herself in the minds of her beasts to fuse their efforts into a single flawless execution of her will and unleash them in a seemingly reckless assault to rend and kill anything they find. Calling on ancient rites, Kaya can then instantly summon her companions back to her side and stand watchful vigil.",
                    "text": "Kaya can force warbeasts in her battlegroup even if they are outside her control range. At the end of the activation of each warbeast in her battlegroup, you can place that warbeast anywhere completely within 3\" of Kaya. Call of the Hunt lasts for one turn."
                },
                "spells": [
                    "Dog Pile",
                    "Forced Evolution",
                    "Muzzle",
                    "Shadow Pack"
                ]
            }
        }
    ]
}
