{
    "name": "Krueger the Stormlord",
    "edition": 3,
    "revision": "2016 v1",
    "keywords": [
        "Circle",
        "Blackclad",
        "Warlock"
    ],
    "warbeast points": 27,
    "field allowance": "C",
    "models": [
        {
            "Krueger 2": {
                "spd": 6,
                "str": 5,
                "mat": 6,
                "rat": 6,
                "def": 15,
                "arm": 15,
                "fury": 7,
                "cmd": 9,
                "boxes": 16,
                "advantages": [
                    "Flight",
                    "Immunity: Electricity"
                ],
                "base size": 30,
                "attacks": [
                    {
                        "Lightning Bolt": {
                            "type": "ranged",
                            "rng": 10,
                            "rof": 1,
                            "pow": 12,
                            "weapon qualities": [
                                "Damage Type: Electrical",
                                "Damage Type: Magical"
                            ],
                            "abilities": [
                                "Reload [2]",
                                "Sustained Attack"
                            ]
                        }
                    },
                    {
                        "Wurmtongue": {
                            "type": "melee",
                            "rng": 2,
                            "pow": 7,
                            "p+s": 12,
                            "weapon qualities": [
                                "Damage Type: Magical",
                                "Disruption"
                            ]
                        }
                    }
                ],
                "abilities": ["Sheltering Hand"],
                "feat": {
                    "name": "Hurricane",
                    "flavor": "The air itself bows to Krueger's will. In the blink of an eye even the stillest calm becomes a raging hurricane. Enemies struggle to advance against the howling wind. They labor for every inch they gain as they suffer the Stormlord's fury.",
                    "text": "Enemy models currently in Krueger's control range are pushed 3\" directly away from Krueger in the order you choose. Affected models suffer -2 SPD for one round."
                },
                "spells": [
                    "Gallows",
                    "Lightning Storm",
                    "Rebuke",
                    "Telekinesis",
                    "Windstorm"
                ]
            }
        }
    ]
}
