{
    "name": "Sentry Stone & Mannikins",
    "edition": 3,
    "revision": "2017 v1",
    "keywords": [
        "Circle",
        "Unit"
    ],
    "unit size": [
        {
            "only": [
                {"Leader": 1},
                {"Grunts": 3},
                {"point cost": 5}
            ]
        }
    ],
    "field allowance": 2,
    "models": [
        {
            "Sentry Stone": {
                "str": 0,
                "mat": 0,
                "rat": 0,
                "def": 5,
                "arm": 18,
                "cmd": 6,
                "boxes": 8,
                "advantages": [
                    "Advance Deploy",
                    "Construct",
                    "Officer"
                ],
                "base size": 40,
                "abilities": [
                    "Forest Growth",
                    "Immobile",
                    "Prowl",
                    "Strange Growth",
                    "Wellspring"
                ]
            }
        },
        {
            "Mannikin Grunts": {
                "spd": 6,
                "str": 7,
                "mat": 5,
                "rat": 4,
                "def": 12,
                "arm": 12,
                "boxes": 1,
                "advantages": [
                    "Advance Deploy",
                    "Construct",
                    "Pathfinder"
                ],
                "base size": 30,
                "attacks": [
                    {
                        "Splinter Burst": {
                            "type": "ranged",
                            "rng": "SP 8",
                            "rof": 1,
                            "pow": 10,
                            "weapon qualities": ["Damage Type: Magical"]
                        }
                    },
                    {
                        "Claws": {
                            "type": "melee",
                            "rng": 0.5,
                            "pow": 4,
                            "p+s": 11
                        }
                    }
                ],
                "abilities": [
                   "Fury-Linked" 
                ]
            }
        }
    ]
}
