{
    "name": "Tharn Wolf Rider Champion",
    "edition": 3,
    "revision": "2021 v1",
    "keywords": [
        "Circle",
        "Solo"
    ],
    "point cost": 6,
    "field allowance": 2,
    "models": [
        {
            "Champion": {
                "spd": 9,
                "str": 6,
                "mat": 8,
                "rat": 7,
                "def": 15,
                "arm": 14,
                "cmd": 9,
                "boxes": 8,
                "advantages": [
                    "Cavalry",
                    "Pathfinder"
                ],
                "base size": 50,
                "attacks": [
                    {
                        "Thrown Javelin": {
                            "type": "ranged",
                            "rng": 7,
                            "rof": 1,
                            "pow": 9,
                            "weapon qualities": ["Weapon Master"],
                            "abilities": ["Thrown"]
                        }
                    },
                    {
                        "Javelin": {
                            "type": "melee",
                            "rng": 1,
                            "pow": 3,
                            "p+s": 9,
                            "weapon qualities": ["Weapon Master"]
                        }
                    },
                    {
                        "Mount": {
                            "type": "mount",
                            "rng": 0.5,
                            "pow": 12
                        }
                    }
                ],
                "abilities": [
                    "Annoyance",
                    "Backstab",
                    "Dual Attack",
                    "Jump",
                    "Leadership [Wolf Riders]",
                    "Prowl",
                    "Reposition [5\"]"
                ]
            }
        }
    ]
}
