{
    "name": "Tharn Blood Pack",
    "edition": 3,
    "revision": "2018 v1",
    "keywords": [
        "Circle",
        "Unit"
    ],
    "unit size": [
        {
            "min": [
                {"Leader": 1},
                {"Grunts": 3},
                {"point cost": 10}
            ]
        },
        {
            "max": [
                {"Leader": 1},
                {"Grunts": 5},
                {"point cost": 15}
            ]
        }
    ],
    "field allowance": 2,
    "models": [
        {
            "Leader & Grunts": {
                "spd": 6,
                "str": 8,
                "mat": 6,
                "rat": 6,
                "def": 13,
                "arm": 15,
                "cmd": 7,
                "boxes": [
                    {"Model A": 5},
                    {"Model B": 5},
                    {"Model C": 5},
                    {"Model D": 5},
                    {"Model E": 5},
                    {"Model F": 5}
                ],
                "advantages": [
                    "Pathfinder",
                    "Tough"
                ],
                "base size": 40,
                "attacks": [
                    {
                        "Tharn Bow": {
                            "type": "12",
                            "rng": 1,
                            "pow": 14,
                            "abilities": ["Arcing Fire"]
                        }
                    },
                    {
                        "Bow Blade": {
                            "type": "melee",
                            "rng": 0.5,
                            "pow": 3,
                            "p+s": 11
                        }
                    }
                ],
                "abilities": [
                    "Heart Eater",
                    "Hunter",
                    "Rapid Healing",
                    "Treewalker"
                ]
            }
        }
    ]
}
