{
    "name": "Warpwolf Stalker",
    "edition": 3,
    "revision": "2021 v1",
    "keywords": [
        "Circle",
        "Heavy",
        "Warbeast"
    ],
    "point cost": 15,
    "field allowance": "U",
    "models": [
        {
            "Warpwolf": {
                "spd": 6,
                "str": 12,
                "mat": 6,
                "rat": 3,
                "def": 14,
                "arm": 17,
                "cmd": 5,
                "advantages": ["Pathfinder"],
                "base size": 50,
                "fury": 4,
                "threshold": 9,
                "boxes": {
                    "Spiral 1": 6,
                    "Spiral 2": 5,
                    "Spiral 3": 6,
                    "Spiral 4": 5,
                    "Spiral 5": 6,
                    "Spiral 6": 5
                },
                "attacks": [
                    {
                        "Claw": {
                            "type": "melee",
                            "rng": 1,
                            "pow": 4,
                            "p+s": 16,
                            "weapon qualities": ["Open Fist"]
                        }
                    },
                    {
                        "Great Sword": {
                            "type": "melee",
                            "rng": 2,
                            "pow": 6,
                            "p+s": 18
                        }
                    }
                ],
                "abilities": [
                    {
                        "Controlled Warping": [
                            "Berserk",
                            "Prowl",
                            "Warp Strength"
                        ]
                    },
                    "Regeneration [d3]" 
                ],
                "animus": "Lightning Strike"
            }
        }
    ]
}
