{
    "name": "Warpborn Skinwalker Alpha",
    "edition": 3,
    "revision": "2018 v1",
    "keywords": [
        "Circle",
        "Wolf Sworn",
        "Command Attachment"
    ],
    "point cost": 4,
    "field allowance": 2,
    "models": [
        {
            "Alpha": {
                "spd": 5,
                "str": 8,
                "mat": 7,
                "rat": 3,
                "def": 12,
                "arm": 16,
                "cmd": 9,
                "boxes": 8,
                "advantages": ["Officer"],
                "base size": 40,
                "attacks": [
                    {
                        "Pole Axe": {
                            "type": "melee",
                            "rng": 2,
                            "pow": 4,
                            "p+s": 12
                        }
                    }
                ],
                "abilities": [
                    "Attachment [Warpborn Skinwalkers]",
                    "Hyper-Regeneration",
                    "Night Howls",
                    "Relentless Charge",
                    "Tactics: Gang",
                    "Unyielding"
                ]
            }
        }
    ]
}
