{
    "name": "Woldwarden",
    "edition": 3,
    "revision": "2021 v1",
    "keywords": [
        "Circle",
        "Heavy",
        "Warbeast"
    ],
    "point cost": 13,
    "field allowance": "U",
    "models": [
        {
            "Woldwarden": {
                "spd": 5,
                "str": 12,
                "mat": 6,
                "rat": 4,
                "def": 10,
                "arm": 18,
                "advantages": [
                    "Construct",
                    "Pathfinder"
                ],
                "base size": 50,
                "fury": 3,
                "boxes": {
                    "Spiral 1": 6,
                    "Spiral 2": 6,
                    "Spiral 3": 8,
                    "Spiral 4": 8,
                    "Spiral 5": 7,
                    "Spiral 6": 6
                },
                "attacks": [
                    {
                        "Rune Fist": {
                            "type": "melee",
                            "rng": 1,
                            "pow": 4,
                            "p+s": 16,
                            "weapon qualities": [
                                "Damage Type: Magical",
                                "Open Fist"
                            ],
                            "abilities": ["Chain Attack: Smite"]
                        }
                    },
                    {
                        "Rune Fist": {
                            "type": "melee",
                            "rng": 1,
                            "pow": 4,
                            "p+s": 16,
                            "weapon qualities": [
                                "Damage Type: Magical",
                                "Open Fist"
                            ],
                            "abilities": ["Chain Attack: Smite"]
                        }
                    }
                ],
                "abilities": [
                    {
                        "Magic Ability [6]": ["Geomancy"]
                    },
                    "Mend"
                ],
                "animus": "Wild Growth"
            }
        }
    ]
}
