{
    "name": "Wolf Lord Morraig",
    "edition": 3,
    "revision": "2017 v1",
    "keywords": [
        "Circle",
        "Wolf Sworn",
        "Dragoon",
        "Solo"
    ],
    "point cost": 8,
    "field allowance": "C",
    "models": [
        {
            "Morraig 1 (Mounted)": {
                "spd": 9,
                "str": 7,
                "mat": 8,
                "rat": 4,
                "def": 14,
                "arm": 17,
                "cmd": 9,
                "boxes": 10,
                "advantages": [
                    "Cavalry",
                    "Pathfinder"
                ],
                "base size": 50,
                "attacks": [
                    {
                        "Cleft Blade": {
                            "type": "melee",
                            "rng": 1,
                            "pow": 6,
                            "p+s": 13
                        }
                    },
                    {
                        "Mount": {
                            "type": "mount",
                            "rng": 0.5,
                            "pow": 12
                        }
                    }
                ],
                "abilities": [
                    "Cleave",
                    "Flank [Wolf Sworn]",
                    "Prowl",
                    "Reposition [5\"]",
                    "Veteran Leader [Wolf Sworn]"
                ]
            }
        },
        {
            "Morraig 1 (Dismounted)": {
                "spd": 6,
                "str": 7,
                "mat": 8,
                "rat": 4,
                "def": 14,
                "arm": 15,
                "cmd": 9,
                "boxes": 5,
                "advantages": ["Pathfinder"],
                "base size": 30,
                "attacks": [
                    {
                        "Cleft Blade": {
                            "type": "melee",
                            "rng": 1,
                            "pow": 6,
                            "p+s": 13
                        }
                    }
                ],
                "abilities": [
                    "Cleave",
                    "Flank [Wolf Sworn]",
                    "Prowl",
                    "Veteran Leader [Wolf Sworn]"
                ]
            }
        }
    ]
}
