{
  "name": "Agathon, the Voice in the Darkness",
  "edition": 3,
  "revision": "2019 v1",
  "keywords": [
    "Infernal",
    "Infernal Master"
  ],
  "horror points": 28,
  "field allowance": "C",
  "models": [
    {
      "model name": "Agathon 1",
      "spd": 6,
      "str": 6,
      "mat": 6,
      "rat": 3,
      "def": 14,
      "arm": 15,
      "essence": 9,
      "cmd": 12,
      "boxes": 17,
      "advantages": [
        "Eyeless Sight",
        "Pathfinder"
      ],
      "base size": 50,
      "attacks": [
        {
          "attack name": "Pain Touch",
          "type": "melee",
          "rng": 1,
          "weapon qualities": [
            "Damage Type: Magical"
          ],
          "abilities": [
            "Dark Banishment",
            "Needle"
          ]
        },
        {
          "attack name": "Pain Touch",
          "type": "melee",
          "rng": 1,
          "weapon qualities": [
            "Damage Type: Magical"
          ],
          "abilities": [
            "Dark Banishment",
            "Needle"
          ]
        }
      ],
      "abilities": [
        "Revelations of the Outer Darkness",
        "Soul Taker: Cull Soul"
      ],
      "feat": {
        "name": "Well of Sorrow",
        "flavor": "Agathon's mastery of the arcane surpasses that of any mortal on Caen. When awakening their deepest well of power, a vortex comes into being that shifts the flow of all magic. Lesser mystics opposing Agathon struggle to cast even the simplest of spells and find all their effores more likely to go astray.",
        "text": "When an enemy model casts a spell while in Agathon's control range, increase the COST of the spell by 1. Additionally, while in Agathon's control range, models gain one additional die on their magic attack and magic attack damage rolls. You choose a die to discard in each roll. Well of Sorrow lasts for one round."
      },
      "spells": [
        "Censure",
        "Curse of Shadows",
        "Dark Fire",
        "Dark Seducation",
        "Hellmouth",
        "Teleport",
        "Tether"
      ]
    }
  ]
}
