{
  "name": "Agonizer",
  "edition": 3,
  "revision": "2021 v1",
  "keywords": [
    "Skorne",
    "Titan",
    "Lesser",
    "Warbeast"
  ],
  "point cost": 5,
  "field allowance": "U",
  "models": [
    {
      "model name": "Agonizer",
      "spd": 5,
      "str": 6,
      "mat": 3,
      "rat": 1,
      "def": 12,
      "arm": 13,
      "cmd": 2,
      "base size": 30,
      "fury": 2,
      "threshold": 8,
      "boxes": {
        "Spiral 1": 3,
        "Spiral 2": 3,
        "Spiral 3": 3,
        "Spiral 4": 3,
        "Spiral 5": 4,
        "Spiral 6": 3
      },
      "attacks": [
        {
          "attack name": "Claws",
          "type": "melee",
          "rng": 0.5,
          "pow": 2,
          "p+s": 13
        }
      ],
      "abilities": [
        {
          "Agonies": [
            "Gnawing Pain",
            "Maddening",
            "Spiritual Affliction"
          ]
        }
      ],
      "animus": "Repulsion"
    }
  ]
}
