{
  "name": "Alexia Ciannor & The Risen",
  "edition": 3,
  "revision": "2022 v1",
  "keywords": [
    "Mercenary",
    "Unit"
  ],
  "unit size": [
    {
      "size": "only",
      "members": [
        {
          "name": "Alexia",
          "count": 1
        },
        {
          "name": "Risen Grunts",
          "count": 9
        }
      ],
      "point cost": 8
    }
  ],
  "field allowance": "C",
  "models": [
    {
      "model name": "Alexia 1",
      "spd": 6,
      "str": 4,
      "mat": 6,
      "rat": 5,
      "def": 14,
      "arm": 14,
      "cmd": 9,
      "boxes": 5,
      "advantages": [
        "Officer"
      ],
      "base size": 30,
      "attacks": [
        {
          "attack name": "Hand Cannon",
          "type": "ranged",
          "rng": 12,
          "rof": 1,
          "pow": 12
        },
        {
          "attack name": "Witchfire",
          "type": "melee",
          "rng": 1,
          "pow": 8,
          "p+s": 12,
          "weapon qualities": [
            "Damage Type: Magical"
          ]
        }
      ],
      "abilities": [
        {
          "Mercenaries": [
            "Cygnar",
            "Khador"
          ]
        },
        "Death Magic",
        "Granted: Spell Ward",
        {
          "Magic Ability [8]": [
            "Craft Thrall Rune",
            "Dominate Undead"
          ]
        },
        "Stir the Dead (Alexia 1)"
      ]
    },
    {
      "model name": "Risen Grunts",
      "spd": 6,
      "str": 5,
      "mat": 4,
      "rat": 3,
      "def": 10,
      "arm": 11,
      "cmd": 3,
      "boxes": 1,
      "advantages": [
        "Combined Melee Attack",
        "Undead"
      ],
      "base size": 30,
      "attacks": [
        {
          "attack name": "Claws",
          "type": "melee",
          "rng": 0.5,
          "pow": 2,
          "p+s": 7
        }
      ]
    }
  ]
}
