{
  "name": "Arcantrik Force Generator",
  "edition": 3,
  "revision": "2019 v1",
  "keywords": [
    "Retribution",
    "Vyre",
    "Battle Engine"
  ],
  "point cost": 17,
  "field allowance": 2,
  "models": [
    {
      "model name": "Arcantrik Generator",
      "spd": 4,
      "str": 10,
      "rat": 7,
      "def": 10,
      "arm": 18,
      "cmd": 6,
      "boxes": 24,
      "advantages": [
        "Construct",
        "Gunfighter",
        "Pathfinder"
      ],
      "base size": 120,
      "attacks": [
        {
          "attack name": "Teleforce Cannon",
          "type": "ranged",
          "rng": 14,
          "rof": 2,
          "pow": 14,
          "weapon qualities": [
            "Damage Type: Magical"
          ],
          "abilities": [
            {
              "Attack Type": [
                "Blasted Earth",
                "Destructor",
                "Momentum"
              ]
            }
          ]
        }
      ],
      "abilities": [
        "Carapace",
        "Focused Power",
        "Polarity Field"
      ]
    }
  ]
}
