{
  "name": "Archdomina Makeda",
  "edition": 3,
  "revision": "2019 v1",
  "keywords": [
    "Skorne",
    "Warlock"
  ],
  "warbeast points": 29,
  "field allowance": "C",
  "models": [
    {
      "model name": "Makeda 1",
      "spd": 6,
      "str": 7,
      "mat": 7,
      "rat": 4,
      "def": 15,
      "arm": 16,
      "fury": 6,
      "cmd": 9,
      "boxes": 16,
      "base size": 30,
      "attacks": [
        {
          "attack name": "Sword of Baalash",
          "type": "melee",
          "rng": 1,
          "pow": 5,
          "p+s": 12,
          "weapon qualities": [
            "Damage Type: Magical"
          ]
        },
        {
          "attack name": "Sword of Baalash",
          "type": "melee",
          "rng": 1,
          "pow": 5,
          "p+s": 12,
          "weapon qualities": [
            "Damage Type: Magical"
          ]
        }
      ],
      "abilities": [
        "Blood-Quenched",
        "Field Marshal [Shield Guard]",
        "Side Step"
      ],
      "feat": {
        "name": "Defiance of the Void",
        "flavor": "Those loyal to Makeda meet every threat head-on, responding with flashes of finely honed steel. Not even death releases a soldier from obligations in service of the archdomina. Makeda can force the living spirit to linger and fight even after the heart has ceased to beat and the lungs can no longer capture breath.",
        "text": "While in Makeda's control range, friendly living models gain Retaliatory Strike. Additionally, when a friendly living warrior model in this model's control range is disabled, this model can suffer 1 damage point to remove 1 damage point from the disabled model. This damage cannot be transferred."
      },
      "spells": [
        "Carnage",
        "Jackhammer",
        "The Lash",
        "Quicken"
      ]
    }
  ]
}
