{
  "name": "Assault Kommando Flame Thrower",
  "edition": 3,
  "revision": "2021 v1",
  "keywords": [
    "Khador",
    "Winter Guard",
    "Weapon Attachment"
  ],
  "point cost": 1,
  "field allowance": "U",
  "models": [
    {
      "model name": "Kommando",
      "spd": 6,
      "str": 6,
      "mat": 6,
      "rat": 6,
      "def": 12,
      "arm": 14,
      "cmd": 8,
      "boxes": 1,
      "advantages": [
        "Gunfighter",
        "Immunity: Corrosion",
        "Immunity: Fire"
      ],
      "base size": 30,
      "attacks": [
        {
          "attack name": "Flame Thrower",
          "type": "ranged",
          "rng": "SP 8",
          "rof": 1,
          "pow": 12,
          "weapon qualities": [
            "Continuous Effect: Fire",
            "Damage Type: Fire"
          ]
        }
      ],
      "abilities": [
        "Attachment [Assault Kommandos]",
        "Alchemical Mask"
      ]
    }
  ]
}
