{
  "name": "Assimilator",
  "edition": 3,
  "revision": "2021 v1",
  "keywords": [
    "Convergence",
    "Heavy",
    "Warjack"
  ],
  "point cost": 14,
  "field allowance": "U",
  "models": [
    {
      "model name": "Assimilator",
      "spd": 5,
      "str": 10,
      "mat": "*",
      "rat": "*",
      "def": 11,
      "arm": 18,
      "advantages": [
        "Construct",
        "Pathfinder"
      ],
      "base size": 50,
      "boxes": {
        "grid": [
          [
            2,
            1
          ],
          [
            3,
            1
          ],
          [
            4,
            1
          ],
          [
            1,
            2
          ],
          [
            2,
            2
          ],
          [
            3,
            2
          ],
          [
            4,
            2
          ],
          [
            5,
            2
          ],
          [
            1,
            3
          ],
          [
            2,
            3
          ],
          [
            3,
            3
          ],
          [
            4,
            3
          ],
          [
            5,
            3
          ],
          [
            6,
            3
          ],
          [
            1,
            4
          ],
          [
            2,
            4
          ],
          [
            3,
            4
          ],
          [
            4,
            4
          ],
          [
            5,
            4
          ],
          [
            6,
            4
          ],
          [
            1,
            5
          ],
          [
            2,
            5
          ],
          [
            3,
            5
          ],
          [
            4,
            5
          ],
          [
            5,
            5
          ],
          [
            2,
            6
          ],
          [
            3,
            6
          ],
          [
            4,
            6
          ]
        ],
        "systems": [
          {
            "Left Arm": [
              [
                4,
                2
              ],
              [
                4,
                3
              ],
              [
                5,
                3
              ]
            ]
          },
          {
            "Movement": [
              [
                4,
                1
              ],
              [
                5,
                2
              ],
              [
                5,
                5
              ],
              [
                4,
                6
              ]
            ]
          },
          {
            "Interface Node": [
              [
                6,
                3
              ],
              [
                6,
                4
              ]
            ]
          },
          {
            "Right Arm": [
              [
                4,
                4
              ],
              [
                5,
                4
              ],
              [
                4,
                5
              ]
            ]
          }
        ]
      },
      "attacks": [
        {
          "attack name": "Dissevering Microswarm",
          "type": "ranged",
          "loc": "L",
          "rng": 11,
          "rof": 1,
          "aoe": 4,
          "pow": 13,
          "abilities": [
            "Ground Pounder"
          ]
        },
        {
          "attack name": "Rending Claw",
          "type": "melee",
          "loc": "R",
          "rng": 1,
          "pow": 4,
          "p+s": 14,
          "weapon qualities": [
            "Open Fist",
            "Weapon Master"
          ],
          "abilities": [
            "Assimilation"
          ]
        }
      ]
    }
  ]
}
