{
  "name": "Avatar of Menoth",
  "edition": 3,
  "revision": "2019 v1",
  "keywords": [
    "Protectorate",
    "Heavy",
    "Warjack"
  ],
  "point cost": 18,
  "field allowance": "C",
  "models": [
    {
      "model name": "Avatar 1",
      "spd": 5,
      "str": 12,
      "mat": 8,
      "rat": 6,
      "def": 10,
      "arm": 19,
      "advantages": [
        "Construct"
      ],
      "base size": 50,
      "boxes": {
        "grid": [
          [
            2,
            1
          ],
          [
            3,
            1
          ],
          [
            4,
            1
          ],
          [
            5,
            1
          ],
          [
            1,
            2
          ],
          [
            2,
            2
          ],
          [
            3,
            2
          ],
          [
            4,
            2
          ],
          [
            5,
            2
          ],
          [
            6,
            2
          ],
          [
            1,
            3
          ],
          [
            2,
            3
          ],
          [
            3,
            3
          ],
          [
            4,
            3
          ],
          [
            5,
            3
          ],
          [
            6,
            3
          ],
          [
            1,
            4
          ],
          [
            2,
            4
          ],
          [
            3,
            4
          ],
          [
            4,
            4
          ],
          [
            5,
            4
          ],
          [
            6,
            4
          ],
          [
            1,
            5
          ],
          [
            2,
            5
          ],
          [
            3,
            5
          ],
          [
            4,
            5
          ],
          [
            5,
            5
          ],
          [
            6,
            5
          ],
          [
            2,
            6
          ],
          [
            3,
            6
          ],
          [
            4,
            6
          ],
          [
            5,
            6
          ]
        ],
        "systems": [
          {
            "Left Arm": [
              [
                5,
                1
              ],
              [
                5,
                2
              ],
              [
                6,
                2
              ]
            ]
          },
          {
            "Movement": [
              [
                5,
                3
              ],
              [
                6,
                3
              ],
              [
                6,
                4
              ]
            ]
          },
          {
            "Right Arm": [
              [
                5,
                5
              ],
              [
                6,
                5
              ],
              [
                5,
                6
              ]
            ]
          }
        ]
      },
      "attacks": [
        {
          "attack name": "Divine Shield",
          "type": "melee",
          "loc": "L",
          "rng": 1,
          "pow": 2,
          "p+s": 14,
          "weapon qualities": [
            "Damage Type: Magical",
            "Shield"
          ]
        },
        {
          "attack name": "Burning Wrath",
          "type": "melee",
          "loc": "R",
          "rng": 2,
          "pow": 7,
          "p+s": 19,
          "weapon qualities": [
            "Damage Type: Magical"
          ],
          "abilities": [
            "Flame Burst"
          ]
        }
      ],
      "abilities": [
        "Avatar",
        "Menoth's Gaze",
        "Sacred Ward"
      ]
    }
  ]
}
