{
  "name": "Bane Warrior Officer & Standard",
  "edition": 3,
  "revision": "2017 v2",
  "keywords": [
    "Cryx",
    "Command Attachment"
  ],
  "point cost": 5,
  "field allowance": 3,
  "models": [
    {
      "model name": "Officer",
      "spd": 5,
      "str": 7,
      "mat": 7,
      "rat": 4,
      "def": 12,
      "arm": 15,
      "cmd": 7,
      "boxes": 5,
      "advantages": [
        "Officer",
        "Undead"
      ],
      "base size": 30,
      "attacks": [
        {
          "attack name": "War Axe",
          "type": "melee",
          "rng": 1,
          "pow": 4,
          "p+s": 11,
          "weapon qualities": [
            "Weapon Master"
          ]
        },
        {
          "attack name": "War Axe",
          "type": "melee",
          "rng": 1,
          "pow": 4,
          "p+s": 11,
          "weapon qualities": [
            "Weapon Master"
          ]
        }
      ],
      "abilities": [
        "Attachment [Bane Warrior]",
        "Dark Shroud",
        "Ghostly",
        "Tactics: Rise",
        "Void Bringer"
      ]
    },
    {
      "model name": "Standard Bearer",
      "spd": 5,
      "str": 7,
      "mat": 6,
      "rat": 4,
      "def": 12,
      "arm": 15,
      "cmd": 7,
      "boxes": 5,
      "advantages": [
        "Undead"
      ],
      "base size": 30,
      "attacks": [
        {
          "attack name": "War Axe",
          "type": "melee",
          "rng": 1,
          "pow": 4,
          "p+s": 11,
          "weapon qualities": [
            "Weapon Master"
          ]
        }
      ],
      "abilities": [
        "Attachment [Bane Warrior]",
        "Dark Shroud",
        "Ghostly",
        "Granted: Tough",
        "Standard Bearer",
        "Take Up"
      ]
    }
  ]
}
