{
  "name": "Barnabas, Lord of Blood",
  "edition": 3,
  "revision": "2022 v1",
  "keywords": [
    "Minion",
    "Warlock",
    "Unit"
  ],
  "warbeast points": 25,
  "field allowance": "C",
  "models": [
    {
      "model name": "Barnabas 2",
      "spd": 5,
      "str": 9,
      "mat": 8,
      "rat": 3,
      "def": 13,
      "arm": 18,
      "fury": 7,
      "cmd": 10,
      "boxes": 18,
      "advantages": [
        "Amphibious",
        "Tough"
      ],
      "base size": 50,
      "attacks": [
        {
          "attack name": "Bone Cleaver",
          "type": "melee",
          "rng": 2,
          "pow": 6,
          "p+s": 15,
          "weapon qualities": [
            "Damage Type: Magical"
          ]
        },
        {
          "attack name": "Bite",
          "type": "melee",
          "rng": 0.5,
          "pow": 5,
          "p+s": 14,
          "abilities": [
            "Grievous Wounds"
          ]
        }
      ],
      "abilities": [
        {
          "Minions": [
            "Circle",
            "Legion",
            "Skorne",
            "Trollbloods"
          ]
        },
        "Bone Pile",
        "Gatorman",
        "Gatorman Warlock",
        "Meat-Fueled",
        "Sacrificial Pawn [Bone Shaker]",
        "Steady",
        "Tide of Skulls",
        "Warlock Unit (Barnabas 2)"
      ],
      "feat": {
        "name": "Death Ritual",
        "flavor": "The Lord of Blood's faithful congregants are the perfect fodder for his rituals of death. As he snuffs out their lives with his divine will, Barnabas harnasses their flesh and spirits to twist reality to his advantage, nullifying battlefield injuries or magnifying his own killing power.",
        "text": "Immediately remove from play one or more friendly living or undead models currently in Barnabas' control range. For each model removed, Barnabas can gain one corpse token or one fury point or can remove d3 damage points from a model in his battlegroup. Barnabas cannot exceed his FURY in fury points as a result of Death Ritual."
      },
      "spells": [
        "Blood Rain",
        "Execration of Blackest Night",
        "Hunter's Mark",
        "Onslaught",
        "Rebuke"
      ]
    },
    {
      "model name": "Bone Shaker",
      "spd": 5,
      "str": 6,
      "mat": 6,
      "rat": 3,
      "def": 13,
      "arm": 14,
      "cmd": 5,
      "boxes": 1,
      "advantages": [
        "Amphibious",
        "Undead"
      ],
      "base size": 30,
      "attacks": [
        {
          "attack name": "Bone Strike",
          "type": "melee",
          "rng": 1,
          "pow": 4,
          "p+s": 10,
          "weapon qualities": [
            "Damage Type: Magical"
          ]
        }
      ],
      "abilities": [
        "Dark Shroud",
        "Steady"
      ]
    }
  ]
}
