{
  "name": "Basilisk Krea",
  "edition": 3,
  "revision": "2017 v1",
  "keywords": [
    "Skorne",
    "Light",
    "Warbeast"
  ],
  "point cost": 7,
  "field allowance": "U",
  "models": [
    {
      "model name": "Krea",
      "spd": 6,
      "str": 8,
      "mat": 4,
      "rat": 4,
      "def": 12,
      "arm": 14,
      "cmd": 5,
      "advantages": [
        "Eyeless Sight"
      ],
      "base size": 40,
      "fury": 3,
      "threshold": 8,
      "boxes": {
        "Spiral 1": 5,
        "Spiral 2": 4,
        "Spiral 3": 4,
        "Spiral 4": 3,
        "Spiral 5": 6,
        "Spiral 6": 6
      },
      "attacks": [
        {
          "attack name": "Spiritual Paralysis",
          "type": "ranged",
          "rng": 8,
          "rof": 1,
          "abilities": [
            "Paralysis"
          ]
        },
        {
          "attack name": "Bite",
          "type": "melee",
          "rng": 0.5,
          "pow": 4,
          "p+s": 12
        }
      ],
      "abilities": [
        "Flank [Basilisk Drake]"
      ],
      "animus": "Force Aura"
    }
  ]
}
