{
  "name": "Bayal, Hound of Everblight",
  "edition": 3,
  "revision": "2020 v1",
  "keywords": [
    "Legion",
    "Blighted",
    "Nyss",
    "Hex Hunter",
    "Command Attachment"
  ],
  "point cost": 5,
  "field allowance": "C",
  "models": [
    {
      "model name": "Bayal 1",
      "spd": 6,
      "str": 6,
      "mat": 8,
      "rat": 4,
      "def": 14,
      "arm": 12,
      "cmd": 9,
      "boxes": 5,
      "advantages": [
        "Officer",
        "Pathfinder",
        "Stealth"
      ],
      "base size": 30,
      "attacks": [
        {
          "attack name": "Hex Razor",
          "type": "melee",
          "rng": 0.5,
          "pow": 4,
          "p+s": 10,
          "weapon qualities": [
            "Damage Type: Magical",
            "Weapon Master"
          ],
          "abilities": [
            "Shadow Bind"
          ]
        }
      ],
      "abilities": [
        "Attachment [Blighted Nyss Hex Hunters]",
        "Apparition",
        "Battle Wizard",
        "Granted: Shadow Bind",
        {
          "Magic Ability [7]": [
            "Frostbite",
            "Hex Bolt"
          ]
        },
        "Tactics: Advance Deploy"
      ]
    }
  ]
}
