{
  "name": "Beast Master Xekaar",
  "edition": 3,
  "revision": "2020 v1",
  "keywords": [
    "Skorne",
    "Paingiver",
    "Warlock"
  ],
  "warbeast points": 31,
  "field allowance": "C",
  "models": [
    {
      "model name": "Xekaar 1",
      "spd": 7,
      "str": 6,
      "mat": 7,
      "rat": 4,
      "def": 16,
      "arm": 14,
      "fury": 6,
      "cmd": 8,
      "boxes": 16,
      "advantages": [
        "Parry"
      ],
      "base size": 30,
      "attacks": [
        {
          "attack name": "Barbed Whip",
          "type": "melee",
          "rng": 2,
          "pow": 4,
          "p+s": 10,
          "weapon qualities": [
            "Chain Weapon",
            "Damage Type: Magical",
            "Weapon Master"
          ],
          "abilities": [
            "Dispel"
          ]
        },
        {
          "attack name": "Barbed Whip",
          "type": "melee",
          "rng": 2,
          "pow": 4,
          "p+s": 10,
          "weapon qualities": [
            "Chain Weapon",
            "Damage Type: Magical",
            "Weapon Master"
          ],
          "abilities": [
            "Dispel"
          ]
        }
      ],
      "abilities": [
        "Alpha Hunter",
        "Maltreatment",
        "Reposition [5\"]"
      ],
      "feat": {
        "name": "Whispers of Torment",
        "flavor": "Xekaar is not simply versed in anatomy and the art of inflicting pain. His own body was blasted apart, then restored by force of will as he fought to endure. Pain transformed him, and he sees it as his ally. By this insight he can inflict unimaginable suffering on his foes, sharing with them a glimpse of the agony he remembers.",
        "text": "While in Xekaar's control range, enemy models suffer -3 STR, MAT, RAT, and THR. Whispers of Torment lasts for one round."
      },
      "spells": [
        "Deadweight",
        "Mortality",
        "Psycho Surgery",
        "Pursuit"
      ]
    }
  ]
}
