{
  "name": "Beast Mistress",
  "edition": 3,
  "revision": "2021 v1",
  "keywords": [
    "Legion",
    "Blighted",
    "Nyss",
    "Solo"
  ],
  "point cost": 2,
  "field allowance": 2,
  "models": [
    {
      "model name": "Beast Mistress",
      "spd": 6,
      "str": 5,
      "mat": 5,
      "rat": 4,
      "def": 14,
      "arm": 13,
      "fury": 4,
      "cmd": 7,
      "boxes": 5,
      "advantages": [
        "Pathfinder"
      ],
      "base size": 30,
      "attacks": [
        {
          "attack name": "Nyss Claymore",
          "type": "melee",
          "rng": 1,
          "pow": 4,
          "p+s": 9
        }
      ],
      "abilities": [
        "Draconic Consort",
        "Field Marshal [Aggressive]",
        "Flank [Legion Lesser Warbeast]"
      ],
      "spells": [
        "Blood Rain",
        "Energizer"
      ]
    }
  ]
}
