{
  "name": "Belphagor",
  "edition": 3,
  "revision": "2020 v1",
  "keywords": [
    "Legion",
    "Light",
    "Warbeast"
  ],
  "field allowance": "C",
  "models": [
    {
      "model name": "Belphagor 1",
      "spd": 5,
      "str": 9,
      "mat": 7,
      "rat": 4,
      "def": 11,
      "arm": 18,
      "cmd": 5,
      "advantages": [
        "Eyeless Sight",
        "Immunity: Corrosion",
        "Immunity: Fire",
        "Soulless"
      ],
      "base size": 40,
      "fury": 3,
      "threshold": 9,
      "boxes": {
        "Spiral 1": 4,
        "Spiral 2": 4,
        "Spiral 3": 7,
        "Spiral 4": 7,
        "Spiral 5": 4,
        "Spiral 6": 4
      },
      "attacks": [
        {
          "attack name": "Acidic Breath",
          "type": "ranged",
          "rng": "SP 6",
          "rof": 1,
          "pow": 10,
          "weapon qualities": [
            "Continuous Effect: Corrosion",
            "Damage Type: Corrosion"
          ]
        },
        {
          "attack name": "Claw",
          "type": "melee",
          "rng": 0.5,
          "pow": 4,
          "p+s": 13,
          "weapon qualities": [
            "Critical Continuous Effect: Corrosion",
            "Open Fist"
          ],
          "abilities": [
            "Blood Boon"
          ]
        },
        {
          "attack name": "Claw",
          "type": "melee",
          "rng": 0.5,
          "pow": 4,
          "p+s": 13,
          "weapon qualities": [
            "Critical Continuous Effect: Corrosion",
            "Open Fist"
          ],
          "abilities": [
            "Blood Boon"
          ]
        }
      ],
      "abilities": [
        "Bond [Bethayne, Voice of Everblight]",
        "Companion [Bethayne, Voice of Everblight]"
      ],
      "animus": "Despoiler"
    }
  ]
}
