{
  "name": "Berserker",
  "edition": 3,
  "revision": "2021 v1",
  "keywords": [
    "Khador",
    "Heavy",
    "Warjack"
  ],
  "point cost": 8,
  "field allowance": "U",
  "models": [
    {
      "model name": "Berserker",
      "spd": 4,
      "str": 11,
      "mat": 6,
      "rat": 3,
      "def": 11,
      "arm": 18,
      "advantages": [
        "Construct"
      ],
      "base size": 50,
      "boxes": {
        "grid": [
          [
            3,
            1
          ],
          [
            4,
            1
          ],
          [
            5,
            1
          ],
          [
            2,
            2
          ],
          [
            3,
            2
          ],
          [
            4,
            2
          ],
          [
            5,
            2
          ],
          [
            6,
            2
          ],
          [
            1,
            3
          ],
          [
            2,
            3
          ],
          [
            3,
            3
          ],
          [
            4,
            3
          ],
          [
            5,
            3
          ],
          [
            6,
            3
          ],
          [
            1,
            4
          ],
          [
            2,
            4
          ],
          [
            3,
            4
          ],
          [
            4,
            4
          ],
          [
            5,
            4
          ],
          [
            2,
            5
          ],
          [
            3,
            5
          ],
          [
            4,
            5
          ],
          [
            5,
            5
          ],
          [
            6,
            5
          ],
          [
            3,
            6
          ],
          [
            4,
            6
          ],
          [
            5,
            6
          ]
        ],
        "systems": [
          {
            "Left Arm": [
              [
                5,
                1
              ],
              [
                4,
                2
              ],
              [
                5,
                2
              ]
            ]
          },
          {
            "Movement": [
              [
                6,
                2
              ],
              [
                5,
                3
              ],
              [
                6,
                3
              ]
            ]
          },
          {
            "Cortex": [
              [
                5,
                4
              ],
              [
                6,
                5
              ]
            ]
          },
          {
            "Right Arm": [
              [
                4,
                5
              ],
              [
                5,
                5
              ],
              [
                5,
                6
              ]
            ]
          }
        ]
      },
      "attacks": [
        {
          "attack name": "War Axe",
          "type": "melee",
          "loc": "L",
          "rng": 1,
          "pow": 5,
          "p+s": 16
        },
        {
          "attack name": "War Axe",
          "type": "melee",
          "loc": "R",
          "rng": 1,
          "pow": 5,
          "p+s": 16
        }
      ],
      "abilities": [
        "Berserk",
        "Unstable"
      ]
    }
  ]
}
