{
  "name": "Bile Thralls",
  "edition": 3,
  "revision": "2021 v1",
  "keywords": [
    "Cryx",
    "Unit"
  ],
  "unit size": [
    {
      "size": "min",
      "members": [
        {
          "name": "Leader",
          "count": 1
        },
        {
          "name": "Grunts",
          "count": 5
        }
      ],
      "point cost": 6
    },
    {
      "size": "max",
      "members": [
        {
          "name": "Leader",
          "count": 1
        },
        {
          "name": "Grunts",
          "counts": 9
        }
      ],
      "point cost": 9
    }
  ],
  "field allowance": 3,
  "models": [
    {
      "model name": "Leader & Grunts",
      "spd": 5,
      "str": 4,
      "mat": 2,
      "rat": 3,
      "def": 10,
      "arm": 13,
      "cmd": 6,
      "boxes": 1,
      "advantages": [
        "Undead"
      ],
      "base size": 30,
      "attacks": [
        {
          "attack name": "Bile Cannon",
          "type": "ranged",
          "rng": "SP 8",
          "rof": 1,
          "pow": 12,
          "weapon qualities": [
            "Continuous Effect: Corrosion",
            "Damage Type: Corrosion"
          ],
          "abilities": [
            "Purge"
          ]
        }
      ]
    }
  ]
}
