{
  "name": "Black 13th Strike Force",
  "edition": 3,
  "revision": "2021 v1",
  "keywords": [
    "Cygnar",
    "Arcane Tempest",
    "Gun Mage",
    "Unit"
  ],
  "unit size": [
    {
      "size": "only",
      "members": [
        {
          "name": "Lynch",
          "count": 1
        },
        {
          "name": "Ryan",
          "count": 1
        },
        {
          "name": "Watts",
          "count": 1
        }
      ],
      "point cost": 7
    }
  ],
  "field allowance": "C",
  "models": [
    {
      "model name": "Lynch 1",
      "spd": 6,
      "str": 4,
      "mat": 5,
      "rat": 8,
      "def": 14,
      "arm": 11,
      "cmd": 7,
      "boxes": 5,
      "advantages": [
        "Gunfighter",
        "Officer",
        "Pathfinder"
      ],
      "base size": 30,
      "attacks": [
        {
          "attack name": "Magelock Pistol",
          "type": "ranged",
          "rng": 10,
          "rof": 1,
          "pow": 10,
          "weapon qualities": [
            "Damage Type: Magical"
          ],
          "abilities": [
            {
              "Attack Type": [
                "Black Penny",
                "Brutal Damage",
                "Snipe"
              ]
            }
          ]
        }
      ],
      "abilities": [
        "Coordinated Fire",
        "Prowl",
        "Swift Hunter",
        "True Sight"
      ]
    },
    {
      "model name": "Ryan 1",
      "spd": 6,
      "str": 4,
      "mat": 5,
      "rat": 8,
      "def": 14,
      "arm": 11,
      "cmd": 7,
      "boxes": 5,
      "advantages": [
        "Gunfighter",
        "Pathfinder"
      ],
      "base size": 30,
      "attacks": [
        {
          "attack name": "Magelock Pistol",
          "type": "ranged",
          "rng": 10,
          "rof": 1,
          "pow": 10,
          "weapon qualities": [
            "Damage Type: Magical"
          ],
          "abilities": [
            {
              "Attack Type": [
                "Black Penny",
                "Brutal Damage",
                "Snipe"
              ]
            }
          ]
        },
        {
          "attack name": "Magelock Pistol",
          "type": "ranged",
          "rng": 10,
          "rof": 1,
          "pow": 10,
          "weapon qualities": [
            "Damage Type: Magical"
          ],
          "abilities": [
            {
              "Attack Type": [
                "Black Penny",
                "Brutal Damage",
                "Snipe"
              ]
            }
          ]
        }
      ],
      "abilities": [
        "Coordinated Fire",
        "Prowl",
        "Swift Hunter",
        "True Sight"
      ]
    },
    {
      "model name": "Watts 1",
      "spd": 6,
      "str": 4,
      "mat": 5,
      "rat": 8,
      "def": 14,
      "arm": 11,
      "cmd": 7,
      "boxes": 5,
      "advantages": [
        "Gunfighter",
        "Pathfinder"
      ],
      "base size": 30,
      "attacks": [
        {
          "attack name": "Magelock Pistol",
          "type": "ranged",
          "rng": 10,
          "rof": 1,
          "pow": 10,
          "weapon qualities": [
            "Damage Type: Magical"
          ],
          "abilities": [
            {
              "Attack Type": [
                "Black Penny",
                "Brutal Damage",
                "Snipe"
              ]
            }
          ]
        }
      ],
      "abilities": [
        "Coordinated Fire",
        "Prowl",
        "Swift Hunter",
        "True Sight"
      ]
    }
  ]
}
