{
  "name": "Blighted Ogrun Warmongers",
  "edition": 3,
  "revision": "2021 v1",
  "keywords": [
    "Legion",
    "Unit"
  ],
  "unit size": [
    {
      "size": "min",
      "members": [
        {
          "name": "Leader",
          "count": 1
        },
        {
          "name": "Grunts",
          "count": 2
        }
      ],
      "point cost": 7
    },
    {
      "size": "max",
      "members": [
        {
          "name": "Leader",
          "count": 1
        },
        {
          "name": "Grunts",
          "count": 4
        }
      ],
      "point cost": 11
    }
  ],
  "field allowance": 3,
  "models": [
    {
      "model name": "Leader & Grunts",
      "spd": 5,
      "str": 9,
      "mat": 6,
      "rat": 3,
      "def": 12,
      "arm": 16,
      "cmd": 7,
      "boxes": [
        {
          "Model A": 5
        },
        {
          "Model B": 5
        },
        {
          "Model C": 5
        },
        {
          "Model D": 5
        },
        {
          "Model E": 5
        }
      ],
      "advantages": [
        "Tough"
      ],
      "base size": 40,
      "attacks": [
        {
          "attack name": "War Cleaver",
          "type": "melee",
          "rng": 2,
          "pow": 5,
          "p+s": 14,
          "abilities": [
            "Powerful Charge"
          ]
        }
      ],
      "abilities": [
        "Berserk",
        "Unyielding"
      ]
    }
  ]
}
