{
  "name": "Blighted Rotwings",
  "edition": 3,
  "revision": "2021 v1",
  "keywords": [
    "Legion",
    "Unit"
  ],
  "unit size": [
    {
      "size": "min",
      "members": [
        {
          "name": "Leader",
          "count": 1
        },
        {
          "name": "Grunts",
          "count": 5
        }
      ],
      "point cost": 6
    },
    {
      "size": "max",
      "members": [
        {
          "name": "Leader",
          "count": 1
        },
        {
          "name": "Grunts",
          "count": 9
        }
      ],
      "point cost": 9
    }
  ],
  "field allowance": 2,
  "models": [
    {
      "model name": "Leader & Grunts",
      "spd": 7,
      "str": 6,
      "mat": 5,
      "rat": 0,
      "def": 13,
      "arm": 11,
      "cmd": 7,
      "boxes": 1,
      "advantages": [
        "Flight"
      ],
      "base size": 30,
      "attacks": [
        {
          "attack name": "Beak",
          "type": "melee",
          "rng": 0.5,
          "pow": 3,
          "p+s": 9
        }
      ],
      "abilities": [
        "Finisher",
        "Reposition [3\"]",
        "Sitting Vulture"
      ]
    }
  ]
}
