{
  "name": "Bloat Thrall Overseer Mobius",
  "edition": 3,
  "revision": "2021 v1",
  "keywords": [
    "Cryx",
    "Bloat",
    "Thrall",
    "Solo"
  ],
  "point cost": 4,
  "field allowance": "C",
  "models": [
    {
      "model name": "Mobius 1",
      "spd": 4,
      "str": 7,
      "mat": 6,
      "rat": 5,
      "def": 10,
      "arm": 14,
      "cmd": 7,
      "boxes": 8,
      "advantages": [
        "Undead"
      ],
      "base size": 40,
      "attacks": [
        {
          "attack name": "Despoiler",
          "type": "ranged",
          "rng": 12,
          "rof": 1,
          "aoe": 4,
          "pow": 14,
          "weapon qualities": [
            "Continuous Effect: Corrosion",
            "Damage Type: Corrosion"
          ],
          "abilities": [
            "Arcing Fire"
          ]
        },
        {
          "attack name": "Bludgeon",
          "type": "melee",
          "rng": 0.5,
          "pow": 3,
          "p+s": 10
        }
      ],
      "abilities": [
        {
          "Battle Plan": [
            "Rush Forward",
            "Scutter [Mobius]",
            "Spotter"
          ]
        },
        "Death Blast",
        "Steady",
        "Veteran Leader [Bloat Thralls]"
      ]
    }
  ]
}
