{
  "name": "Boil Master & Spirit Cauldron",
  "edition": 3,
  "revision": "2017 v1",
  "keywords": [
    "Minion",
    "Unit"
  ],
  "unit size": [
    {
      "size": "only",
      "members": [
        {
          "name": "Boil Master",
          "count": 1
        },
        {
          "name": "Spirit Master",
          "count": 1
        }
      ],
      "point cost": 5
    }
  ],
  "field allowance": 2,
  "models": [
    {
      "model name": "Spirit Cauldron",
      "spd": 0,
      "str": 0,
      "mat": 0,
      "rat": 0,
      "def": 5,
      "arm": 18,
      "cmd": 10,
      "boxes": 10,
      "advantages": [
        "Construct",
        "Officer",
        "Pathfinder"
      ],
      "base size": 50,
      "abilities": [
        {
          "Minion": [
            "Circle",
            "Legion",
            "Skorne",
            "Trollbloods"
          ]
        },
        "Assisted",
        "Bring Out Your Dead!",
        "The Feeding",
        {
          "Magic Ability": [
            "Puppet Master",
            "Seasoning The Sauce",
            "Spectral Lash"
          ]
        },
        "Spectral Delivery"
      ]
    },
    {
      "model name": "Boil Master",
      "spd": 5,
      "str": 7,
      "mat": 5,
      "rat": 3,
      "def": 12,
      "arm": 16,
      "cmd": 5,
      "boxes": 5,
      "advantages": [
        "Amphibious",
        "Tough"
      ],
      "base size": 40,
      "attacks": [
        {
          "attack name": "Cleaver",
          "type": "melee",
          "rng": 1,
          "pow": 5,
          "p+s": 12
        }
      ],
      "abilities": [
        "Gatorman"
      ]
    }
  ]
}
