{
  "name": "Bone Shrine",
  "edition": 3,
  "revision": "2022 v1",
  "keywords": [
    "Minion",
    "Solo"
  ],
  "point cost": 1,
  "field allowance": 2,
  "models": [
    {
      "model name": "Bone Shrine",
      "str": 1,
      "mat": 0,
      "rat": 0,
      "def": 5,
      "arm": 18,
      "cmd": 0,
      "boxes": 8,
      "advantages": [
        "Construct"
      ],
      "base size": 40,
      "abilities": [
        {
          "Minion": [
            "Circle",
            "Legion",
            "Skorne",
            "Trollbloods"
          ]
        },
        "Channeler [Friendly Faction Warlock]",
        "Circular Vision",
        "Distant Deployment",
        "Immobile",
        "Spirit Nexus"
      ]
    }
  ]
}
