{
  "name": "Bronzeback Titan",
  "edition": 3,
  "revision": "2021 v1",
  "keywords": [
    "Skorne",
    "Heavy",
    "Warbeast"
  ],
  "point cost": 16,
  "field allowance": "U",
  "models": [
    {
      "model name": "Bronzeback Titan",
      "spd": 4,
      "str": 13,
      "mat": 7,
      "rat": 3,
      "def": 10,
      "arm": 19,
      "cmd": 7,
      "base size": 50,
      "fury": 5,
      "threshold": 7,
      "boxes": {
        "Spiral 1": 7,
        "Spiral 2": 5,
        "Spiral 3": 8,
        "Spiral 4": 8,
        "Spiral 5": 6,
        "Spiral 6": 6
      },
      "attacks": [
        {
          "attack name": "Tusks",
          "type": "melee",
          "rng": 1,
          "pow": 3,
          "p+s": 16,
          "abilities": [
            "Hard Head"
          ]
        },
        {
          "attack name": "War Gauntlet",
          "type": "melee",
          "rng": 1,
          "pow": 4,
          "p+s": 17,
          "weapon qualities": [
            "Open Fist"
          ],
          "abilities": [
            "Beat Back",
            "Chain Attack: Grab & Smash"
          ]
        }
      ],
      "abilities": [
        "Countercharge",
        "Hyper-Aggressive",
        "Leadership [Titans]"
      ],
      "animus": "Puissance"
    }
  ]
}
