{
  "name": "Buccaneer",
  "edition": 3,
  "revision": "2022 v1",
  "keywords": [
    "Mercenary",
    "Privateer",
    "Light",
    "Warjack"
  ],
  "point cost": 6,
  "field allowance": "U",
  "models": [
    {
      "model name": "Buccaneer",
      "spd": 6,
      "str": 8,
      "mat": 6,
      "rat": 5,
      "def": 13,
      "arm": 16,
      "advantages": [
        "Amphibious",
        "Assault",
        "Construct"
      ],
      "base size": 40,
      "boxes": {
        "grid": [
          [
            3,
            1
          ],
          [
            4,
            1
          ],
          [
            5,
            1
          ],
          [
            2,
            2
          ],
          [
            3,
            2
          ],
          [
            4,
            2
          ],
          [
            5,
            2
          ],
          [
            6,
            2
          ],
          [
            2,
            3
          ],
          [
            3,
            3
          ],
          [
            4,
            3
          ],
          [
            5,
            3
          ],
          [
            6,
            3
          ],
          [
            2,
            4
          ],
          [
            3,
            4
          ],
          [
            4,
            4
          ],
          [
            5,
            4
          ],
          [
            6,
            4
          ],
          [
            2,
            5
          ],
          [
            3,
            5
          ],
          [
            4,
            5
          ],
          [
            5,
            5
          ],
          [
            6,
            5
          ],
          [
            3,
            6
          ],
          [
            4,
            6
          ],
          [
            5,
            6
          ]
        ],
        "systems": [
          {
            "Left Arm": [
              [
                5,
                1
              ],
              [
                4,
                2
              ],
              [
                5,
                2
              ]
            ]
          },
          {
            "Movement": [
              [
                6,
                2
              ],
              [
                5,
                3
              ],
              [
                6,
                3
              ]
            ]
          },
          {
            "Cortex": [
              [
                5,
                4
              ],
              [
                6,
                4
              ],
              [
                6,
                5
              ]
            ]
          },
          {
            "Right Arm": [
              [
                4,
                5
              ],
              [
                5,
                5
              ],
              [
                5,
                6
              ]
            ]
          }
        ]
      },
      "attacks": [
        {
          "attack name": "Net",
          "type": "ranged",
          "loc": "L",
          "rng": 8,
          "rof": 1,
          "abilities": [
            "Knockdown"
          ]
        },
        {
          "attack name": "Gaff",
          "type": "melee",
          "loc": "R",
          "rng": 2,
          "pow": 4,
          "p+s": 12
        }
      ],
      "abilities": [
        "Set Defense"
      ]
    }
  ]
}
