{
  "name": "Calandra Truthsayer, Oracle of the Glimmerwood",
  "edition": 3,
  "revision": "2021 v1",
  "keywords": [
    "Trollblood",
    "Trollkin",
    "Warlock"
  ],
  "warbeast points": 27,
  "field allowance": "C",
  "models": [
    {
      "model name": "Calandra 1",
      "spd": 5,
      "str": 6,
      "mat": 5,
      "rat": 4,
      "def": 14,
      "arm": 14,
      "fury": 8,
      "cmd": 8,
      "boxes": 16,
      "advantages": [
        "Tough"
      ],
      "base size": 40,
      "attacks": [
        {
          "attack name": "Salt",
          "type": "melee",
          "rng": 0.5,
          "pow": 4,
          "p+s": 10,
          "weapon qualities": [
            "Damage Type: Magical"
          ]
        }
      ],
      "abilities": [
        "Fate-Blessed",
        "Soothing Song"
      ],
      "feat": {
        "name": "Good Omens",
        "flavor": "Calandra Truthsayer's unique affinity with Dhunia lets her perceive the vagaries of fate and twist their strands to aid the goddess' favored sons and daughters. Her blessing to beleagured kith and kriel serves as a tangible manifestation of her irrepressible faith and optimism.",
        "text": "When a friendly Faction model rolls a 1 or 2 on a die in an attack or damage roll while in Truthsayer's control range, it can reroll the die. Each die can be rerolled only once as a result of Good Omens. Good Omens lasts for on turn."
      },
      "spells": [
        "Befuddle",
        "Bullet Dodger",
        "Discombobulate",
        "Misfortune",
        "Star-Crossed"
      ]
    }
  ]
}
