{
  "name": "Captain Aiakos",
  "edition": 3,
  "version": "2016 v1",
  "keywords": [
    "Cryx",
    "Warcaster"
  ],
  "warjack points": 29,
  "field allowance": "C",
  "models": [
    {
      "model name": "Aiakos 2",
      "spd": 6,
      "str": 6,
      "mat": 7,
      "rat": 5,
      "def": 15,
      "arm": 15,
      "focus": 6,
      "cmd": 9,
      "boxes": 17,
      "advantages": [
        "Tough"
      ],
      "base size": 30,
      "attacks": [
        {
          "attack name": "Harpoon",
          "type": "ranged",
          "rng": 1,
          "pow": 12,
          "weapon qualities": [
            "Damage Type: Magical"
          ],
          "abilities": [
            "Aim For The Shoulder",
            "Drag"
          ]
        },
        {
          "attack name": "Reaver",
          "type": "melee",
          "rng": 1,
          "pow": 7,
          "p+s": 13,
          "weapon qualities": [
            "Damage Type: Magical"
          ],
          "abilities": [
            "Blood Boon",
            "Grievous Wounds"
          ]
        }
      ],
      "abilities": [
        "Leap"
      ],
      "feat": {
        "name": "Boarding Action",
        "flavor": "Aiakos sends forth his forces like a tide of nightmares, crushing his foes beneath a wave of blackened iron.",
        "text": "Models in Aiakos' battlegroup that are currently in his control range gain +3 SPD and Assault. Boarding Action lasts for one round."
      },
      "spells": [
        "Assail",
        "Carnage",
        "Scything Touch",
        "Stranglehold",
        "White Squall"
      ]
    }
  ]
}
