{
  "name": "Captain Damiano",
  "edition": 3,
  "revision": "2018 v1",
  "keywords": [
    "Mercenary",
    "Ordic",
    "Steelhead",
    "Warcaster"
  ],
  "warjack points": 28,
  "field allowance": "C",
  "models": [
    {
      "model name": "Damiano 1",
      "spd": 6,
      "str": 6,
      "mat": 7,
      "rat": 6,
      "def": 15,
      "arm": 16,
      "focus": 6,
      "cmd": 9,
      "boxes": 16,
      "base size": 30,
      "coins": 5,
      "attacks": [
        {
          "attack name": "Judgment",
          "type": "ranged",
          "rng": 12,
          "rof": 1,
          "pow": 12,
          "weapon qualities": [
            "Damage Type: Magical"
          ],
          "abilities": [
            "Blaster"
          ]
        },
        {
          "attack name": "Glory",
          "type": "melee",
          "rng": 1,
          "pow": 6,
          "p+s": 12,
          "weapon qualities": [
            "Damage Type: Magical"
          ]
        }
      ],
      "abilities": [
        {
          "Mercenary": [
            "Crucible Guard",
            "Cryx",
            "Cygnar",
            "Khador",
            "Protectorate"
          ]
        },
        {
          "Paymaster [Steelhead]": [
            "Battle Maneuvers",
            "Money Shot"
          ]
        }
      ],
      "feat": {
        "name": "Conquest",
        "flavor": "After waiting for battle to reach its peak, Captain Damiano unleashes his sorcery to empower his soldiers' sinew with inhuman strength. His army charges forward to cleave through enemy ranks, heedless of retaliatory harm. Impelled by his will, Captain Damiano's men fight past all limits until their conquest is assured.",
        "text": "While in Damiano's control range, friendly Faction models gain +3 STR and ARM and can move or be moved only during your turn. Conquest lasts for one round."
      },
      "spells": [
        "Convection",
        "Deadeye",
        "Death March",
        "Road To War",
        "Sure Foot"
      ]
    }
  ]
}
