{
  "name": "Captain Eira Mackay",
  "edition": 3,
  "revision": "2019 v1",
  "keywords": [
    "Crucible Guard",
    "Ordic",
    "Battle Engine",
    "Warcaster"
  ],
  "warjack points": 19,
  "field allowance": "C",
  "models": [
    {
      "model name": "Mackay 1",
      "spd": 6,
      "str": 15,
      "mat": 7,
      "rat": 7,
      "def": 10,
      "arm": 18,
      "focus": 6,
      "cmd": 10,
      "boxes": 36,
      "advantages": [
        "Construct",
        "Pathfinder"
      ],
      "base size": 120,
      "attacks": [
        {
          "attack name": "Alchemical Mortar",
          "type": "ranged",
          "rng": 14,
          "rof": 1,
          "aoe": 4,
          "pow": 15,
          "abilities": [
            {
              "Attack Type": [
                "Psychomorphic Destabilizer",
                "Pyro Blossom",
                "Scather"
              ]
            }
          ]
        },
        {
          "attack name": "Flame Thrower",
          "type": "ranged",
          "rng": "SP 8",
          "rof": 1,
          "pow": 12,
          "weapon qualities": [
            "Continuous Effect: Fire",
            "Damage Type: Fire"
          ]
        },
        {
          "attack name": "Bash",
          "type": "melee",
          "rng": 0.5,
          "pow": 0,
          "p+s": 15,
          "abilities": [
            "Ram"
          ]
        },
        {
          "attack name": "Antiminator",
          "type": "ranged",
          "field of fire": "Left",
          "loc": "L",
          "rng": "SP 10",
          "rof": 1,
          "pow": 14,
          "weapon qualities": [
            "Damage Type: Cold"
          ]
        },
        {
          "attack name": "Antiminator",
          "type": "ranged",
          "field of fire": "Right",
          "loc": "R",
          "rng": "SP 10",
          "rof": 1,
          "pow": 14,
          "weapon qualities": [
            "Damage Type: Cold"
          ]
        }
      ],
      "abilities": [
        "Bulldoze",
        "Dual Attack",
        "Exhaust Fumes",
        "Reposition [3\"]"
      ],
      "feat": {
        "name": "Overwhelming Force",
        "flavor": "Captain MacKay knows well the tactical value of aggressive offense. She harnesses her arcane strength to push her engines of war past their limits, augmenting the killing power of each cannon shot and alchemical spray, while also enhancing the mobility of her forces to converge on and destroy her enemies.",
        "text": "Friendly Faction models currently in MacKay's control range gain Run & Gun and their weapons gain Damage Type: Magical. Additionally, when a friendly Faction construct model makes a damage roll against an enemy model in MacKay's control range, the damage roll is boosted. Overwhelming Force lasts for one turn."
      },
      "spells": [
        "Fail-Safe",
        "Jumpstart",
        "Mobility",
        "Return Fire"
      ]
    }
  ]
}
