{
  "name": "Captain E. Dominic Darius & Halfjacks",
  "edition": 3,
  "revision": "2017 v1",
  "keywords": [
    "Cygnar",
    "Warcaster"
  ],
  "warjack points": 29,
  "field allowance": "C",
  "models": [
    {
      "model name": "Darius 1",
      "spd": 5,
      "str": 8,
      "mat": 6,
      "rat": 5,
      "def": 13,
      "arm": 18,
      "focus": 6,
      "cmd": 8,
      "boxes": 22,
      "base size": 40,
      "attacks": [
        {
          "attack name": "Steam Cannon",
          "type": "ranged",
          "rng": 12,
          "rof": 1,
          "aoe": 4,
          "pow": 14
        },
        {
          "attack name": "Quake Hammer",
          "type": "melee",
          "rng": 1,
          "pow": 7,
          "p+s": 15,
          "abilities": [
            "Critical Knockdown",
            "Tremor"
          ]
        },
        {
          "attack name": "Wrench",
          "type": "melee",
          "rng": 0.5,
          "pow": 3,
          "p+s": 11
        }
      ],
      "abilities": [
        "Activate Halfjack",
        "Crane",
        "Repair [d3 + 3]",
        "Repairable"
      ],
      "feat": {
        "name": "Pit Stop",
        "flavor": "Captain Darius draws upon his unmatched mechanikal experience to repair damaged warjacks in the field almost instantaneously. Releasing a wave of directed energy to augment their efforts, he works with his Halfjacks at a mind-boggling pace, restoring even heavily damaged warjacks to perfect operating condition.",
        "text": "Darus gains 1d3+2 focus. This turn, Darius and warjacks in his battlegroup can have damage removed with repair regardless of other special rules. Darius and the Halfjacks in his battlegroup currently in his control range can each completely repair Darius or one friendly Faction warjack with which he or it is B2B. Remove all damage from those models."
      },
      "spells": [
        "Arcantrik Bolt",
        "Fortify",
        "Full Throttle",
        "Jackhammer",
        "Refuge"
      ]
    },
    {
      "model name": "Halfjacks",
      "spd": 6,
      "str": 2,
      "mat": 3,
      "rat": 1,
      "def": 13,
      "arm": 14,
      "boxes": 1,
      "advantages": [
        "Construct"
      ],
      "base size": 30,
      "abilities": [
        "Companion [Captain E. Dominic Darius]",
        "Prime Mine",
        "Repair [1]"
      ]
    }
  ]
}
