{
  "name": "Captain Phinneus Shae",
  "edition": 3,
  "revision": "2022 v1",
  "keywords": [
    "Mercenary",
    "Privateer",
    "Warcaster"
  ],
  "warjack points": 28,
  "field allowance": "C",
  "models": [
    {
      "model name": "Shae 1",
      "spd": 6,
      "str": 6,
      "mat": 7,
      "rat": 6,
      "def": 17,
      "arm": 14,
      "focus": 6,
      "cmd": 8,
      "boxes": 16,
      "advantages": [
        "Amphibious"
      ],
      "base size": 30,
      "attacks": [
        {
          "attack name": "Hand Cannon",
          "type": "ranged",
          "rng": 12,
          "rof": 1,
          "pow": 12
        },
        {
          "attack name": "Squall",
          "type": "melee",
          "rng": 1,
          "pow": 7,
          "p+s": 13,
          "weapon qualities": [
            "Damage Type: Magical"
          ],
          "abilities": [
            "Beat Back"
          ]
        }
      ],
      "abilities": [
        "Limited Employment",
        "Groundwork",
        "Sprint",
        "Synergistic Magic"
      ],
      "feat": {
        "name": "Godspeed",
        "flavor": "Those who fight alongside the warcaster Phinneus Shae are the recipients of unusual luck and good fortune. On the battlefield he can quickly assess the standing of his men and loan them a burst of speed, whether for disengaging to fire pistols or for clearing a lane for a thundering cannonball aimed into the midst of the enemy.",
        "text": "Friendly Faction models currently in Shae's control range immediately advance up to 3\". During this movement, affected models cannot be targeted by free strikes and gain Pathfinder."
      },
      "spells": [
        "Blow The Man Down",
        "Coup De Main",
        "Flashing Blade",
        "Phantasm",
        "Storm Rager",
        "Veil of Mists"
      ]
    }
  ]
}
