{
  "name": "Captain Allister Caine",
  "edition": 3,
  "revision": "2021 v1",
  "keywords": [
    "Cygnar",
    "Arcane Tempest",
    "Gun Mage",
    "Warcaster"
  ],
  "warjack points": 27,
  "field allowance": "C",
  "models": [
    {
      "model name": "Caine 2",
      "spd": 7,
      "str": 5,
      "mat": 4,
      "rat": 9,
      "def": 17,
      "arm": 13,
      "focus": 6,
      "cmd": 8,
      "boxes": 15,
      "advantages": [
        "Gunfighter"
      ],
      "base size": 30,
      "attacks": [
        {
          "attack name": "Spellstorm Pistol",
          "type": "ranged",
          "rng": 12,
          "rof": 1,
          "pow": 12,
          "weapon qualities": [
            "Damage Type: Magical"
          ],
          "abilities": [
            {
              "Empowered Shot": [
                "Black Penny",
                "Grievous Wounds",
                "Trick Shot"
              ]
            },
            "Reload [Infinity]"
          ]
        },
        {
          "attack name": "Spellstorm Pistol",
          "type": "ranged",
          "rng": 12,
          "rof": 1,
          "pow": 12,
          "weapon qualities": [
            "Damage Type: Magical"
          ],
          "abilities": [
            {
              "Empowered Shot": [
                "Black Penny",
                "Grievous Wounds",
                "Trick Shot"
              ]
            },
            "Reload [Infinity]"
          ]
        }
      ],
      "abilities": [
        "True Sight"
      ],
      "feat": {
        "name": "Overkill",
        "flavor": "Caine has achieved perfect, deadly synergy with his pistols. The bullets he fires are infused with sorcerous energies, each one more lethal than the one before, unleashing a focused onslaught of destruction.",
        "text": "After resolving each ranged attack that hits an enemy model, Caine gains a cumulative +1 to his Spellstorm Pistol attack damage rolls. Overkill expires at the end of Caine's activation."
      },
      "spells": [
        "Bullet Dodger",
        "Fire for Effect",
        "Gate Crasher",
        "Heightened Reflexes"
      ]
    }
  ]
}
