{
  "name": "Castigator",
  "edition": 3,
  "revision": "2016 v1",
  "keywords": [
    "Protectorate",
    "Heavy",
    "Warjack"
  ],
  "point cost": 12,
  "field allowance": "U",
  "models": [
    {
      "model name": "Castigaor",
      "spd": 5,
      "str": 11,
      "mat": 6,
      "rat": 5,
      "def": 10,
      "arm": 19,
      "advantages": [
        "Construct",
        "Immunity: Fire"
      ],
      "base size": 50,
      "boxes": {
        "grid": [
          [
            2,
            1
          ],
          [
            3,
            1
          ],
          [
            4,
            1
          ],
          [
            5,
            1
          ],
          [
            1,
            2
          ],
          [
            2,
            2
          ],
          [
            3,
            2
          ],
          [
            4,
            2
          ],
          [
            5,
            2
          ],
          [
            6,
            2
          ],
          [
            1,
            3
          ],
          [
            2,
            3
          ],
          [
            3,
            3
          ],
          [
            4,
            3
          ],
          [
            5,
            3
          ],
          [
            6,
            3
          ],
          [
            1,
            4
          ],
          [
            2,
            4
          ],
          [
            3,
            4
          ],
          [
            4,
            4
          ],
          [
            5,
            4
          ],
          [
            6,
            4
          ],
          [
            1,
            5
          ],
          [
            2,
            5
          ],
          [
            3,
            5
          ],
          [
            4,
            5
          ],
          [
            5,
            5
          ],
          [
            6,
            5
          ],
          [
            2,
            6
          ],
          [
            3,
            6
          ],
          [
            4,
            6
          ],
          [
            5,
            6
          ]
        ],
        "systems": [
          {
            "Left Arm": [
              [
                5,
                1
              ],
              [
                4,
                2
              ],
              [
                5,
                2
              ]
            ]
          },
          {
            "Movement": [
              [
                6,
                2
              ],
              [
                5,
                3
              ],
              [
                6,
                3
              ]
            ]
          },
          {
            "Cortex": [
              [
                5,
                4
              ],
              [
                6,
                4
              ],
              [
                6,
                5
              ]
            ]
          },
          {
            "Right Arm": [
              [
                4,
                5
              ],
              [
                5,
                5
              ],
              [
                5,
                6
              ]
            ]
          }
        ]
      },
      "attacks": [
        {
          "attack name": "Flame Fist",
          "type": "melee",
          "loc": "L",
          "rng": 1,
          "pow": 5,
          "p+s": 16,
          "weapon qualities": [
            "Continuous Effect: Fire",
            "Open Fist"
          ],
          "abilities": [
            "Chain Attack: Combustion"
          ]
        },
        {
          "attack name": "Flame Fist",
          "type": "melee",
          "loc": "R",
          "rng": 1,
          "pow": 5,
          "p+s": 16,
          "weapon qualities": [
            "Continuous Effect: Fire",
            "Open Fist"
          ],
          "abilities": [
            "Chain Attack: Combustion"
          ]
        }
      ],
      "abilities": [
        "Ashen Veil"
      ]
    }
  ]
}
