{
  "name": "Cataphract Cetrati",
  "edition": 3,
  "revision": "2021 v1",
  "keywords": [
    "Skorne",
    "Unit"
  ],
  "unit size": [
    {
      "size": "min",
      "members": [
          {
              "name": "Leader",
              "count": 1
          },
          {
              "name": "Grunts",
              "count": 3
          }
      ],
      "point cost": 9
    },
    {
      "size": "max",
      "members": [
          {
              "name": "Leader",
              "count": 1
          },
          {
              "name": "Grunts",
              "count": 5
          }
      ],
      "point cost": 15
    }
  ],
  "field allowance": 2,
  "models": [
    {
      "model name": "Leader & Grunts",
      "spd": 5,
      "str": 7,
      "mat": 7,
      "rat": 5,
      "def": 11,
      "arm": 16,
      "cmd": 7,
      "boxes": [
        {
          "Model A": 5
        },
        {
          "Model B": 5
        },
        {
          "Model C": 5
        },
        {
          "Model D": 5
        },
        {
          "Model E": 5
        },
        {
          "Model F": 5
        }
      ],
      "advantages": [
        "Combine Melee Attack",
        "Tough"
      ],
      "base size": 40,
      "attacks": [
        {
          "attack name": "War Spear",
          "type": "melee",
          "rng": 2,
          "pow": 4,
          "p+s": 11,
          "weapon qualities": [
            "Weapon Master"
          ]
        }
      ],
      "abilities": [
        "Set Defense",
        "Shield Wall"
      ]
    }
  ]
}
