{
  "name": "Cephalyx Agitator",
  "edition": 3,
  "revision": "2022 v1",
  "keywords": [
    "Mercenary",
    "Solo"
  ],
  "point cost": 2,
  "field allowance": 3,
  "models": [
    {
      "model name": "Agitator",
      "spd": 6,
      "str": 6,
      "mat": 6,
      "rat": 4,
      "def": 14,
      "arm": 13,
      "cmd": 5,
      "boxes": [
        {
          "Model A": 5
        },
        {
          "Model B": 5
        },
        {
          "Model C": 5
        }
      ],
      "advantages": [
        "Pathfinder",
        "Stealth"
      ],
      "base size": 30,
      "attacks": [
        {
          "attack name": "Prosthetic Blades",
          "type": "melee",
          "rng": 1,
          "pow": 5,
          "p+s": 11
        }
      ],
      "abilities": [
        {
          "Mercenary": [
            "Cryx"
          ]
        },
        "Selective",
        "Anatomical Precision",
        {
          "Magic Ability": [
            "Influence",
            "Instigate"
          ]
        },
        "Sacrificial Pawn [Monstrosity]"
      ]
    }
  ]
}
