{
  "name": "Cephalyx Mind Bender & Drudges",
  "edition": 3,
  "revision": "2022 v1",
  "keywords": [
    "Mercenary",
    "Unit"
  ],
  "unit size": [
    {
      "size": "min",
      "members": [
          {
              "name": "Bender",
              "count": 1
          },
          {
              "name": "Drudge Grunts",
              "count": 5
          }
      ],
      "point cost": 7
    },
    {
      "size": "max",
      "members": [
          {
              "name": "Bender",
              "count": 1
          },
          {
              "name": "Drudge Grunts",
              "count": 9
          }
      ],
      "point cost": 11
    }
  ],
  "field allowance": 3,
  "models": [
    {
      "model name": "Mind Bender",
      "spd": 6,
      "str": 6,
      "mat": 6,
      "rat": 4,
      "def": 14,
      "arm": 13,
      "cmd": 7,
      "boxes": 5,
      "advantages": [
        "Officer",
        "Pathfinder",
        "Stealth"
      ],
      "base size": 30,
      "attacks": [
        {
          "attack name": "Prosthetic Manipulators",
          "type": "melee",
          "rng": 1,
          "pow": 2,
          "p+s": 8
        }
      ],
      "abilities": [
        "Limited Employment",
        {
          "Magic Ability [6]": [
            "Adrenal Flood",
            "Concussion Pulse",
            "Psychic Assault"
          ]
        },
        "Psychic Projection",
        "Sacrificial Pawn [Unit]"
      ]
    },
    {
      "model name": "Drudge Grunts",
      "spd": 5,
      "str": 8,
      "mat": 5,
      "rat": 2,
      "def": 12,
      "arm": 16,
      "cmd": 4,
      "boxes": 1,
      "advantages": [
        "Eyeless Sight",
        "Tough"
      ],
      "base size": 30,
      "attacks": [
        {
          "attack name": "Battering Fists",
          "type": "melee",
          "rng": 0.5,
          "pow": 3,
          "p+s": 11
        }
      ]
    }
  ]
}
