{
  "name": "Chosen of Everblight",
  "edition": 3,
  "revision": "2018 v1",
  "keywords": [
    "Legion",
    "Blighted",
    "Ogrun",
    "Unit"
  ],
  "unit size": [
    {
      "size": "min",
      "members": [
          {
              "name": "Leader",
              "count": 1
          },
          {
              "name": "Grunts",
              "count": 2
          }
      ],
      "point cost": 12
    },
    {
      "size": "max",
      "members": [
          {
              "name": "Leader",
              "count": 1
          },
          {
              "name": "Grunts",
              "count": 4
          }
      ],
      "point cost": 20
    }
  ],
  "field allowance": 2,
  "models": [
    {
      "model name": "Leader & Grunts",
      "spd": 7,
      "str": 9,
      "mat": 7,
      "rat": 3,
      "def": 12,
      "arm": 17,
      "cmd": 8,
      "boxes": [
        {
          "Model A": 8
        },
        {
          "Model B": 8
        },
        {
          "Model C": 8
        },
        {
          "Model D": 8
        },
        {
          "Model E": 8
        }
      ],
      "advantages": [
        "Cavalry",
        "Pathfinder",
        "Tough"
      ],
      "base size": 50,
      "attacks": [
        {
          "attack name": "Pole Cleaver",
          "type": "melee",
          "rng": 2,
          "pow": 4,
          "p+s": 13,
          "abilities": [
            "Brutal Charge"
          ]
        },
        {
          "attack name": "Mount",
          "type": "mount",
          "rng": 0.5,
          "pow": 14,
          "abilities": [
            "Critical Knockdown"
          ]
        }
      ],
      "abilities": [
        "Rapid Healing",
        "Reposition [3\"]"
      ]
    }
  ]
}
