{
  "name": "Clockwork Angels",
  "edition": 3,
  "revision": "2020 v1",
  "keywords": [
    "Convergence",
    "Unit"
  ],
  "unit size": [
    {
      "size": "only",
      "members": [
          {
              "name": "Leader",
              "count": 1
          },
          {
              "name": "Grunts",
              "count": 2
          }
      ],
      "point cost": 5
    }
  ],
  "field allowance": 3,
  "models": [
    {
      "model name": "Leader & Grunts",
      "spd": 7,
      "str": 5,
      "mat": 6,
      "rat": 6,
      "def": 14,
      "arm": 12,
      "cmd": 7,
      "boxes": 1,
      "advantages": [
        "Advance Deploy",
        "Combined Ranged Attack",
        "Construct",
        "Flight"
      ],
      "base size": 30,
      "attacks": [
        {
          "attack name": "Binomial Beam",
          "type": "ranged",
          "rng": 10,
          "rof": 1,
          "pow": 10,
          "weapon qualities": [
            "Damage Type: Magical"
          ]
        },
        {
          "attack name": "Binomial Blade",
          "type": "melee",
          "rng": 0.5,
          "pow": 5,
          "p+s": 10,
          "weapon qualities": [
            "Damage Type: Magical"
          ],
          "abilities": [
            "Brutal Charge"
          ]
        }
      ],
      "abilities": [
        "Blade Shield",
        "Reposition [3\"]",
        "Soul Vessel"
      ]
    }
  ]
}
