{
  "name": "Cognifex Cyphon",
  "edition": 3,
  "revision": "2022 v1",
  "keywords": [
    "Mercenary",
    "Cephalyx",
    "Warcaster"
  ],
  "warjack points": 29,
  "field allowance": "C",
  "models": [
    {
      "model name": "Cyphon 1",
      "spd": 5,
      "str": 6,
      "mat": 6,
      "rat": 6,
      "def": 13,
      "arm": 17,
      "focus": 7,
      "cmd": 9,
      "boxes": 18,
      "advantages": [
        "Pathfinder"
      ],
      "base size": 40,
      "attacks": [
        {
          "attack name": "Mind Wipe",
          "type": "ranged",
          "rng": "SP 10",
          "rof": 1,
          "pow": 10,
          "weapon qualities": [
            "Damage Type: Magical"
          ],
          "abilities": [
            "Silencer"
          ]
        },
        {
          "attack name": "Surgical Claws",
          "type": "melee",
          "rng": 1,
          "pow": 6,
          "p+s": 12
        }
      ],
      "abilities": [
        {
          "Mercenary": [
            "Cryx"
          ]
        },
        "Selective",
        "Essence Amplifier",
        "Sacrificial Pawn [Monstrosity]",
        "Steady",
        "Synergistic Magic"
      ],
      "feat": {
        "name": "Adrenaline Rush",
        "flavor": "At the mental command of Cognifex Cyphon, a flood of raw adrenaline infuses the bodies of his hulking monstrosities, propelling them forward to tear the enemy to pieces even as their own bodies suffer beneath the strain.",
        "text": "Monstrosities in Cyphon's battlegroup currently in his control range can gain +3 SPD, STR, and ARM for one round. Those that do suffer 1 damage to each column of their damage grids at the end of their activations this turn."
      },
      "spells": [
        "Blur",
        "Breath Stealer",
        "Empathic Overload",
        "Gallows",
        "Onslaught",
        "Perseverance"
      ]
    }
  ]
}
