{
  "name": "Commander Dalin Sturgis",
  "edition": 3,
  "revision": "2016 v1",
  "keywords": [
    "Cygnar",
    "Warcaster"
  ],
  "warjack points": 30,
  "field allowance": "C",
  "models": [
    {
      "model name": "Sturgis 1",
      "spd": 6,
      "str": 66,
      "mat": 7,
      "rat": 5,
      "def": 16,
      "arm": 15,
      "focus": 6,
      "cmd": 9,
      "boxes": 30,
      "base size": 30,
      "attacks": [
        {
          "attack name": "Hand Cannon",
          "type": "ranged",
          "rng": 12,
          "rof": 1,
          "pow": 12
        },
        {
          "attack name": "Blade (Left)",
          "type": "melee",
          "rng": 2,
          "pow": 7,
          "p+s": 13,
          "weapon qualities": [
            "Damage Type: Magical"
          ],
          "abilities": [
            "Feedback"
          ]
        },
        {
          "attack name": "Blade (Right)",
          "type": "melee",
          "rng": 2,
          "pow": 7,
          "p+s": 13,
          "weapon qualities": [
            "Damage Type: Magical"
          ],
          "abilities": [
            "Electro Leap"
          ]
        }
      ],
      "abilities": [
        "Chain Attack: Flash",
        "Relentless Charge",
        "Reversal",
        "Snap Strike"
      ],
      "feat": {
        "name": "Dead On Arrival",
        "flavor": "Leveraging his indomitable will into raw arcane power, Command Dalin Sturgis seizes every enemy around him and pulls them closer before unleashing an explosion of rending force. Amid the aftermath his warjacks are empowered to annihilate those foes left standing.",
        "text": "Enemy non-warcaster, non-warlock, and non-infernal master models in Sturgis's control range are pushed up to 3\" directly toward Sturgis in the order you choose. Then Sturgis gains 1 focus for each enemy model he is engaging and may make one basic attack with one of his melee weapons against each enemy model in his LOS that is in the melee weapon's range. These attacks are simultaneous. Then, once this turn, anytime this activation except while resolving an attack you can place Sturgis anywhere completely within 3\" of his current location."
      },
      "spells": [
        "Arcane Shield",
        "Positive Charge",
        "Lightning Storm",
        "Snipe",
        "Teleport"
      ]
    }
  ]
}
