{
  "name": "Containment Operatives",
  "edition": 3,
  "revision": "2021 v1",
  "keywords": [
    "Crucible Guard",
    "Combat Alchemist",
    "Unit"
  ],
  "unit size": [
    {
      "size": "only",
      "members": [
            {
                "name": "Leader",
                "count": 1
            },
            {
                "name": "Grunts",
                "count": 2
            }
      ],
      "point cost": 8
    }
  ],
  "field allowance": 2,
  "models": [
    {
      "model name": "Leader & Grunts",
      "spd": 6,
      "str": 5,
      "mat": 5,
      "rat": 6,
      "def": 14,
      "arm": 12,
      "cmd": 7,
      "boxes": 1,
      "advantages": [
        "Immunity: Corrosion",
        "Immunity: Fire",
        "Pathfinder"
      ],
      "base size": 30,
      "attacks": [
        {
          "attack name": "Alchemical Projector",
          "type": "ranged",
          "rng": 14,
          "rof": 1,
          "aoe": 3,
          "pow": "*",
          "abilities": [
            "Arcing Fire",
            {
              "Attack Type": [
                "Acid Bomb",
                "Hull Tincture",
                "Weaponized Psychotropic"
              ]
            }
          ]
        }
      ],
      "abilities": [
        "Special Issue",
        "Alchemical Mask",
        "Prowl"
      ]
    }
  ]
}
