{
  "name": "Crucible Guard Infantry Officer & Standard",
  "edition": 3,
  "revision": "2021 v1",
  "keywords": [
    "Crucible Guard",
    "Command Attachment"
  ],
  "point cost": 4,
  "field allowance": 3,
  "models": [
    {
      "model name": "Officer",
      "spd": 6,
      "str": 6,
      "mat": 7,
      "rat": 6,
      "def": 12,
      "arm": 14,
      "cmd": 8,
      "boxes": 5,
      "advantages": [
        "Combined Ranged Attack",
        "Immunity: Corrosion",
        "Immunity: Fire",
        "Officer"
      ],
      "base size": 30,
      "attacks": [
        {
          "attack name": "Crucible Arms Model 609",
          "type": "ranged",
          "rng": 12,
          "rof": 1,
          "pow": 1,
          "abilities": [
            {
              "Attack Type": [
                "Blood of Urcaen",
                "Pyrocatalyst",
                "Vitriolic Trajectile"
              ]
            }
          ]
        },
        {
          "attack name": "Sword",
          "type": "melee",
          "rng": 0.5,
          "pow": 3,
          "p+s": 9
        }
      ],
      "abilities": [
        "Attachment [Crucible Guard Infantry]",
        "Breather",
        "Granted: Reposition [3\"]",
        "Guns Blazing"
      ]
    },
    {
      "model name": "Standard Bearer",
      "spd": 6,
      "str": 6,
      "mat": 6,
      "rat": 5,
      "def": 12,
      "arm": 14,
      "cmd": 8,
      "boxes": 1,
      "advantages": [
        "Immunity: Corrosion",
        "Immunity: Fire"
      ],
      "base size": 30,
      "attacks": [
        {
          "attack name": "Sword",
          "type": "melee",
          "rng": 0.5,
          "pow": 3,
          "p+s": 9
        }
      ],
      "abilities": [
        "Attachment [Crucible Guard Infantry]",
        "Breather",
        "Mage Static",
        "Standard Bearer",
        "Take Up"
      ]
    }
  ]
}
