{
  "name": "Crucible Guard Rocketman Captain",
  "edition": 3,
  "revision": "2021 v1",
  "keywords": [
    "Crucible Guard",
    "Command Attachment"
  ],
  "point cost": 4,
  "field allowance": 3,
  "models": [
    {
      "model name": "Captain",
      "spd": 7,
      "str": 6,
      "mat": 5,
      "rat": 7,
      "def": 14,
      "arm": 11,
      "cmd": 9,
      "boxes": 5,
      "advantages": [
        "Flight",
        "Gunfighter",
        "Officer"
      ],
      "base size": 30,
      "attacks": [
        {
          "attack name": "Gravity Bomb",
          "type": "ranged",
          "rng": 4,
          "rof": 1,
          "aoe": 3,
          "pow": 12,
          "abilities": [
            "Cumbersome",
            "Sky-Dropped"
          ]
        },
        {
          "attack name": "Carbine",
          "type": "ranged",
          "rng": 10,
          "rof": 1,
          "pow": 10
        },
        {
          "attack name": "Carbine",
          "type": "ranged",
          "rng": 10,
          "rof": 1,
          "pow": 10
        }
      ],
      "abilities": [
        "Attachment [Crucible Guard Rocketmen]",
        "Breather",
        "Death From Above",
        "Granted: Dodge",
        "Tactics: Swift Hunter"
      ]
    }
  ]
}
