{
  "name": "Dannon Blythe & Bull",
  "edition": 3,
  "revision": "2019 v1",
  "keywords": [
    "Mercenary",
    "Minion",
    "Unit"
  ],
  "unit size": [
    {
      "size": "only",
      "members": [
          {
              "name": "Blythe",
              "count": 1
          },
          {
              "name": "Bull",
              "count": 1
          }
      ],
      "point cost": 5
    }
  ],
  "field allowance": "C",
  "models": [
    {
      "model name": "Blythe 1",
      "spd": 6,
      "str": 5,
      "mat": 6,
      "rat": 6,
      "def": 15,
      "arm": 13,
      "cmd": 6,
      "boxes": 5,
      "advantages": [
        "Gunfighter",
        "Officer"
      ],
      "base size": 30,
      "attacks": [
        {
          "attack name": "Pistol",
          "type": "ranged",
          "rng": 8,
          "rof": 1,
          "pow": 10
        },
        {
          "attack name": "Sword",
          "type": "melee",
          "rng": 1,
          "pow": 3,
          "p+s": 8
        }
      ],
      "abilities": [
        {
          "Mercenaries": [
            "Crucible Guard",
            "Cygnar",
            "Khador",
            "Protectorate"
          ]
        },
        {
          "Minions": [
            "Trollbloods"
          ]
        },
        "Partisan [Trollbloods]",
        "Granted: Prey",
        "Take Down"
      ]
    },
    {
      "model name": "Bull 1",
      "spd": 6,
      "str": 7,
      "mat": 6,
      "rat": 6,
      "def": 13,
      "arm": 15,
      "cmd": 6,
      "boxes": 8,
      "advantages": [
        "Tough"
      ],
      "base size": 40,
      "attacks": [
        {
          "attack name": "Demolisher",
          "type": "ranged",
          "rng": 10,
          "rof": "d3",
          "pow": 12,
          "abilities": [
            "Beat Back",
            "Critical Knockdown"
          ]
        },
        {
          "attack name": "Great Sword",
          "type": "melee",
          "rng": 1,
          "pow": 4,
          "p+s": 11
        }
      ],
      "abilities": [
        "Rapid Strike",
        "Take Down",
        "Trollkin"
      ]
    }
  ]
}
