{
  "name": "Dawnguard Destor Thane",
  "edition": 3,
  "revision": "2021 v1",
  "keywords": [
    "Retribution",
    "Solo"
  ],
  "point cost": 7,
  "field allowance": 2,
  "models": [
    {
      "model name": "Thane",
      "spd": 8,
      "str": 6,
      "mat": 8,
      "rat": 7,
      "def": 13,
      "arm": 18,
      "cmd": 9,
      "boxes": 10,
      "advantages": [
        "Cavalry"
      ],
      "base size": 50,
      "attacks": [
        {
          "attack name": "Lance Cannon",
          "type": "ranged",
          "rng": 10,
          "rof": "d3",
          "pow": 14
        },
        {
          "attack name": "Lance",
          "type": "melee",
          "rng": "*",
          "pow": 8,
          "p+s": 14,
          "abilities": [
            "Close Volley",
            "Lance"
          ]
        },
        {
          "attack name": "Mount",
          "type": "melee",
          "rng": 0.5,
          "pow": 12
        }
      ],
      "abilities": [
        "Dual Attack",
        "Leadership [Dawnguard Destors]",
        "Reposition [3\"]",
        "Unyielding"
      ]
    }
  ]
}
