{
  "name": "Deathjack",
  "edition": 3,
  "revision": "2021 v1",
  "keywords": [
    "Cryx",
    "Heavy",
    "Warjack"
  ],
  "point cost": 18,
  "field allowance": "C",
  "models": [
    {
      "model name": "Deathjack 1",
      "spd": 6,
      "str": 12,
      "mat": 8,
      "rat": 4,
      "def": 13,
      "arm": 19,
      "advantages": [
        "Advance Deploy",
        "Construct"
      ],
      "base size": 50,
      "boxes": {
        "grid": [
          [
            2,
            1
          ],
          [
            3,
            1
          ],
          [
            4,
            1
          ],
          [
            5,
            1
          ],
          [
            1,
            2
          ],
          [
            2,
            2
          ],
          [
            3,
            2
          ],
          [
            4,
            2
          ],
          [
            5,
            2
          ],
          [
            6,
            2
          ],
          [
            1,
            3
          ],
          [
            2,
            3
          ],
          [
            3,
            3
          ],
          [
            4,
            3
          ],
          [
            5,
            3
          ],
          [
            6,
            3
          ],
          [
            1,
            4
          ],
          [
            2,
            4
          ],
          [
            3,
            4
          ],
          [
            4,
            4
          ],
          [
            5,
            4
          ],
          [
            6,
            4
          ],
          [
            1,
            5
          ],
          [
            2,
            5
          ],
          [
            3,
            5
          ],
          [
            4,
            5
          ],
          [
            5,
            5
          ],
          [
            6,
            5
          ],
          [
            2,
            6
          ],
          [
            3,
            6
          ],
          [
            4,
            6
          ],
          [
            5,
            6
          ]
        ],
        "systems": [
          {
            "Left Arm": [
              [
                5,
                1
              ],
              [
                4,
                2
              ],
              [
                5,
                2
              ]
            ]
          },
          {
            "Movement": [
              [
                6,
                2
              ],
              [
                5,
                3
              ],
              [
                6,
                3
              ]
            ]
          },
          {
            "Cortex": [
              [
                5,
                4
              ],
              [
                6,
                4
              ],
              [
                6,
                5
              ]
            ]
          },
          {
            "Right Arm": [
              [
                4,
                5
              ],
              [
                5,
                5
              ],
              [
                5,
                6
              ]
            ]
          }
        ]
      },
      "attacks": [
        {
          "attack name": "Necroclaw",
          "type": "melee",
          "loc": "L",
          "rng": 1,
          "pow": 6,
          "p+s": 18,
          "weapon qualities": [
            "Damage Type: Magical",
            "Open Fist"
          ]
        },
        {
          "attack name": "Necroclaw",
          "type": "melee",
          "loc": "R",
          "rng": 1,
          "pow": 6,
          "p+s": 18,
          "weapon qualities": [
            "Damage Type: Magical",
            "Open Fist"
          ]
        },
        {
          "attack name": "Horns",
          "type": "melee",
          "rng": 1,
          "pow": 3,
          "p+s": 15,
          "abilities": [
            "Hard Head"
          ]
        }
      ],
      "abilities": [
        {
          "Magic Ability [7]": [
            "Necromancy"
          ]
        },
        "Skulls of Hate",
        "Snacking"
      ]
    }
  ]
}
