{
  "name": "Druid of Orboros Overseer",
  "edition": 3,
  "revision": "2016 v1",
  "keywords": [
    "Circle",
    "Blackclad",
    "Command Attachment"
  ],
  "point cost": 4,
  "field allowance": 2,
  "models": [
    {
      "model name": "Overseer",
      "spd": 6,
      "str": 6,
      "mat": 6,
      "rat": 4,
      "def": 13,
      "arm": 13,
      "cmd": 9,
      "boxes": 5,
      "advantages": [
        "Officer",
        "Pathfinder"
      ],
      "base size": 30,
      "attacks": [
        {
          "attack name": "Voulge",
          "type": "melee",
          "rng": 2,
          "pow": 4,
          "p+s": 10,
          "weapon qualities": [
            "Damage Type: Magical"
          ]
        }
      ],
      "abilities": [
        "Attachment [Druids of Orboros]",
        "Granted: Apparition",
        {
          "Magic Ability [7]": [
            "Elemental Protection",
            "Pulse of the Earth",
            "Summon Vortex",
            "Wind Strike"
          ]
        },
        "Prowl",
        "Tactics: Sacred Ward"
      ]
    }
  ]
}
