{
  "name": "Dynamo",
  "edition": 3,
  "revision": "2021 v1",
  "keywords": [
    "Cygnar",
    "Heavy",
    "Warjack"
  ],
  "point cost": 17,
  "field allowance": "C",
  "models": [
    {
      "model name": "Dynamo 1",
      "spd": 5,
      "str": 11,
      "mat": 7,
      "rat": 6,
      "def": 12,
      "arm": 18,
      "advantages": [
        "Construct",
        "Immunity: Electricity"
      ],
      "base size": 50,
      "boxes": {
        "grid": [
          [
            2,
            1
          ],
          [
            3,
            1
          ],
          [
            4,
            1
          ],
          [
            5,
            1
          ],
          [
            2,
            2
          ],
          [
            3,
            2
          ],
          [
            4,
            2
          ],
          [
            5,
            2
          ],
          [
            6,
            2
          ],
          [
            1,
            3
          ],
          [
            2,
            3
          ],
          [
            3,
            3
          ],
          [
            4,
            3
          ],
          [
            5,
            3
          ],
          [
            6,
            3
          ],
          [
            1,
            4
          ],
          [
            2,
            4
          ],
          [
            3,
            4
          ],
          [
            4,
            4
          ],
          [
            5,
            4
          ],
          [
            6,
            4
          ],
          [
            2,
            5
          ],
          [
            3,
            5
          ],
          [
            4,
            5
          ],
          [
            5,
            5
          ],
          [
            6,
            5
          ],
          [
            2,
            6
          ],
          [
            3,
            6
          ],
          [
            4,
            6
          ],
          [
            5,
            6
          ]
        ],
        "systems": [
          {
            "Left Arm": [
              [
                5,
                1
              ],
              [
                4,
                2
              ],
              [
                5,
                2
              ]
            ]
          },
          {
            "Movement": [
              [
                6,
                2
              ],
              [
                5,
                3
              ],
              [
                6,
                3
              ]
            ]
          },
          {
            "Cortex": [
              [
                5,
                4
              ],
              [
                6,
                4
              ],
              [
                6,
                5
              ]
            ]
          },
          {
            "Right Arm": [
              [
                4,
                5
              ],
              [
                5,
                5
              ],
              [
                5,
                6
              ]
            ]
          }
        ]
      },
      "attacks": [
        {
          "attack name": "Firestorm Cannon",
          "type": "ranged",
          "loc": "L",
          "rng": 10,
          "rof": 3,
          "pow": 12,
          "weapon qualities": [
            "Damage Type: Electrical"
          ]
        },
        {
          "attack name": "Battle Spear",
          "type": "melee",
          "loc": "R",
          "rng": 2,
          "pow": 6,
          "p+s": 17
        }
      ],
      "abilities": [
        "Bond [Nemo]",
        "Chain Reaction",
        "Insulated Frame"
      ]
    }
  ]
}
