{
  "name": "Egregore",
  "edition": 3,
  "revision": "2018 v1",
  "keywords": [
    "Cryx",
    "Solo"
  ],
  "field allowance": "C",
  "models": [
    {
      "model name": "Egregore",
      "spd": 6,
      "str": 1,
      "mat": 1,
      "rat": 1,
      "def": 13,
      "arm": 17,
      "boxes": 1,
      "advantages": [
        "Construct",
        "Pathfinder",
        "Stealth"
      ],
      "base size": 40,
      "abilities": [
        "Black Mantle",
        "Circular Vision",
        "Companion [Witch Coven of Garlghast]",
        "Steady",
        "Sympathetic Link"
      ]
    }
  ]
}
