{
  "name": "Eiryss, Fortune Hunter of Ios",
  "edition": 3,
  "revision": "2019 v1",
  "keywords": [
    "Mercenary",
    "Mage Hunter",
    "Solo"
  ],
  "point cost": 6,
  "field allowance": "C",
  "models": [
    {
      "model name": "Eiryss 4",
      "spd": 7,
      "str": 4,
      "mat": 7,
      "rat": 9,
      "def": 16,
      "arm": 12,
      "cmd": 9,
      "boxes": 5,
      "advantages": [
        "Advance Deploy",
        "Assault",
        "Pathfinder",
        "Stealth"
      ],
      "base size": 30,
      "attacks": [
        {
          "attack name": "Crossbow",
          "type": "ranged",
          "rng": 12,
          "rof": 1,
          "pow": 10,
          "weapon qualities": [
            "Blessed",
            "Damage Type: Magical"
          ]
        },
        {
          "attack name": "Crossbow",
          "type": "ranged",
          "rng": 12,
          "rof": 1,
          "pow": 10,
          "weapon qualities": [
            "Blessed",
            "Damage Type: Magical"
          ]
        },
        {
          "attack name": "Crossbow Blade",
          "type": "melee",
          "rng": 0.5,
          "pow": 3,
          "p+s": 7,
          "weapon qualities": [
            "Blessed",
            "Damage Type: Magical"
          ]
        }
      ],
      "abilities": [
        {
          "Mercenary": [
            "Cygnar",
            "Khador",
            "Protectorate",
            "Retribution"
          ]
        },
        "Partisan [Retribution]",
        "Arcane Precision",
        "Fortune Hunter",
        "Leadership [Mage Hunter] (Eiryss 4)",
        "Reposition [3\"]",
        "Swift Hunter"
      ]
    }
  ]
}
