{
  "name": "Enigma Foundry",
  "edition": 3,
  "revision": "2018 v1",
  "keywords": [
    "Convergence",
    "Solo"
  ],
  "point cost": 4,
  "field allowance": 2,
  "models": [
    {
      "model name": "Foundry",
      "spd": 5,
      "str": 8,
      "def": 10,
      "arm": 18,
      "cmd": 10,
      "boxes": 10,
      "advantages": [
        "Construct",
        "Pathfinder"
      ],
      "base size": 50,
      "abilities": [
        "Repair [d3 + 3]",
        {
          "Soul Taker: Gatekeeper": [
            "Reconstruction"
          ]
        },
        "Soul Vessel"
      ]
    }
  ]
}
