{
  "name": "Eradicators",
  "edition": 3,
  "revision": "2020 v1",
  "keywords": [
    "Convergence",
    "Unit"
  ],
  "unit size": [
    {
      "size": "min",
      "members": [
          {
              "name": "Leader",
              "count": 1
          },
          {
              "name": "Grunts",
              "count": 2
          }
      ],
      "point cost": 8
    },
    {
      "size": "max",
      "members": [
          {
              "name": "Leader",
              "count": 1
          },
          {
              "name": "Grunts",
              "count": 4
          }
      ],
      "point cost": 13
    }
  ],
  "field allowance": 2,
  "models": [
    {
      "model name": "Leader & Grunts",
      "spd": 5,
      "str": 8,
      "mat": 7,
      "rat": 5,
      "def": 12,
      "arm": 15,
      "cmd": 7,
      "boxes": [
        {
          "Model A": 8
        },
        {
          "Model B": 8
        },
        {
          "Model C": 8
        },
        {
          "Model D": 8
        },
        {
          "Model E": 8
        }
      ],
      "advantages": [
        "Construct"
      ],
      "base size": 40,
      "attacks": [
        {
          "attack name": "Protean Buckler",
          "type": "melee",
          "rng": 0.5,
          "pow": 4,
          "p+s": 12
        },
        {
          "attack name": "Protean Buckler",
          "type": "melee",
          "rng": 0.5,
          "pow": 4,
          "p+s": 12
        }
      ],
      "abilities": [
        "Finisher",
        "Side Step",
        "Soul Vessel",
        {
          "Variable [Melee]": [
            "Accuracy",
            "Shields Up"
          ]
        }
      ]
    }
  ]
}
