{
  "name": "Exemplar Errant Officer & Standard",
  "edition": 3,
  "revision": "2018 v1",
  "keywords": [
    "Protectorate",
    "Command Attachment"
  ],
  "point cost": 4,
  "field allowance": 3,
  "models": [
    {
      "model name": "Officer",
      "spd": 5,
      "str": 6,
      "mat": 8,
      "rat": 7,
      "def": 12,
      "arm": 16,
      "cmd": 8,
      "boxes": 5,
      "advantages": [
        "Advance Deploy",
        "Officer",
        "Pathfinder"
      ],
      "base size": 30,
      "attacks": [
        {
          "attack name": "Heavy Crossbow",
          "type": "ranged",
          "rng": 10,
          "rof": 1,
          "pow": 10,
          "weapon qualities": [
            "Blessed",
            "Damage Type: Magical"
          ]
        },
        {
          "attack name": "Sword",
          "type": "melee",
          "rng": 0.5,
          "pow": 3,
          "p+s": 9,
          "weapon qualities": [
            "Weapon Master"
          ]
        }
      ],
      "abilities": [
        "Attachment [Exemplar Errant]",
        "Mark Target",
        "Purity",
        "Self-Sacrifice",
        "Tactics: Quick Work"
      ]
    },
    {
      "model name": "Standard Bearer",
      "spd": 5,
      "str": 6,
      "mat": 7,
      "rat": 6,
      "def": 12,
      "arm": 16,
      "cmd": 8,
      "boxes": 1,
      "advantages": [
        "Advance Deploy",
        "Pathfinder"
      ],
      "base size": 30,
      "abilities": [
        "Self-Sacrifice",
        "Standard Bearer",
        "Take Up"
      ]
    }
  ]
}
