{
  "name": "Exemplar Bastions",
  "edition": 3,
  "keywords": [
    "Protectorate",
    "Unit"
  ],
  "unit size": [
    {
      "size": "min",
      "members": [
          {
              "name": "Leader",
              "count": 1
          },
          {
              "name": "Grunts",
              "count": 2
          }
      ],
      "point cost": 8
    },
    {
      "size": "max",
      "members": [
          {
              "name": "Leader",
              "count": 1
          },
          {
              "name": "Grunts",
              "count": 4
          }
      ],
      "point cost": 14
    }
  ],
  "field allowance": 2,
  "models": [
    {
      "model name": "Leader & Grunts",
      "spd": 4,
      "str": 7,
      "mat": 7,
      "rat": 4,
      "def": 11,
      "arm": 16,
      "cmd": 8,
      "boxes": [
        {
          "Model A": 5
        },
        {
          "Model B": 5
        },
        {
          "Model C": 5
        },
        {
          "Model D": 5
        },
        {
          "Model E": 5
        }
      ],
      "base size": 40,
      "attacks": [
        {
          "attack name": "Consecrated Halberd",
          "type": "melee",
          "rng": 2,
          "pow": 6,
          "p+s": 13,
          "weapon qualities": [
            "Blessed",
            "Damage Type: Magical",
            "Weapon Master"
          ]
        }
      ],
      "abilities": [
        "Defensive Strike",
        "Sanguine Bond",
        "Set Defense"
      ]
    }
  ]
}
