{
  "name": "Extoller Advocate",
  "edition": 3,
  "revision": "2018 v1",
  "keywords": [
    "Skorne",
    "Command Attachment"
  ],
  "point cost": 3,
  "field allowance": 3,
  "models": [
    {
      "model name": "Extoller",
      "spd": 6,
      "str": 5,
      "mat": 5,
      "rat": 5,
      "def": 14,
      "arm": 13,
      "cmd": 9,
      "boxes": 5,
      "advantages": [
        "Gunfighter",
        "Officer"
      ],
      "base size": 30,
      "attacks": [
        {
          "attack name": "Spirit Eye",
          "type": "ranged",
          "rng": 8,
          "rof": 1,
          "pow": 6,
          "weapon qualities": [
            "Damage Type: Magical"
          ],
          "abilities": [
            "Annihilating Gaze",
            "Ghost Shot"
          ]
        },
        {
          "attack name": "Staff of Ancients",
          "type": "melee",
          "rng": 2,
          "pow": 4,
          "p+s": 9,
          "weapon qualities": [
            "Damage Type: Magical"
          ]
        }
      ],
      "abilities": [
        "Attachment [Immortals]",
        "Sacrificial Pawn [Immortal]",
        {
          "Soul Taker: Shepherd": [
            "Death Boon",
            "Grave Mist",
            "Spirit Walker"
          ]
        },
        "Vengeance"
      ]
    }
  ]
}
