{
  "name": "Feora, Priestess of the Flame",
  "edition": 3,
  "revision": "2016 v1",
  "keywords": [
    "Protectorate",
    "Warcaster"
  ],
  "warjack points": 31,
  "field allowance": "C",
  "models": [
    {
      "model name": "Feora 1",
      "spd": 6,
      "str": 7,
      "mat": 6,
      "rat": 5,
      "def": 15,
      "arm": 17,
      "focus": 6,
      "cmd": 9,
      "boxes": 16,
      "advantages": [
        "Immunity: Fire"
      ],
      "base size": 30,
      "attacks": [
        {
          "attack name": "Flame Thrower",
          "type": "ranged",
          "rng": "SP 8",
          "rof": 1,
          "pow": 12,
          "weapon qualities": [
            "Continuous Effect: Fire",
            "Damage Type: Fire"
          ]
        },
        {
          "attack name": "Flame Thrower",
          "type": "ranged",
          "rng": "SP 8",
          "rof": 1,
          "pow": 12,
          "weapon qualities": [
            "Continuous Effect: Fire",
            "Damage Type: Fire"
          ]
        },
        {
          "attack name": "Truth",
          "type": "melee",
          "rng": 0.5,
          "pow": 6,
          "p+s": 13,
          "weapon qualities": [
            "Critical Fire",
            "Damage Type: Magical"
          ]
        },
        {
          "attack name": "Consequence",
          "type": "melee",
          "rng": 0.5,
          "pow": 6,
          "p+s": 13,
          "weapon qualities": [
            "Critical Fire",
            "Damage Type: Magical"
          ]
        }
      ],
      "abilities": [
        "Veteran Leader [Flameguard]"
      ],
      "feat": {
        "name": "Scorched Earth",
        "flavor": "Using her talent for controlling flame, Feora has learned how to focus her holy fury into a singular burst of fiery wrath. The resulting conflagration guided by her will, engulfs any enemy unfortunate enough to be close by, forcing them to feel the smoldering hatred of her prayers.",
        "text": "Enemy models currently in Feora' control range suffer the Fire continuous effect."
      },
      "spells": [
        "Blazing Effigy",
        "Engine of Destruction",
        "Hex Hammer",
        "Ignite",
        "Dauntless Resolve",
        "Wall of Fire"
      ]
    }
  ]
}
