{
  "name": "Field Mechaniks",
  "edition": 3,
  "revision": "2021 v1",
  "keywords": [
    "Cygnar",
    "Unit"
  ],
  "unit size": [
    {
      "size": "min",
      "members": [
          {
              "name": "Crew Chief",
              "count": 1
          },
          {
              "name": "Gobber Grunts",
              "count": 3
          }
      ],
      "point cost": 2
    },
    {
      "size": "max",
      "members": [
          {
              "name": "Crew Chief",
              "count": 1
          },
          {
              "name": "Gobber Grunts",
              "count": 5
          }
      ],
      "point cost": 4
    }
  ],
  "field allowance": 3,
  "models": [
    {
      "model name": "Crew Chief",
      "spd": 6,
      "str": 4,
      "mat": 3,
      "rat": 3,
      "def": 12,
      "arm": 11,
      "cmd": 6,
      "boxes": 1,
      "advantages": [
        "Officer"
      ],
      "base size": 30,
      "attacks": [
        {
          "attack name": "Rivet Gun",
          "type": "ranged",
          "rng": 4,
          "rof": 1,
          "pow": 10
        },
        {
          "attack name": "Monkey Wrench",
          "type": "melee",
          "rng": 0.5,
          "pow": 2,
          "p+s": 6
        }
      ],
      "abilities": [
        "Iron Sentinel",
        "Repair [d6]"
      ]
    },
    {
      "model name": "Gobber Grunts",
      "spd": 6,
      "str": 4,
      "mat": 3,
      "rat": 3,
      "def": 14,
      "arm": 9,
      "cmd": 4,
      "boxes": 1,
      "base size": 30,
      "attacks": [
        {
          "attack name": "Monkey Wrench",
          "type": "melee",
          "rng": 0.5,
          "pow": 2,
          "p+s": 6
        }
      ],
      "abilities": [
        "Repair [d3]"
      ]
    }
  ]
}
