{
  "name": "Flameguard Cleanser Officer",
  "edition": 3,
  "revision": "2021 v1",
  "keywords": [
    "Protectorate",
    "Command Attachment"
  ],
  "point cost": 3,
  "field allowance": 2,
  "models": [
    {
      "model name": "Officer",
      "spd": 5,
      "str": 6,
      "mat": 7,
      "rat": 6,
      "def": 11,
      "arm": 14,
      "cmd": 9,
      "boxes": 5,
      "advantages": [
        "Immunity: Fire",
        "Officer"
      ],
      "base size": 30,
      "attacks": [
        {
          "attack name": "Purifier",
          "type": "ranged",
          "rng": "SP 8",
          "rof": 1,
          "pow": 12,
          "weapon qualities": [
            "Continuous Effect: Fire",
            "Damage Type: Fire"
          ]
        },
        {
          "attack name": "Purifier Blade",
          "type": "melee",
          "rng": 1,
          "pow": 4,
          "p+s": 10,
          "weapon qualities": [
            "Critical Continuous Fire"
          ]
        }
      ],
      "abilities": [
        "Attached [Flameguard Cleanser]",
        "Ashen Veil",
        "Scouring Flames",
        "Tactics: Assault"
      ]
    }
  ]
}
