{
  "name": "Flubbin",
  "edition": 3,
  "revision": "2022 v1",
  "keywords": [
    "Mercenary",
    "Minion",
    "Gobber",
    "Solo"
  ],
  "point cost": 3,
  "field allowance": "C",
  "models": [
    {
      "model name": "Flubbin 1",
      "spd": 6,
      "str": 4,
      "mat": 2,
      "rat": 6,
      "def": 14,
      "arm": 11,
      "cmd": 3,
      "boxes": 5,
      "advantages": [
        "Flight",
        "Gunfighter"
      ],
      "base size": 30,
      "attacks": [
        {
          "attack name": "Gravity Bomb",
          "type": "ranged",
          "rng": 4,
          "rof": 1,
          "aoe": 3,
          "pow": 12,
          "abilities": [
            "Carpet Bomb (Flubbin 1)",
            "Sky-Dropped"
          ]
        }
      ],
      "abilities": [
        {
          "Mercenary": [
            "Crucible Guard",
            "Cygnar",
            "Khador"
          ]
        },
        {
          "Minion": [
            "Trollbloods"
          ]
        },
        "Flying High",
        "Swift Hunter"
      ]
    }
  ]
}
