{
  "name": "Frightmare",
  "edition": 3,
  "revision": "2021 v1",
  "keywords": [
    "Grymkin",
    "Light",
    "Warbeast"
  ],
  "point cost": 7,
  "field allowance": "U",
  "models": [
    {
      "model name": "Frightmare",
      "spd": 6,
      "str": 7,
      "mat": 5,
      "rat": 5,
      "def": 13,
      "arm": 14,
      "cmd": 6,
      "advantages": [
        "Immunity: Corrosion"
      ],
      "base size": 40,
      "fury": 3,
      "threshold": 8,
      "boxes": {
        "Spiral 1": 5,
        "Spiral 2": 4,
        "Spiral 3": 5,
        "Spiral 4": 5,
        "Spiral 5": 5,
        "Spiral 6": 4
      },
      "attacks": [
        {
          "attack name": "Acid Blast",
          "type": "ranged",
          "rng": 10,
          "rof": 1,
          "aoe": 3,
          "pow": 13,
          "weapon qualities": [
            "Continuous Effect: Corrosion",
            "Damage Type: Corrosion"
          ]
        },
        {
          "attack name": "Claw",
          "type": "melee",
          "rng": 0.5,
          "pow": 3,
          "p+s": 10,
          "weapon qualities": [
            "Open Fist"
          ]
        },
        {
          "attack name": "Claw",
          "type": "melee",
          "rng": 0.5,
          "pow": 3,
          "p+s": 10,
          "weapon qualities": [
            "Open Fist"
          ]
        }
      ],
      "abilities": [
        "Regeneration [d3]"
      ],
      "animus": "See In The Dark"
    }
  ]
}
