{
  "name": "Gatorman Bokor & Bog Trog Swamp Shamblers",
  "edition": 3,
  "revision": "2022 v1",
  "keywords": [
    "Minion",
    "Unit"
  ],
  "unit size": [
    {
      "size": "only",
      "members": [
          {
              "name": "Bokor",
              "count": 1
          },
          {
              "name": "Grunts",
              "count": 9
          }
      ],
      "point cost": 10
    }
  ],
  "field allowance": 2,
  "models": [
    {
      "model name": "Bokor",
      "spd": 5,
      "str": 8,
      "mat": 6,
      "rat": 3,
      "def": 12,
      "arm": 16,
      "cmd": 7,
      "boxes": 5,
      "advantages": [
        "Amphibious",
        "Officer",
        "Tough"
      ],
      "base size": 40,
      "attacks": [
        {
          "attack name": "Bite",
          "type": "melee",
          "rng": 0.5,
          "pow": 5,
          "p+s": 13
        },
        {
          "attack name": "Tail Strike",
          "type": "melee",
          "rng": 0.5,
          "pow": 3,
          "p+s": 11
        }
      ],
      "abilities": [
        {
          "Minions": [
            "Circle",
            "Legion",
            "Skorne",
            "Trollbloods"
          ]
        },
        "Death Magic",
        {
          "Magic Ability [6]": "Hand of Glory"
        },
        "Stir The Dead"
      ]
    },
    {
      "model name": "Shambler Grunts",
      "spd": 5,
      "str": 6,
      "mat": 5,
      "rat": 3,
      "def": 10,
      "arm": 13,
      "cmd": 4,
      "boxes": 1,
      "advantages": [
        "Amphibious",
        "Combined Melee Attack",
        "Undead"
      ],
      "base size": 30,
      "attacks": [
        {
          "attack name": "Claws",
          "type": "melee",
          "rng": 0.5,
          "pow": 3,
          "p+s": 9
        }
      ]
    }
  ]
}
