{
  "name": "General Ossrum",
  "edition": 3,
  "revision": "2019 v1",
  "keywords": [
    "Mercenary",
    "Rhulic",
    "Warcaster"
  ],
  "warjack points": 28,
  "field allowance": "C",
  "models": [
    {
      "model name": "Ossrum 1",
      "spd": 4,
      "str": 6,
      "mat": 7,
      "rat": 6,
      "def": 14,
      "arm": 17,
      "focus": 6,
      "cmd": 9,
      "boxes": 18,
      "base size": 30,
      "attacks": [
        {
          "attack name": "Hand Cannon",
          "type": "ranged",
          "rng": 12,
          "rof": 1,
          "pow": 12
        },
        {
          "attack name": "Oathkeeper",
          "type": "melee",
          "rng": 0.5,
          "pow": 7,
          "p+s": 13,
          "weapon qualities": [
            "Damage Type: Magical"
          ],
          "abilities": [
            "Critical Decapitation"
          ]
        }
      ],
      "abilities": [
        {
          "Mercenary": [
            "Crucible Guard",
            "Cygnar",
            "Khador",
            "Protectorate"
          ]
        },
        "Tactician [Rhulic]"
      ],
      "feat": {
        "name": "Perfect Plan",
        "flavor": "General Ossrum knows the value of seizing the initiative. By his power he can instill his troops with a sudden burst of irrepressible speed and mobility, all while shielding them from retaliation. Moving swiftly across the battlefield, they shrug off incoming fire as they secure key objectives and put the enemy on the defensive.",
        "text": "Friendly Rhulic models/units currently in Ossrum's control range gain +3 ARM, +3 SPD, and Pathfinder. Perfect Plan lasts for one round."
      },
      "spells": [
        "Bullet Dodger",
        "Energizer",
        "Fire For Effect",
        "Snipe",
        "Stranglehold",
        "Unstoppable Force"
      ]
    }
  ]
}
