{
  "name": "Goreshade the Cursed",
  "edition": 3,
  "revision": "2019 v1",
  "keywords": [
    "Cryx",
    "Warcaster"
  ],
  "warjack points": 28,
  "field allowance": "C",
  "models": [
    {
      "model name": "Goreshade 2",
      "spd": 6,
      "str": 7,
      "mat": 7,
      "rat": 4,
      "def": 15,
      "arm": 16,
      "focus": 7,
      "cmd": 8,
      "boxes": 17,
      "advantages": [
        "Immunity: Cold",
        "Undead"
      ],
      "base size": 40,
      "attacks": [
        {
          "attack name": "Voass",
          "type": "melee",
          "rng": 2,
          "pow": 8,
          "weapon qualities": [
            "Damage Type: Magical"
          ],
          "abilities": [
            "Freeze"
          ]
        }
      ],
      "abilities": [
        "Arcane Consumption",
        "Tactician [Bane]"
      ],
      "feat": {
        "name": "Reanimator",
        "flavor": "Goreshade bolsters his mastery of death magic with profane lore otherwise forgotten. As part of a dark accounting he balances the scales of death by snuffing the animating force of one soldier to grant its spark to another.",
        "text": "Remove one or more friendly Faction warrior models currently in Goreshade's control range from play. For each model removed, return one destroyed non-character friendly Faction warrior model to play completely within Goreshade's control range. Place returned trooper models in formation with their original units. Returned models forfeit their Combat Actions the turn they return to play."
      },
      "spells": [
        "Abyssal Gate",
        "Curse of Shadows",
        "Hex Blast",
        "Mirage",
        "Occultation"
      ]
    }
  ]
}
