{
  "name": "Gorman di Wulfe, Rogue Alchemist",
  "edition": 3,
  "revision": "2019 v1",
  "keywords": [
    "Mercenary",
    "Llaelese",
    "Solo"
  ],
  "point cost": 4,
  "field allowance": "C",
  "models": [
    {
      "model name": "Gorman 1",
      "spd": 6,
      "str": 4,
      "mat": 5,
      "rat": 6,
      "def": 14,
      "arm": 12,
      "cmd": 6,
      "boxes": 5,
      "advantages": [
        "Immunity: Corrosion",
        "Immunity: Fire",
        "Stealth"
      ],
      "base size": 30,
      "attacks": [
        {
          "attack name": "Alchemical Grenades",
          "type": "ranged",
          "rng": 6,
          "rof": 1,
          "aoe": 3,
          "pow": "*",
          "abilities": [
            {
              "Attack Type": [
                "Acid Bomb",
                "Black Oil",
                "Rust"
              ]
            }
          ]
        },
        {
          "attack name": "Stiletto",
          "type": "melee",
          "rng": 0.5,
          "pow": 2,
          "p+s": 6
        }
      ],
      "abilities": [
        {
          "Mercenary": [
            "Crucible Guard",
            "Cryx",
            "Cygnar",
            "Khador",
            "Protectorate"
          ]
        },
        "Partisan [Crucible Guard]",
        "Alchemical Mask",
        "Smoke Bombs"
      ]
    }
  ]
}
