{
  "name": "Gorten Grundback",
  "edition": 3,
  "revision": "2022 v1",
  "keywords": [
    "Mercenary",
    "Rulic",
    "Warcaster"
  ],
  "warjack points": 31,
  "field allowance": "C",
  "models": [
    {
      "model name": "Gorten 1",
      "spd": 4,
      "str": 7,
      "mat": 7,
      "rat": 5,
      "def": 13,
      "arm": 19,
      "focus": 5,
      "cmd": 8,
      "boxes": 18,
      "advantages": [
        "Tough"
      ],
      "base size": 30,
      "attacks": [
        {
          "attack name": "Dual Hand Cannon",
          "type": "ranged",
          "rng": 12,
          "rof": 2,
          "pow": 12,
          "abilities": [
            "Both Barrels"
          ]
        },
        {
          "attack name": "Forge Father",
          "type": "melee",
          "rng": 0.5,
          "pow": 7,
          "p+s": 14,
          "weapon qualities": [
            "Damage Type: Magical"
          ],
          "abilities": [
            "Critical Smite"
          ]
        },
        {
          "attack name": "Gutter",
          "type": "melee",
          "rng": 0.5,
          "pow": 2,
          "p+s": 9
        }
      ],
      "abilities": [
        {
          "Mercenary": [
            "Crucible Guard",
            "Cygnar",
            "Khador"
          ]
        },
        "Resourceful",
        "Solid Ground"
      ],
      "feat": {
        "name": "Landslide",
        "flavor": "Gorten's command of the elements of deep earth extends to a mastery of tectonic forces. The powerful warcaster can impel the ground itself to shift or slide and can thereby draw his enemies closer or push them away, quickly turning an enemy offensive into a scramble for escape.",
        "text": "Choose a table edge and a distance up to 8\". Enemy models currently in Gorten's control range are pushed the chosen distance directly toward the chosen table edge in the order you choose. For one round, affected models suffer -3 SPD, RAT, and DEF, cannot give or receive orders, and cannot charge or make slam or trample power attacks."
      },
      "spells": [
        "Energizer",
        "Molten Metal",
        "Rock Wall",
        "Solid Ground",
        "Strength of Granite"
      ]
    }
  ]
}
