{
  "name": "Greylord Ternion",
  "edition": 3,
  "revision": "2021 v1",
  "keywords": [
    "Khador",
    "Unit"
  ],
  "unit size": [
    {
      "size": "only",
      "members": [
          {
              "name": "Leader",
              "count": 1
          },
          {
              "name": "Grunts",
              "count": 2
          }
      ],
      "point cost": 5
    }
  ],
  "field allowance": 3,
  "models": [
    {
      "model name": "Leader & Grunts",
      "spd": 6,
      "str": 5,
      "mat": 5,
      "rat": 4,
      "def": 13,
      "arm": 13,
      "cmd": 7,
      "boxes": 1,
      "advantages": [
        "Immunity: Cold"
      ],
      "base size": 30,
      "attacks": [
        {
          "attack name": "Rune Axe",
          "type": "melee",
          "rng": 1,
          "pow": 5,
          "p+s": 10,
          "weapon qualities": [
            "Damage Type: Magical"
          ]
        }
      ],
      "abilities": [
        "Battle Wizard",
        {
          "Magical Ability": [
            "Blizzard",
            "Bonds Of Woe",
            "Ice Cage"
          ]
        }
      ]
    }
  ]
}
