{
  "name": "Griever Swarm",
  "edition": 3,
  "revision": "2021 v1",
  "keywords": [
    "Infernal",
    "Unit"
  ],
  "unit size": [
    {
      "size": "min",
      "members": [
          {
              "name": "Leader",
              "count": 1
          },
          {
              "name": "Grunts",
              "count": 5
          }
      ],
      "point cost": 7
    },
    {
      "size": "max",
      "members": [
          {
              "name": "Leader",
              "count": 1
          },
          {
              "name": "Grunts",
              "count": 9
          }
      ],
      "point cost": 12
    }
  ],
  "field allowance": 2,
  "models": [
    {
      "model name": "Leader & Grunts",
      "spd": 7,
      "str": 6,
      "mat": 2,
      "rat": 5,
      "def": 13,
      "arm": 12,
      "cmd": 8,
      "boxes": 1,
      "advantages": [
        "Combined Ranged Attack",
        "Eyeless Sight",
        "Flight",
        "Gunfighter",
        "Soulless"
      ],
      "base size": 30,
      "attacks": [
        {
          "attack name": "Void Fire",
          "type": "ranged",
          "rng": 10,
          "rof": 1,
          "pow": 12,
          "weapon qualities": [
            "Critical Continuous Fire",
            "Damage Type: Magical"
          ]
        }
      ]
    }
  ]
}
