{
  "name": "Gudrun the Wanderer",
  "edition": 3,
  "revision": "2022 v1",
  "keywords": [
    "Mercenary",
    "Minion",
    "Ogrun",
    "Solo"
  ],
  "point cost": 5,
  "field allowance": "C",
  "models": [
    {
      "model name": "Gudrun 1",
      "spd": 6,
      "str": 9,
      "mat": 7,
      "rat": 4,
      "def": 13,
      "arm": 15,
      "cmd": 5,
      "boxes": 8,
      "advantages": [
        "Advance Deploy",
        "Pathfinder"
      ],
      "base size": 40,
      "attacks": [
        {
          "attack name": "Battle Glaive",
          "type": "melee",
          "rng": 2,
          "pow": 6,
          "p+s": 15
        }
      ],
      "abilities": [
        {
          "Mercenary": [
            "Cryx",
            "Cygnar",
            "Khador"
          ]
        },
        {
          "Minion": [
            "Circle",
            "Legion",
            "Skorne",
            "Trollbloods"
          ]
        },
        "Berserk",
        "Binge Drinking",
        "Feign Death",
        "Hangover",
        "Rise"
      ]
    }
  ]
}
