{
  "name": "Gun Boar",
  "edition": 3,
  "revision": "2022 v1",
  "keywords": [
    "Minion",
    "Farrow",
    "Light",
    "Warbeast"
  ],
  "point cost": 7,
  "field allowance": "U",
  "models": [
    {
      "model name": "Gun Boar",
      "spd": 5,
      "str": 8,
      "mat": 5,
      "rat": 5,
      "def": 12,
      "arm": 16,
      "cmd": 6,
      "base size": 40,
      "fury": 3,
      "threshold": 7,
      "boxes": {
        "Spiral 1": 4,
        "Spiral 2": 2,
        "Spiral 3": 6,
        "Spiral 4": 4,
        "Spiral 5": 4,
        "Spiral 6": 2
      },
      "attacks": [
        {
          "attack name": "Big Gun",
          "type": "ranged",
          "rng": 12,
          "rof": 1,
          "aoe": 3,
          "pow": 13,
          "abilities": [
            "High-Explosive"
          ]
        },
        {
          "attack name": "Open Fist",
          "type": "melee",
          "rng": 0.5,
          "pow": 3,
          "p+s": 11,
          "weapon qualities": [
            "Open Fist"
          ]
        }
      ],
      "abilities": [
        "Bacon"
      ],
      "animus": "Counterblast"
    }
  ]
}
