{
  "name": "Harpy",
  "edition": 3,
  "revision": "2017 v1",
  "keywords": [
    "Retribution",
    "Vyre",
    "Light",
    "Warjack"
  ],
  "point cost": 9,
  "field allowance": "U",
  "models": [
    {
      "model name": "Harpy",
      "spd": 5,
      "str": 9,
      "mat": 6,
      "rat": 6,
      "def": 12,
      "arm": 17,
      "advantages": [
        "Construct",
        "Flight"
      ],
      "base size": 40,
      "boxes": {
        "grid": [
          [
            3,
            1
          ],
          [
            4,
            1
          ],
          [
            5,
            1
          ],
          [
            2,
            2
          ],
          [
            3,
            2
          ],
          [
            4,
            2
          ],
          [
            5,
            2
          ],
          [
            6,
            2
          ],
          [
            2,
            3
          ],
          [
            3,
            3
          ],
          [
            4,
            3
          ],
          [
            5,
            3
          ],
          [
            6,
            3
          ],
          [
            2,
            4
          ],
          [
            3,
            4
          ],
          [
            4,
            4
          ],
          [
            5,
            4
          ],
          [
            6,
            4
          ],
          [
            2,
            5
          ],
          [
            3,
            5
          ],
          [
            4,
            5
          ],
          [
            5,
            5
          ],
          [
            6,
            5
          ],
          [
            3,
            6
          ],
          [
            4,
            6
          ],
          [
            5,
            6
          ]
        ],
        "systems": [
          {
            "Left Arm": [
              [
                5,
                1
              ],
              [
                4,
                2
              ],
              [
                5,
                2
              ]
            ]
          },
          {
            "Movement": [
              [
                6,
                2
              ],
              [
                5,
                3
              ],
              [
                6,
                3
              ]
            ]
          },
          {
            "Cortex": [
              [
                5,
                4
              ],
              [
                6,
                4
              ],
              [
                6,
                5
              ]
            ]
          },
          {
            "Right Arm": [
              [
                4,
                5
              ],
              [
                5,
                5
              ],
              [
                5,
                6
              ]
            ]
          }
        ]
      },
      "attacks": [
        {
          "attack name": "Wind Flayer",
          "type": "ranged",
          "loc": "R",
          "rng": 12,
          "rof": 2,
          "pow": 13,
          "weapon qualities": [
            "Damage Type: Magical"
          ],
          "abilities": [
            "Thunderbolt"
          ]
        },
        {
          "attack name": "Force Claw",
          "type": "melee",
          "loc": "L",
          "rng": 1,
          "pow": 4,
          "p+s": 13,
          "weapon qualities": [
            "Open Fist"
          ]
        },
        {
          "attack name": "Light Force Claw",
          "type": "melee",
          "loc": "R",
          "rng": 0.5,
          "pow": 2,
          "p+s": 11,
          "weapon qualities": [
            "Open Fist"
          ]
        }
      ]
    }
  ]
}
