{
  "name": "Helios",
  "edition": 3,
  "revision": "2016 v1",
  "keywords": [
    "Retribution",
    "Shyeel",
    "Colossal",
    "Warjack"
  ],
  "point cost": 34,
  "field allowance": 2,
  "models": [
    {
      "model name": "Helios",
      "spd": 5,
      "str": 17,
      "mat": 6,
      "rat": 5,
      "def": 10,
      "arm": 19,
      "advantages": [
        "Construct",
        "Pathfinder"
      ],
      "base size": 120,
      "boxes": {
        "force field": 12,
        "Left": {
          "grid": [
            [
              4,
              1
            ],
            [
              5,
              1
            ],
            [
              6,
              1
            ],
            [
              3,
              2
            ],
            [
              4,
              2
            ],
            [
              5,
              2
            ],
            [
              6,
              2
            ],
            [
              3,
              2
            ],
            [
              4,
              2
            ],
            [
              5,
              2
            ],
            [
              6,
              2
            ],
            [
              2,
              4
            ],
            [
              3,
              4
            ],
            [
              4,
              4
            ],
            [
              5,
              4
            ],
            [
              6,
              4
            ],
            [
              2,
              5
            ],
            [
              3,
              5
            ],
            [
              4,
              5
            ],
            [
              5,
              5
            ],
            [
              6,
              5
            ],
            [
              2,
              6
            ],
            [
              3,
              6
            ],
            [
              4,
              6
            ],
            [
              5,
              6
            ],
            [
              6,
              6
            ]
          ],
          "systems": [
            {
              "Left Arm": [
                [
                  5,
                  1
                ],
                [
                  6,
                  1
                ],
                [
                  5,
                  2
                ],
                [
                  4,
                  3
                ],
                [
                  4,
                  4
                ]
              ]
            },
            {
              "Cortex": [
                [
                  6,
                  2
                ],
                [
                  5,
                  3
                ],
                [
                  5,
                  4
                ],
                [
                  5,
                  5
                ],
                [
                  4,
                  6
                ],
                [
                  5,
                  6
                ]
              ]
            },
            {
              "Shield Generator": [
                [
                  3,
                  5
                ],
                [
                  4,
                  5
                ],
                [
                  3,
                  6
                ]
              ]
            },
            {
              "Movement": [
                [
                  6,
                  3
                ],
                [
                  6,
                  4
                ],
                [
                  6,
                  5
                ],
                [
                  6,
                  6
                ]
              ]
            }
          ]
        },
        "Right": {
          "Grid": [
            [
              2,
              1
            ],
            [
              3,
              1
            ],
            [
              4,
              1
            ],
            [
              5,
              1
            ],
            [
              6,
              1
            ],
            [
              2,
              2
            ],
            [
              3,
              2
            ],
            [
              4,
              2
            ],
            [
              5,
              2
            ],
            [
              6,
              2
            ],
            [
              2,
              3
            ],
            [
              3,
              3
            ],
            [
              4,
              3
            ],
            [
              5,
              3
            ],
            [
              6,
              3
            ],
            [
              3,
              4
            ],
            [
              4,
              4
            ],
            [
              5,
              4
            ],
            [
              6,
              4
            ],
            [
              3,
              5
            ],
            [
              4,
              5
            ],
            [
              5,
              5
            ],
            [
              6,
              5
            ],
            [
              4,
              6
            ],
            [
              5,
              6
            ],
            [
              6,
              6
            ]
          ],
          "Right Arm": [
            [
              4,
              3
            ],
            [
              4,
              4
            ],
            [
              5,
              5
            ],
            [
              5,
              6
            ],
            [
              6,
              6
            ]
          ],
          "Cortex": [
            [
              4,
              1
            ],
            [
              5,
              1
            ],
            [
              5,
              2
            ],
            [
              5,
              3
            ],
            [
              5,
              4
            ],
            [
              6,
              5
            ]
          ],
          "Shield Generator": [
            [
              3,
              1
            ],
            [
              3,
              2
            ]
          ],
          "Movement": [
            [
              6,
              1
            ],
            [
              6,
              2
            ],
            [
              6,
              3
            ],
            [
              6,
              4
            ]
          ]
        }
      },
      "attacks": [
        {
          "attack name": "Tractor Beam",
          "type": "ranged",
          "rof": 3,
          "abilities": [
            "Force Grip"
          ]
        },
        {
          "attack name": "Inferno Fist",
          "type": "melee",
          "field of fire": "Left",
          "loc": "L",
          "rng": 2,
          "pow": 4,
          "p+s": 21,
          "weapon qualities": [
            "Continuous Effecct: Fire",
            "Open Fist"
          ],
          "abilities": [
            "Flame Burst"
          ]
        },
        {
          "attack name": "Inferno Fist",
          "type": "melee",
          "field of fire": "Right",
          "loc": "R",
          "rng": 2,
          "pow": 4,
          "p+s": 21,
          "weapon qualities": [
            "Continuous Effecct: Fire",
            "Open Fist"
          ],
          "abilities": [
            "Flame Burst"
          ]
        }
      ],
      "abilities": [
        "Dual Attack",
        "Field Dependent (Helios)",
        "Force Barrier",
        {
          "Force Gate": [
            "Broadcast Power",
            "Distortion Field",
            "Repulsor Field"
          ]
        }
      ]
    }
  ]
}
