{
  "name": "Hellslinger Phantom",
  "edition": 3,
  "revision": "2021 v1",
  "keywords": [
    "Cryx",
    "Wraith",
    "Solo"
  ],
  "point cost": 6,
  "field allowance": "C",
  "models": [
    {
      "model name": "Hellslinger Phantom 1",
      "spd": 6,
      "str": 4,
      "mat": 4,
      "rat": 8,
      "def": 15,
      "arm": 13,
      "cmd": 5,
      "boxes": 5,
      "advantages": [
        "Gunfighter",
        "Incorporeal",
        "Undead"
      ],
      "base size": 30,
      "attacks": [
        {
          "attack name": "Wraithstorm Pistol",
          "type": "ranged",
          "rng": 10,
          "rof": 1,
          "pow": 12,
          "weapon qualities": [
            "Damage Type: Magical"
          ],
          "abilities": [
            {
              "Attack Type": [
                "Critical Grievous Wounds",
                "Ghost Shot",
                "Incendiary"
              ]
            },
            "Reload [1]"
          ]
        },
        {
          "attack name": "Wraithstorm Pistol",
          "type": "ranged",
          "rng": 10,
          "rof": 1,
          "pow": 12,
          "weapon qualities": [
            "Damage Type: Magical"
          ],
          "abilities": [
            {
              "Attack Type": [
                "Critical Grievous Wounds",
                "Ghost Shot",
                "Incendiary"
              ]
            },
            "Reload [1]"
          ]
        }
      ],
      "abilities": [
        {
          "Soul Taker: Body Count": [
            "Strength of Death"
          ]
        },
        "Swift Hunter"
      ]
    }
  ]
}
