{
  "name": "Hermit of Henge Hold",
  "edition": 3,
  "revision": "2019 v1",
  "keywords": [
    "Mercenary",
    "Minion",
    "Solo"
  ],
  "point cost": 5,
  "field allowance": "C",
  "models": [
    {
      "model name": "Hermit 1",
      "spd": 5,
      "str": 4,
      "mat": 3,
      "rat": 3,
      "def": 11,
      "arm": 11,
      "cmd": 8,
      "boxes": 5,
      "base size": 30,
      "abilities": [
        {
          "Mercenary": [
            "Convergence",
            "Crucible Guard",
            "Cryx",
            "Cygnar",
            "Infernals",
            "Khador",
            "Protectorate",
            "Retribution"
          ]
        },
        {
          "Minion": [
            "Circle",
            "Grymkin",
            "Legion",
            "Skorne",
            "Trollbloods"
          ]
        },
        "Partisan [Infernal]",
        "Partisan [Retribution]",
        "Ancient Shroud",
        "Dark Prophecy",
        "Mad Visions",
        {
          "Magic Ability": [
            "Grip of Shadows",
            "Whispers at the Gate",
            "Word of Ruin"
          ]
        },
        "Marked Soul"
      ]
    }
  ]
}
