{
  "name": "High Paladin Dartan Vilmon",
  "edition": 3,
  "revision": "2021 v1",
  "keywords": [
    "Protectorate",
    "Solo"
  ],
  "point cost": 5,
  "field allowance": "C",
  "models": [
    {
      "model name": "Vilmon 1",
      "spd": 6,
      "str": 7,
      "mat": 9,
      "rat": 4,
      "def": 13,
      "arm": 18,
      "cmd": 10,
      "boxes": 8,
      "base size": 30,
      "attacks": [
        {
          "attack name": "Censure",
          "type": "melee",
          "rng": 1,
          "pow": 7,
          "p+s": 14,
          "weapon qualities": [
            "Damage Type: Magical",
            "Weapon Master"
          ]
        }
      ],
      "abilities": [
        "Elite Cadre [Paladin of the Order of the Wall]",
        "Righteous Vengeance",
        "Shield Guard",
        "Stone-And-Mortar Stance"
      ]
    }
  ]
}
