{
  "name": "High Exemplar Kreoss",
  "edition": 3,
  "revision": "2016 v1",
  "keywords": [
    "Protectorate",
    "Warcaster"
  ],
  "warjack points": 29,
  "field allowance": "C",
  "models": [
    {
      "model name": "Kreoss 1",
      "spd": 5,
      "str": 7,
      "mat": 7,
      "rat": 4,
      "def": 14,
      "arm": 16,
      "focus": 7,
      "cmd": 9,
      "boxes": 18,
      "base size": 30,
      "attacks": [
        {
          "attack name": "Spellbreaker",
          "type": "melee",
          "rng": 2,
          "pow": 7,
          "p+s": 14,
          "weapon qualities": [
            "Chain Weapon",
            "Damage Type: Magical"
          ],
          "abilities": [
            "Dispel"
          ]
        }
      ],
      "feat": {
        "name": "Menoth's Wrath",
        "flavor": "High Exemplar Kreoss stands in perfect harmony with the Lawgiver. With but a few chanted words from an ancient litany, Kreoss unleashes the anger of man's creator to smite all who oppose him to their knees.",
        "text": "Enemy models currently in Kreoss' control range become knocked down."
      },
      "spells": [
        "Cleansing Fire",
        "Defender's Ward",
        "Immolation",
        "Lamentation",
        "Purification"
      ]
    }
  ]
}
