{
  "name": "Hoarluk Doomshaper, Rage of Dhunia",
  "edition": 3,
  "revision": "2016 v1",
  "keywords": [
    "Trollblood",
    "Trollkin",
    "Warlock"
  ],
  "warbeast points": 27,
  "field allowance": "C",
  "models": [
    {
      "model name": "Doomshaper 2",
      "spd": 5,
      "str": 7,
      "mat": 5,
      "rat": 4,
      "def": 13,
      "arm": 15,
      "fury": 7,
      "cmd": 7,
      "boxes": 16,
      "advantages": [
        "Tough"
      ],
      "base size": 40,
      "attacks": [
        {
          "attack name": "Willbreaker",
          "type": "melee",
          "rng": 2,
          "pow": 6,
          "p+s": 13,
          "weapon qualities": [
            "Damage Type: Magical"
          ],
          "abilities": [
            "Powerful Attack"
          ]
        }
      ],
      "abilities": [
        "Attuned Spirit [Dire Troll]",
        "Field Marshal [Overtake]",
        "Hyper-Regeneration"
      ],
      "feat": {
        "name": "Scroll of Grimmr",
        "flavor": "Hoarluk Doomshaper's obsessive investigations into the roots of his people have led him to unearth forgotten works of great spiritual power. Doomshaper wields the Scroll of Grimmr, a transcription of the epithets of that venerated trollkin hero from the time of the Molgur. When invoked aloud, this defiant challenge imbues trolls with a surge of vitality. Eager to kill and glut their appetites, they rush forward in frenzied haste.",
        "text": "Doomshaper and friendly Faction warbeasts in his battlegroup beginning their activations in his control range gain +3 SPD and can charge or make slam or trample power attacks without being forced. Scroll of Grimmr lasts for one turn."
      },
      "spells": [
        "Agitation",
        "Hex Blast",
        "Primal Shock",
        "Psycho Surgery",
        "Wild Aggression"
      ]
    }
  ]
}
