{
  "name": "Horgenhold Artillery Corps",
  "edition": 3,
  "revision": "2018 v1",
  "keywords": [
    "Mercenary",
    "Rhulic",
    "Weapon Crew",
    "Unit"
  ],
  "unit size": [
    {
      "size": "only",
      "members": [
          {
              "name": "Gunner",
              "count": 1
          },
          {
              "name": "Grunts",
              "count": 2
          }
      ],
      "point cost": 6
    }
  ],
  "field allowance": 2,
  "models": [
    {
      "model name": "Gunner",
      "spd": 2,
      "str": 5,
      "mat": 5,
      "rat": 5,
      "def": 10,
      "arm": 15,
      "cmd": 5,
      "boxes": 1,
      "advantages": [
        "Officer"
      ],
      "base size": 50,
      "attacks": [
        {
          "attack name": "Siege Cannon",
          "type": "ranged",
          "rng": 16,
          "rof": 1,
          "aoe": 4,
          "pow": 14,
          "abilities": [
            "Arcing Fire",
            "Brutal Damage"
          ]
        },
        {
          "attack name": "Axe",
          "type": "melee",
          "rng": 0.5,
          "pow": 3,
          "p+s": 8
        }
      ],
      "abilities": [
        {
          "Mercenaries": [
            "Crucible Guard",
            "Cygnar",
            "Protectorate"
          ]
        },
        "Man-Sized",
        "Mobile Artillery",
        "Take Up"
      ]
    },
    {
      "model name": "Grunts",
      "spd": 4,
      "str": 5,
      "mat": 5,
      "rat": 5,
      "def": 10,
      "arm": 15,
      "cmd": 5,
      "boxes": 1,
      "base size": 30,
      "attacks": [
        {
          "attack name": "Axe",
          "type": "melee",
          "rng": 0.5,
          "pow": 3,
          "p+s": 8
        }
      ]
    }
  ]
}
