{
  "name": "House Ellowuyr Swordsmen",
  "edition": 3,
  "revision": "2021 v1",
  "keywords": [
    "Retribution",
    "Unit"
  ],
  "unit size": [
    {
      "size": "min",
      "members": [
          {
              "name": "Leader",
              "count": 1
          },
          {
              "name": "Grunts",
              "count": 5
          }
      ],
      "point cost": 10
    },
    {
      "size": "max",
      "members": [
          {
              "name": "Leader",
              "count": 1
          },
          {
              "name": "Grunts",
              "count": 9
          }
      ],
      "point cost": 16
    }
  ],
  "field allowance": 2,
  "models": [
    {
      "model name": "Leader & Grunts",
      "spd": 6,
      "str": 6,
      "mat": 7,
      "rat": 4,
      "def": 13,
      "arm": 15,
      "cmd": 8,
      "boxes": 1,
      "advantages": [
        "Parry"
      ],
      "base size": 30,
      "attacks": [
        {
          "attack name": "Great Sword",
          "type": "melee",
          "rng": 2,
          "pow": 6,
          "p+s": 12
        }
      ],
      "abilities": [
        "Blade Shield",
        "Cleave",
        "Gang"
      ]
    }
  ]
}
