{
  "name": "Immortal Vessel",
  "edition": 3,
  "revision": "2019 v1",
  "keywords": [
    "Skorne",
    "Exalted",
    "Extoller",
    "Solo"
  ],
  "point cost": 3,
  "field allowance": 3,
  "models": [
    {
      "model name": "Immortal Vessel",
      "spd": 5,
      "str": 7,
      "mat": 5,
      "rat": 5,
      "def": 11,
      "arm": 17,
      "cmd": 8,
      "boxes": 5,
      "advantages": [
        "Construct",
        "Gunfighter"
      ],
      "base size": 30,
      "attacks": [
        {
          "attack name": "Spirit Eye",
          "type": "ranged",
          "rng": 8,
          "rof": 1,
          "pow": 5,
          "weapon qualities": [
            "Damage Type: Magical"
          ],
          "abilities": [
            "Annihilating Gaze",
            "Ghost Shot"
          ]
        },
        {
          "attack name": "Polearm",
          "type": "melee",
          "rng": 2,
          "pow": 5,
          "p+s": 12,
          "weapon qualities": [
            "Damage Type: Magical"
          ]
        }
      ],
      "abilities": [
        "Channeler [Friendly Faction Warlock]",
        "Set Defense",
        "Soul Vessel",
        "Telemetry"
      ]
    }
  ]
}
