{
  "name": "Initiate Tristan Durant",
  "edition": 3,
  "revision": "2021 v1",
  "keywords": [
    "Protectorate",
    "Solo"
  ],
  "point cost": 2,
  "field allowance": "C",
  "models": [
    {
      "model name": "Durant 1",
      "spd": 5,
      "str": 5,
      "mat": 5,
      "rat": 4,
      "def": 14,
      "arm": 15,
      "cmd": 6,
      "focus": 4,
      "boxes": 5,
      "base size": 30,
      "attacks": [
        {
          "attack name": "Battle Staff",
          "type": "melee",
          "rng": 2,
          "pow": 6,
          "p+s": 11,
          "weapon qualities": [
            "Blessed",
            "Damage Type: Magical"
          ]
        }
      ],
      "spells": [
        "Fortify",
        "Immolation"
      ],
      "abilities": [
        "Battlegroup Controller",
        "True Sight"
      ]
    }
  ]
}
