{
  "name": "Iron Fang Pikemen Officer & Standard",
  "edition": 3,
  "revision": "2021 v1",
  "keywords": [
    "Khador",
    "Command",
    "Attachment"
  ],
  "point cost": 3,
  "field allowance": "U",
  "models": [
    {
      "model name": "Officer",
      "spd": 6,
      "str": 6,
      "mat": 8,
      "rat": 4,
      "def": 12,
      "arm": 14,
      "cmd": 8,
      "boxes": 5,
      "advantages": [
        "Combined Melee Attack",
        "Officer"
      ],
      "base size": 30,
      "attacks": [
        {
          "attack name": "Blasting Pike",
          "type": "melee",
          "rng": 2,
          "pow": 7,
          "p+s": 13,
          "abilities": [
            "Critical Knockdown"
          ]
        }
      ],
      "abilities": [
        "Attachment [Iron Fang Pikemen]",
        "Defensive Formation",
        "Tactics: Relentless Charge"
      ]
    },
    {
      "model name": "Standard Bearer",
      "spd": 6,
      "str": 6,
      "mat": 7,
      "rat": 4,
      "def": 12,
      "arm": 14,
      "cmd": 8,
      "boxes": 5,
      "base size": 30,
      "abilities": [
        "Attachment [Iron Fang Pikemen]",
        "Standard Bearer",
        "Take Up"
      ]
    }
  ]
}
