{
  "name": "Iron Fang Uhlans",
  "edition": 3,
  "revision": "2021 v1",
  "keywords": [
    "Khador",
    "Unit"
  ],
  "unit size": [
    {
      "size": "min",
      "members": [
          {
              "name": "Leader",
              "count": 1
          },
          {
              "name": "Grunts",
              "count": 2
          }
      ],
      "point cost": 10
    },
    {
      "size": "max",
      "members": [
          {
              "name": "Leader",
              "count": 1
          },
          {
              "name": "Grunts",
              "count": 4
          }
      ],
      "point cost": 17
    }
  ],
  "field allowance": 2,
  "models": [
    {
      "model name": "Leader & Grunts",
      "spd": 8,
      "str": 6,
      "mat": 7,
      "rat": 4,
      "def": 12,
      "arm": 17,
      "cmd": 9,
      "boxes": [
        {
          "Model A": 5
        },
        {
          "Model B": 5
        },
        {
          "Model C": 5
        },
        {
          "Model D": 5
        },
        {
          "Model E": 5
        }
      ],
      "advantages": [
        "Cavalry"
      ],
      "base size": 50,
      "attacks": [
        {
          "attack name": "Blasting Lance",
          "type": "melee",
          "rng": "*",
          "pow": 10,
          "p+s": 16,
          "abilities": [
            "Critical Knockdown",
            "Lance"
          ]
        },
        {
          "attack name": "Pommel Spike",
          "type": "melee",
          "rng": 1,
          "pow": 4,
          "p+s": 10,
          "abilities": [
            "Close Combat"
          ]
        },
        {
          "attack name": "Mount",
          "type": "mount",
          "rng": 0.5,
          "pow": 12,
          "abilities": [
            "Critical Knockdown"
          ]
        }
      ],
      "abilities": [
        "Relentless Charge",
        "Reposition [3\"]",
        "Steady",
        "Wall of Steel"
      ]
    }
  ]
}
