{
  "name": "J.A.I.M.s",
  "edition": 3,
  "revision": "2018 v1",
  "keywords": [
    "Mercenary",
    "Minion",
    "Solo"
  ],
  "point cost": 5,
  "field allowance": "C",
  "models": [
    {
      "model name": "J.A.I.M.S 1",
      "spd": 7,
      "str": 8,
      "mat": 7,
      "rat": 5,
      "def": 14,
      "arm": 17,
      "cmd": 7,
      "boxes": 8,
      "advantages": [
        "Construct",
        "Parry"
      ],
      "base size": 40,
      "attacks": [
        {
          "attack name": "Ripping Claw",
          "type": "melee",
          "rng": 0.5,
          "pow": 3,
          "p+s": 11,
          "weapon qualities": [
            "Weapon Master"
          ],
          "abilities": [
            "Grievous Wounds"
          ]
        },
        {
          "attack name": "Ripping Claw",
          "type": "melee",
          "rng": 0.5,
          "pow": 3,
          "p+s": 11,
          "weapon qualities": [
            "Weapon Master"
          ],
          "abilities": [
            "Grievous Wounds"
          ]
        }
      ],
      "abilities": [
        {
          "Mercenary": [
            "Convergence",
            "Crucible Guard",
            "Cryx",
            "Cygnar",
            "Infernals",
            "Khador",
            "Protectorate",
            "Retribution"
          ]
        },
        {
          "Minion": [
            "Circle",
            "Grymkin",
            "Legion",
            "Skorne",
            "Trollbloods"
          ]
        },
        "Partisan [Convergence]",
        "Acrobatics",
        "Blade Shield",
        "Prey",
        "Side Step",
        "Soul Vessel",
        "Spring Blades"
      ]
    }
  ]
}
