{
  "name": "Journeyman Warcaster",
  "edition": 3,
  "revision": "2021 v1",
  "keywords": [
    "Cygnar",
    "Solo"
  ],
  "point cost": 3,
  "field allowance": 1,
  "models": [
    {
      "model name": "Journeyman Warcaster",
      "spd": 6,
      "str": 5,
      "mat": 5,
      "rat": 4,
      "def": 14,
      "arm": 14,
      "focus": 3,
      "cmd": 7,
      "boxes": 5,
      "base size": 30,
      "attacks": [
        {
          "attack name": "Hand Cannon",
          "type": "ranged",
          "rng": 12,
          "rof": 1,
          "pow": 12
        },
        {
          "attack name": "Mechanika Blade",
          "type": "melee",
          "rng": 0.5,
          "pow": 5,
          "p+s": 10,
          "weapon qualities": [
            "Damage Type: Magical"
          ]
        }
      ],
      "abilities": [
        "Battlegroup Controller"
      ],
      "spells": [
        "Arcane Bolt",
        "Arcane Shield"
      ]
    }
  ]
}
