{
  "name": "Kapitan Sofya Skirova",
  "edition": 3,
  "revision": "2021 v1",
  "keywords": [
    "Khador",
    "Black Dragon",
    "Iron Fang",
    "Solo"
  ],
  "point cost": 4,
  "field allowance": "C",
  "models": [
    {
      "model name": "Sofya",
      "spd": 6,
      "str": 6,
      "mat": 8,
      "rat": 4,
      "def": 12,
      "arm": 15,
      "cmd": 10,
      "boxes": 5,
      "base size": 30,
      "attacks": [
        {
          "attack name": "Blasting Pike",
          "type": "melee",
          "rng": 2,
          "pow": 7,
          "p+s": 13,
          "weapon qualities": [
            "Weapon Master"
          ],
          "abilities": [
            "Critical Knockdown"
          ]
        },
        {
          "attack name": "Shield",
          "type": "melee",
          "rng": 0.5,
          "pow": 2,
          "p+s": 8,
          "weapon qualities": [
            "Shield",
            "Weapon Master"
          ]
        }
      ],
      "abilities": [
        "Inhuman Resolve",
        "Precision Strike",
        "Righteous Vengeance",
        "Shield Guard",
        "Veteran Leader [Iron Fang]"
      ]
    }
  ]
}
