{
  "name": "Kaya the Wildheart",
  "edition": 3,
  "revision": "2017 v1",
  "keywords": [
    "Circle",
    "Blackclad",
    "Warlock"
  ],
  "warbeast points": 27,
  "field allowance": "C",
  "models": [
    {
      "model name": "Kaya 3",
      "spd": 7,
      "str": 6,
      "mat": 6,
      "rat": 4,
      "def": 15,
      "arm": 16,
      "fury": 6,
      "cmd": 8,
      "boxes": 17,
      "advantages": [
        "Cavalry",
        "Pathfinder"
      ],
      "base size": 50,
      "attacks": [
        {
          "attack name": "Mistral",
          "type": "melee",
          "rng": 2,
          "pow": 6,
          "p+s": 12,
          "weapon qualities": [
            "Damage Type: Magical"
          ]
        },
        {
          "attack name": "Mount",
          "type": "melee",
          "rng": 0.5,
          "pow": 12
        }
      ],
      "abilities": [
        "Field Marshal [Reposition [3\"]]",
        "Reposition [3\"]",
        "Soothing Song"
      ],
      "feat": {
        "name": "Moon Shadow",
        "flavor": "Calling upon her connection to Orboros, Kaya invests her allies with the essence of shadow and moonlight to send their shifting forms charging forward, as impossible to pin down and counter as darkness itself.",
        "text": "While in Kaya's control range, friendly Faction models gain +2 DEF and cannot be targeted by free strikes. Additionally, friendly Faction models can advance through enemy models in Kaya's control range if they have enough movement to move completely past their bases. Moon Shadow lasts for one round."
      },
      "spells": [
        "Blood Spiller",
        "Fog of War",
        "Flashing Blade",
        "Synergy"
      ]
    }
  ]
}
