{
  "name": "Kharybdis",
  "edition": 3,
  "revision": "2021 v1",
  "keywords": [
    "Cryx",
    "Heavy",
    "Warjac"
  ],
  "point cost": 15,
  "field allowance": "C",
  "models": [
    {
      "model name": "Kharybdis 1",
      "spd": 5,
      "str": 12,
      "mat": 7,
      "rat": 6,
      "def": 12,
      "arm": 18,
      "advantages": [
        "Amphibious",
        "Construct",
        "Gunfighter",
        "Immunity: Corrosion",
        "Pathfinder"
      ],
      "base size": 50,
      "boxes": {
        "grid": [
          [
            2,
            1
          ],
          [
            3,
            1
          ],
          [
            4,
            1
          ],
          [
            5,
            1
          ],
          [
            2,
            2
          ],
          [
            3,
            2
          ],
          [
            4,
            2
          ],
          [
            5,
            2
          ],
          [
            6,
            2
          ],
          [
            1,
            3
          ],
          [
            2,
            3
          ],
          [
            3,
            3
          ],
          [
            4,
            3
          ],
          [
            5,
            3
          ],
          [
            6,
            3
          ],
          [
            1,
            4
          ],
          [
            2,
            4
          ],
          [
            3,
            4
          ],
          [
            4,
            4
          ],
          [
            5,
            4
          ],
          [
            6,
            4
          ],
          [
            2,
            5
          ],
          [
            3,
            5
          ],
          [
            4,
            5
          ],
          [
            5,
            5
          ],
          [
            6,
            5
          ],
          [
            2,
            6
          ],
          [
            3,
            6
          ],
          [
            4,
            6
          ],
          [
            5,
            6
          ]
        ],
        "systems": [
          {
            "Left Arm": [
              [
                5,
                1
              ],
              [
                4,
                2
              ],
              [
                5,
                2
              ]
            ]
          },
          {
            "Movement": [
              [
                6,
                2
              ],
              [
                5,
                3
              ],
              [
                6,
                3
              ]
            ]
          },
          {
            "Cortex": [
              [
                5,
                4
              ],
              [
                6,
                4
              ],
              [
                6,
                5
              ]
            ]
          },
          {
            "Right Arm": [
              [
                4,
                5
              ],
              [
                5,
                5
              ],
              [
                5,
                6
              ]
            ]
          }
        ]
      },
      "attacks": [
        {
          "attack name": "Black Ink",
          "type": "ranged",
          "loc": "H",
          "rng": "SP 8",
          "rof": 1,
          "pow": 12,
          "weapon qualities": [
            "Damage Type: Corrosion"
          ],
          "abilities": [
            "Critical Blind"
          ]
        },
        {
          "attack name": "Tendril",
          "type": "melee",
          "loc": "L",
          "rng": 1,
          "pow": 4,
          "p+s": 16,
          "weapon qualities": [
            "Chain Weapon",
            "Open Fist"
          ],
          "abilities": [
            "Chain Strike"
          ]
        },
        {
          "attack name": "Tendril",
          "type": "melee",
          "loc": "R",
          "rng": 1,
          "pow": 4,
          "p+s": 16,
          "weapon qualities": [
            "Chain Weapon",
            "Open Fist"
          ],
          "abilities": [
            "Chain Strike"
          ]
        }
      ],
      "abilities": [
        "Acid Cloud",
        "Bond [Aiakos]",
        "Steady"
      ]
    }
  ]
}
