{
  "name": "Knights Exemplar Officer",
  "edition": 3,
  "keywords": [
    "Protectorate",
    "Command Attachment"
  ],
  "point cost": 3,
  "field allowance": "U",
  "models": [
    {
      "model name": "Officer",
      "spd": 5,
      "str": 6,
      "mat": 8,
      "rat": 4,
      "def": 12,
      "arm": 15,
      "ctrl": 9,
      "boxes": 5,
      "advantages": [
        "Officer"
      ],
      "base size": 30,
      "attacks": [
        {
          "attack name": "Relic Blade",
          "type": "melee",
          "rng": 1,
          "pow": 5,
          "p+s": 11,
          "weapon qualities": [
            "Damage Type: Magical",
            "Weapon Master"
          ]
        }
      ],
      "abilities": [
        "Attachment [Knights Templar]",
        "Battle-Driven",
        "Divine Retribution",
        "Granted: Cleave",
        "Tactics: Overtake"
      ]
    }
  ]
}
