{
  "name": "Koldun Kommander Alexsandra Zerkova",
  "edition": 3,
  "revision": "2021 v1",
  "keywords": [
    "Khador",
    "Greylord",
    "Thamarite",
    "Warcaster"
  ],
  "warjack points": 28,
  "field allowance": "C",
  "models": [
    {
      "model name": "Zerkova 1",
      "spd": 6,
      "str": 5,
      "mat": 6,
      "rat": 5,
      "def": 15,
      "arm": 15,
      "focus": 7,
      "cmd": 9,
      "boxes": 16,
      "advantages": [
        "Immunity: Cold",
        "Pathfinder"
      ],
      "base size": 30,
      "attacks": [
        {
          "attack name": "Rod Of Whispers",
          "type": "ranged",
          "rng": 12,
          "rof": 1,
          "pow": 13,
          "weapon qualities": [
            "Damage Type: Magical"
          ],
          "abilities": [
            "Grave Door"
          ]
        },
        {
          "attack name": "Quietus",
          "type": "melee",
          "rng": 0.5,
          "pow": 6,
          "p+s": 11,
          "weapon qualities": [
            "Damage Type: Magical"
          ]
        }
      ],
      "abilities": [
        {
          "Arcane Artifacts": [
            "Focus Sphere",
            "Lens of Tarvodh",
            "True Sight"
          ]
        },
        "Sacred Ward"
      ],
      "feat": {
        "name": "Howling Wind",
        "flavor": "With a call Aleksandra Zerkova summons a tornado of icy-cold wind that howls in answer to her. the shrieking vortex moves like a living creature as it pushes against Zerkova's enemies, drowning out their voices and making concentration all but impossible.",
        "text": "While in Zerkova's control range, enemy models cannot make ranged attacks. Enemy models beginning their activations in Zerkova's control range cannot run, charge, make power attacks or special attacks, give or receive orders, or make special actions. Howling Wind lasts for one round."
      },
      "spells": [
        "Freezing Mist",
        "Frost Hammer",
        "Ghost Walk",
        "Hex Blast",
        "Watcher"
      ]
    }
  ]
}
