{
  "name": "Kriel Warriors",
  "edition": 3,
  "revision": "2021 v1",
  "keywords": [
    "Trollblood",
    "Trollkin",
    "Unit"
  ],
  "unit size": [
    {
      "size": "min",
      "members": [
          {
              "name": "Leader",
              "count": 1
          },
          {
              "name": "Grunts",
              "count": 5
          }
      ],
      "point cost": 7
    },
    {
      "size": "max",
      "members": [
          {
              "name": "Leader",
              "count": 1
          },
          {
              "name": "Grunts",
              "count": 9
          }
      ],
      "point cost": 11
    }
  ],
  "field allowance": "U",
  "models": [
    {
      "model name": "Leader & Grunts",
      "spd": 5,
      "str": 6,
      "mat": 5,
      "rat": 4,
      "def": 12,
      "arm": 15,
      "cmd": 8,
      "boxes": 1,
      "advantages": [
        "Combined Melee Attack",
        "Tough"
      ],
      "base size": 40,
      "attacks": [
        {
          "attack name": "Hand Weapon",
          "type": "melee",
          "rng": 1,
          "pow": 5,
          "p+s": 11
        }
      ],
      "abilities": [
        "Unyielding"
      ]
    }
  ]
}
