{
  "name": "Kriel Warrior Standard & Piper",
  "edition": 3,
  "revision": "2021 v1",
  "keywords": [
    "Trollblood",
    "Trollkin",
    "Command Attachment"
  ],
  "point cost": 3,
  "field allowance": "U",
  "models": [
    {
      "model name": "Standard Bearer",
      "spd": 5,
      "str": 6,
      "mat": 5,
      "rat": 4,
      "def": 12,
      "arm": 15,
      "cmd": 8,
      "boxes": 1,
      "advantages": [
        "Tough"
      ],
      "base size": 40,
      "abilities": [
        "Attachment [Kriel Warriors]",
        "Granted: Rise",
        "Standard Bearer",
        "Take Up",
        "Unyielding"
      ]
    },
    {
      "model name": "Piper",
      "spd": 5,
      "str": 6,
      "mat": 5,
      "rat": 4,
      "def": 12,
      "arm": 15,
      "cmd": 8,
      "boxes": 1,
      "advantages": [
        "Combined Melee Attack",
        "Tough"
      ],
      "base size": 40,
      "attacks": [
        {
          "attack name": "Hand Weapon",
          "type": "melee",
          "rng": 1,
          "pow": 5,
          "p+s": 11
        }
      ],
      "abilities": [
        "Granted: Reposition [3\"]",
        "Take Up",
        "Unyielding"
      ]
    }
  ]
}
