{
  "name": "Kromac, Champion of the Wurm",
  "edition": 3,
  "revision": "2016 v2",
  "keywords": [
    "Circle",
    "Tharn",
    "Warlock"
  ],
  "warbeast points": 28,
  "field allowance": "C",
  "models": [
    {
      "model name": "Kromac 2",
      "spd": 6,
      "str": 10,
      "mat": 8,
      "rat": 4,
      "def": 14,
      "arm": 18,
      "fury": 7,
      "cmd": 8,
      "boxes": 19,
      "advantages": [
        "Pathfinder"
      ],
      "base size": 50,
      "attacks": [
        {
          "attack name": "Rathrok",
          "type": "melee",
          "rng": 2,
          "pow": 7,
          "p+s": 17,
          "weapon qualities": [
            "Damage Type: Magical"
          ],
          "abilities": [
            "Grievous Wounds"
          ]
        }
      ],
      "abilities": [
        "Death Feast",
        "Field Marshal [Hyper-Aggressive]",
        "Heart Eater"
      ],
      "feat": {
        "name": "Bloodlust",
        "flavor": "Kromac stands as the anointed champion of the Wurm, and through him the fury of the Beast of All Shapes unleashes a primal howl. Upon hearing his call, the greatest breasts of the wilds descend upon the Tharn king's foes in a frenzy of tooth and claw.",
        "text": "Kromac immediately casts Carnage without spending fury. Additionally, while in Kromac's control range, living models in his battlegroup gain +2 STR and ARM. Bloodlust lasts for one round."
      },
      "spells": [
        "Awakened Spirit",
        "Carnage",
        "Primal Shock",
        "Vengeful"
      ]
    }
  ]
}
