{
  "name": "Large Phantasm",
  "edition": 3,
  "revision": "2019 v2",
  "keywords": [
    "Grymkin",
    "Solo"
  ],
  "models": [
    {
      "model name": "Large Phantasm",
      "spd": 4,
      "str": 10,
      "mat": 4,
      "rat": 4,
      "def": 10,
      "arm": 18,
      "cmd": 1,
      "boxes": 5,
      "advantages": [
        "Soulless"
      ],
      "base size": 50,
      "abilities": [
        "Annoyance",
        "Arcane Pulse",
        "Bulldoze",
        "Created"
      ]
    }
  ]
}
