{
  "name": "Lieutenant Crosse, Resistance Fighter",
  "edition": 3,
  "revision": "2019 v1",
  "keywords": [
    "Mercenary",
    "Llaelese",
    "Thamarite",
    "Warcaster"
  ],
  "warjack points": 29,
  "field allowance": "C",
  "models": [
    {
      "model name": "Crosse 2",
      "spd": 6,
      "str": 5,
      "mat": 6,
      "rat": 6,
      "def": 15,
      "arm": 15,
      "focus": 6,
      "cmd": 8,
      "boxes": 14,
      "advantages": [
        "Gunfighter"
      ],
      "base size": 30,
      "attacks": [
        {
          "attack name": "Soul Reaver",
          "type": "ranged",
          "rng": 12,
          "rof": 2,
          "pow": 12,
          "weapon qualities": [
            "Damage Type: Magical"
          ],
          "abilities": [
            "Black Boon",
            "Death Dealer",
            "Soul Taker: Soul Reaver"
          ]
        },
        {
          "attack name": "Knife",
          "type": "melee",
          "rng": 0.5,
          "pow": 3,
          "p+s": 8
        }
      ],
      "abilities": [
        {
          "Mercenary": [
            "Crucible Guard",
            "Cygnar",
            "Protectorate"
          ]
        },
        "Dark Blessing"
      ],
      "feat": {
        "name": "Shadow War",
        "flavor": "Drawing on the darker energies of Soul Reaver, Lieutenant Crosse and his fighters become an insubstantial pack of shadows that no barrier can stop, striking down the enemy before dispersing into the darkness.",
        "text": "Friendly Faction models currently in Crosse's control range are affected by Ghost Walk this turn. Additionally, affected models gain Stealth and Run & Gun for one round."
      },
      "spells": [
        "Dark Fire",
        "Dauntless Resolve",
        "Fire Group",
        "Ghost Walk",
        "Lifebound"
      ]
    }
  ]
}
