{
  "name": "Lord Tyrant Zaadesh",
  "edition": 3,
  "revision": "2016 v1",
  "keywords": [
    "Skorne",
    "Praetorian",
    "Warlock"
  ],
  "warbeast points": 28,
  "field allowance": "C",
  "models": [
    {
      "model name": "Zaadesh 2",
      "spd": 6,
      "str": 6,
      "mat": 7,
      "rat": 4,
      "def": 15,
      "arm": 16,
      "fury": 6,
      "cmd": 9,
      "boxes": 16,
      "base size": 30,
      "attacks": [
        {
          "attack name": "Deathsong",
          "type": "melee",
          "rng": 2,
          "pow": 6,
          "p+s": 12,
          "weapon qualities": [
            "Damage Type: Magical"
          ]
        }
      ],
      "abilities": [
        "Flank [Warbeast In This Model's Battlegroup]",
        "Sacrificial Pawn [Warbeast In This Model's Battlegroup]"
      ],
      "feat": {
        "name": "Scorpion's Sting",
        "flavor": "Lord Tyrant Zaadesh summons the suffering and pain lurking deep within his army and forges it into a keen edge. Driven by Zaadesh's mortitheurgy, his soldiers slash into their opponents with strength and preciusion, meeting any retaliation in kind.",
        "text": "While in Zaadesh's control range, friendly Faction models gain +2 STR and MAT and Defensive Strike. Scorpion's Sting lasts for one round."
      },
      "spells": [
        "Battle-Charged",
        "Burning Ash",
        "Flashing Blade",
        "Inviolable Resolve"
      ]
    }
  ]
}
