{
  "name": "Lord Azazello, The Castellan",
  "edition": 3,
  "revision": "2022 v1",
  "keywords": [
    "Minion",
    "Farrow",
    "Warlock"
  ],
  "warbeast points": 29,
  "field allowance": "C",
  "models": [
    {
      "model name": "Azazello 1",
      "spd": 6,
      "str": 6,
      "mat": 8,
      "rat": 7,
      "def": 16,
      "arm": 15,
      "fury": 6,
      "cmd": 8,
      "boxes": 17,
      "advantages": [
        "Pathfinder",
        "Tough"
      ],
      "base size": 30,
      "attacks": [
        {
          "attack name": "Wide Boar Pistol",
          "type": "ranged",
          "rng": 12,
          "rof": 1,
          "pow": 12,
          "abilities": [
            "Beacon"
          ]
        },
        {
          "attack name": "Mortua",
          "type": "melee",
          "rng": 1,
          "pow": 4,
          "p+s": 10,
          "weapon qualities": [
            "Damage Type: Magical",
            "Weapon Faster"
          ]
        }
      ],
      "abilities": [
        {
          "Minion": [
            "Circle",
            "Legion",
            "Skorne",
            "Trollbloods"
          ]
        },
        "Farrow Warlock",
        "En Garde",
        "Henchmen [Farrow]",
        "Riposte"
      ],
      "feat": {
        "name": "Stand And Deliver",
        "flavor": "Lord Azazello learned a valuable lesson long ago: the safest place to stand on any battlefield is behind ranks of courageous soldiers ready to die for your cause. When the going gets tough, Azazello imbues those under his command with inhuman strength and stamina, as well as a bit of his own impeccable skill at swordplay. The heroics that inevitably take place are the perfect distraction for Azazello to make his getaway.",
        "text": "While in Azazello's control range, friendly Faction warrior models gain +3 STR and ARM and Duelist. Stand & Deliver lasts for one round."
      },
      "spells": [
        "Flashing Blade",
        "Phantasm",
        "Storm Rager",
        "Wind Rush"
      ]
    }
  ]
}
