{
  "name": "Madrak Ironhide, World Ender",
  "edition": 3,
  "revision": "2021 v1",
  "keywords": [
    "Trollblood",
    "Trollkin",
    "Warlock"
  ],
  "warbeast points": 28,
  "field allowance": "C",
  "models": [
    {
      "model name": "Madrak 2",
      "spd": 6,
      "str": 8,
      "mat": 8,
      "rat": 6,
      "def": 14,
      "arm": 17,
      "fury": 5,
      "cmd": 9,
      "boxes": 18,
      "advantages": [
        "Tough"
      ],
      "base size": 40,
      "attacks": [
        {
          "attack name": "Thrown Rathrok",
          "type": "ranged",
          "rng": 8,
          "rof": 1,
          "pow": 15,
          "weapon qualities": [
            "Damage Type: Magical"
          ],
          "abilities": [
            "Grievous Wounds",
            "Rathrok's Awakening",
            "Thrown"
          ]
        },
        {
          "attack name": "Rathrok",
          "type": "melee",
          "rng": 2,
          "pow": 7,
          "p+s": 15,
          "weapon qualities": [
            "Damage Type: Magical"
          ],
          "abilities": [
            "Grievous Wounds",
            "Rathrok's Awakening"
          ]
        }
      ],
      "abilities": [
        "Berserk",
        "Field Marshal [Relentless Charge]",
        "Grim Salvation",
        "Relentless Charge"
      ],
      "feat": {
        "name": "Desperate Hour",
        "flavor": "Madrak Ironhide has led his people through innumerable seemingly hopeless battles and persisted even in the face of impossible odds. As Madrak rallies his warriors, Rathrok's power lets them tap into reserves they did not even know they had. When all hope seems lost, Madrak and his followers use this strength to expend themselves in one last desperate attack, giving their all to decimate the enemy.",
        "text": "When in Madrak's control range, friendly non-warlock Faction models gain Berserk and Overtake. Desperate Hour lasts for one turn."
      },
      "spells": [
        "Blood Fury",
        "Eruption",
        "Warpath"
      ]
    }
  ]
}
