{
  "name": "Madrak Ironhide, Champion of the Kriels",
  "edition": 3,
  "revision": "2021 v1",
  "keywords": [
    "Trollblood",
    "Trollkin",
    "Champion",
    "Solo"
  ],
  "point cost": 5,
  "field allowance": "C",
  "models": [
    {
      "model name": "Madrak 0",
      "spd": 6,
      "str": 8,
      "mat": 7,
      "rat": 6,
      "def": 13,
      "arm": 17,
      "fury": 4,
      "cmd": 9,
      "boxes": 8,
      "advantages": [
        "Tough"
      ],
      "base size": 40,
      "attacks": [
        {
          "attack name": "Thrown Shard",
          "type": "ranged",
          "rng": 8,
          "rof": 1,
          "pow": 14,
          "weapon qualities": [
            "Damage Type: Magical"
          ],
          "abilities": [
            "Thrown"
          ]
        },
        {
          "attack name": "Stoneshard",
          "type": "melee",
          "rng": 1,
          "pow": 6,
          "p+s": 14,
          "weapon qualities": [
            "Damage Type: Magical"
          ],
          "abilities": [
            "Krielstone Echo"
          ]
        }
      ],
      "abilities": [
        "Mastermind (strict) [Trollkin Warlock]",
        "Henchmen [Troll Axer and Troll Impaler]",
        "Lesser Warlock",
        "Relentless Charge",
        "Righteous Vengeance"
      ],
      "spells": [
        "Bracer",
        "Jackhammer"
      ]
    }
  ]
}
