{
  "name": "Major Beth Maddox",
  "edition": 3,
  "revision": "2020 v1",
  "keywords": [
    "Cygnar",
    "Morrowan",
    "Storm Knight",
    "Warcaster"
  ],
  "warjack points": 30,
  "field allowance": "C",
  "models": [
    {
      "model name": "Maddox 1",
      "spd": 6,
      "str": 6,
      "mat": 7,
      "rat": 6,
      "def": 15,
      "arm": 16,
      "focus": 6,
      "cmd": 9,
      "boxes": 16,
      "advantages": [
        "Immunity: Electricity"
      ],
      "base size": 30,
      "attacks": [
        {
          "attack name": "Storm Strike",
          "type": "ranged",
          "rng": 10,
          "rof": 1,
          "pow": 12,
          "weapon qualities": [
            "Critical Disruption",
            "Damage Type: Electrical"
          ],
          "abilities": [
            "Electro Leap"
          ]
        },
        {
          "attack name": "Tempest",
          "type": "melee",
          "rng": 2,
          "pow": 7,
          "p+s": 13,
          "weapon qualities": [
            "Damage Type: Magical"
          ],
          "abilities": [
            "Critical Cortex Damage"
          ]
        }
      ],
      "abilities": [
        "Flank [Storm Knight]",
        "Quick Work",
        "Resourceful"
      ],
      "feat": {
        "name": "Thundering Rage",
        "flavor": "The atrocities Major Beth Maddox enduring during her imprisonment fill her with rage. In the heat of battle she can unleash this anger to imbue her allies with the thunderous might of a rolling storm.",
        "text": "While in Maddox's control range, friendly Faction models' melee weapons gain +3 POW and Beat Back. Thundering Rage lasts for one turn."
      },
      "spells": [
        "Assail",
        "Dauntless Resolve",
        "Electrical Blast",
        "Onslaught",
        "Snipe"
      ]
    }
  ]
}
