{
  "name": "Man-O-War Kovnik",
  "edition": 3,
  "revision": "2021 v1",
  "keywords": [
    "Khador",
    "Solo"
  ],
  "point cost": 3,
  "field allowance": 2,
  "models": [
    {
      "model name": "Kovnik",
      "spd": 4,
      "str": 9,
      "mat": 8,
      "rat": 6,
      "def": 10,
      "arm": 16,
      "cmd": 9,
      "boxes": 8,
      "advantages": [
        "Assault",
        "Jack Marshal"
      ],
      "base size": 40,
      "attacks": [
        {
          "attack name": "Cannon Shot",
          "type": "ranged",
          "rng": 8,
          "rof": 1,
          "pow": 14
        },
        {
          "attack name": "Axe Cannon",
          "type": "melee",
          "rng": 1,
          "pow": 6,
          "p+s": 15
        },
        {
          "attack name": "Shield",
          "type": "melee",
          "rng": 0.5,
          "pow": 2,
          "p+s": 11,
          "weapon qualities": [
            "Shield"
          ]
        }
      ],
      "abilities": [
        "Desperate Pace [Man-O-War]",
        "Drive: Assault",
        "Repairable",
        "Slam Power Attack"
      ]
    }
  ]
}
