{
  "name": "Man-O-War Shocktroopers",
  "edition": 3,
  "revision": "2021 v1",
  "keywords": [
    "Khador",
    "Unit"
  ],
  "unit size": [
    {
      "size": "min",
      "members": [
          {
              "name": "Leader",
              "count": 1
          },
          {
              "name": "Grunts",
              "count": 2
          }
      ],
      "point cost": 9
    },
    {
      "size": "max",
      "members": [
          {
              "name": "Leader",
              "count": 1
          },
          {
              "name": "Grunts",
              "count": 2
          }
      ],
      "point cost": 15
    }
  ],
  "field allowance": 3,
  "models": [
    {
      "model name": "Leader & Grunts",
      "spd": 4,
      "str": 9,
      "mat": 7,
      "rat": 5,
      "def": 10,
      "arm": 17,
      "cmd": 7,
      "boxes": [
        {
          "Model A": 8
        },
        {
          "Model B": 8
        },
        {
          "Model C": 8
        },
        {
          "Model D": 8
        },
        {
          "Model E": 8
        }
      ],
      "advantages": [
        "Combined Melee Attack"
      ],
      "base size": 40,
      "attacks": [
        {
          "attack name": "Shield Cannon",
          "type": "ranged",
          "rng": 6,
          "rof": 1,
          "pow": 14
        },
        {
          "attack name": "Annihilator Blade",
          "type": "melee",
          "rng": 2,
          "pow": 5,
          "p+s": 14
        }
      ],
      "abilities": [
        "Repairable",
        "Shield Wall"
      ]
    }
  ]
}
