{
  "name": "Master Tormentor Morghoul",
  "edition": 3,
  "revision": "2021 v1",
  "keywords": [
    "Skorne",
    "Paingiver",
    "Warlock"
  ],
  "warbeast points": 30,
  "field allowance": "C",
  "models": [
    {
      "model name": "Morghoul 1",
      "spd": 7,
      "str": 6,
      "mat": 8,
      "rat": 4,
      "def": 16,
      "arm": 14,
      "fury": 5,
      "cmd": 8,
      "boxes": 15,
      "advantages": [
        "Parry",
        "Pathfinder"
      ],
      "base size": 30,
      "attacks": [
        {
          "attack name": "Ripper",
          "type": "melee",
          "rng": 0.5,
          "pow": 5,
          "p+s": 11,
          "weapon qualities": [
            "Damage Type: Magical"
          ],
          "abilities": [
            "Double Strike",
            "Inflict Pain"
          ]
        }
      ],
      "abilities": [
        "Anatomical Precision",
        "Dodge",
        "Maltreatment",
        "Side Step",
        "Steady"
      ],
      "feat": {
        "name": "Pain & Suffering",
        "flavor": "A virtuoso of the paingiver's arts, Master Tormentor Morghoul inflicts unrelenting agony without even touching his victims. By unleashing an explosion of torment, he drowns out all thoughts but those of survival.",
        "text": "While in Morghoul's control range, enemy non-warcaster, non-warlock, non-infernal master models cannot have damage transferred to them, be forced, or spend focus, fury, or essence except to pay tithe. Pain & Suffering lasts for one round."
      },
      "spells": [
        "Abuse",
        "Admonition",
        "Torment"
      ]
    }
  ]
}
