{
  "name": "Master Ascetic Naaresh",
  "edition": 3,
  "revision": "2021 v1",
  "keywords": [
    "Skorne",
    "Warlock"
  ],
  "warbeast points": 32,
  "field allowance": "C",
  "models": [
    {
      "model name": "Naaresh 1",
      "spd": 6,
      "str": 7,
      "mat": 7,
      "rat": 4,
      "def": 15,
      "arm": 15,
      "fury": 6,
      "cmd": 7,
      "boxes": 20,
      "advantages": [
        "Tough"
      ],
      "base size": 30,
      "attacks": [
        {
          "attack name": "Katara",
          "type": "melee",
          "rng": 1,
          "pow": 4,
          "p+s": 11,
          "weapon qualities": [
            "Damage Type: Magical"
          ],
          "abilities": [
            "Combo Strike",
            "Life Drinker"
          ]
        },
        {
          "attack name": "Katara",
          "type": "melee",
          "rng": 1,
          "pow": 4,
          "p+s": 11,
          "weapon qualities": [
            "Damage Type: Magical"
          ],
          "abilities": [
            "Combo Strike",
            "Life Drinker"
          ]
        }
      ],
      "abilities": [
        "Blood Trade",
        "Field Marshal [Pain Response]",
        "Flagellant",
        "Hyper-Regeneration",
        "Painmonger"
      ],
      "feat": {
        "name": "Imperishable Flesh",
        "flavor": "In a single great outpouring of mortitheurgical power, Master Ascetic Naaresh flays open the flesh of his beats, unlocking a pain-induced wellspring of strength and fortitude while siphoning a portion of their vitality to heal his own wounds. Amid this focused state they shrug off what would ordinarily be mortal injuries. As his beasts shriek in pain, the become avatars of carnage.",
        "text": "Immediately apply up to 1 damage point to each aspect of living warbeasts in Naaresh's battlegroup that are currently in his control range. Naaresh can remove 1 damage point for each damage point applied as a result of Imperishable Flesh. Additionally, while in Naaresh's control range, living warbeasts in his battlegroup gain +1 STR and ARM for each of their damaged aspects. Imperishable Flesh lasts for one round."
      },
      "spells": [
        "Bleed",
        "Blur",
        "Cyclone",
        "Lamentation"
      ]
    }
  ]
}
