{
  "name": "Minuteman",
  "edition": 3,
  "revision": "2021 v2",
  "keywords": [
    "Cygnar",
    "Light",
    "Warjack"
  ],
  "point cost": 8,
  "field allowance": "U",
  "models": [
    {
      "model name": "Minuteman",
      "spd": 6,
      "str": 8,
      "mat": 6,
      "rat": 6,
      "def": 14,
      "arm": 15,
      "advantages": [
        "Advance Deploy",
        "Construct",
        "Gunfighter"
      ],
      "base size": 40,
      "boxes": {
        "grid": [
          [
            3,
            1
          ],
          [
            4,
            1
          ],
          [
            5,
            1
          ],
          [
            3,
            2
          ],
          [
            4,
            2
          ],
          [
            5,
            2
          ],
          [
            6,
            2
          ],
          [
            2,
            3
          ],
          [
            3,
            3
          ],
          [
            4,
            3
          ],
          [
            5,
            3
          ],
          [
            6,
            3
          ],
          [
            2,
            4
          ],
          [
            3,
            4
          ],
          [
            4,
            4
          ],
          [
            5,
            4
          ],
          [
            6,
            4
          ],
          [
            3,
            5
          ],
          [
            4,
            5
          ],
          [
            5,
            5
          ],
          [
            6,
            5
          ],
          [
            3,
            6
          ],
          [
            4,
            6
          ],
          [
            5,
            6
          ]
        ],
        "systems": [
          {
            "Left Arm": [
              [
                5,
                1
              ],
              [
                4,
                2
              ],
              [
                5,
                2
              ]
            ]
          },
          {
            "Movement": [
              [
                6,
                2
              ],
              [
                5,
                3
              ],
              [
                6,
                3
              ]
            ]
          },
          {
            "Cortex": [
              [
                5,
                4
              ],
              [
                6,
                4
              ],
              [
                6,
                5
              ]
            ]
          },
          {
            "Right Arm": [
              [
                4,
                5
              ],
              [
                5,
                5
              ],
              [
                5,
                6
              ]
            ]
          }
        ]
      },
      "attacks": [
        {
          "attack name": "Slug Gun",
          "type": "ranged",
          "loc": "L",
          "rng": 4,
          "rof": 1,
          "pow": 14
        },
        {
          "attack name": "Slug Gun",
          "type": "ranged",
          "loc": "R",
          "rng": 4,
          "rof": 1,
          "pow": 14
        },
        {
          "attack name": "Open Fist",
          "type": "melee",
          "loc": "L",
          "rng": 0.5,
          "pow": 2,
          "p+s": 10,
          "weapon qualities": [
            "Open Fist"
          ]
        },
        {
          "attack name": "Open Fist",
          "type": "melee",
          "loc": "R",
          "rng": 0.5,
          "pow": 2,
          "p+s": 10,
          "weapon qualities": [
            "Open Fist"
          ]
        }
      ],
      "abilities": [
        "Bounding Leap",
        "Extended Control Range",
        "Flak Field"
      ]
    }
  ]
}
