{
  "name": "Misery Cage",
  "edition": 3,
  "revision": "2018 v1",
  "keywords": [
    "Cryx",
    "Solo"
  ],
  "point cost": 2,
  "field allowance": 4,
  "models": [
    {
      "model name": "Misery Cage",
      "str": 1,
      "mat": 0,
      "rat": 0,
      "def": 5,
      "arm": 16,
      "cmd": 0,
      "boxes": 1,
      "advantages": [
        "Construct"
      ],
      "base size": 40,
      "abilities": [
        "Distant Deployment",
        "Gallows Fruit",
        "Gibbet",
        "Immobile",
        "Revulsion"
      ]
    }
  ]
}
