{
  "name": "Mulg the Ancient",
  "edition": 3,
  "revision": "2021 v1",
  "keywords": [
    "Trollblood",
    "Dire Troll",
    "Heavy",
    "Warbeast"
  ],
  "point cost": 18,
  "field allowance": "C",
  "models": [
    {
      "model name": "Mulg 1",
      "spd": 4,
      "str": 13,
      "mat": 7,
      "rat": 3,
      "def": 10,
      "arm": 19,
      "cmd": 5,
      "base size": 50,
      "fury": 4,
      "threshold": 7,
      "boxes": {
        "Spiral 1": 6,
        "Spiral 2": 5,
        "Spiral 3": 8,
        "Spiral 4": 7,
        "Spiral 5": 7,
        "Spiral 6": 7
      },
      "attacks": [
        {
          "attack name": "Rune Club",
          "type": "melee",
          "rng": 2,
          "pow": 6,
          "p+s": 19,
          "weapon qualities": [
            "Damage Type: Magical"
          ],
          "abilities": [
            "Critical Smite"
          ]
        },
        {
          "attack name": "Big Meaty Fist",
          "type": "melee",
          "rng": 1,
          "pow": 4,
          "p+s": 17,
          "weapon qualities": [
            "Open Fist"
          ]
        }
      ],
      "abilities": [
        "Arcane Vortex",
        "Bond [Doomshaper]",
        "Hyper-Regeneration",
        "Primal Rage",
        "Relentless Charge",
        "Snacking"
      ],
      "animus": "Rites of Power"
    }
  ]
}
