{
  "name": "Negator",
  "edition": 3,
  "revision": "2020 v1",
  "keywords": [
    "Convergence",
    "Light",
    "Warjack"
  ],
  "point cost": 6,
  "field allowance": "U",
  "models": [
    {
      "model name": "Negator",
      "spd": 7,
      "str": 6,
      "mat": "*",
      "rat": "*",
      "def": 13,
      "arm": 15,
      "advantages": [
        "Construct",
        "Flight"
      ],
      "base size": 40,
      "boxes": {
        "grid": [
          [
            5,
            1
          ],
          [
            6,
            1
          ],
          [
            4,
            2
          ],
          [
            5,
            2
          ],
          [
            6,
            2
          ],
          [
            1,
            3
          ],
          [
            2,
            3
          ],
          [
            3,
            3
          ],
          [
            4,
            3
          ],
          [
            5,
            3
          ],
          [
            6,
            3
          ],
          [
            1,
            4
          ],
          [
            2,
            4
          ],
          [
            3,
            4
          ],
          [
            4,
            4
          ],
          [
            5,
            4
          ],
          [
            6,
            4
          ],
          [
            4,
            5
          ],
          [
            5,
            5
          ],
          [
            6,
            5
          ],
          [
            5,
            6
          ],
          [
            6,
            6
          ]
        ],
        "systems": [
          {
            "Left Arm": [
              [
                5,
                2
              ],
              [
                5,
                3
              ]
            ]
          },
          {
            "Movement": [
              [
                6,
                1
              ],
              [
                6,
                2
              ],
              [
                6,
                5
              ],
              [
                6,
                6
              ]
            ]
          },
          {
            "Interface Node": [
              [
                6,
                3
              ],
              [
                6,
                4
              ]
            ]
          },
          {
            "Right Arm": [
              [
                5,
                4
              ],
              [
                5,
                5
              ]
            ]
          }
        ]
      },
      "attacks": [
        {
          "attack name": "Avulsor",
          "type": "melee",
          "loc": "L",
          "rng": 0.5,
          "pow": 4,
          "p+s": 10,
          "abilities": [
            "Critical Amputation"
          ]
        },
        {
          "attack name": "Avulsor",
          "type": "melee",
          "loc": "R",
          "rng": 0.5,
          "pow": 4,
          "p+s": 10,
          "abilities": [
            "Critical Amputation"
          ]
        }
      ],
      "abilities": [
        "Flank [Negator]",
        "Reposition [3\"]"
      ]
    }
  ]
}
