{
  "name": "Nephilim Bloodseer",
  "edition": 3,
  "revision": "2021 v1",
  "keywords": [
    "Legion",
    "Light",
    "Warbeast"
  ],
  "point cost": 7,
  "field allowance": "U",
  "models": [
    {
      "model name": "Nephilim",
      "spd": 5,
      "str": 8,
      "mat": 5,
      "rat": 3,
      "def": 12,
      "arm": 18,
      "cmd": 6,
      "advantages": [
        "Eyeless Sight",
        "Flight"
      ],
      "base size": 40,
      "fury": 3,
      "threshold": 10,
      "boxes": {
        "Spiral 1": 5,
        "Spiral 2": 5,
        "Spiral 3": 4,
        "Spiral 4": 4,
        "Spiral 5": 5,
        "Spiral 6": 5
      },
      "attacks": [
        {
          "attack name": "Gaff",
          "type": "melee",
          "rng": 2,
          "pow": 4,
          "p+s": 12,
          "abilities": [
            "Critical Knockdown"
          ]
        }
      ],
      "abilities": [
        "Primal Magical",
        "Telemetry"
      ],
      "animus": "Arcane Suppression"
    }
  ]
}
