{
  "name": "Nicia, Hound of the Abyss",
  "edition": 3,
  "revision": "2019 v1",
  "keywords": [
    "Infernal",
    "Solo"
  ],
  "point cost": 4,
  "field allowance": "C",
  "models": [
    {
      "model name": "Nicia 2",
      "spd": 7,
      "str": 5,
      "mat": 7,
      "rat": 7,
      "def": 16,
      "arm": 12,
      "cmd": 7,
      "boxes": 5,
      "advantages": [
        "Advance Deploy",
        "Parry",
        "Pathfinder",
        "Stealth"
      ],
      "base size": 30,
      "attacks": [
        {
          "attack name": "Death Song",
          "type": "ranged",
          "rng": 12,
          "rof": 1,
          "aoe": 3,
          "pow": 13,
          "weapon qualities": [
            "Damage Type: Magical"
          ],
          "abilities": [
            "Devour Soul",
            "Luck"
          ]
        },
        {
          "attack name": "Blade",
          "type": "melee",
          "rng": 0.5,
          "pow": 3,
          "p+s": 8,
          "weapon qualities": [
            "Weapon Master"
          ]
        }
      ],
      "abilities": [
        "Acrobatics",
        "Marked Soul",
        "Quick Work",
        "Run & Gun"
      ]
    }
  ]
}
