{
  "name": "Northkin Elder",
  "edition": 3,
  "revision": "2017 v1",
  "keywords": [
    "Trollblood",
    "Trollkin",
    "Command Attachment"
  ],
  "point cost": 3,
  "field allowance": 1,
  "models": [
    {
      "model name": "Elder",
      "spd": 5,
      "str": 6,
      "mat": 5,
      "rat": 4,
      "def": 12,
      "arm": 13,
      "cmd": 8,
      "boxes": 5,
      "advantages": [
        "Immunity: Cold",
        "Officer",
        "Tough"
      ],
      "base size": 40,
      "abilities": [
        "Attachment [Krielstone Bearer & Stone Scribes]",
        {
          "Stone Warp": [
            "Stone Cold",
            "Wild Winds",
            "Winter Magic"
          ]
        },
        "Tactics: Northkin"
      ]
    }
  ]
}
