{
  "name": "Order of Illumination Resolutes",
  "edition": 3,
  "revision": "2019 v1",
  "keywords": [
    "Mercenary",
    "Morrowan",
    "Unit"
  ],
  "unit size": [
    {
      "size": "min",
      "members": [
          {
              "name": "Leader",
              "count": 1
          },
          {
              "name": "Grunts",
              "count": 2
          }
      ],
      "point cost": 8
    },
    {
      "size": "max",
      "members": [
          {
              "name": "Leader",
              "count": 1
          },
          {
              "name": "Grunts",
              "count": 4
          }
      ],
      "point cost": 13
    }
  ],
  "field allowance": 2,
  "models": [
    {
      "model name": "Leader & Grunts",
      "spd": 5,
      "str": 7,
      "mat": 7,
      "rat": 6,
      "def": 12,
      "arm": 17,
      "cmd": 8,
      "boxes": [
        {
          "Model A": 5
        },
        {
          "Model B": 5
        },
        {
          "Model C": 5
        },
        {
          "Model D": 5
        },
        {
          "Model E": 5
        }
      ],
      "advantages": [
        "Tough"
      ],
      "base size": 40,
      "attacks": [
        {
          "attack name": "Execrator Cannon",
          "type": "ranged",
          "rng": 10,
          "rof": 1,
          "pow": 13,
          "weapon qualities": [
            "Damage Type: Magical"
          ],
          "abilities": [
            "Execrator"
          ]
        },
        {
          "attack name": "Great Sword",
          "type": "melee",
          "rng": 2,
          "pow": 6,
          "p+s": 13,
          "weapon qualities": [
            "Damage Type: Magical"
          ],
          "abilities": [
            "Execrator"
          ]
        }
      ],
      "abilities": [
        {
          "Mercenaries": [
            "Crucible Guard",
            "Cygnar",
            "Khador"
          ]
        },
        "Partisan [Cygnar]",
        "Alchemical Mask",
        "Blessed Wards",
        "Holy Bonds",
        "Repairable",
        "Set Defense"
      ]
    }
  ]
}
