{
  "name": "Precursor Knights",
  "edition": 3,
  "revision": "2022 v1",
  "keywords": [
    "Mercenary",
    "Morrowan",
    "Unit"
  ],
  "unit size": [
    {
      "size": "min",
      "members": [
          {
              "name": "Leader",
              "count": 1
          },
          {
              "name": "Grunts",
              "count": 5
          }
      ],
      "point cost": 8
    },
    {
      "size": "max",
      "members": [
          {
              "name": "Leader",
              "count": 1
          },
          {
              "name": "Grunts",
              "count": 9
          }
      ],
      "point cost": 14
    }
  ],
  "field allowance": "C",
  "models": [
    {
      "model name": "Leader & Grunts",
      "spd": 6,
      "str": 6,
      "mat": 7,
      "rat": 4,
      "def": 13,
      "arm": 14,
      "cmd": 8,
      "boxes": 1,
      "base size": 30,
      "attacks": [
        {
          "attack name": "Blessed Mace",
          "type": "melee",
          "rng": 1,
          "pow": 6,
          "p+s": 12,
          "weapon qualities": [
            "Blessed",
            "Damage Type: Magical"
          ]
        }
      ],
      "abilities": [
        {
          "Mercenaries": [
            "Cygnar"
          ]
        },
        "Partisan [Cygnar]",
        "Shield Wall",
        "Sacred Ward"
      ]
    }
  ]
}
