{
  "name": "Ragnor Skysplitter, the Runemaster",
  "edition": 3,
  "revision": "2020 v1",
  "keywords": [
    "Trollblood",
    "Trollkin",
    "Runeshaper",
    "Warlock"
  ],
  "warbeast points": 30,
  "field allowance": "C",
  "models": [
    {
      "model name": "Ragnor 1",
      "spd": 5,
      "str": 7,
      "mat": 6,
      "rat": 4,
      "def": 14,
      "arm": 16,
      "fury": 7,
      "cmd": 9,
      "boxes": 16,
      "advantages": [
        "Tough"
      ],
      "base size": 40,
      "attacks": [
        {
          "attack name": "Rumbler",
          "type": "melee",
          "rng": 1,
          "pow": 7,
          "p+s": 14,
          "weapon qualities": [
            "Damage Type: Magical"
          ],
          "abilities": [
            "Warhead",
            "Weight of Stone"
          ]
        }
      ],
      "abilities": [
        "Field Marshal [Weight of Stone]",
        "Steady"
      ],
      "feat": {
        "name": "Stone's Fortitude",
        "flavor": "Caen is the body of Dhunia, and earth sorcery comes easy to trollkin like Ragnor Skysplitter, who feels its essence in his bones. By his power he imparts the toughness of stone to the flesh of his people, letting them shrug off blows that moments before would have proven lethal.",
        "text": "When an enemy model makes a damage roll against a friendly Faction model in Ragnor's control range, the enemy model rolls one less die. Stone's Fortitude lasts for one round."
      },
      "spells": [
        "Chosen Ground",
        "Earth's Sanctuary",
        "Hex Blast",
        "Pulverizer",
        "Shockwave"
      ]
    }
  ]
}
