{
  "name": "Razor Boar",
  "edition": 3,
  "revision": "2022 v1",
  "keywords": [
    "Minion",
    "Farrow",
    "Lesser",
    "Warbeast"
  ],
  "point cost": 3,
  "field allowance": "U",
  "models": [
    {
      "model name": "Razor Boar",
      "spd": 6,
      "str": 6,
      "mat": 5,
      "rat": 3,
      "def": 13,
      "arm": 13,
      "cmd": 2,
      "base size": 30,
      "fury": 2,
      "threshold": 6,
      "boxes": {
        "Spiral 1": 3,
        "Spiral 2": 1,
        "Spiral 3": 4,
        "Spiral 4": 2,
        "Spiral 5": 3,
        "Spiral 6": 1
      },
      "attacks": [
        {
          "attack name": "Ripping Tusks",
          "type": "melee",
          "rng": 0.5,
          "pow": 4,
          "p+s": 10,
          "abilities": [
            "Brutal Charge"
          ]
        }
      ],
      "abilities": [
        "Bacon",
        "Snacking",
        "Unyielding"
      ],
      "animus": "Still As Death"
    }
  ]
}
