{
  "name": "Reductors",
  "edition": 3,
  "revision": "2021 v1",
  "keywords": [
    "Convergence",
    "Unit"
  ],
  "unit size": [
    {
      "size": "min",
      "members": [
          {
              "name": "Leader",
              "count": 1
          },
          {
              "name": "Grunts",
              "count": 5
          }
      ],
      "point cost": 8
    },
    {
      "size": "max",
      "members": [
          {
              "name": "Leader",
              "count": 1
          },
          {
              "name": "Grunts",
              "count": 9
          }
      ],
      "point cost": 13
    }
  ],
  "field allowance": 3,
  "models": [
    {
      "model name": "Leader & Grunts",
      "spd": 5,
      "str": 7,
      "mat": 6,
      "rat": 5,
      "def": 12,
      "arm": 14,
      "cmd": 7,
      "boxes": 1,
      "advantages": [
        "Assault",
        "Construct"
      ],
      "base size": 30,
      "attacks": [
        {
          "attack name": "Swarm Projector",
          "type": "ranged",
          "rng": "SP 6",
          "rof": 1,
          "pow": 13
        },
        {
          "attack name": "Retractable Blade",
          "type": "melee",
          "rng": 0.5,
          "pow": 3,
          "p+s": 10
        }
      ],
      "abilities": [
        "Clear!",
        "Soul Vessel"
      ]
    }
  ]
}
