{
  "name": "Reeve of Orboros Chieftain & Standard",
  "edition": 3,
  "revision": "",
  "keywords": [
    "Circle",
    "Wolf Sworn",
    "Command Attachment"
  ],
  "point cost": 4,
  "field allowance": 2,
  "models": [
    {
      "model name": "Chieftain",
      "spd": 6,
      "str": 5,
      "mat": 6,
      "rat": 6,
      "def": 13,
      "arm": 13,
      "cmd": 7,
      "boxes": 5,
      "advantages": [
        "Combined Ranged Attack",
        "Officer",
        "Pathfinder"
      ],
      "base size": 30,
      "attacks": [
        {
          "attack name": "Battle Blade",
          "type": "ranged",
          "rng": 12,
          "rof": 2,
          "pow": 8
        },
        {
          "attack name": "Battle Blade",
          "type": "melee",
          "rng": 0.5,
          "pow": 3,
          "p+s": 8
        }
      ],
      "abilities": [
        "Attachment [Reeve of Orboros]",
        "Go To Ground",
        "Hunter",
        "Tactics: War-Tempered"
      ]
    },
    {
      "model name": "Standard Bearer",
      "spd": 6,
      "str": 5,
      "mat": 5,
      "rat": 5,
      "def": 13,
      "arm": 13,
      "cmd": 7,
      "boxes": 1,
      "advantages": [
        "Pathfinder"
      ],
      "base size": 30,
      "abilities": [
        "Standard Bearer",
        "Take Up"
      ]
    }
  ]
}
