{
  "name": "Reptile Hound",
  "edition": 3,
  "revision": "2021 v1",
  "keywords": [
    "Skorne",
    "Lesser",
    "Warbeast"
  ],
  "point cost": 4,
  "field allowance": "U",
  "models": [
    {
      "model name": "Reptile Hound",
      "spd": 7,
      "str": 6,
      "mat": 5,
      "rat": 1,
      "def": 13,
      "arm": 13,
      "cmd": 3,
      "base size": 30,
      "fury": 2,
      "threshold": 7,
      "boxes": {
        "Spiral 1": 3,
        "Spiral 2": 3,
        "Spiral 3": 4,
        "Spiral 4": 3,
        "Spiral 5": 3,
        "Spiral 6": 3
      },
      "attacks": [
        {
          "attack name": "Bite",
          "type": "melee",
          "rng": 0.5,
          "pow": 4,
          "p+s": 10
        }
      ],
      "abilities": [
        "Flank [Another Reptile Hound]"
      ],
      "animus": "Heightened Metabolism"
    }
  ]
}
