{
  "name": "Rotterhorn Griffon",
  "edition": 3,
  "revision": "2021 v1",
  "keywords": [
    "Circle",
    "Light",
    "Warbeast"
  ],
  "point cost": 7,
  "field allowance": "U",
  "models": [
    {
      "model name": "Rotterhorn Griffon",
      "spd": 7,
      "str": 8,
      "mat": 6,
      "rat": 1,
      "def": 15,
      "arm": 14,
      "cmd": 4,
      "advantages": [
        "Flight"
      ],
      "base size": 40,
      "fury": 3,
      "threshold": 8,
      "boxes": {
        "Spiral 1": 5,
        "Spiral 2": 5,
        "Spiral 3": 5,
        "Spiral 4": 4,
        "Spiral 5": 5,
        "Spiral 6": 4
      },
      "attacks": [
        {
          "attack name": "Claw",
          "type": "melee",
          "rng": 0.5,
          "pow": 4,
          "p+s": 12,
          "weapon qualities": [
            "Open Fist"
          ]
        },
        {
          "attack name": "Claw",
          "type": "melee",
          "rng": 0.5,
          "pow": 4,
          "p+s": 12,
          "weapon qualities": [
            "Open Fist"
          ]
        }
      ],
      "abilities": [
        "Killing Screech"
      ],
      "animus": "Death Shriek"
    }
  ]
}
