{
  "name": "Scattergunners",
  "edition": 3,
  "revision": "2019 v1",
  "keywords": [
    "Trollblood",
    "Trollkin",
    "Unit"
  ],
  "unit size": [
    {
      "size": "min",
      "members": [
          {
              "name": "Leader",
              "count": 1
          },
          {
              "name": "Grunts",
              "count": 5
          }
      ],
      "point cost": 8
    },
    {
      "size": "max",
      "members": [
          {
              "name": "Leader",
              "count": 1
          },
          {
              "name": "Grunts",
              "count": 9
          }
      ],
      "point cost": 14
    }
  ],
  "field allowance": 3,
  "models": [
    {
      "model name": "Leader & Grunts",
      "spd": 6,
      "str": 6,
      "mat": 5,
      "rat": 6,
      "def": 12,
      "arm": 14,
      "cmd": 8,
      "boxes": 1,
      "advantages": [
        "Tough"
      ],
      "base size": 40,
      "attacks": [
        {
          "attack name": "Scattergun",
          "type": "ranged",
          "rng": "SP 8",
          "rof": 1,
          "pow": 12
        },
        {
          "attack name": "Gun Blade",
          "type": "melee",
          "rng": 0.5,
          "pow": 3,
          "p+s": 9
        }
      ]
    }
  ]
}
