{
  "name": "Scharde Pirate Officer",
  "edition": 3,
  "revision": "2021 v1",
  "keywords": [
    "Cryx",
    "Command Attachment"
  ],
  "point cost": 3,
  "field allowance": "U",
  "models": [
    {
      "model name": "Officer",
      "spd": 6,
      "str": 6,
      "mat": 6,
      "rat": 6,
      "def": 13,
      "arm": 11,
      "cmd": 8,
      "boxes": 5,
      "advantages": [
        "Assault",
        "Officer",
        "Tough"
      ],
      "base size": 30,
      "attacks": [
        {
          "attack name": "Deck Sweeper",
          "type": "ranged",
          "rng": "SP 6",
          "rof": 1,
          "pow": 12,
          "weapon qualities": [
            "Critical Continuous Fire"
          ]
        },
        {
          "attack name": "Hand Weapon",
          "type": "melee",
          "rng": 0.5,
          "pow": 3,
          "p+s": 9
        }
      ],
      "abilities": [
        "Attachment [Scharde Pirates]",
        "Gang",
        "No Quarter",
        "Tactics: Feign Death"
      ]
    }
  ]
}
