{
  "name": "Scharde Dirge Seers",
  "edition": 3,
  "revision": "2021 v1",
  "keywords": [
    "Cryx",
    "Unit"
  ],
  "unit size": [
    {
      "size": "only",
      "members": [
          {
              "name": "Leader",
              "count": 1
          },
          {
              "name": "Grunts",
              "count": 2
          }
      ],
      "point cost": 5
    }
  ],
  "field allowance": 2,
  "models": [
    {
      "model name": "Leader & Grunts",
      "spd": 6,
      "str": 5,
      "mat": 7,
      "rat": 4,
      "def": 14,
      "arm": 11,
      "cmd": 6,
      "boxes": 1,
      "base size": 30,
      "attacks": [
        {
          "attack name": "Claws",
          "type": "melee",
          "rng": 0.5,
          "pow": "*",
          "p+s": "*",
          "weapon qualities": [
            "Damage Type: Magical"
          ],
          "abilities": [
            "Incise"
          ]
        }
      ],
      "abilities": [
        "Battle Wizard",
        "Dodge",
        {
          "Magic Ability [6]": [
            "Guidance",
            "Hex Bolt",
            "Summon Vortex"
          ]
        },
        "Riposte"
      ]
    }
  ]
}
