{
  "name": "Scythean",
  "edition": 3,
  "revision": "2021 v1",
  "keywords": [
    "Legion",
    "Heavy",
    "Warbeast"
  ],
  "point cost": 14,
  "field allowance": "U",
  "models": [
    {
      "model name": "Scythean",
      "spd": 5,
      "str": 12,
      "mat": 6,
      "rat": 4,
      "def": 12,
      "arm": 18,
      "cmd": 5,
      "advantages": [
        "Eyeless Sight",
        "Pathfinder",
        "Soulless"
      ],
      "base size": 50,
      "fury": 4,
      "threshold": 9,
      "boxes": {
        "Spiral 1": 5,
        "Spiral 2": 5,
        "Spiral 3": 7,
        "Spiral 4": 7,
        "Spiral 5": 6,
        "Spiral 6": 6
      },
      "attacks": [
        {
          "attack name": "Scything Claw",
          "type": "melee",
          "rng": 2,
          "pow": 5,
          "p+s": 17,
          "abilities": [
            "Thresher"
          ]
        },
        {
          "attack name": "Scything Claw",
          "type": "melee",
          "rng": 2,
          "pow": 5,
          "p+s": 17,
          "abilities": [
            "Thresher"
          ]
        },
        {
          "attack name": "Bite",
          "type": "melee",
          "rng": 1,
          "pow": 3,
          "p+s": 15
        }
      ],
      "abilities": [
        "Murderous"
      ],
      "animus": "Slaughterhouse"
    }
  ]
}
