{
  "name": "Sea Dog Pirates",
  "edition": 3,
  "revision": "2019 v1",
  "keywords": [
    "Mercenary",
    "Privateer",
    "Unit"
  ],
  "unit size": [
    {
      "size": "min",
      "members": [
          {
              "name": "Leader",
              "count": 1
          },
          {
              "name": "Grunts",
              "count": 5
          }
      ],
      "point cost": 7
    },
    {
      "size": "max",
      "members": [
          {
              "name": "Leader",
              "count": 1
          },
          {
              "name": "Grunts",
              "count": 9
          }
      ],
      "point cost": 11
    }
  ],
  "field allowance": "U",
  "models": [
    {
      "model name": "Leader & Grunts",
      "spd": 6,
      "str": 5,
      "mat": 5,
      "rat": 4,
      "def": 13,
      "arm": 11,
      "cmd": 7,
      "boxes": 1,
      "advantages": [
        "Tough"
      ],
      "base size": 30,
      "attacks": [
        {
          "attack name": "Pistol",
          "type": "ranged",
          "rng": 8,
          "rof": 1,
          "pow": 10
        },
        {
          "attack name": "Hand Weapon",
          "type": "melee",
          "rng": 0.5,
          "pow": 3,
          "p+s": 8
        }
      ],
      "abilities": [
        {
          "Mercenaries": [
            "Crucible Guard",
            "Cryx",
            "Cygnar",
            "Khador",
            "Protectorate"
          ]
        },
        "Gang",
        "Point-Blank"
      ]
    }
  ]
}
