{
  "name": "Severa Blacktide",
  "edition": 3,
  "revision": "2021 v1",
  "keywords": [
    "Cryx",
    "Satyxis",
    "Solo"
  ],
  "point cost": 5,
  "field allowance": "C",
  "models": [
    {
      "model name": "Severa 1",
      "spd": 6,
      "str": 5,
      "mat": 6,
      "rat": 8,
      "def": 15,
      "arm": 12,
      "cmd": 7,
      "boxes": 5,
      "advantages": [
        "Gunfighter",
        "Tough"
      ],
      "base size": 30,
      "attacks": [
        {
          "attack name": "Magelock Pistol",
          "type": "ranged",
          "rng": 10,
          "rof": 1,
          "pow": 10,
          "weapon qualities": [
            "Damage Type: Magical"
          ],
          "abilities": [
            {
              "Attack Type": [
                "Black Penny",
                "Ghost Shot",
                "Heart Seeker"
              ]
            },
            "Chain Attack: Vortex Blast"
          ]
        },
        {
          "attack name": "Magelock Pistol",
          "type": "ranged",
          "rng": 10,
          "rof": 1,
          "pow": 10,
          "weapon qualities": [
            "Damage Type: Magical"
          ],
          "abilities": [
            {
              "Attack Type": [
                "Black Penny",
                "Ghost Shot",
                "Heart Seeker"
              ]
            },
            "Chain Attack: Vortex Blast"
          ]
        },
        {
          "attack name": "Horns",
          "type": "melee",
          "rng": 0.5,
          "pow": 3,
          "p+s": 8,
          "abilities": [
            "Critical Knockdown"
          ]
        }
      ],
      "abilities": [
        "Elite Cadre [Satyxis Gunslingers]",
        "Pistoleer",
        "Reciprocate",
        "Run & Gun"
      ]
    }
  ]
}
