{
  "name": "Shrine of the Lawgiver",
  "edition": 3,
  "revision": "2021 v1",
  "keywords": [
    "Protectorate",
    "Exemplar",
    "Structure"
  ],
  "point cost": 12,
  "field allowance": 2,
  "models": [
    {
      "model name": "Shrine",
      "mat": 0,
      "rat": 6,
      "def": 5,
      "arm": 20,
      "cmd": 12,
      "boxes": 28,
      "advantages": [
        "Construct"
      ],
      "base size": 120,
      "attacks": [
        {
          "attack name": "Divine Wrath",
          "type": "ranged",
          "rng": 14,
          "rof": 1,
          "pow": 14,
          "weapon qualities": [
            "Damage Type: Magical"
          ],
          "abilities": [
            "Jaws of Urcaen",
            "Rear Attack",
            "Reload [1]"
          ]
        }
      ],
      "abilities": [
        "Forward Deployment",
        {
          "Soul Taker: Gatekeeper": [
            "Path of Urcaen",
            "Strength of Death",
            "Vault of the Faithful"
          ]
        },
        "True Sight",
        "Well of Souls"
      ]
    }
  ]
}
