{
  "name": "Silver Line Stormguard",
  "edition": 3,
  "revision": "2021 v1",
  "keywords": [
    "Cygnar",
    "Storm Knight",
    "Unit"
  ],
  "unit size": [
    {
      "size": "min",
      "members": [
          {
              "name": "Leader",
              "count": 1
          },
          {
              "name": "Grunts",
              "count": 5
          }
      ],
      "point cost": 9
    },
    {
      "size": "max",
      "members": [
          {
              "name": "Leader",
              "count": 1
          },
          {
              "name": "Grunts",
              "count": 9
          }
      ],
      "point cost": 15
    }
  ],
  "field allowance": 2,
  "models": [
    {
      "model name": "Leader",
      "spd": 5,
      "str": 6,
      "mat": 7,
      "rat": 5,
      "def": 13,
      "arm": 15,
      "cmd": 8,
      "boxes": 1,
      "advantages": [
        "Combined Melee Attack",
        "Gunfighter",
        "Immunity: Electricity"
      ],
      "base size": 30,
      "attacks": [
        {
          "attack name": "Electromagnetic Blast",
          "type": "ranged",
          "rng": 6,
          "rof": 1,
          "aoe": 5,
          "pow": "*",
          "abilities": [
            "Voltaic Snare"
          ]
        },
        {
          "attack name": "Thunder Generator",
          "type": "melee",
          "rng": 2,
          "pow": 6,
          "p+s": 12,
          "abilities": [
            "Critical Knockdown"
          ]
        }
      ],
      "abilities": [
        "Polarity Wall",
        "Practiced Maneuvers",
        "Quick Work",
        "Wall of Steel"
      ]
    },
    {
      "model name": "Grunts",
      "spd": 5,
      "str": 6,
      "mat": 7,
      "rat": 5,
      "def": 13,
      "arm": 15,
      "cmd": 8,
      "boxes": 1,
      "advantages": [
        "Combined Melee Attack",
        "Immunity: Electricity"
      ],
      "base size": 30,
      "attacks": [
        {
          "attack name": "Thunder Halberd",
          "type": "melee",
          "rng": 2,
          "pow": 6,
          "p+s": 12,
          "abilities": [
            "Thunder Halberd"
          ]
        }
      ],
      "abilities": [
        "Polarity Wall",
        "Practiced Maneuvers",
        "Wall of Steel"
      ]
    }
  ]
}
