{
  "name": "Sir Dreyfus The Storm Knight",
  "edition": 3,
  "revision": "2021 v1",
  "keywords": [
    "Cygnar",
    "Solo"
  ],
  "point cost": 5,
  "field allowance": "C",
  "models": [
    {
      "model name": "Dreyfus 1",
      "spd": 5,
      "str": 6,
      "mat": 7,
      "rat": 6,
      "def": 13,
      "arm": 17,
      "cmd": 9,
      "boxes": 8,
      "advantages": [
        "Immunity: Electricity"
      ],
      "base size": 40,
      "attacks": [
        {
          "attack name": "Electrical Bolt",
          "type": "ranged",
          "rng": 8,
          "rof": 1,
          "pow": 12,
          "weapon qualities": [
            "Damage Type: Electricity"
          ],
          "abilities": [
            "Electro Leap"
          ]
        },
        {
          "attack name": "Voltaic Lance",
          "type": "melee",
          "rng": 2,
          "pow": 6,
          "p+s": 12,
          "abilities": [
            "Brutal Charge"
          ]
        },
        {
          "attack name": "Shock Shield",
          "type": "melee",
          "rng": 0.5,
          "pow": 3,
          "p+s": 9,
          "weapon qualities": [
            "Disruption",
            "Shield"
          ]
        }
      ],
      "abilities": [
        "Flank [Friendly Warrior]",
        "Jump",
        "Roadblock"
      ]
    }
  ]
}
