{
  "name": "Skarre, Queen of the Broken Coast",
  "edition": 3,
  "revision": "2021 v1",
  "keywords": [
    "Cryx",
    "Satyxis",
    "Warcaster"
  ],
  "warjack points": 26,
  "field allowance": "C",
  "models": [
    {
      "model name": "Skarre 2",
      "spd": 7,
      "str": 6,
      "mat": 7,
      "rat": 5,
      "def": 16,
      "arm": 15,
      "focus": 7,
      "cmd": 9,
      "boxes": 16,
      "base size": 30,
      "attacks": [
        {
          "attack name": "Hand Cannon",
          "type": "ranged",
          "rng": 12,
          "rof": 1,
          "pow": 12
        },
        {
          "attack name": "Horns",
          "type": "melee",
          "rng": 0.5,
          "pow": 4,
          "p+s": 10,
          "abilities": [
            "Knockdown"
          ]
        },
        {
          "attack name": "Gun Blade",
          "type": "melee",
          "rng": 0.5,
          "pow": 3,
          "p+s": 9
        },
        {
          "attack name": "Takkaryx",
          "type": "melee",
          "rng": 1,
          "pow": 7,
          "p+s": 13,
          "weapon qualities": [
            "Damage Type: Magical"
          ],
          "abilities": [
            "Life Trader"
          ]
        }
      ],
      "abilities": [
        "Blood Trade",
        "Field Marshal [Future Sight]",
        "Future Sight"
      ],
      "feat": {
        "name": "Fate Weaver",
        "flavor": "The Queen of the Broken Coast knows the deepest secrets of blood magic, sacrificial rites, and blasphemous rituals that can twist and pull the very strands of fate. She has learned to pluck those strands binding souls to their destinies to shield her allies from harm and to render those who oppose her ineffectual.",
        "text": "Skarre immediately suffers up to 5 damage points. This model cannot spend focus points to reduce this damage. For each damage point she suffers as a result of Fate Weaver, one model currently in her control range can be affected by Fate Weaver. An affected friendly model cannot be targeted by charges and gains +5 DEF for one round. An affected enemy model suffers -5 to attack rolls for one round."
      },
      "spells": [
        "Admonition",
        "Backlash",
        "Black Spot",
        "Blood Rain",
        "Death Ward",
        "Soul Strike"
      ]
    }
  ]
}
