{
  "name": "Spawning Vessel",
  "edition": 3,
  "revision": "2021 v1",
  "keywords": [
    "Legion",
    "Blighted",
    "Nyss",
    "Unit"
  ],
  "unit size": [
    {
      "size": "min",
      "members": [
          {
              "name": "Vessel",
              "count": 1
          },
          {
              "name": "Grunts",
              "count": 4
          }
      ],
      "point cost": 4
    },
    {
      "size": "max",
      "members": [
          {
              "name": "Vessel",
              "count": 1
          },
          {
              "name": "Grunts",
              "count": 6
          }
      ],
      "point cost": 6
    }
  ],
  "field allowance": 2,
  "models": [
    {
      "model name": "Vessel",
      "str": 0,
      "mat": 0,
      "rat": 0,
      "def": 5,
      "arm": 18,
      "cmd": 7,
      "boxes": 10,
      "advantages": [
        "Construct",
        "Officer"
      ],
      "base size": 40,
      "abilities": [
        "Carried",
        "Focal Point",
        "Recycle",
        "Spawn Horror"
      ]
    },
    {
      "model name": "Nyss Grunts",
      "spd": 6,
      "str": 6,
      "mat": 5,
      "rat": 4,
      "def": 13,
      "arm": 11,
      "cmd": 7,
      "boxes": 1,
      "base size": 30,
      "attacks": [
        {
          "attack name": "Gaff",
          "type": "melee",
          "rng": 2,
          "pow": 3,
          "p+s": 9
        }
      ]
    }
  ]
}
