{
  "name": "Stone Lord Guvul Godor",
  "edition": 3,
  "revision": "2020 v1",
  "keywords": [
    "Mercenary",
    "Rhulic",
    "Command Attachment"
  ],
  "point cost": 4,
  "field allowance": "C",
  "models": [
    {
      "model name": "Guvul 1",
      "spd": 4,
      "str": 7,
      "mat": 8,
      "rat": 4,
      "def": 10,
      "arm": 16,
      "cmd": 10,
      "boxes": 5,
      "advantages": [
        "Officer"
      ],
      "base size": 30,
      "attacks": [
        {
          "attack name": "Royal Mechanikal Hammer",
          "type": "melee",
          "rng": 2,
          "pow": 6,
          "p+s": 13,
          "weapon qualities": [
            "Weapon Master"
          ],
          "abilities": [
            "Combo Smite"
          ]
        },
        {
          "attack name": "Royal Mechanikal Hammer",
          "type": "melee",
          "rng": 2,
          "pow": 6,
          "p+s": 13,
          "weapon qualities": [
            "Weapon Master"
          ],
          "abilities": [
            "Combo Smite"
          ]
        }
      ],
      "abilities": [
        {
          "Mercenary": [
            "Crucible Guard",
            "Cygnar",
            "Protectorate"
          ]
        },
        "Attachment [Horgenhold Forge Guard]",
        {
          "Battle Plan": [
            "Desperate Pace",
            "On Your Feet",
            "Reveille"
          ]
        },
        "Granted: Cleave",
        "Wall of Steel"
      ]
    }
  ]
}
