{
  "name": "Stormsmith Storm Tower",
  "edition": 3,
  "revision": "2021 v1",
  "keywords": [
    "Cygnar",
    "Weapon Crew",
    "Unit"
  ],
  "unit size": [
    {
      "size": "only",
      "members": [
          {
              "name": "Leader",
              "count": 1
          },
          {
              "name": "Grunts",
              "count": 1
          }
      ],
      "point cost": 4
    }
  ],
  "field allowance": 2,
  "models": [
    {
      "model name": "Gunner",
      "spd": 3,
      "str": 4,
      "mat": 5,
      "rat": 6,
      "def": 13,
      "arm": 11,
      "cmd": 5,
      "boxes": 1,
      "advantages": [
        "Immunity: Electricity",
        "Officer"
      ],
      "base size": 50,
      "attacks": [
        {
          "attack name": "Storm Tower",
          "type": "ranged",
          "rng": 14,
          "rof": 1,
          "pow": 14,
          "weapon qualities": [
            "Disruption",
            "Damage Type: Electrical"
          ],
          "abilities": [
            "Lightning Generator",
            "Stormcall"
          ]
        },
        {
          "attack name": "Sword",
          "type": "melee",
          "rng": 0.5,
          "pow": 3,
          "p+s": 7
        }
      ],
      "abilities": [
        "Man-Sized",
        "Mobile Artillery",
        "Take Up"
      ]
    },
    {
      "model name": "Grunt",
      "spd": 4,
      "str": 4,
      "mat": 5,
      "rat": 6,
      "def": 13,
      "arm": 11,
      "cmd": 5,
      "boxes": 1,
      "advantages": [
        "Immunity: Electricity"
      ],
      "base size": 30,
      "attacks": [
        {
          "attack name": "Sword",
          "type": "melee",
          "rng": 0.5,
          "pow": 3,
          "p+s": 7
        }
      ]
    }
  ]
}
