{
  "name": "Stormblade Infantry",
  "edition": 3,
  "revision": "2021 v1",
  "keywords": [
    "Cygnar",
    "Storm Knight",
    "Unit"
  ],
  "unit size": [
    {
      "size": "only",
      "members": [
          {
              "name": "Leader",
              "count": 1
          },
          {
              "name": "Grunts",
              "count": 5
          }
      ],
      "point cost": 9
    }
  ],
  "field allowance": 2,
  "models": [
    {
      "model name": "Leader",
      "spd": 5,
      "str": 6,
      "mat": 7,
      "rat": 5,
      "def": 13,
      "arm": 15,
      "cmd": 8,
      "boxes": 1,
      "advantages": [
        "Assault",
        "Combined Melee Attack",
        "Immunity: Electricy"
      ],
      "base size": 30,
      "attacks": [
        {
          "attack name": "Rod Bolt",
          "type": "ranged",
          "rng": 6,
          "rof": 1,
          "pow": 14,
          "weapon qualities": [
            "Damage Type: Electrical"
          ]
        },
        {
          "attack name": "Storm Rod",
          "type": "melee",
          "rng": 2,
          "pow": 9,
          "p+s": 15
        }
      ]
    },
    {
      "model name": "Grunts",
      "spd": 5,
      "str": 6,
      "mat": 7,
      "rat": 5,
      "def": 13,
      "arm": 15,
      "cmd": 8,
      "boxes": 1,
      "advantages": [
        "Assault",
        "Combined Melee Attack",
        "Immunity: Electricity"
      ],
      "base size": 30,
      "attacks": [
        {
          "attack name": "Glaive Bolt",
          "type": "ranged",
          "rng": 6,
          "rof": 1,
          "pow": 14,
          "weapon qualities": [
            "Damage Type: Electrical"
          ]
        },
        {
          "attack name": "Storm Glaive",
          "type": "melee",
          "rng": 1,
          "pow": 9,
          "p+s": 15
        }
      ]
    }
  ]
}
