{
  "name": "Supreme Archdomina Makeda",
  "edition": 3,
  "revision": "2017 v1",
  "keywords": [
    "Skorne",
    "Warlock"
  ],
  "warbeast points": 27,
  "field allowance": "C",
  "models": [
    {
      "model name": "Makeda 2",
      "spd": 6,
      "str": 7,
      "mat": 7,
      "rat": 4,
      "def": 15,
      "arm": 16,
      "fury": 6,
      "cmd": 10,
      "boxes": 16,
      "base size": 30,
      "attacks": [
        {
          "attack name": "Sword of Balaash",
          "type": "melee",
          "rng": 1,
          "pow": 5,
          "p+s": 12,
          "weapon qualities": [
            "Damage Type: Magical"
          ],
          "abilities": [
            "Combo Strike"
          ]
        },
        {
          "attack name": "Sword of Balaash",
          "type": "melee",
          "rng": 1,
          "pow": 5,
          "p+s": 12,
          "weapon qualities": [
            "Damage Type: Magical"
          ],
          "abilities": [
            "Combo Strike"
          ]
        }
      ],
      "abilities": [
        "Elite Cadre [Praetorian Swordsmen]",
        "Foresight",
        "Reckless Arcana",
        "Stay Death"
      ],
      "feat": {
        "name": "Instruments of War",
        "flavor": "Manifesting her undeniable command over life and death, Makeda seizes control of her army, both body and soul. Soldiers and warbeasts alike become instruments of her will, moving under her absolute control with flawless precision and unrelenting exactness.",
        "text": "While in Makeda's control range, friendly Faction models gain boosted melee attack rolls and cannot become knocked down. Instruments of War lasts for one round."
      },
      "spells": [
        "Dash",
        "Deflection",
        "Prostration",
        "Storm Rager"
      ]
    }
  ]
}
