{
  "name": "Supreme Guardian",
  "edition": 3,
  "revision": "2019 v1",
  "keywords": [
    "Skorne",
    "Exalted",
    "Ancestral Guardian",
    "Battle Engine"
  ],
  "point cost": 16,
  "field allowance": 2,
  "models": [
    {
      "model name": "Supreme Guardian",
      "spd": 5,
      "str": 12,
      "mat": 7,
      "rat": 6,
      "def": 8,
      "arm": 19,
      "cmd": 10,
      "boxes": 33,
      "advantages": [
        "Construct",
        "Pathfinder"
      ],
      "base size": 120,
      "attacks": [
        {
          "attack name": "Fires of Rage",
          "type": "ranged",
          "rng": 10,
          "rof": 1,
          "aoe": 4,
          "pow": 14,
          "weapon qualities": [
            "Continuous Effect: Fire",
            "Damage Type: Magical"
          ]
        },
        {
          "attack name": "Obsidian Blade",
          "type": "melee",
          "rng": 3,
          "pow": 6,
          "p+s": 18,
          "weapon qualities": [
            "Damage Type: Magical"
          ],
          "abilities": [
            "Siege Weapon",
            "Thresher"
          ]
        }
      ],
      "abilities": [
        "Defensive Strike",
        "Direct Spirits",
        "Divine Inspiration",
        {
          "Soul Taker: Gatekeeper": [
            "Arcane Vortex",
            "Soul-Powered",
            "Well of Rage"
          ]
        },
        "Soul Vessel"
      ]
    }
  ]
}
