{
  "name": "Sylys Wyshnalyrr, The Seeker",
  "edition": 3,
  "revision": "2018 v1",
  "keywords": [
    "Mercenary",
    "Seeker",
    "Solo"
  ],
  "point cost": 4,
  "field allowance": "C",
  "models": [
    {
      "model name": "Sylys 1",
      "spd": 6,
      "str": 4,
      "mat": 5,
      "rat": 4,
      "def": 13,
      "arm": 13,
      "cmd": 5,
      "boxes": 5,
      "base size": 30,
      "attacks": [
        {
          "attack name": "Staff of Seeking",
          "type": "melee",
          "rng": 2,
          "pow": 3,
          "p+s": 7,
          "weapon qualities": [
            "Damage Type: Magical"
          ]
        }
      ],
      "abilities": [
        "Attached",
        {
          "Mercenary": [
            "Crucible Guard",
            "Cygnar",
            "Khador",
            "Retribution"
          ]
        },
        "Partisan [Retribution]",
        "Arcane Assist",
        "Arcane Secrets",
        "Spiritual Conduit"
      ]
    }
  ]
}
