{
  "name": "Testament of Menoth",
  "edition": 3,
  "revision": "2019 v1",
  "keywords": [
    "Protectorate",
    "Warcaster"
  ],
  "warjack points": 27,
  "field allowance": "C",
  "models": [
    {
      "model name": "High Reclaimer 2",
      "spd": 5,
      "str": 7,
      "mat": 6,
      "rat": 4,
      "def": 14,
      "arm": 16,
      "focus": 6,
      "cmd": 10,
      "boxes": 18,
      "base size": 30,
      "attacks": [
        {
          "attack name": "Requiem",
          "type": "melee",
          "rng": 2,
          "pow": 7,
          "p+s": 14,
          "weapon qualities": [
            "Continuous Effect: Fire",
            "Damage Type: Magical"
          ]
        }
      ],
      "abilities": [
        "Apparition",
        "Soul Taker: Reclaim",
        "Soul Ward"
      ],
      "feat": {
        "name": "Essence of Dust",
        "flavor": "The Testament of Menoth opens the intangible gates between Caen and Urcaen as easily as drawing back a curtain. Using these supernal portals, he moves his army between worlds, rendering the living no more substantial than dust in a guided wind.",
        "text": "Friendly Faction models currently in the Testament's control range gain Incorporeal. When declaring charges and slam power attacks or when making attacks, friendly Faction models can ignore models in the Testament's control range when determining LOS. Essence of Dust lasts for one turn."
      },
      "spells": [
        "Cloak of Ash",
        "Dust to Dust",
        "Hallowed Avenger",
        "Raise the Dead"
      ]
    }
  ]
}
