{
  "name": "Tharn Ravager Shaman",
  "edition": 3,
  "revision": "2018 v1",
  "keywords": [
    "Circle",
    "Solo"
  ],
  "point cost": 4,
  "field allowance": 2,
  "models": [
    {
      "model name": "Shaman",
      "spd": 6,
      "str": 8,
      "mat": 7,
      "rat": 6,
      "def": 13,
      "arm": 15,
      "cmd": 8,
      "boxes": 5,
      "advantages": [
        "Pathfinder",
        "Tough"
      ],
      "base size": 40,
      "attacks": [
        {
          "attack name": "Totem Staff",
          "type": "melee",
          "rng": 2,
          "pow": 4,
          "p+s": 12,
          "weapon qualities": [
            "Damage Type: Magical"
          ]
        }
      ],
      "abilities": [
        "Heart Eater",
        {
          "Magic Ability [6]": [
            "Chain Lightning",
            "Hunter's Grace",
            "Sigil of Power"
          ]
        },
        "Rapid Healing",
        "Treewalker"
      ]
    }
  ]
}
