{
  "name": "Tharn Bloodweaver Haruspex",
  "edition": 3,
  "revision": "2018 v1",
  "keywords": [
    "Circle",
    "Command Attachment"
  ],
  "point cost": 4,
  "field allowance": 3,
  "models": [
    {
      "model name": "Haruspex",
      "spd": 7,
      "str": 6,
      "mat": 7,
      "rat": 5,
      "def": 14,
      "arm": 11,
      "cmd": 9,
      "boxes": 5,
      "advantages": [
        "Officer",
        "Pathfinder",
        "Stealth"
      ],
      "base size": 30,
      "attacks": [
        {
          "attack name": "Sacral Blade",
          "type": "melee",
          "rng": 0.5,
          "pow": 3,
          "p+s": 9,
          "weapon qualities": [
            "Damage Type: Magical"
          ],
          "abilities": [
            {
              "Attack Type": [
                "Blood Burst",
                "Grievous Wounds",
                "Life Stealer"
              ]
            }
          ]
        }
      ],
      "abilities": [
        "Attachment [Tharn Bloodweaver]",
        "Gang",
        "Granted: Divine Inspiration",
        "Tactics: Advance Deployment",
        "Tactics: Sacred Ward"
      ]
    }
  ]
}
