{
  "name": "The King of Nothing",
  "edition": 3,
  "revision": "2017 v1",
  "keywords": [
    "Grymkin",
    "Warlock"
  ],
  "warbeast points": 28,
  "field allowance": "C",
  "models": [
    {
      "model name": "King of Nothing 1",
      "spd": 5,
      "str": 4,
      "mat": 4,
      "rat": 3,
      "def": 14,
      "arm": 14,
      "fury": 8,
      "cmd": 1,
      "boxes": 14,
      "base size": 30,
      "abilities": [
        "Kingdom of Silence",
        "Master of Ruin"
      ],
      "trump arcana": "Taste of Ashes",
      "spells": [
        "Ashes To Ashes",
        "Burning Ash",
        "Death to Dust",
        "Host of Shadows",
        "Sands of Fate",
        "Scything Touch"
      ]
    }
  ]
}
