{
  "name": "The Forsaken",
  "edition": 3,
  "revision": "2021 v1",
  "keywords": [
    "Legion",
    "Solo"
  ],
  "point cost": 4,
  "field allowance": 2,
  "models": [
    {
      "model name": "Forsaken",
      "spd": 6,
      "str": 7,
      "mat": 5,
      "rat": 4,
      "def": 13,
      "arm": 14,
      "cmd": 8,
      "boxes": 5,
      "base size": 30,
      "attacks": [
        {
          "attack name": "Claw",
          "type": "melee",
          "rng": 0.5,
          "pow": 5,
          "p+s": 12
        }
      ],
      "abilities": [
        "Ferocious",
        {
          "Magic Ability": [
            "Blight Shroud",
            "Consume Fury"
          ]
        },
        "Resolute Rage"
      ]
    }
  ]
}
