{
  "name": "The Covenant of Menoth",
  "edition": 3,
  "revision": "2016 v1",
  "keywords": [
    "Protectorate",
    "Solo"
  ],
  "point cost": 4,
  "field allowance": "C",
  "models": [
    {
      "model name": "Covenant 1",
      "spd": 5,
      "str": 5,
      "mat": 4,
      "rat": 4,
      "def": 10,
      "arm": 12,
      "cmd": 10,
      "boxes": 5,
      "base size": 50,
      "abilities": [
        "Ancient Shroud",
        {
          "Magic Ability": [
            "Flames of Wrath",
            "Lawgiver's Creed",
            "Power of Faith"
          ]
        },
        "Man-Sized",
        "Spell Ward"
      ]
    }
  ]
}
