{
  "name": "Thyra, Flame of Sorrow",
  "edition": 3,
  "revision": "2016 v1",
  "keywords": [
    "Protectorate",
    "Warcaster"
  ],
  "warjack points": 29,
  "field allowance": "C",
  "models": [
    {
      "model name": "Thyra 1",
      "spd": 7,
      "str": 6,
      "mat": 8,
      "rat": 4,
      "def": 17,
      "arm": 14,
      "focus": 6,
      "cmd": 9,
      "boxes": 15,
      "advantages": [
        "Parry",
        "Stealth"
      ],
      "base size": 30,
      "attacks": [
        {
          "attack name": "Grief",
          "type": "melee",
          "rng": 0.5,
          "pow": 5,
          "p+s": 11,
          "weapon qualities": [
            "Damage Type: Magical",
            "Grievous Wounds"
          ]
        },
        {
          "attack name": "Lament",
          "type": "melee",
          "rng": 0.5,
          "pow": 5,
          "p+s": 11,
          "weapon qualities": [
            "Damage Type: Magical",
            "Grievous Wounds"
          ]
        }
      ],
      "abilities": [
        "Acrobatics",
        "Blend In [Daughters of the Flame]",
        "Elite Cadre [Daughters of the Flame] (Thyra)",
        "Gates of Death",
        "Overtake",
        "Synergistic Magic"
      ],
      "feat": {
        "name": "Shadows of Urcaen",
        "flavor": "When the Flame of Sorrow vows to bring ruin to those who stand against the will of the Creator, the faithful are transformed into living shadows to strike deep in the enemy's heart.",
        "text": "Immediately place Thyra anywhere completely within 2\" of her current location. When a friendly Faction model activates in Thyra's control range, at the start of its activation you can place it anywhere completely within 2\" of its current location. Shadows of Urcaen lasts for one turn."
      },
      "spells": [
        "Carnage",
        "Occultation",
        "Silence of Death",
        "Stranglehold"
      ]
    }
  ]
}
