{
  "name": "Trollkin Gunnery Sergeant",
  "edition": 3,
  "revision": "2021 v1",
  "keywords": [
    "Trollblood",
    "Barrage",
    "Solo"
  ],
  "point cost": 3,
  "field allowance": 2,
  "models": [
    {
      "model name": "Sergeant",
      "spd": 5,
      "str": 6,
      "mat": 6,
      "rat": 5,
      "def": 13,
      "arm": 14,
      "cmd": 9,
      "boxes": 5,
      "advantages": [
        "Tough"
      ],
      "base size": 40,
      "attacks": [
        {
          "attack name": "Artillery Strike",
          "type": "ranged",
          "rng": 20,
          "rof": 1,
          "pow": 14,
          "abilities": [
            "Cumbersome",
            "Ground Pounder",
            "Inaccurate",
            "Limited Scope"
          ]
        },
        {
          "attack name": "Scattergun",
          "type": "ranged",
          "rng": "SP 8",
          "rof": 1,
          "pow": 12
        },
        {
          "attack name": "Axe",
          "type": "melee",
          "rng": 0.5,
          "pow": 4,
          "p+s": 10
        }
      ],
      "abilities": [
        "Ancillary Attack",
        "Artillerist",
        "Spyglass",
        "Veteran Leader [Faction Weapon Crew Units]"
      ]
    }
  ]
}
