{
  "name": "Trollkin Runeshapers",
  "edition": 3,
  "revision": "2020 v1",
  "keywords": [
    "Trollblood",
    "Unit"
  ],
  "unit size": [
    {
      "size": "only",
      "members": [
          {
              "name": "Leader",
              "count": 1
          },
          {
              "name": "Grunts",
              "count": 2
          }
      ],
      "point cost": 8
    }
  ],
  "field allowance": 3,
  "models": [
    {
      "model name": "Leader & Grunts",
      "spd": 5,
      "str": 6,
      "mat": 6,
      "rat": 4,
      "def": 12,
      "arm": 15,
      "cmd": 6,
      "boxes": [
        {
          "Model A": 5
        },
        {
          "Model B": 5
        },
        {
          "Model C": 5
        }
      ],
      "advantages": [
        "Advance Deploy",
        "Pathfinder",
        "Tough"
      ],
      "base size": 40,
      "attacks": [
        {
          "attack name": "Hand Weapon",
          "type": "melee",
          "rng": 1,
          "pow": 4,
          "p+s": 10,
          "weapon qualities": [
            "Damage Type: Magical"
          ]
        }
      ],
      "abilities": [
        "Battle Wizard",
        {
          "Magic Ability [7]": [
            "Dig In",
            "Rock Hammer",
            "Trembler"
          ]
        },
        "Steady"
      ]
    }
  ]
}
