{
  "name": "Tubbin",
  "edition": 3,
  "revision": "2021 v1",
  "keywords": [
    "Mercenary",
    "Minion",
    "Gobber",
    "Solo"
  ],
  "point cost": 5,
  "field allowance": "C",
  "models": [
    {
      "model name": "Tubbin 1",
      "spd": 5,
      "str": 5,
      "mat": 6,
      "rat": 3,
      "def": 13,
      "arm": 15,
      "cmd": 6,
      "boxes": 5,
      "base size": 30,
      "attacks": [
        {
          "attack name": "Mechanikal Axe",
          "type": "melee",
          "rng": 1,
          "pow": 7,
          "p+s": 12,
          "weapon qualities": [
            "Damage Type: Magical"
          ]
        },
        {
          "attack name": "Mechanikal Shield",
          "type": "melee",
          "rng": 0.5,
          "pow": 5,
          "p+s": 10,
          "weapon qualities": [
            "Damage Type: Magical",
            "Shield"
          ]
        }
      ],
      "abilities": [
        {
          "Mercenary": [
            "Crucible Guard",
            "Cygnar",
            "Khador"
          ]
        },
        {
          "Minion": [
            "Circle",
            "Trollbloods"
          ]
        },
        "Girded",
        "Mechanikally Adept",
        "Repair [d3 + 3]",
        "Tune Up [Battle Engine]"
      ]
    }
  ]
}
