{
  "name": "Uhlan Kovnik Markov",
  "edition": 3,
  "revision": "2016 v2",
  "keywords": [
    "Khador",
    "Iron Fang",
    "Solo"
  ],
  "point cost": 7,
  "field allowance": "C",
  "models": [
    {
      "model name": "Markov 1",
      "spd": 8,
      "str": 6,
      "mat": 8,
      "rat": 4,
      "def": 12,
      "arm": 18,
      "cmd": 10,
      "boxes": 10,
      "advantages": [
        "Cavalry"
      ],
      "base size": 50,
      "attacks": [
        {
          "attack name": "Concussion Lance",
          "type": "melee",
          "rng": "*",
          "pow": 10,
          "p+s": 16,
          "abilities": [
            "Lance",
            "Warhead"
          ]
        },
        {
          "attack name": "Pommel Spike",
          "type": "melee",
          "rng": 1,
          "pow": 4,
          "p+s": 10,
          "abilities": [
            "Close Combat"
          ]
        },
        {
          "attack name": "Mount",
          "type": "mount",
          "rng": 0.5,
          "pow": 12,
          "abilities": [
            "Critical Knockdown"
          ]
        }
      ],
      "abilities": [
        "Reposition [3\"]",
        "Relentless Charge",
        "Steady",
        "Tactician [Iron Fang]"
      ]
    }
  ]
}
