{
  "name": "Umbral Guardian",
  "edition": 3,
  "revision": "2021 v1",
  "keywords": [
    "Infernal",
    "Solo"
  ],
  "point cost": 6,
  "field allowance": 3,
  "models": [
    {
      "model name": "Umbral Guardian",
      "spd": 6,
      "str": 7,
      "mat": 7,
      "rat": 3,
      "def": 13,
      "arm": 16,
      "cmd": 5,
      "boxes": 8,
      "advantages": [
        "Soulless"
      ],
      "base size": 40,
      "attacks": [
        {
          "attack name": "Great Sword",
          "type": "melee",
          "rng": 2,
          "pow": 4,
          "p+s": 11,
          "weapon qualities": [
            "Damage Type: Magical",
            "Weapon Master"
          ]
        },
        {
          "attack name": "Buckler",
          "type": "melee",
          "rng": 0.5,
          "pow": 3,
          "p+s": 10,
          "weapon qualities": [
            "Buckler",
            "Damage Type: Magical"
          ]
        }
      ],
      "abilities": [
        "Defensive Strike",
        "Ghostly",
        "Shadow Guardian",
        "Shield Guard"
      ]
    }
  ]
}
