{
  "name": "Valin Hauke, The Fallen Knight",
  "edition": 3,
  "revision": "2020 v1",
  "keywords": [
    "Infernal",
    "Solo"
  ],
  "point cost": 7,
  "field allowance": "C",
  "models": [
    {
      "model name": "Hauke 1",
      "spd": 8,
      "str": 8,
      "mat": 8,
      "rat": 3,
      "def": 13,
      "arm": 18,
      "cmd": 10,
      "boxes": 10,
      "advantages": [
        "Cavalry",
        "Tough"
      ],
      "base size": 50,
      "attacks": [
        {
          "attack name": "Great Sword",
          "type": "melee",
          "rng": 2,
          "pow": 6,
          "p+s": 14,
          "weapon qualities": [
            "Damage Type: Magical"
          ],
          "abilities": [
            "Brutal Charge"
          ]
        },
        {
          "attack name": "Mount",
          "type": "mount",
          "rng": 0.5,
          "pow": 12,
          "weapon qualities": [
            "Damage Type: Magical"
          ]
        }
      ],
      "abilities": [
        "Brother's Keeper",
        "Marked Soul",
        "Reposition [3\"]",
        "Tactician [Faction Warrior]"
      ]
    }
  ]
}
