{
  "name": "Vayl, Consul of Everblight",
  "edition": 3,
  "revision": "2016 v1",
  "keywords": [
    "Legion",
    "Blighted",
    "Nyss",
    "Warlock"
  ],
  "warbeast points": 28,
  "field allowance": "C",
  "models": [
    {
      "model name": "Vayl 2",
      "spd": 6,
      "str": 5,
      "mat": 3,
      "rat": 7,
      "def": 15,
      "arm": 14,
      "fury": 8,
      "cmd": 9,
      "boxes": 14,
      "advantages": [
        "Gunfighter",
        "Immunity: Cold"
      ],
      "base size": 30,
      "attacks": [
        {
          "attack name": "Oraculi",
          "type": "ranged",
          "rng": 10,
          "rof": 1,
          "pow": 8,
          "weapon qualities": [
            "Damage Type: Magical"
          ],
          "abilities": [
            "Reload [2]",
            "Spellbound"
          ]
        }
      ],
      "abilities": [
        "Quick Draw",
        "Serenity"
      ],
      "feat": {
        "name": "Dark Miracles",
        "flavor": "As the supreme sorceress of the Legion of Everblight, Vayl has plumbed the depths of blighted power with a sophisticated touch none can rival. She contemptuously tears asunder the feeble magic of her enemies while unleashing her own in a devastating eruption of sorcerous might.",
        "text": "This activation, Vayl can cast each of her spells once without spending fury."
      },
      "spells": [
        "Admonition",
        "Boundless Charge",
        "Chasten",
        "Deadly Storm",
        "Icy Grip",
        "Occultation"
      ]
    }
  ]
}
