{
  "name": "Vessel of Judgment",
  "edition": 3,
  "revision": "2021 v2",
  "keywords": [
    "Protectorate",
    "Scrutator",
    "Battle Engine"
  ],
  "point cost": 15,
  "field allowance": 2,
  "models": [
    {
      "model name": "Vessel of Judgment",
      "spd": 4,
      "str": 10,
      "rat": 6,
      "def": 10,
      "arm": 20,
      "cmd": 10,
      "boxes": 32,
      "advantages": [
        "Construct",
        "Gunfighter",
        "Immunity: Fire",
        "Pathfinder"
      ],
      "base size": 120,
      "attacks": [
        {
          "attack name": "Divine Wrath",
          "type": "ranged",
          "rng": 12,
          "rof": 1,
          "pow": 15,
          "weapon qualities": [
            "Damage Type: Magical"
          ],
          "abilities": [
            "Admonisher",
            "Reload [1]"
          ]
        }
      ],
      "abilities": [
        "Destructive Power",
        {
          "Holy Reliquary": [
            "Bonds of Faith",
            "Doors of Judgement",
            "Eruption of Faith"
          ]
        }
      ]
    }
  ]
}
