{
  "name": "Vindicator",
  "edition": 3,
  "revision": "2021 v1",
  "keywords": [
    "Crucible Guard",
    "Heavy",
    "Warjack"
  ],
  "point cost": 15,
  "field allowance": "U",
  "models": [
    {
      "model name": "Vindicator",
      "spd": 5,
      "str": 11,
      "mat": 6,
      "rat": 5,
      "def": 11,
      "arm": 18,
      "advantages": [
        "Construct"
      ],
      "base size": 50,
      "boxes": {
        "grid": [
          [
            2,
            1
          ],
          [
            3,
            1
          ],
          [
            4,
            1
          ],
          [
            5,
            1
          ],
          [
            2,
            2
          ],
          [
            3,
            2
          ],
          [
            4,
            2
          ],
          [
            5,
            2
          ],
          [
            6,
            2
          ],
          [
            1,
            3
          ],
          [
            2,
            3
          ],
          [
            3,
            3
          ],
          [
            4,
            3
          ],
          [
            5,
            3
          ],
          [
            6,
            3
          ],
          [
            1,
            4
          ],
          [
            2,
            4
          ],
          [
            3,
            4
          ],
          [
            4,
            4
          ],
          [
            5,
            4
          ],
          [
            6,
            4
          ],
          [
            2,
            5
          ],
          [
            3,
            5
          ],
          [
            4,
            5
          ],
          [
            5,
            5
          ],
          [
            6,
            5
          ],
          [
            2,
            6
          ],
          [
            3,
            6
          ],
          [
            4,
            6
          ],
          [
            5,
            6
          ]
        ],
        "systems": [
          {
            "Left Arm": [
              [
                5,
                1
              ],
              [
                4,
                2
              ],
              [
                5,
                2
              ]
            ]
          },
          {
            "Movement": [
              [
                6,
                2
              ],
              [
                5,
                3
              ],
              [
                6,
                3
              ]
            ]
          },
          {
            "Cortex": [
              [
                5,
                4
              ],
              [
                6,
                4
              ],
              [
                6,
                5
              ]
            ]
          },
          {
            "Right Arm": [
              [
                4,
                5
              ],
              [
                5,
                5
              ],
              [
                5,
                6
              ]
            ]
          }
        ]
      },
      "attacks": [
        {
          "attack name": "Multi-Chambered Compression Cannon",
          "type": "ranged",
          "loc": "L",
          "rng": 12,
          "rof": 1,
          "aoe": 4,
          "pow": 15,
          "abilities": [
            {
              "Attack Type": [
                "Decrepitation",
                "Psychomorphic Destabilizer",
                "Withering Humor"
              ]
            },
            "Powerful Attack",
            "Steam Pressure"
          ]
        },
        {
          "attack name": "Maul",
          "type": "melee",
          "loc": "R",
          "rng": 2,
          "pow": 7,
          "p+s": 18
        }
      ],
      "abilities": [
        "Alchemically Treated"
      ]
    }
  ]
}
