{
  "name": "Virtue Host",
  "edition": 3,
  "revision": "2020 v1",
  "keywords": [
    "Legion",
    "Unit"
  ],
  "unit size": [
    {
      "size": "only",
      "members": [
          {
              "name": "Leader",
              "count": 1
          },
          {
              "name": "Grunts",
              "count": 2
          }
      ],
      "point cost": 8
    }
  ],
  "field allowance": 3,
  "models": [
    {
      "model name": "Leader & Grunts",
      "spd": 7,
      "str": 8,
      "mat": 6,
      "rat": 6,
      "def": 14,
      "arm": 16,
      "cmd": 8,
      "boxes": [
        {
          "Model A": 5
        },
        {
          "Model B": 5
        },
        {
          "Model C": 5
        }
      ],
      "advantages": [
        "Assault",
        "Immunity: Corrosion",
        "Pathfinder"
      ],
      "base size": 30,
      "attacks": [
        {
          "attack name": "Toxic Spit",
          "type": "ranged",
          "rng": 10,
          "rof": 1,
          "aoe": 3,
          "pow": 10,
          "weapon qualities": [
            "Continuous Effect: Corrosion",
            "Damage Type: Corrosion",
            "Damage Type: Magical"
          ],
          "abilities": [
            "Scather"
          ]
        },
        {
          "attack name": "Blighted Claw",
          "type": "melee",
          "rng": 1,
          "pow": 3,
          "p+s": 11,
          "weapon qualities": [
            "Damage Type: Magical"
          ]
        },
        {
          "attack name": "Blighted Claw",
          "type": "melee",
          "rng": 1,
          "pow": 3,
          "p+s": 11,
          "weapon qualities": [
            "Damage Type: Magical"
          ]
        }
      ],
      "abilities": [
        "Peel Back the Layers",
        "Soul Ward"
      ]
    }
  ]
}
