{
  "name": "Visgoth Juviah Rhoven & Honor Guard",
  "edition": 3,
  "keywords": [
    "Protectorate",
    "Exemplar",
    "Unit"
  ],
  "unit size": [
    {
      "size": "only",
      "members": [
          {
              "name": "Rhoven",
              "count": 1
          },
          {
              "name": "Gius",
              "count": 1
          },
          {
              "name": "Cassian",
              "count": 1
          }
      ],
      "point cost": 7
    }
  ],
  "field allowance": "C",
  "models": [
    {
      "model name": "Rhoven",
      "spd": 5,
      "str": 6,
      "mat": 8,
      "rat": 4,
      "def": 12,
      "arm": 16,
      "cmd": 6,
      "boxes": 5,
      "advantages": [
        "Officer"
      ],
      "base size": 30,
      "attacks": [
        {
          "attack name": "Staff of Sulon",
          "type": "melee",
          "rng": 2,
          "pow": 6,
          "p+s": 12,
          "weapon qualities": [
            "Continuous Effect: Fire",
            "Damage Type: Magical"
          ]
        }
      ],
      "abilities": [
        "Battle Wizard",
        {
          "Magic Ability [8]": [
            "Cleansing Fire",
            "Menoth's Sight",
            "Purifying Prayer"
          ]
        }
      ]
    },
    {
      "model name": "Gius 1",
      "spd": 5,
      "str": 6,
      "mat": 8,
      "rat": 4,
      "def": 12,
      "arm": 16,
      "ctrl": 6,
      "boxes": 8,
      "base size": 30,
      "attacks": [
        {
          "attack name": "Consecrated Halberd",
          "type": "melee",
          "rng": 2,
          "aoe": 5,
          "pow": 5,
          "p+s": 11,
          "weapon qualities": [
            "Blessed",
            "Damage Type: Magical",
            "Weapon Master"
          ]
        }
      ],
      "abilities": [
        "Set Defense",
        "Shield Guard"
      ]
    },
    {
      "model name": "Cassian 1",
      "spd": 5,
      "str": 6,
      "mat": 8,
      "rat": 4,
      "def": 12,
      "arm": 16,
      "ctrl": 6,
      "boxes": 8,
      "base size": 30,
      "attacks": [
        {
          "attack name": "Consecrated Halberd",
          "type": "melee",
          "rng": 2,
          "aoe": 5,
          "pow": 5,
          "p+s": 11,
          "weapon qualities": [
            "Blessed",
            "Damage Type: Magical",
            "Weapon Master"
          ]
        }
      ],
      "abilities": [
        "Set Defense",
        "Shield Guard"
      ]
    }
  ]
}
