{
  "name": "Void Archon",
  "edition": 3,
  "revision": "2019 v1",
  "keywords": [
    "Mercenary",
    "Minion",
    "Solo"
  ],
  "point cost": 9,
  "field allowance": 2,
  "models": [
    {
      "model name": "Archon",
      "spd": 6,
      "str": 8,
      "mat": 7,
      "rat": 6,
      "def": 14,
      "arm": 17,
      "cmd": 10,
      "boxes": 12,
      "advantages": [
        "Flight"
      ],
      "base size": 50,
      "attacks": [
        {
          "attack name": "Void Howler",
          "type": "ranged",
          "rng": "SP 10",
          "rof": 1,
          "pow": 14,
          "weapon qualities": [
            "Damage Type: Magical"
          ]
        },
        {
          "attack name": "Void Touch",
          "type": "melee",
          "rng": 1,
          "pow": 5,
          "p+s": 13,
          "weapon qualities": [
            "Damage Type: Magical"
          ]
        }
      ],
      "abilities": [
        {
          "Mercenary": [
            "Convergence",
            "Cryx",
            "Retribution"
          ]
        },
        {
          "Minion": [
            "Skorne"
          ]
        },
        "Dark Shroud",
        "Divine Manifestation",
        "Dual Attack",
        "Entropic Force",
        {
          "Soul Taker: Spectral Scavenger": [
            "Soul Phase",
            "Strength of Death"
          ]
        },
        "Soul Ward",
        "Void Walk"
      ]
    }
  ]
}
