{
  "name": "Warspear Chieftain",
  "edition": 3,
  "revision": "2016 v1",
  "keywords": [
    "Legion",
    "Blighted",
    "Ogrun",
    "Command Attachment"
  ],
  "point cost": 5,
  "field allowance": 3,
  "models": [
    {
      "model name": "Chieftain",
      "spd": 5,
      "str": 9,
      "mat": 7,
      "rat": 6,
      "def": 12,
      "arm": 16,
      "cmd": 9,
      "boxes": 8,
      "advantages": [
        "Assault",
        "Officer",
        "Tough"
      ],
      "base size": 40,
      "attacks": [
        {
          "attack name": "Thrown Spear",
          "type": "ranged",
          "rng": 8,
          "rof": 1,
          "pow": 13,
          "abilities": [
            "Thrown"
          ]
        },
        {
          "attack name": "War Spear",
          "type": "melee",
          "rng": 2,
          "pow": 4,
          "p+s": 13
        }
      ],
      "abilities": [
        "Attachment [Blighted Ogrun Warspears]",
        "Granted: Prey",
        "Set Defense",
        "Tactics: Relentless Charge"
      ]
    }
  ]
}
