{
  "name": "Warwitch Siren",
  "edition": 3,
  "revision": "2021 v1",
  "keywords": [
    "Cryx",
    "Solo"
  ],
  "point cost": 3,
  "field allowance": 2,
  "models": [
    {
      "model name": "Siren",
      "spd": 7,
      "str": 5,
      "mat": 6,
      "rat": 4,
      "def": 14,
      "arm": 13,
      "cmd": 5,
      "boxes": 5,
      "advantages": [
        "Parry",
        "Stealth"
      ],
      "base size": 30,
      "attacks": [
        {
          "attack name": "Shadow Blade",
          "type": "melee",
          "rng": 2,
          "pow": 6,
          "p+s": 11,
          "weapon qualities": [
            "Damage Type: Magical"
          ],
          "abilities": [
            "Shadow Bind"
          ]
        }
      ],
      "abilities": [
        {
          "Magic Ability [6]": [
            "Empower",
            "Seduction",
            "Venom"
          ]
        }
      ]
    }
  ]
}
