{
  "name": "Winter Argus",
  "edition": 3,
  "revision": "2021 v1",
  "keywords": [
    "Circle",
    "Light",
    "Warbeast"
  ],
  "point cost": 7,
  "field allowance": "U",
  "models": [
    {
      "model name": "Argus",
      "spd": 6,
      "str": 8,
      "mat": 5,
      "rat": 5,
      "def": 14,
      "arm": 15,
      "cmd": 4,
      "advantages": [
        "Immunity: Cold",
        "Pathfinder"
      ],
      "base size": 40,
      "fury": 3,
      "threshold": 9,
      "boxes": {
        "Spiral 1": 5,
        "Spiral 2": 4,
        "Spiral 3": 5,
        "Spiral 4": 4,
        "Spiral 5": 5,
        "Spiral 6": 4
      },
      "attacks": [
        {
          "attack name": "Frost Breath",
          "type": "ranged",
          "rng": "SP 6",
          "rof": 1,
          "pow": 12,
          "weapon qualities": [
            "Damage Type: Cold"
          ],
          "abilities": [
            "Critical Freeze"
          ]
        },
        {
          "attack name": "Frost Breath",
          "type": "ranged",
          "rng": "SP 6",
          "rof": 1,
          "pow": 12,
          "weapon qualities": [
            "Damage Type: Cold"
          ],
          "abilities": [
            "Critical Freeze"
          ]
        },
        {
          "attack name": "Bite",
          "type": "melee",
          "rng": 0.5,
          "pow": 4,
          "p+s": 12
        },
        {
          "attack name": "Bite",
          "type": "melee",
          "rng": 0.5,
          "pow": 4,
          "p+s": 12
        }
      ],
      "abilities": [
        "Circular Vision"
      ],
      "animus": "Winter Coat"
    }
  ]
}
