{
  "name": "Woldwrath",
  "edition": 3,
  "revision": "2016 v1",
  "keywords": [
    "Circle",
    "Gargantuan",
    "Warbeast"
  ],
  "point cost": 37,
  "field allowance": 2,
  "models": [
    {
      "model name": "Woldwrath",
      "spd": 5,
      "str": 16,
      "mat": 6,
      "rat": 5,
      "def": 7,
      "arm": 20,
      "advantages": [
        "Construct",
        "Pathfinder"
      ],
      "base size": 120,
      "fury": 4,
      "boxes": {
        "Spiral 1": 8,
        "Spiral 2": 8,
        "Spiral 3": 13,
        "Spiral 4": 13,
        "Spiral 5": 11,
        "Spiral 6": 11
      },
      "attacks": [
        {
          "attack name": "Lightning Strike",
          "type": "ranged",
          "rng": 14,
          "rof": 1,
          "aoe": 5,
          "pow": 15,
          "weapon qualities": [
            "Damage Type: Electricity"
          ],
          "abilities": [
            "Electro Field"
          ]
        },
        {
          "attack name": "Stone Fist",
          "type": "melee",
          "field of fire": "Left",
          "loc": "L",
          "rng": 2,
          "pow": 3,
          "p+s": 19,
          "weapon qualities": [
            "Open Fist"
          ],
          "abilities": [
            "Earth Shaker"
          ]
        },
        {
          "attack name": "Stone Fist",
          "type": "melee",
          "field of fire": "Right",
          "loc": "R",
          "rng": 2,
          "pow": 3,
          "p+s": 19,
          "weapon qualities": [
            "Open Fist"
          ],
          "abilities": [
            "Earth Shaker"
          ]
        }
      ],
      "abilities": [
        "Hyper-Regeneration",
        "Sacred Ward"
      ],
      "animus": "Druid's Wrath"
    }
  ]
}
