{
  "name": "Woldwatcher",
  "edition": 3,
  "revision": "2017",
  "keywords": [
    "Circle",
    "Light",
    "Warbeast"
  ],
  "point cost": 8,
  "field allowance": "U",
  "models": [
    {
      "model name": "Woldwatcher",
      "spd": 5,
      "str": 9,
      "mat": 6,
      "rat": 5,
      "def": 10,
      "arm": 17,
      "advantages": [
        "Advance Deploy",
        "Construct",
        "Pathfinder"
      ],
      "base size": 40,
      "fury": 2,
      "boxes": {
        "Spiral 1": 5,
        "Spiral 2": 4,
        "Spiral 3": 5,
        "Spiral 4": 5,
        "Spiral 5": 6,
        "Spiral 6": 5
      },
      "attacks": [
        {
          "attack name": "Elemental Strike",
          "type": "ranged",
          "rng": 10,
          "rof": 1,
          "pow": 12,
          "weapon qualities": [
            "Damage Type: Magical"
          ],
          "abilities": [
            "Fertilizer"
          ]
        },
        {
          "attack name": "Rune Fist",
          "type": "melee",
          "rng": 0.5,
          "pow": 4,
          "p+s": 13,
          "weapon qualities": [
            "Damage Type: Magical",
            "Open Fist"
          ],
          "abilities": [
            "Fertilizer"
          ]
        },
        {
          "attack name": "Rune Fist",
          "type": "melee",
          "rng": 0.5,
          "pow": 4,
          "p+s": 13,
          "weapon qualities": [
            "Damage Type: Magical",
            "Open Fist"
          ],
          "abilities": [
            "Fertilizer"
          ]
        }
      ],
      "abilities": [
        "Stone Form"
      ],
      "animus": "Earth's Blessing"
    }
  ]
}
