{
  "name": "Wolf With No Name",
  "edition": 3,
  "revision": "2019 v1",
  "keywords": [
    "Minion",
    "Wolf Sworn",
    "Skinwalker",
    "Solo"
  ],
  "point cost": 4,
  "field allowance": "C",
  "models": [
    {
      "model name": "No Name 1",
      "spd": 5,
      "str": 8,
      "mat": 6,
      "rat": 6,
      "def": 13,
      "arm": 15,
      "cmd": 6,
      "boxes": 8,
      "advantages": [
        "Advance Deploy",
        "Pathfinder"
      ],
      "base size": 40,
      "attacks": [
        {
          "attack name": "Pig Iron Rifle",
          "type": "ranged",
          "rng": 12,
          "rof": 1,
          "pow": 12
        },
        {
          "attack name": "Knife",
          "type": "melee",
          "rng": 0.5,
          "pow": 2,
          "p+s": 10
        }
      ],
      "abilities": [
        {
          "Minion": [
            "Circle"
          ]
        },
        "Partisan [Circle]",
        "Finisher",
        "Hyper-Regeneration",
        "Money Is Power",
        "Prey",
        "Wanted!"
      ]
    }
  ]
}
