{
  "name": "Wrecker",
  "edition": 3,
  "revision": "2022 v1",
  "keywords": [
    "Mercenary",
    "Cephalyx",
    "Monstrosity"
  ],
  "point cost": 14,
  "field allowance": "U",
  "models": [
    {
      "model name": "Wrecker",
      "spd": 5,
      "str": 10,
      "mat": 6,
      "rat": 4,
      "def": 12,
      "arm": 18,
      "advantages": [
        "Eyeless Sight"
      ],
      "base size": 50,
      "boxes": {
        "grid": [
          [
            1,
            1
          ],
          [
            2,
            1
          ],
          [
            3,
            1
          ],
          [
            4,
            1
          ],
          [
            5,
            1
          ],
          [
            6,
            1
          ],
          [
            1,
            2
          ],
          [
            2,
            2
          ],
          [
            3,
            2
          ],
          [
            4,
            2
          ],
          [
            5,
            2
          ],
          [
            6,
            2
          ],
          [
            1,
            3
          ],
          [
            2,
            3
          ],
          [
            3,
            3
          ],
          [
            4,
            3
          ],
          [
            5,
            3
          ],
          [
            6,
            3
          ],
          [
            1,
            4
          ],
          [
            2,
            4
          ],
          [
            3,
            4
          ],
          [
            4,
            4
          ],
          [
            5,
            4
          ],
          [
            6,
            4
          ],
          [
            1,
            5
          ],
          [
            2,
            5
          ],
          [
            3,
            5
          ],
          [
            4,
            5
          ],
          [
            5,
            5
          ],
          [
            6,
            5
          ],
          [
            1,
            6
          ],
          [
            2,
            6
          ],
          [
            3,
            6
          ],
          [
            4,
            6
          ],
          [
            5,
            6
          ],
          [
            6,
            6
          ]
        ],
        "systems": [
          {
            "Left Arm": [
              [
                5,
                1
              ],
              [
                6,
                1
              ],
              [
                5,
                2
              ]
            ]
          },
          {
            "Movement": [
              [
                6,
                2
              ],
              [
                5,
                3
              ],
              [
                6,
                3
              ]
            ]
          },
          {
            "Brain": [
              [
                5,
                4
              ],
              [
                6,
                5
              ],
              [
                6,
                5
              ]
            ]
          },
          {
            "Right Arm": [
              [
                5,
                5
              ],
              [
                5,
                6
              ],
              [
                6,
                6
              ]
            ]
          }
        ]
      },
      "attacks": [
        {
          "attack name": "Bladed Flail",
          "type": "melee",
          "loc": "L",
          "rng": 2,
          "pow": 7,
          "p+s": 17,
          "weapon qualities": [
            "Chain Weapon"
          ],
          "abilities": [
            "Beat Back",
            "Thresher"
          ]
        },
        {
          "attack name": "Bladed Flail",
          "type": "melee",
          "loc": "R",
          "rng": 2,
          "pow": 7,
          "p+s": 17,
          "weapon qualities": [
            "Chain Weapon"
          ],
          "abilities": [
            "Beat Back",
            "Thresher"
          ]
        }
      ]
    }
  ]
}
