{
  "name": "Yssylla",
  "edition": 3,
  "revision": "2020 v1",
  "keywords": [
    "Legion",
    "Blighted",
    "Nyss",
    "Solo"
  ],
  "point cost": 5,
  "field allowance": "C",
  "models": [
    {
      "model name": "Yssylla 1",
      "spd": 6,
      "str": 5,
      "mat": 4,
      "rat": 4,
      "def": 14,
      "arm": 11,
      "cmd": 7,
      "boxes": 5,
      "advantages": [
        "Immunity: Cold",
        "Immunity: Corrosion",
        "Stealth"
      ],
      "base size": 30,
      "abilities": [
        {
          "Magic Ability [8]": [
            "Puppet Master",
            "Shatter Storm",
            "Toxic Blizzard"
          ]
        },
        "Unleash The Arcane"
      ]
    }
  ]
}
