{
  "name": "Yuri The Hunter",
  "edition": 3,
  "revision": "2020 v1",
  "keywords": [
    "Khador",
    "Solo"
  ],
  "point cost": 5,
  "field allowance": "C",
  "models": [
    {
      "model name": "Yuri 2",
      "spd": 6,
      "str": 8,
      "mat": 8,
      "rat": 7,
      "def": 14,
      "arm": 14,
      "cmd": 9,
      "boxes": 5,
      "advantages": [
        "Advance Deploy",
        "Pathfinder",
        "Stealth",
        "Tough"
      ],
      "base size": 30,
      "attacks": [
        {
          "attack name": "Tharn Bow",
          "type": "ranged",
          "rng": 12,
          "rof": 1,
          "pow": 14,
          "abilities": [
            "Arcing Fire"
          ]
        },
        {
          "attack name": "Hunting Knife",
          "type": "melee",
          "rng": 0.5,
          "pow": 2,
          "p+s": 10,
          "weapon qualities": [
            "Weapon Master"
          ]
        }
      ],
      "abilities": [
        "Ambush",
        "Cover Tracks",
        "Hunter",
        "Trapper [4\"]"
      ]
    }
  ]
}
