{
  "name": "Agrimony, Crone of the Dying Strands",
  "edition": 3,
  "revision": "2021 v1",
  "keywords": [
    "Cryx",
    "Revenant",
    "Solo"
  ],
  "point cost": 3,
  "field allowance": "C",
  "models": [
    {
      "model name": "Agrimony 1",
      "spd": 6,
      "str": 4,
      "mat": 4,
      "rat": 4,
      "def": 14,
      "arm": 12,
      "cmd": 8,
      "boxes": 5,
      "advantages": [
        "Incorporeal",
        "Undead"
      ],
      "base size": 30,
      "abilities": [
        "Apparition",
        {
          "Magic Ability [7]": [
            "Black Waters",
            "Bone Shaker",
            "Sigil of Power"
          ]
        },
        "Tactician [Revenant]"
      ]
    }
  ]
}
