{
  "name": "Arcane Tempest Gun Mages",
  "edition": 3,
  "revision": "2021 v1",
  "keywords": [
    "Cygnar",
    "Unit"
  ],
  "unit size": [
    {
      "only": [
        {
          "Leader": 1
        },
        {
          "Grunts": 5
        },
        {
          "point cost": 9
        }
      ]
    }
  ],
  "field allowance": 2,
  "models": [
    {
      "model name": "Leader & Grunts",
      "spd": 6,
      "str": 4,
      "mat": 5,
      "rat": 7,
      "def": 14,
      "arm": 11,
      "cmd": 7,
      "boxes": 1,
      "advantages": [
        "Gunfighter"
      ],
      "base size": 30,
      "attacks": [
        {
          "attack name": "Magelock Pistol",
          "type": "ranged",
          "rng": 10,
          "rof": 1,
          "pow": 10,
          "weapon qualities": [
            "Damage Type: Magical"
          ],
          "abilities": [
            {
              "Attack Type": [
                "Critical Brutal Damage",
                "Snipe",
                "Thunderbolt"
              ]
            }
          ]
        },
        {
          "attack name": "Sword",
          "type": "melee",
          "rng": 0.5,
          "pow": 3,
          "p+s": 7
        }
      ],
      "abilities": [
        "Supporting Attack"
      ]
    }
  ]
}
