{
  "name": "Archduke Alain Runewood, Lord of Fharin",
  "edition": 3,
  "revision": "2016 v1",
  "keywords": [
    "Cygnar",
    "Solo"
  ],
  "point cost": 4,
  "field allowance": "C",
  "models": [
    {
      "model name": "Runewood 1",
      "spd": 6,
      "str": 6,
      "mat": 7,
      "rat": 6,
      "def": 13,
      "arm": 14,
      "cmd": 10,
      "boxes": 5,
      "advantages": [
        "Jack Marshal"
      ],
      "base size": 30,
      "attacks": [
        {
          "attack name": "Hand Cannon",
          "type": "ranged",
          "rng": 12,
          "rof": 1,
          "pow": 12
        },
        {
          "attack name": "Vindicator",
          "type": "melee",
          "rng": 1,
          "pow": 6,
          "p+s": 12,
          "weapon qualities": [
            "Damage Type: Magical",
            "Weapon Master"
          ]
        }
      ],
      "abilities": [
        {
          "Battle Plan": [
            "March",
            "Path to Victory",
            "Reveille"
          ]
        },
        "Drive: Reposition [5\"]",
        "Veteran Leader [Sword Knights]"
      ]
    }
  ]
}
