{
  "name": "Ashlynn D'Elyse, The Queen's Blade",
  "edition": 3,
  "revision": "2022 v1",
  "keywords": [
    "Mercenary",
    "Llaelese",
    "Morrowan",
    "Warcaster",
    "Unit"
  ],
  "warjack points": 26,
  "field allowance": "C",
  "models": [
    {
      "model name": "Ashlynn 2",
      "spd": 6,
      "str": 5,
      "mat": 8,
      "rat": 7,
      "def": 17,
      "arm": 15,
      "focus": 6,
      "cmd": 9,
      "boxes": 16,
      "advantages": [
        "Officer"
      ],
      "base size": 30,
      "attacks": [
        {
          "attack name": "Hand Cannon",
          "type": "ranged",
          "rng": 12,
          "rof": 1,
          "pow": 12
        },
        {
          "attack name": "Revanche",
          "type": "melee",
          "rng": 2,
          "pow": 7,
          "p+s": 12,
          "weapon qualities": [
            "Damage Type: Magical",
            "Weapon Master"
          ],
          "abilities": [
            "Thresher"
          ]
        }
      ],
      "abilities": [
        {
          "Mercenaries": [
            "Crucible Guard",
            "Cygnar",
            "Protectorate"
          ]
        },
        "Groundwork",
        "Hero of the People",
        "Tactician [Llaelese]",
        "Warcaster Unit (Ashlynn 2)"
      ],
      "feat": {
        "name": "Battle Cry",
        "flavor": "Screaming a war cry that echoes over the cacophony of battle, Ashlynn combines her innate arcane power with her indomitable will to overcome adversity. This manifestation of pure willpower pushes her soldiers to fight well beyond the brink of eath, giving every ounce of strength they have to aid the Queen's Blade.",
        "text": "Return up to three friendly Faction solos with point costs of 6 or less each to play. Place those models in base contact with this model. They must forfeit their Normal Movement or Combat Action the turn they are put into play. Models that were destroyed this turn cannot be returned as a result of Battle Cry. Additionally, while in Ashlynn's control range, friendly Faction warrior models gain Dying Breath. Battle Cry lasts for one round."
      },
      "spells": [
        "Artifice of Deviation",
        "Blood of Liberty",
        "Hand of Fate",
        "Perdition",
        "True Path"
      ]
    },
    {
      "model name": "Vayne Di Brascio 1",
      "spd": 6,
      "str": 5,
      "mat": 7,
      "rat": 7,
      "def": 14,
      "arm": 11,
      "cmd": 6,
      "boxes": 5,
      "base size": 30,
      "attacks": [
        {
          "attack name": "Dual Magelock",
          "type": "ranged",
          "rng": 10,
          "rof": 2,
          "pow": 10,
          "weapon qualities": [
            "Damage Type: Magical"
          ],
          "abilities": [
            {
              "Attack Type": [
                "Black Penny",
                "Trick Shot",
                "Thunderbolt"
              ]
            },
            "Both Barrels"
          ]
        },
        {
          "attack name": "Sword",
          "type": "melee",
          "rng": 0.5,
          "pow": 3,
          "p+s": 8
        }
      ],
      "abilities": [
        "Duelist",
        "Granted: Reposition [3\"]",
        "Gun Mage",
        "Point-Blank"
      ]
    },
    {
      "model name": "Marie Aguillon 1",
      "spd": 6,
      "str": 6,
      "mat": 7,
      "rat": 4,
      "def": 14,
      "arm": 13,
      "cmd": 6,
      "boxes": 5,
      "base size": 30,
      "attacks": [
        {
          "attack name": "Dueling Blade",
          "type": "melee",
          "rng": 0.5,
          "pow": 4,
          "p+s": 10,
          "abilities": [
            "Lunge"
          ]
        },
        {
          "attack name": "Weighted Cloak",
          "type": "melee",
          "rng": 0.5,
          "pow": 1,
          "p+s": 7,
          "abilities": [
            "Trip Up"
          ]
        }
      ],
      "abilities": [
        "Duelist",
        "Granted: Riposte"
      ]
    }
  ]
}
