{
  "name": "Aspis",
  "edition": 3,
  "revision": "2021 v1",
  "keywords": [
    "Retribution",
    "Shyeel",
    "Light",
    "Warjack"
  ],
  "point cost": 6,
  "field allowance": "U",
  "models": [
    {
      "model name": "Aspis",
      "spd": 6,
      "str": 8,
      "mat": 6,
      "rat": 5,
      "def": 13,
      "arm": 16,
      "advantages": [
        "Construct"
      ],
      "base size": 40,
      "boxes": {
        "force field": 6,
        "grid": [
          [
            4,
            1
          ],
          [
            5,
            1
          ],
          [
            3,
            2
          ],
          [
            4,
            2
          ],
          [
            5,
            2
          ],
          [
            6,
            2
          ],
          [
            3,
            3
          ],
          [
            4,
            3
          ],
          [
            5,
            3
          ],
          [
            6,
            3
          ],
          [
            3,
            4
          ],
          [
            4,
            4
          ],
          [
            5,
            4
          ],
          [
            6,
            4
          ],
          [
            3,
            5
          ],
          [
            4,
            5
          ],
          [
            5,
            5
          ],
          [
            6,
            5
          ],
          [
            4,
            6
          ],
          [
            5,
            6
          ]
        ],
        "systems": [
          {
            "Left Arm": [
              [
                5,
                1
              ],
              [
                4,
                2
              ],
              [
                5,
                2
              ]
            ]
          },
          {
            "Movement": [
              [
                6,
                2
              ],
              [
                5,
                3
              ],
              [
                6,
                3
              ]
            ]
          },
          {
            "Shield Generator": [
              [
                4,
                3
              ],
              [
                4,
                4
              ]
            ]
          },
          {
            "Cortex": [
              [
                5,
                4
              ],
              [
                6,
                4
              ],
              [
                6,
                5
              ]
            ]
          },
          {
            "Right Arm": [
              [
                4,
                5
              ],
              [
                5,
                5
              ],
              [
                5,
                6
              ]
            ]
          }
        ]
      },
      "attacks": [
        {
          "attack name": "Repulsor",
          "type": "melee",
          "loc": "L",
          "rng": 0.5,
          "pow": 3,
          "p+s": 11,
          "abilities": [
            "Beat Back"
          ]
        },
        {
          "attack name": "Repulsor",
          "type": "melee",
          "loc": "R",
          "rng": 0.5,
          "pow": 3,
          "p+s": 11,
          "abilities": [
            "Beat Back"
          ]
        }
      ],
      "abilities": [
        "Field Dependent (Aspis)",
        "Phoenix Field",
        "Shield Guard"
      ]
    }
  ]
}
