{
  "name": "Assault Kommandos",
  "edition": 3,
  "revision": "2021 v2",
  "keywords": [
    "Khador",
    "Winter Guard",
    "Unit"
  ],
  "unit size": [
    {
      "min": [
        {
          "Leader": 1
        },
        {
          "Grunts": 5
        },
        {
          "point cost": 7
        }
      ]
    },
    {
      "max": [
        {
          "Leader": 1
        },
        {
          "Grunts": 9
        },
        {
          "point cost": 11
        }
      ]
    }
  ],
  "field allowance": 2,
  "models": [
    {
      "model name": "Leader & Grunts",
      "spd": 6,
      "str": 6,
      "mat": 6,
      "rat": 6,
      "def": 12,
      "arm": 14,
      "cmd": 8,
      "boxes": 1,
      "advantages": [
        "Assault",
        "Immunity: Corrosion",
        "Immunity: Fire"
      ],
      "base size": 30,
      "attacks": [
        {
          "attack name": "Carbine",
          "type": "ranged",
          "rng": 10,
          "rof": 1,
          "pow": "*",
          "abilities": [
            {
              "Attack Type": [
                "Carbine",
                "Strangling Gas"
              ]
            }
          ]
        },
        {
          "attack name": "Gun Blade",
          "type": "melee",
          "rng": 0.5,
          "pow": 3,
          "p+s": 9,
          "abilities": [
            "Brutal Charge"
          ]
        }
      ],
      "abilities": [
        "Alchemical Mask",
        "Shield Wall"
      ]
    }
  ]
}
