{
  "name": "Aurum Adeptus Syvestro",
  "edition": 3,
  "revision": "2019 v1",
  "keywords": [
    "Crucible Guard",
    "Ordic",
    "Warcaster"
  ],
  "warjack points": 28,
  "field allowance": "C",
  "models": [
    {
      "model name": "Syvestro",
      "spd": 6,
      "str": 6,
      "mat": 6,
      "rat": 6,
      "def": 15,
      "arm": 15,
      "focus": 7,
      "cmd": 8,
      "boxes": 16,
      "advantages": [
        "Immunity: Corrosion",
        "Immunity: Fire"
      ],
      "base size": 30,
      "attacks": [
        {
          "attack name": "Fulmination Grenade",
          "type": "ranged",
          "rng": 6,
          "rof": 1,
          "aoe": 3,
          "pow": 13,
          "weapon qualities": [
            "Damage Type: Magical"
          ],
          "abilities": [
            "Decrepitation"
          ]
        },
        {
          "attack name": "Purified Blade",
          "type": "melee",
          "rng": 0.5,
          "pow": 4,
          "p+s": 10,
          "weapon qualities": [
            "Blessed",
            "Damage Type: Magical"
          ]
        }
      ],
      "abilities": [
        "Alchemical Mask",
        {
          "Field Alchemy": [
            "Ephemeral Vitae",
            "Impenetrable Haze",
            "Super Fuel"
          ]
        }
      ],
      "feat": {
        "name": "Meta Principle",
        "flavor": "Syvestro's brilliant mind allows him to spot every opportunity in battle. By subtly guiding his soldiers and warjacks with mystical kinetic force, he capitalizes on the enemy's weaknesses and buys time for his injured soldiers to apply alchemical remedies to their injuries.",
        "text": "While in Syvestro's control range, friendly Faction models gain an additional die on attack and damage rolls. Discard one die of your choice in each roll. Additionally, when an enemy model is destroyed while in Syvestro's control range, a friendly Faction model in Syvestro's control range can remove d3 damage points. Meta Principle lasts for one turn."
      },
      "spells": [
        "Admonition",
        "Explosivo",
        "Purification",
        "Revive",
        "Stygian Abyss",
        "Transmutation"
      ]
    }
  ]
}
