{
  "name": "Baldur the Stonesoul",
  "edition": 3,
  "revision": "2016 v1",
  "keywords": [
    "Circle",
    "Blackclad",
    "Warlock"
  ],
  "warbeast points": 30,
  "field allowance": "C",
  "models": [
    {
      "model name": "Baldur 2",
      "spd": 5,
      "str": 7,
      "mat": 7,
      "rat": 4,
      "def": 13,
      "arm": 17,
      "fury": 6,
      "cmd": 8,
      "boxes": 18,
      "advantages": [
        "Pathfinder"
      ],
      "base size": 30,
      "attacks": [
        {
          "attack name": "Tritus",
          "type": "melee",
          "rng": 2,
          "pow": 7,
          "p+s": 14,
          "weapon qualities": [
            "Damage Type: Magical"
          ],
          "abilities": [
            "Weight of Stone"
          ]
        }
      ],
      "abilities": [
        "Devourer's Debt",
        "Elemental Mastery",
        "Ritual of Renewal"
      ],
      "feat": {
        "name": "Hallowed Ground",
        "flavor": "While his body lay shattered, Baldur's soul merged with Orboros and he communed with the ravenous will of the Devourer Wurm. Now Baldur can draw on this connection to root his warriors to the very bones of the world, transferring any battlefield into holy ground for Orboros. Protected by the essence of stone, his allies endure the most withering assaults unharmed, unshaken, and unmoved.",
        "text": "Friendly Faction models currently in Baldur's control range are affected by Roots of the Earth for one round."
      },
      "spells": [
        "Crevasse",
        "Ground Zero",
        "Rock Wall",
        "Roots of the Earth"
      ]
    }
  ]
}
