{
  "name": "Bane Lord Tartarus",
  "edition": 3,
  "revision": "2021 v1",
  "keywords": [
    "Cryx",
    "Solo"
  ],
  "point cost": 5,
  "field allowance": "C",
  "models": [
    {
      "model name": "Tartarus 1",
      "spd": 5,
      "str": 7,
      "mat": 8,
      "rat": 4,
      "def": 12,
      "arm": 17,
      "cmd": 9,
      "boxes": 8,
      "advantages": [
        "Stealth",
        "Undead"
      ],
      "base size": 40,
      "attacks": [
        {
          "attack name": "Rivener",
          "type": "melee",
          "rng": 2,
          "pow": 5,
          "p+s": 12,
          "weapon qualities": [
            "Weapon Master"
          ],
          "abilities": [
            "Death Toll [Small-Based Bane]"
          ]
        }
      ],
      "abilities": [
        "Dark Shroud",
        "Ghostly",
        "Rapid Strike",
        "Veteran Leader [Bane]"
      ]
    }
  ]
}
