{
  "name": "Bane Knights",
  "edition": 3,
  "revision": "2021 v1",
  "keywords": [
    "Cryx",
    "Unit"
  ],
  "unit size": [
    {
      "min": [
        {
          "Leader": 1
        },
        {
          "Grunts": 5
        },
        {
          "point cost": 8
        }
      ]
    },
    {
      "max": [
        {
          "Leader": 1
        },
        {
          "Grunts": 9
        },
        {
          "point cost": 13
        }
      ]
    }
  ],
  "field allowance": 3,
  "models": [
    {
      "model name": "Leader & Grunts",
      "spd": 5,
      "str": 7,
      "mat": 6,
      "rat": 4,
      "def": 12,
      "arm": 16,
      "cmd": 7,
      "boxes": 1,
      "advantages": [
        "Undead"
      ],
      "base size": 30,
      "attacks": [
        {
          "attack name": "Bane Lance",
          "type": "melee",
          "rng": 2,
          "pow": 5,
          "p+s": 12,
          "abilities": [
            "Brutal Charge"
          ]
        }
      ],
      "abilities": [
        "Ghostly",
        "Set Defense",
        "Wall of Steel"
      ]
    }
  ]
}
