{
  "name": "Battle Mechanik Officer",
  "edition": 3,
  "revision": "2021 v1",
  "keywords": [
    "Khador",
    "Command Attachment"
  ],
  "point cost": 1,
  "field allowance": 3,
  "models": [
    {
      "model name": "Officer",
      "spd": 4,
      "str": 9,
      "mat": 6,
      "rat": 4,
      "def": 11,
      "arm": 16,
      "cmd": 8,
      "boxes": 8,
      "advantages": [
        "Officer"
      ],
      "base size": 40,
      "attacks": [
        {
          "attack name": "Wrench",
          "type": "melee",
          "rng": 0.5,
          "pow": 4,
          "p+s": 13
        }
      ],
      "abilities": [
        "Attachment [Battle Mechanik]",
        "Girded",
        "Repair [d3 + 3]",
        "Repairable"
      ]
    }
  ]
}
