{
  "name": "Blackhide Wrastler",
  "edition": 3,
  "revision": "2022 v1",
  "keywords": [
    "Minion",
    "Gatorman",
    "Heavy",
    "Warbeast"
  ],
  "point cost": 14,
  "field allowance": "U",
  "models": [
    {
      "model name": "Wrastler",
      "spd": 5,
      "str": 12,
      "mat": 6,
      "rat": 1,
      "def": 12,
      "arm": 19,
      "cmd": 5,
      "advantages": [
        "Amphibious"
      ],
      "base size": 50,
      "fury": 4,
      "threshold": 8,
      "boxes": {
        "Spiral 1": 4,
        "Spiral 2": 1,
        "Spiral 3": 8,
        "Spiral 4": 6,
        "Spiral 5": 6,
        "Spiral 6": 4
      },
      "attacks": [
        {
          "attack name": "Bite",
          "type": "melee",
          "rng": 1,
          "pow": 5,
          "p+s": 17
        },
        {
          "attack name": "Claw",
          "type": "melee",
          "rng": 1,
          "pow": 2,
          "p+s": 14,
          "weapon qualities": [
            "Open Fist"
          ]
        },
        {
          "attack name": "Claw",
          "type": "melee",
          "rng": 1,
          "pow": 2,
          "p+s": 14,
          "weapon qualities": [
            "Open Fist"
          ]
        }
      ],
      "abilities": [
        "Man-Eater",
        "Rise",
        "Snacking"
      ],
      "animus": "Rage"
    }
  ]
}
