{
  "name": "Blackbane's Ghost Raiders",
  "edition": 3,
  "revision": "2021 v1",
  "keywords": [
    "Cryx",
    "Revenant",
    "Unit"
  ],
  "unit size": [
    {
      "min": [
        {
          "Blackbane": 1
        },
        {
          "Grunts": 5
        },
        {
          "point cost": 9
        }
      ]
    },
    {
      "max": [
        {
          "Blackbane": 1
        },
        {
          "Grunts": 9
        },
        {
          "point cost": 15
        }
      ]
    }
  ],
  "field allowance": "C",
  "models": [
    {
      "model name": "Blackbane 1",
      "spd": 6,
      "str": 6,
      "mat": 7,
      "rat": 4,
      "def": 13,
      "arm": 12,
      "cmd": 8,
      "boxes": 5,
      "advantages": [
        "Incorporeal",
        "Officer",
        "Undead"
      ],
      "base size": 30,
      "attacks": [
        {
          "attack name": "Cutlass",
          "type": "melee",
          "rng": 0.5,
          "pow": 4,
          "p+s": 10,
          "weapon qualities": [
            "Continuous Effect: Fire",
            "Damage Type: Magical"
          ]
        }
      ],
      "abilities": [
        "Apparition",
        "Granted: Reanimation"
      ]
    },
    {
      "model name": "Grunts",
      "spd": 6,
      "str": 6,
      "mat": 6,
      "rat": 4,
      "def": 13,
      "arm": 12,
      "cmd": 7,
      "boxes": 1,
      "advantages": [
        "Incorporeal",
        "Undead"
      ],
      "base size": 30,
      "attacks": [
        {
          "attack name": "Cutlass",
          "type": "melee",
          "rng": 0.5,
          "pow": 4,
          "p+s": 10,
          "weapon qualities": [
            "Continuous Effect: Fire",
            "Damage Type: Magical"
          ]
        }
      ],
      "abilities": [
        "Apparition"
      ]
    }
  ]
}
