{
  "name": "Blighted Nyss Legionnaires",
  "edition": 3,
  "revision": "2020 v1",
  "keywords": [
    "Legion",
    "Unit"
  ],
  "unit size": [
    {
      "min": [
        {
          "Leader": 1
        },
        {
          "Grunts": 5
        },
        {
          "point cost": 8
        }
      ]
    },
    {
      "max": [
        {
          "Leader": 1
        },
        {
          "Grunts": 9
        },
        {
          "point cost": 13
        }
      ]
    }
  ],
  "field allowance": 2,
  "models": [
    {
      "model name": "Leader & Grunts",
      "spd": 6,
      "str": 6,
      "mat": 6,
      "rat": 4,
      "def": 12,
      "arm": 15,
      "cmd": 8,
      "boxes": 1,
      "advantages": [
        "Combined Melee Attack"
      ],
      "base size": 30,
      "attacks": [
        {
          "attack name": "Great Sword",
          "type": "melee",
          "rng": 2,
          "pow": 4,
          "p+s": 10
        }
      ],
      "abilities": [
        "Battle-Driven",
        "Vengeance",
        "Wall of Steel"
      ]
    }
  ]
}
