{
  "name": "Blighted Nyss Archers",
  "edition": 3,
  "revision": "2020 v1",
  "keywords": [
    "Legion",
    "Unit"
  ],
  "unit size": [
    {
      "min": [
        {
          "Leader": 1
        },
        {
          "Grunts": 5
        },
        {
          "point cost": 8
        }
      ]
    },
    {
      "max": [
        {
          "Leader": 1
        },
        {
          "Grunts": 9
        },
        {
          "point cost": 13
        }
      ]
    }
  ],
  "field allowance": 2,
  "models": [
    {
      "model name": "Leader & Grunts",
      "spd": 6,
      "str": 4,
      "mat": 5,
      "rat": 5,
      "def": 13,
      "arm": 11,
      "cmd": 8,
      "boxes": 1,
      "advantages": [
        "Combined Ranged Attack"
      ],
      "base size": 30,
      "attacks": [
        {
          "attack name": "Nyss Longbow",
          "type": "ranged",
          "rng": 12,
          "rof": 1,
          "pow": 10,
          "abilities": [
            "Arcing Fire"
          ]
        },
        {
          "attack name": "Sword",
          "type": "melee",
          "rng": 0.5,
          "pow": 3,
          "p+s": 7
        }
      ],
      "abilities": [
        "Reposition [3\"]"
      ]
    }
  ]
}
