{
  "name": "Blighted Trollkind Marauders",
  "edition": 3,
  "revision": "2021 v1",
  "keywords": [
    "Cryx",
    "Unit"
  ],
  "unit size": [
    {
      "min": [
        {
          "Leader": 1
        },
        {
          "Grunts": 5
        },
        {
          "point cost": 8
        }
      ]
    },
    {
      "max": [
        {
          "Leader": 1
        },
        {
          "Grunts": 9
        },
        {
          "point cost": 14
        }
      ]
    }
  ],
  "field allowance": 2,
  "models": [
    {
      "model name": "Leader & Grunts",
      "spd": 5,
      "str": 7,
      "mat": 6,
      "rat": 5,
      "def": 12,
      "arm": 16,
      "cmd": 7,
      "boxes": 1,
      "advantages": [
        "Combined Ranged Attack",
        "Tough"
      ],
      "base size": 40,
      "attacks": [
        {
          "attack name": "Fire Brazier",
          "type": "ranged",
          "rng": 8,
          "rof": 1,
          "pow": 12,
          "abilities": [
            "Burning Flames",
            "Thrown"
          ]
        },
        {
          "attack name": "Brazier Strike",
          "type": "melee",
          "rng": 1,
          "pow": 5,
          "p+s": 12,
          "weapon qualities": [
            "Chain Strike",
            "Critical Continuous Fire"
          ]
        }
      ],
      "abilities": [
        "Ashen Veil"
      ]
    }
  ]
}
