{
  "name": "Blighted Nyss Archer Officer & Ammo Porter",
  "edition": 3,
  "revision": "2020 v1",
  "keywords": [
    "Legion",
    "Command Attachment"
  ],
  "point cost": 5,
  "field allowance": 2,
  "models": [
    {
      "model name": "Officer",
      "spd": 6,
      "str": 4,
      "mat": 6,
      "rat": 6,
      "def": 13,
      "arm": 11,
      "cmd": 8,
      "boxes": 5,
      "advantages": [
        "Combined Ranged Attack",
        "Officer"
      ],
      "base size": 30,
      "attacks": [
        {
          "attack name": "Nyss Longbow",
          "type": "ranged",
          "rng": 12,
          "rof": 1,
          "pow": 10,
          "abilities": [
            "Arcing Fire"
          ]
        },
        {
          "attack name": "Sword",
          "type": "melee",
          "rng": 0.5,
          "pow": 3,
          "p+s": 7
        }
      ],
      "abilities": [
        "Attachment [Blighted Nyss Archers]",
        "Granted: Combined Arms",
        "Reposition [3\"]",
        "Tactics: Practiced Maneuvers"
      ]
    },
    {
      "model name": "Ammo Porter",
      "spd": 6,
      "str": 4,
      "mat": 5,
      "rat": 5,
      "def": 13,
      "arm": 11,
      "cmd": 8,
      "boxes": 1,
      "base size": 30,
      "abilities": [
        "Ready Ammo",
        "Reposition [3\"]",
        "Take Up"
      ]
    }
  ]
}
