{
  "name": "Blighted Nyss Swordsman Abbot & Champion",
  "edition": 3,
  "revision": "2020 v1",
  "keywords": [
    "Legion",
    "Command Attachment"
  ],
  "point cost": 6,
  "field allowance": 2,
  "models": [
    {
      "model name": "Abbot",
      "spd": 6,
      "str": 7,
      "mat": 8,
      "rat": 4,
      "def": 14,
      "arm": 13,
      "cmd": 9,
      "boxes": 5,
      "advantages": [
        "Officer"
      ],
      "base size": 30,
      "attacks": [
        {
          "attack name": "Nyss Claymore",
          "type": "melee",
          "rng": 1,
          "pow": 4,
          "p+s": 11,
          "weapon qualities": [
            "Weapon Master"
          ]
        }
      ],
      "abilities": [
        "Attachment [Blighted Nyss Swordsmen]",
        "Blade Shield",
        {
          "Prayers": [
            "Draconic Fervor",
            "Imbued Force",
            "Song of Blades"
          ]
        }
      ]
    },
    {
      "model name": "Champion",
      "spd": 6,
      "str": 7,
      "mat": 8,
      "rat": 4,
      "def": 14,
      "arm": 13,
      "cmd": 7,
      "boxes": 5,
      "base size": 30,
      "attacks": [
        {
          "attack name": "Nyss Claymore",
          "type": "melee",
          "rng": 1,
          "pow": 4,
          "p+s": 11,
          "weapon qualities": [
            "Weapon Master"
          ]
        },
        {
          "attack name": "Nyss Claymore",
          "type": "melee",
          "rng": 1,
          "pow": 4,
          "p+s": 11,
          "weapon qualities": [
            "Weapon Master"
          ]
        }
      ],
      "abilities": [
        "Blade Shield",
        "Countercharge",
        "Defensive Strike",
        "Tactics: Overtake"
      ]
    }
  ]
}
