{
  "name": "Blight Archon",
  "edition": 3,
  "revision": "2021 v1",
  "keywords": [
    "Legion",
    "Solo"
  ],
  "point cost": 9,
  "field allowance": 2,
  "models": [
    {
      "model name": "Archon",
      "spd": 7,
      "str": 8,
      "mat": 6,
      "rat": 7,
      "def": 14,
      "arm": 17,
      "fury": 5,
      "cmd": 10,
      "boxes": 10,
      "advantages": [
        "Assault",
        "Eyeless Sight",
        "Flight",
        "Immunity: Corrosion"
      ],
      "base size": 50,
      "attacks": [
        {
          "attack name": "Toxic Breath",
          "type": "ranged",
          "rng": 10,
          "rof": 1,
          "pow": 12,
          "weapon qualities": [
            "Continuous Effect: Corrosion",
            "Damage Type: Corrosion",
            "Damage Type: Magical"
          ],
          "abilities": []
        },
        {
          "attack name": "Blighted Talon",
          "type": "melee",
          "rng": 1,
          "pow": 5,
          "p+s": 13,
          "weapon qualities": [
            "Continuous Effect: Corrosion",
            "Damage Type: Magical"
          ]
        },
        {
          "attack name": "Blighted Talon",
          "type": "melee",
          "rng": 1,
          "pow": 5,
          "p+s": 13,
          "weapon qualities": [
            "Continuous Effect: Corrosion",
            "Damage Type: Magical"
          ]
        }
      ],
      "abilities": [
        "Divine Manifestation",
        "Lesser Warlock",
        "Meltdown",
        "Soul Ward",
        "Veteran Leader [Blighted]"
      ],
      "spells": [
        "Crimson Ballet",
        "Dragon's Blood",
        "Impending Doom"
      ]
    }
  ]
}
