{
  "name": "Boomhowler The Destroyer",
  "edition": 3,
  "revision": "2022 v1",
  "keywords": [
    "Mercenary",
    "Minion",
    "Trollkin",
    "Champion",
    "Solo"
  ],
  "point cost": 8,
  "field allowance": "C",
  "models": [
    {
      "model name": "Boomhowler 3",
      "spd": 5,
      "str": 8,
      "mat": 7,
      "rat": 6,
      "def": 12,
      "arm": 17,
      "cmd": 9,
      "boxes": 12,
      "advantages": [
        "Immunity: Cold",
        "Tough"
      ],
      "base size": 40,
      "attacks": [
        {
          "attack name": "Looted Executioner Axe",
          "type": "melee",
          "rng": 2,
          "pow": 5,
          "p+s": 13,
          "abilities": [
            "Critical Amputation",
            "Knockdown",
            "Thrasher",
            "Thresher",
            "Trash"
          ]
        }
      ],
      "abilities": [
        {
          "Mercenary": [
            "Crucible Guard",
            "Cryx",
            "Cygnar",
            "Khador"
          ]
        },
        {
          "Minion": [
            "Trollbloods"
          ]
        },
        "Partisan [Trollbloods]",
        "Special Issue",
        "Bloodthrist",
        "Countercharge",
        {
          "Fell Calls": [
            "Dinner Time",
            "Hoof It",
            "Shout Down"
          ]
        }
      ]
    }
  ]
}
