{
  "name": "Bosun Grogspar",
  "edition": 3,
  "revision": "2019 v1",
  "keywords": [
    "Mercenary",
    "Privateer",
    "Trollkin",
    "Solo"
  ],
  "point cost": 5,
  "field allowance": "C",
  "models": [
    {
      "model name": "Grogspar 1",
      "spd": 5,
      "str": 8,
      "mat": 6,
      "rat": 6,
      "def": 12,
      "arm": 15,
      "cmd": 8,
      "boxes": 8,
      "advantages": [
        "Tough"
      ],
      "base size": 40,
      "attacks": [
        {
          "attack name": "Harpoon Gun",
          "type": "ranged",
          "rng": 10,
          "rof": 1,
          "aoe": 3,
          "pow": 12,
          "abilities": [
            "Critical Devastation"
          ]
        },
        {
          "attack name": "Giant Hook",
          "type": "melee",
          "rng": 0.5,
          "pow": 4,
          "p+s": 12,
          "abilities": [
            "Pitch"
          ]
        }
      ],
      "abilities": [
        {
          "Mercenary": [
            "Crucible Guard",
            "Cryx",
            "Cygnar",
            "Khador",
            "Protectorate"
          ]
        },
        "No Sleeping On The Job [Living Privateer]"
      ]
    }
  ]
}
