{
  "name": "Brighid & Gaul",
  "edition": 3,
  "revision": "2018 v1",
  "keywords": [
    "Circle",
    "Tharn",
    "Unit"
  ],
  "unit size": [
    {
      "only": [
        {
          "Brighid": 1
        },
        {
          "Caul": 1
        },
        {
          "point cost": 7
        }
      ]
    }
  ],
  "field allowance": "C",
  "models": [
    {
      "model name": "Brighid 1",
      "spd": 7,
      "str": 6,
      "mat": 7,
      "rat": 7,
      "def": 16,
      "arm": 12,
      "cmd": 9,
      "boxes": 5,
      "advantages": [
        "Advance Deploy",
        "Assault",
        "Officer",
        "Pathfinder",
        "Stealth"
      ],
      "base size": 30,
      "attacks": [
        {
          "attack name": "Long Bow",
          "type": "ranged",
          "rng": 12,
          "rof": 1,
          "pow": 10,
          "weapon qualities": [
            "Weapon Master"
          ]
        },
        {
          "attack name": "Hunting Knife",
          "type": "melee",
          "rng": 0.5,
          "pow": 3,
          "p+s": 9,
          "weapon qualities": [
            "Weapon Master"
          ]
        }
      ],
      "abilities": [
        "Gang",
        "Granted: Prey",
        "Quick Work"
      ]
    },
    {
      "model name": "Caul 1",
      "spd": 6,
      "str": 8,
      "mat": 7,
      "rat": 4,
      "def": 14,
      "arm": 17,
      "cmd": 7,
      "boxes": 8,
      "advantages": [
        "Advance Deploy",
        "Pathfinder",
        "Tough"
      ],
      "base size": 40,
      "attacks": [
        {
          "attack name": "Tharn Axe",
          "type": "melee",
          "rng": 2,
          "pow": 5,
          "p+s": 13,
          "abilities": [
            "Brutal Charge"
          ]
        }
      ],
      "abilities": [
        "Gang",
        "Granted: Treewalker",
        "Heart Eater",
        "Rapid Healing",
        "Shield Guard"
      ]
    }
  ]
}
