{
  "name": "Cage Rager",
  "edition": 3,
  "revision": "2021 v1",
  "keywords": [
    "Grymkin",
    "Heavy",
    "Warbeast"
  ],
  "point cost": 13,
  "field allowance": "U",
  "models": [
    {
      "model name": "Cage Rager",
      "spd": 4,
      "str": 11,
      "mat": 6,
      "rat": 3,
      "def": 10,
      "arm": 19,
      "cmd": 4,
      "base size": 50,
      "fury": 4,
      "threshold": 8,
      "boxes": {
        "Spiral 1": 6,
        "Spiral 2": 6,
        "Spiral 3": 7,
        "Spiral 4": 7,
        "Spiral 5": 6,
        "Spiral 6": 6
      },
      "attacks": [
        {
          "attack name": "Gibbet",
          "type": "melee",
          "rng": 1,
          "pow": 6,
          "p+s": 17,
          "weapon qualities": [
            "Damage Type: Magical"
          ],
          "abilities": [
            "Beat Back"
          ]
        },
        {
          "attack name": "Gibbet",
          "type": "melee",
          "rng": 1,
          "pow": 6,
          "p+s": 17,
          "weapon qualities": [
            "Damage Type: Magical"
          ],
          "abilities": [
            "Beat Back"
          ]
        }
      ],
      "abilities": [
        "Arcane Vortex",
        "Bone Picker",
        "Grave Secrets",
        "Rattle Bones"
      ],
      "animus": "Wraithbane"
    }
  ]
}
