{
  "name": "Captain Allison Jakes",
  "edition": 3,
  "revision": "2021 v1",
  "keywords": [
    "Cygnar",
    "Morrowan",
    "Warcaster"
  ],
  "warjack points": 31,
  "field allowance": "C",
  "models": [
    {
      "model name": "Jakes 2",
      "spd": 6,
      "str": 5,
      "mat": 7,
      "rat": 6,
      "def": 16,
      "arm": 14,
      "focus": 6,
      "cmd": 9,
      "boxes": 14,
      "advantages": [
        "Parry"
      ],
      "base size": 30,
      "attacks": [
        {
          "attack name": "Hand Cannon",
          "type": "ranged",
          "rng": 12,
          "rof": 1,
          "pow": 12
        },
        {
          "attack name": "Hand Cannon",
          "type": "ranged",
          "rng": 12,
          "rof": 1,
          "pow": 12
        },
        {
          "attack name": "Feedback Blade",
          "type": "melee",
          "rng": 0.5,
          "pow": 7,
          "p+s": 12,
          "weapon qualities": [
            "Damage Type: Magical"
          ],
          "abilities": [
            "Feedback"
          ]
        },
        {
          "attack name": "Electro Blade",
          "type": "melee",
          "rng": 0.5,
          "pow": 7,
          "p+s": 12,
          "weapon qualities": [
            "Damage Type: Magical"
          ],
          "abilities": [
            "Electro Leap"
          ]
        }
      ],
      "abilities": [
        "Acrobatics",
        "Field Marshal [Sprint]",
        "Sprint"
      ],
      "feat": {
        "name": "Powerhouse",
        "flavor": "Captain Allison Jakes channels a surge of voltaic energy through the forces under her command. Armed with galvanic weapons spounting tendrils of lightning, her soldiers and warjacks thunder across the battlefield to deliver leaping arcs of electricity deep into the enemy ranks.",
        "text": "While in Jakes' control range, friendly Faction models gain Immunity: Electricity and Parry. Affected models' melee weapons become RNG 2 and gain Electro Leap. Powerhouse lasts for one round."
      },
      "spells": [
        "Bullet Dodger",
        "Escort",
        "Lightning Storm",
        "Positive Charge"
      ]
    }
  ]
}
