{
  "name": "Captain Bartolo Montador",
  "edition": 3,
  "revision": "2019 v2",
  "keywords": [
    "Mercenary",
    "Ordic",
    "Privateer",
    "Warcaster"
  ],
  "warjack points": 28,
  "field allowance": "C",
  "models": [
    {
      "model name": "Montador 1",
      "spd": 6,
      "str": 7,
      "mat": 7,
      "rat": 5,
      "def": 15,
      "arm": 16,
      "focus": 6,
      "cmd": 8,
      "boxes": 17,
      "advantages": [
        "Tough"
      ],
      "base size": 30,
      "attacks": [
        {
          "attack name": "Ace",
          "type": "ranged",
          "rng": "SP 8",
          "rof": 1,
          "pow": 12
        },
        {
          "attack name": "Red Tide",
          "type": "melee",
          "rng": 0.5,
          "pow": 7,
          "p+s": 14,
          "weapon qualities": [
            "Damage Type: Magical"
          ]
        }
      ],
      "abilities": [
        {
          "Mercenary": [
            "Crucible Guard",
            "Cryx",
            "Cygnar",
            "Khador",
            "Protectorate"
          ]
        },
        "Blood-Quenched",
        "Overtake"
      ],
      "feat": {
        "name": "Typhoon",
        "flavor": "Captain Bartolo Montador has guided his ships through the worst storms the Meredius has to offer, heading straight into the grinding waves. He draws on those experiences while in battle, using his power to engulf his enemies in a typhoon of howling wind and sheets of blinding rain within which no man can keep his feet for long.",
        "text": "Advancing enemy models that end their movement in Montador's control range become knocked down. While in Montador's control range, enemy models suffer -2 to attack rolls. Typhoon lasts for one round."
      },
      "spells": [
        "Batten Down The Hatches",
        "Broadside",
        "Deadweight",
        "Hot-Shot",
        "Powder Keg"
      ]
    }
  ]
}
