{
  "name": "Cephalyx Overlords",
  "edition": 3,
  "revision": "2022 v1",
  "keywords": [
    "Mercenary",
    "Unit"
  ],
  "unit size": [
    {
      "only": [
        {
          "Leader": 1
        },
        {
          "Grunts": 2
        },
        {
          "point cost": 6
        }
      ]
    }
  ],
  "field allowance": 3,
  "models": [
    {
      "model name": "Leader & Grunts",
      "spd": 6,
      "str": 6,
      "mat": 6,
      "rat": 4,
      "def": 14,
      "arm": 13,
      "cmd": 7,
      "boxes": [
        {
          "Model A": 5
        },
        {
          "Model B": 5
        },
        {
          "Model C": 5
        }
      ],
      "advantages": [
        "Pathfinder",
        "Stealth"
      ],
      "base size": 30,
      "attacks": [
        {
          "attack name": "Prosthetic Blades",
          "type": "melee",
          "rng": 1,
          "pow": 5,
          "p+s": 11
        }
      ],
      "abilities": [
        {
          "Mercenaries": [
            "Cryx"
          ]
        },
        "Partisan [Cryx]",
        "Selective",
        "Anatomical Precision",
        {
          "Magic Ability [7]": [
            "Influence",
            "Psychic Assault"
          ]
        },
        "Veteran Leader [Drudge]"
      ]
    }
  ]
}
