{
  "name": "Choir of Menoth",
  "edition": 3,
  "keywords": [
    "Protectorate",
    "Unit"
  ],
  "unit size": [
    {
      "min": [
        {
          "Leader": 1
        },
        {
          "Grunts": 3
        },
        {
          "point cost": 4
        }
      ]
    },
    {
      "max": [
        {
          "Leader": 1
        },
        {
          "Grunts": 5
        },
        {
          "point cost": 6
        }
      ]
    }
  ],
  "field allowance": 3,
  "models": [
    {
      "model name": "Leader & Grunts",
      "spd": 6,
      "str": 4,
      "mat": 4,
      "rat": 4,
      "def": 12,
      "arm": 12,
      "cmd": 6,
      "boxes": 1,
      "base size": 30,
      "attacks": [
        {
          "attack name": "Battle Staff",
          "type": "melee",
          "rng": 2,
          "pow": 2,
          "p+s": 6
        }
      ],
      "abilities": [
        {
          "Hymn": [
            "Battle",
            "Passage",
            "Shielding"
          ]
        }
      ]
    }
  ]
}
