{
  "name": "Commander Anson Hitch",
  "edition": 3,
  "revision": "2017 v1",
  "keywords": [
    "Cygnar",
    "Trencher",
    "Solo"
  ],
  "point cost": 4,
  "field allowance": "C",
  "models": [
    {
      "model name": "Hitch 1",
      "spd": 6,
      "str": 6,
      "mat": 7,
      "rat": 6,
      "def": 13,
      "arm": 13,
      "cmd": 10,
      "boxes": 5,
      "advantages": [
        "Jack Marshal",
        "Tough"
      ],
      "base size": 30,
      "attacks": [
        {
          "attack name": "Heavy Pistol",
          "type": "ranged",
          "rng": 8,
          "rof": 1,
          "pow": 12
        },
        {
          "attack name": "Sabre",
          "type": "melee",
          "rng": 1,
          "pow": 4,
          "p+s": 10,
          "abilities": [
            "Brutal Charge"
          ]
        }
      ],
      "abilities": [
        {
          "Battle Plan": [
            "Press The Advance",
            "Target Priority",
            "Tenacity"
          ]
        },
        "Foxhole Buddy",
        "Tactician [Trencher]"
      ]
    }
  ]
}
