{
  "name": "Corruptor",
  "edition": 3,
  "revision": "2021 v2",
  "keywords": [
    "Cryx",
    "Heavy",
    "Warjack"
  ],
  "point cost": 12,
  "field allowance": "U",
  "models": [
    {
      "model name": "Corruptor",
      "spd": 6,
      "str": 10,
      "mat": 7,
      "rat": 5,
      "def": 13,
      "arm": 17,
      "advantages": [
        "Construct",
        "Immunity: Corrosion"
      ],
      "base size": 50,
      "boxes": {
        "grid": [
          [
            3,
            1
          ],
          [
            4,
            1
          ],
          [
            5,
            1
          ],
          [
            2,
            2
          ],
          [
            3,
            2
          ],
          [
            4,
            2
          ],
          [
            5,
            2
          ],
          [
            6,
            2
          ],
          [
            1,
            3
          ],
          [
            2,
            3
          ],
          [
            3,
            3
          ],
          [
            4,
            3
          ],
          [
            5,
            3
          ],
          [
            6,
            3
          ],
          [
            1,
            4
          ],
          [
            2,
            4
          ],
          [
            3,
            4
          ],
          [
            4,
            4
          ],
          [
            5,
            4
          ],
          [
            6,
            4
          ],
          [
            2,
            5
          ],
          [
            3,
            5
          ],
          [
            4,
            5
          ],
          [
            5,
            5
          ],
          [
            6,
            5
          ],
          [
            3,
            6
          ],
          [
            4,
            6
          ],
          [
            5,
            6
          ]
        ],
        "systems": [
          {
            "Left Arm": [
              [
                5,
                1
              ],
              [
                4,
                2
              ],
              [
                5,
                2
              ]
            ]
          },
          {
            "Movement": [
              [
                6,
                2
              ],
              [
                5,
                3
              ],
              [
                6,
                3
              ]
            ]
          },
          {
            "Cortex": [
              [
                5,
                4
              ],
              [
                6,
                4
              ],
              [
                6,
                5
              ]
            ]
          },
          {
            "Right Arm": [
              [
                4,
                5
              ],
              [
                5,
                5
              ],
              [
                5,
                6
              ]
            ]
          }
        ]
      },
      "attacks": [
        {
          "attack name": "Necrocannon",
          "type": "ranged",
          "loc": "L",
          "rng": 12,
          "rof": 1,
          "pow": 14,
          "weapon qualities": [
            "Damage Type: Corrosion"
          ],
          "abilities": [
            {
              "Attack Type": [
                "Burster",
                "Distillation",
                "Psycho Venom"
              ]
            }
          ]
        },
        {
          "attack name": "Necroinjector",
          "type": "melee",
          "loc": "R",
          "rng": 1,
          "pow": 6,
          "p+s": 16,
          "weapon qualities": [
            "Open Fist"
          ],
          "abilities": [
            {
              "Attack Type": [
                "Burster",
                "Distillation",
                "Psycho Venom"
              ]
            }
          ]
        }
      ]
    }
  ]
}
