{
  "name": "Croe's Cutthroats",
  "edition": 3,
  "revision": "2019 v2",
  "keywords": [
    "Mercenary",
    "Unit"
  ],
  "unit size": [
    {
      "min": [
        {
          "Leader": 1
        },
        {
          "Grunts": 5
        },
        {
          "point cost": 10
        }
      ]
    },
    {
      "max": [
        {
          "Leader": 1
        },
        {
          "Grunts": 9
        },
        {
          "point cost": 16
        }
      ]
    }
  ],
  "field allowance": "C",
  "models": [
    {
      "model name": "Leader",
      "spd": 6,
      "str": 5,
      "mat": 7,
      "rat": 6,
      "def": 13,
      "arm": 11,
      "cmd": 8,
      "boxes": 1,
      "advantages": [
        "Advance Deploy",
        "Pathfinder",
        "Stealth"
      ],
      "base size": 30,
      "attacks": [
        {
          "attack name": "Hiss",
          "type": "ranged",
          "rng": 10,
          "rof": 1,
          "pow": 10,
          "weapon qualities": [
            "Damage Type: Magical"
          ],
          "abilities": [
            "Silencer"
          ]
        },
        {
          "attack name": "Two-Handed Sword",
          "type": "melee",
          "rng": 1,
          "pow": 5,
          "p+s": 10
        }
      ],
      "abilities": [
        {
          "Mercenaries": [
            "Cryx",
            "Infernals",
            "Khador",
            "Protectorate"
          ]
        },
        "Partisan [Infernal]",
        "Backstab",
        "Prey",
        "Reposition [5\"]"
      ]
    },
    {
      "model name": "Grunts",
      "spd": 6,
      "str": 5,
      "mat": 6,
      "rat": 5,
      "def": 13,
      "arm": 11,
      "cmd": 8,
      "boxes": 1,
      "advantages": [
        "Advance Deploy",
        "Pathfinder",
        "Stealth"
      ],
      "base size": 30,
      "attacks": [
        {
          "attack name": "Crossbow",
          "type": "ranged",
          "rng": 10,
          "rof": 1,
          "pow": 10
        },
        {
          "attack name": "Murder Weapons",
          "type": "melee",
          "rng": 0.5,
          "pow": 3,
          "p+s": 8
        }
      ],
      "abilities": [
        {
          "Mercenaries": [
            "Cryx",
            "Infernals",
            "Khador",
            "Protectorate"
          ]
        },
        "Partisan [Infernal]",
        "Backstab",
        "Prey",
        "Reposition [5\"]"
      ]
    }
  ]
}
