{
  "name": "Crucible Guard Infantry",
  "edition": 3,
  "revision": "2021 v1",
  "keywords": [
    "Crucible Guard",
    "Unit"
  ],
  "unit size": [
    {
      "min": [
        {
          "Leader": 1
        },
        {
          "Grunts": 5
        },
        {
          "point cost": 8
        }
      ]
    },
    {
      "max": [
        {
          "Leader": 1
        },
        {
          "Grunts": 9
        },
        {
          "point cost": 13
        }
      ]
    }
  ],
  "field allowance": 3,
  "models": [
    {
      "model name": "Leader & Grunts",
      "spd": 6,
      "str": 6,
      "mat": 6,
      "rat": 5,
      "def": 12,
      "arm": 14,
      "cmd": 8,
      "boxes": 1,
      "advantages": [
        "Combined Ranged Attack",
        "Immunity: Corrosion",
        "Immunity: Fire"
      ],
      "base size": 30,
      "attacks": [
        {
          "attack name": "Crucible Arms Model 609",
          "type": "ranged",
          "rng": 0.5,
          "pow": 3,
          "p+s": 9,
          "abilities": [
            {
              "Attack Type": [
                "Blood of Urcaen",
                "Pyrocatalyst",
                "Vitriolic Trjectile"
              ]
            }
          ]
        },
        {
          "attack name": "Sword",
          "type": "melee",
          "rng": 0.5,
          "pow": 3,
          "p+s": 9
        }
      ],
      "abilities": [
        "Breather"
      ]
    }
  ]
}
