{
  "name": "Cylena Raefyll & Nyss Hunters",
  "edition": 3,
  "revision": "2021 v1",
  "keywords": [
    "Mercenary",
    "Minion",
    "Nyss",
    "Unit"
  ],
  "unit size": [
    {
      "min": [
        {
          "Cylena": 1
        },
        {
          "Grunts": 5
        },
        {
          "point cost": 10
        }
      ]
    },
    {
      "max": [
        {
          "Cylena": 1
        },
        {
          "Grunts": 9
        },
        {
          "point cost": 16
        }
      ]
    }
  ],
  "field allowance": "C",
  "models": [
    {
      "model name": "Cylena 1",
      "spd": 7,
      "str": 5,
      "mat": 7,
      "rat": 7,
      "def": 14,
      "arm": 11,
      "cmd": 9,
      "boxes": 5,
      "advantages": [
        "Combined Ranged Attack",
        "Officer",
        "Pathfinder"
      ],
      "base size": 30,
      "attacks": [
        {
          "attack name": "Nyss Bow",
          "type": "ranged",
          "rng": 12,
          "rof": 1,
          "pow": 10
        },
        {
          "attack name": "Nyss Claymore",
          "type": "melee",
          "rng": 1,
          "pow": 4,
          "p+s": 9,
          "weapon qualities": [
            "Weapon Master"
          ]
        }
      ],
      "abilities": [
        {
          "Mercenaries": [
            "Cryx",
            "Cygnar",
            "Khador",
            "Retribution"
          ]
        },
        {
          "Minions": [
            "Circle",
            "Trollbloods"
          ]
        },
        "Partisan [Retribution]",
        "Granted: Hunter"
      ]
    },
    {
      "model name": "Grunts",
      "spd": 7,
      "str": 5,
      "mat": 6,
      "rat": 6,
      "def": 14,
      "arm": 11,
      "cmd": 8,
      "boxes": 1,
      "advantages": [
        "Combined Ranged Attack",
        "Pathfinder"
      ],
      "base size": 30,
      "attacks": [
        {
          "attack name": "Nyss Bow",
          "type": "ranged",
          "rng": 12,
          "rof": 1,
          "pow": 10
        },
        {
          "attack name": "Nyss Claymore",
          "type": "melee",
          "rng": 1,
          "pow": 4,
          "p+s": 9,
          "weapon qualities": [
            "Weapon Master"
          ]
        }
      ]
    }
  ]
}
