{
  "name": "Death Knell",
  "edition": 3,
  "revision": "2021 v1",
  "keywords": [
    "Grymkin",
    "Battle Engine"
  ],
  "point cost": 11,
  "field allowance": 2,
  "models": [
    {
      "model name": "Death Knell",
      "spd": 6,
      "str": 6,
      "mat": 6,
      "rat": 1,
      "def": 12,
      "arm": 18,
      "cmd": 10,
      "boxes": 22,
      "advantages": [
        "Cavalry",
        "Construct",
        "Pathfinder"
      ],
      "base size": 120,
      "attacks": [
        {
          "attack name": "Death Knell",
          "type": "melee",
          "rng": 2,
          "pow": 4,
          "p+s": 10,
          "weapon qualities": [
            "Damage Type: Magical"
          ]
        },
        {
          "attack name": "Mount",
          "type": "mount",
          "rng": 0.5,
          "pow": 10,
          "weapon qualities": [
            "Damage Type: Magical"
          ]
        }
      ],
      "abilities": [
        "Bring Out Your Dead!",
        "Death Feat",
        "Entropic Force",
        "Finisher",
        "Never Ending Pile",
        "Special Delivery",
        "Warmth of the Grave"
      ]
    }
  ]
}
