{
  "name": "Deryliss",
  "edition": 3,
  "revision": "2017 v2",
  "keywords": [
    "Undead"
  ],
  "field allowance": "C",
  "models": [
    {
      "model name": "Deryliss 1",
      "spd": 6,
      "str": 6,
      "mat": 5,
      "rat": 3,
      "def": 14,
      "arm": 14,
      "cmd": 6,
      "boxes": 5,
      "advantages": [
        "Undead"
      ],
      "base size": 30,
      "attacks": [
        {
          "attack name": "Mechano-Claws",
          "type": "melee",
          "rng": 0.5,
          "pow": 4,
          "p+s": 10
        }
      ],
      "abilities": [
        "Attached [Mortenebra]",
        "Companion [Master Necrotech Mortenebra]",
        {
          "Magic Ability [7]": [
            "Doom Spiral",
            "Empower",
            "Tune Up [Faction Warjack]"
          ]
        },
        "Repair [d3 + 1]"
      ]
    }
  ]
}
