{
  "name": "Destructotron 3000",
  "edition": 3,
  "revision": "2019 v1",
  "keywords": [
    "Convergence",
    "Solo"
  ],
  "point cost": 6,
  "field allowance": "C",
  "models": [
    {
      "model name": "D3K 1",
      "spd": 6,
      "str": 6,
      "mat": 6,
      "rat": 6,
      "def": 13,
      "arm": 17,
      "cmd": 6,
      "boxes": 8,
      "advantages": [
        "Cavalry",
        "Construct",
        "Gunfighter"
      ],
      "base size": 40,
      "attacks": [
        {
          "attack name": "Electro Pummeler",
          "type": "ranged",
          "rng": 10,
          "rof": 1,
          "pow": 12,
          "weapon qualities": [
            "Damage Type: Electrical"
          ],
          "abilities": [
            "Thunder Charge"
          ]
        },
        {
          "attack name": "Electro Pummeler",
          "type": "ranged",
          "rng": 10,
          "rof": 1,
          "pow": 12,
          "weapon qualities": [
            "Damage Type: Electrical"
          ],
          "abilities": [
            "Thunder Charge"
          ]
        },
        {
          "attack name": "Mount",
          "type": "mount",
          "rng": 0.5,
          "pow": 12
        }
      ],
      "abilities": [
        "Reposition [3\"]",
        "Soul Vessel",
        "Stumbling Drunk",
        "Superconduction"
      ]
    }
  ]
}
