{
  "name": "Dez & Gubbin, Dynamite Duo",
  "edition": 3,
  "revision": "2020 v1",
  "keywords": [
    "Mercenary",
    "Minion",
    "Ordic",
    "Gobber",
    "Solo"
  ],
  "point cost": 5,
  "field allowance": "C",
  "models": [
    {
      "model name": "Dez 2 & Gubbin 2",
      "spd": 5,
      "str": 8,
      "mat": 6,
      "rat": 6,
      "def": 14,
      "arm": 16,
      "cmd": 8,
      "boxes": 8,
      "advantages": [
        "Tough"
      ],
      "base size": 40,
      "attacks": [
        {
          "attack name": "Mechanikal Mortar",
          "type": "ranged",
          "rng": 16,
          "rof": 1,
          "aoe": 4,
          "pow": 14,
          "abilities": [
            "Arcing Fire",
            "High-Explosive",
            "Minimum Range [6\"]",
            "Secondary Blast"
          ]
        },
        {
          "attack name": "Vicious Right Hook",
          "type": "melee",
          "rng": 0.5,
          "pow": 1,
          "p+s": 9,
          "abilities": [
            "Knockdown"
          ]
        }
      ],
      "abilities": [
        {
          "Mercenary": [
            "Crucible Guard",
            "Cygnar",
            "Khador",
            "Proctorate"
          ]
        },
        {
          "Minion": [
            "Circle",
            "Trollbloods"
          ]
        },
        "Girded",
        "Projectile Gubbin"
      ]
    }
  ]
}
