{
  "name": "Dire Troll Blitzer",
  "edition": 3,
  "revision": "2021 v1",
  "keywords": [
    "Trollblood",
    "Heavy",
    "Warbeast"
  ],
  "point cost": 13,
  "field allowance": "U",
  "models": [
    {
      "model name": "Blitzer",
      "spd": 5,
      "str": 12,
      "mat": 6,
      "rat": 5,
      "def": 12,
      "arm": 18,
      "cmd": 4,
      "base size": 50,
      "fury": 4,
      "threshold": 9,
      "boxes": {
        "Spiral 1": 6,
        "Spiral 2": 5,
        "Spiral 3": 7,
        "Spiral 4": 7,
        "Spiral 5": 6,
        "Spiral 6": 5
      },
      "attacks": [
        {
          "attack name": "Slugger",
          "type": "ranged",
          "rng": 10,
          "rof": "d3",
          "pow": 13
        },
        {
          "attack name": "Claw",
          "type": "melee",
          "rng": 1,
          "pow": 3,
          "p+s": 15,
          "weapon qualities": [
            "Open Fist"
          ]
        }
      ],
      "abilities": [
        "Dual Attack",
        "Regeneration [d3]",
        "Shooting Gallery",
        "Snacking"
      ],
      "animus": "Irresistible Force"
    }
  ]
}
