{
  "name": "Dire Troll Mauler",
  "edition": 3,
  "revision": "2021 v1",
  "keywords": [
    "Trollblood",
    "Heavy",
    "Warbeast"
  ],
  "point cost": 13,
  "field allowance": "U",
  "models": [
    {
      "model name": "Mauler",
      "spd": 5,
      "str": 12,
      "mat": 6,
      "rat": 3,
      "def": 12,
      "arm": 18,
      "cmd": 3,
      "base size": 50,
      "fury": 5,
      "threshold": 8,
      "boxes": {
        "Spiral 1": 6,
        "Spiral 2": 5,
        "Spiral 3": 7,
        "Spiral 4": 7,
        "Spiral 5": 6,
        "Spiral 6": 5
      },
      "attacks": [
        {
          "attack name": "Big Meaty Fist",
          "type": "melee",
          "rng": 1,
          "pow": 4,
          "p+s": 16,
          "weapon qualities": [
            "Open Fist"
          ],
          "abilities": [
            "Chain Attack: Grab & Smash"
          ]
        },
        {
          "attack name": "Big Meaty Fist",
          "type": "melee",
          "rng": 1,
          "pow": 4,
          "p+s": 16,
          "weapon qualities": [
            "Open Fist"
          ],
          "abilities": [
            "Chain Attack: Grab & Smash"
          ]
        }
      ],
      "abilities": [
        "Regeneration [d3]",
        "Snacking"
      ],
      "animus": "Rage"
    }
  ]
}
