{
  "name": "Dragon's Breath Rocket",
  "edition": 3,
  "revision": "2021 v1",
  "keywords": [
    "Crucible Guard",
    "Weapon Crew",
    "Unit"
  ],
  "unit size": [
    {
      "only": [
        {
          "Gunner": 1
        },
        {
          "Grunts": 2
        },
        {
          "point cost": 4
        }
      ]
    }
  ],
  "field allowance": 2,
  "models": [
    {
      "model name": "Gunner",
      "spd": 2,
      "str": 6,
      "mat": 6,
      "rat": 5,
      "def": 12,
      "arm": 14,
      "cmd": 5,
      "boxes": 1,
      "advantages": [
        "Immunity: Corrosion",
        "Immunity: Fire",
        "Officer"
      ],
      "base size": 50,
      "attacks": [
        {
          "attack name": "Rocket",
          "type": "ranged",
          "rng": 14,
          "rof": 1,
          "aoe": 4,
          "pow": 14,
          "abilities": [
            "Arcing Fire",
            "Withering Humor"
          ]
        },
        {
          "attack name": "Sword",
          "type": "melee",
          "rng": 0.5,
          "pow": 3,
          "p+s": 9
        }
      ],
      "abilities": [
        "Breather",
        "Man-Sized",
        "Mobile Artillery",
        "Take Up"
      ]
    },
    {
      "model name": "Grunts",
      "spd": 4,
      "str": 6,
      "mat": 6,
      "rat": 5,
      "def": 12,
      "arm": 14,
      "cmd": 5,
      "boxes": 1,
      "advantages": [
        "Immunity: Corrosion",
        "Immunity: Fire"
      ],
      "base size": 30,
      "attacks": [
        {
          "attack name": "Carbine",
          "type": "ranged",
          "rng": 10,
          "rof": 1,
          "pow": 10
        },
        {
          "attack name": "Sword",
          "type": "melee",
          "rng": 0.5,
          "pow": 3,
          "p+s": 9
        }
      ],
      "abilities": [
        "Breather"
      ]
    }
  ]
}
