{
  "name": "Drake MacBain",
  "edition": 3,
  "revision": "2018 v1",
  "keywords": [
    "Mercenary",
    "Ordic",
    "Warcasters"
  ],
  "warjack points": 30,
  "field allowance": "C",
  "models": [
    {
      "model name": "MacBain 1",
      "spd": 6,
      "str": 7,
      "mat": 6,
      "rat": 5,
      "def": 15,
      "arm": 17,
      "focus": 6,
      "cmd": 8,
      "boxes": 17,
      "advantages": [
        "Tough"
      ],
      "base size": 30,
      "attacks": [
        {
          "attack name": "Dual Hand Cannon",
          "type": "ranged",
          "rng": 12,
          "rof": 2,
          "pow": 12,
          "abilities": [
            "Both Barrels"
          ]
        },
        {
          "attack name": "Undertaker",
          "type": "melee",
          "rng": 1,
          "pow": 6,
          "p+s": 13,
          "weapon qualities": [
            "Damage Type: Magical"
          ],
          "abilities": [
            "Grievous Wounds"
          ]
        }
      ],
      "abilities": [
        {
          "Mercenary": [
            "Crucible Guard",
            "Cryx",
            "Cygnar",
            "Khador",
            "Protectorate"
          ]
        }
      ],
      "feat": {
        "name": "True Grit",
        "flavor": "Years of war have taught Drake MacBain survival can be more important than victory. He knows every bolt-hole in western Immoren, and in battle he scans the field to find any scrap of cover or advantageous place of ground. It is no accident the grizzled mercenaries he commands frequently live to fight another day.",
        "text": "Choose d6 + 5 friendly Faction non-warcaster warrior models currently in MacBain's control range. When a chosen model is disabled, it removes 1 damage point and becomes knocked down. True Grit lasts for one round."
      },
      "spells": [
        "Countermeasure",
        "Energizer",
        "Fail-Safe",
        "Fortune",
        "Jackhammer",
        "Rift"
      ]
    }
  ]
}
