{
  "name": "Druids of Orboros",
  "edition": 3,
  "revision": "2021 v1",
  "keywords": [
    "Circle",
    "Blackclad",
    "Unit"
  ],
  "unit size": [
    {
      "only": [
        {
          "Leader": 1
        },
        {
          "Grunts": 5
        },
        {
          "point cost": 7
        }
      ]
    }
  ],
  "field allowance": 2,
  "models": [
    {
      "model name": "Leader & Grunts",
      "spd": 6,
      "str": 6,
      "mat": 5,
      "rat": 4,
      "def": 13,
      "arm": 13,
      "cmd": 7,
      "boxes": 1,
      "advantages": [
        "Pathfinder"
      ],
      "base size": 30,
      "attacks": [
        {
          "attack name": "Voulge",
          "type": "melee",
          "rng": 2,
          "pow": 4,
          "p+s": 10,
          "weapon qualities": [
            "Damage Type: Magical"
          ]
        }
      ],
      "abilities": [
        {
          "Magic Ability [6]": [
            "Pulse of the Earth",
            "Summon Vortex",
            "Wind Strike"
          ]
        },
        "Prowl"
      ]
    }
  ]
}
