{
  "name": "Earthborn Dire Troll",
  "edition": 3,
  "revision": "2021 v1",
  "keywords": [
    "Trollblood",
    "Heavy",
    "Warbeast"
  ],
  "point cost": 12,
  "field allowance": "U",
  "models": [
    {
      "model name": "Earthborn",
      "spd": 5,
      "str": 12,
      "mat": 6,
      "rat": 3,
      "def": 12,
      "arm": 18,
      "cmd": 5,
      "advantages": [
        "Immunity: Cold",
        "Immunity: Corrosion",
        "Immunity: Electricity",
        "Immunity: Fire",
        "Pathfinder"
      ],
      "base size": 50,
      "fury": 4,
      "threshold": 9,
      "boxes": {
        "Spiral 1": 6,
        "Spiral 2": 6,
        "Spiral 3": 7,
        "Spiral 4": 6,
        "Spiral 5": 7,
        "Spiral 6": 6
      },
      "attacks": [
        {
          "attack name": "Claw",
          "type": "melee",
          "rng": 1,
          "pow": 3,
          "p+s": 15,
          "weapon qualities": [
            "Open Fist"
          ]
        },
        {
          "attack name": "Claw",
          "type": "melee",
          "rng": 1,
          "pow": 3,
          "p+s": 15,
          "weapon qualities": [
            "Open Fist"
          ]
        }
      ],
      "abilities": [
        "Elemental Communion",
        "Regeneration [d3]",
        "Snacking"
      ],
      "animus": "Earth's Blessing"
    }
  ]
}
