{
  "name": "Eilish Garrity, the Occultist",
  "edition": 3,
  "revision": "2019 v1",
  "keywords": [
    "Mercenary",
    "Minion",
    "Solo"
  ],
  "point cost": 5,
  "field allowance": "C",
  "models": [
    {
      "model name": "Eilish 1",
      "spd": 6,
      "str": 4,
      "mat": 5,
      "rat": 5,
      "def": 13,
      "arm": 14,
      "cmd": 5,
      "boxes": 5,
      "base size": 30,
      "abilities": [
        {
          "Mercenary": [
            "Crucible Guard",
            "Cryx",
            "Cygnar",
            "Infernals",
            "Khador",
            "Protectorate",
            "Retribution"
          ]
        },
        {
          "Minion": [
            "Circle",
            "Grymkin",
            "Legion",
            "Skorne",
            "Trollbloods"
          ]
        },
        "Partisan [Infernal]",
        "Arcane Void",
        "Gate Walker",
        {
          "Magic Ability": [
            "Bleed",
            "Puppet Master",
            "Unbinding"
          ]
        },
        "Marked Soul",
        "Mental Force"
      ]
    }
  ]
}
