{
  "name": "Eminent Configurator Orion",
  "edition": 3,
  "revision": "2017 v1",
  "keywords": [
    "Convergence",
    "Warcaster"
  ],
  "warjack points": 28,
  "field allowance": "C",
  "models": [
    {
      "model name": "Orion 1",
      "spd": 5,
      "str": 6,
      "mat": 4,
      "rat": 5,
      "def": 15,
      "arm": 16,
      "focus": 7,
      "cmd": 10,
      "boxes": 17,
      "advantages": [
        "Construct",
        "Pathfinder"
      ],
      "base size": 40,
      "attacks": [
        {
          "attack name": "Tensor Lattice",
          "type": "ranged",
          "rng": 13,
          "rof": 1,
          "pow": 13,
          "weapon qualities": [
            "Damage Type: Electrical"
          ],
          "abilities": [
            "Polarize"
          ]
        },
        {
          "attack name": "Pendulum",
          "type": "melee",
          "rng": 0.5,
          "pow": 4,
          "p+s": 10,
          "abilities": [
            "Knockdown"
          ]
        }
      ],
      "abilities": [
        "Configuration",
        "Field Marshal [Reposition 3\"]",
        "Soul Vessel"
      ],
      "feat": {
        "name": "Oblivion Configuration",
        "flavor": "In a fraction of a second Orion combines the fundamental principles of magic and mathematics, configuring his army's attack along noncollinear vectors to exploit the inherent weaknesses of selected targets and thereby coordinating their utter destruction.",
        "text": "Friendly Faction models gain an additional die on attack rolls against enemy models in Orion's control range that have no focus or fury point, and they gain and additional die on damage rolls against enemy models in Orion's control range that have 1 or more focus or fury points. Oblivion Configuration lasts for one turn."
      },
      "spells": [
        "Avenging Force",
        "Forced Induction",
        "Mage Sight",
        "Magic Bullet",
        "Spellpiercer"
      ]
    }
  ]
}
