{
  "name": "Exemplar Cinerator Officer",
  "edition": 3,
  "keywords": [
    "Protectorate",
    "Command Attachment"
  ],
  "point cost": 5,
  "field allowance": 2,
  "models": [
    {
      "model name": "Officer",
      "spd": 4,
      "str": 7,
      "mat": 8,
      "rat": 4,
      "def": 11,
      "arm": 17,
      "cmd": 9,
      "boxes": 8,
      "advantages": [
        "Immunity: Fire",
        "Officer"
      ],
      "base size": 40,
      "attacks": [
        {
          "attack name": "Blazing Sword",
          "type": "melee",
          "rng": 2,
          "pow": 4,
          "p+s": 11,
          "weapon qualities": [
            "Continuous Effect: Fire",
            "Damage Type: Magical",
            "Weapon Master"
          ]
        }
      ],
      "abilities": [
        "Attachment [[Exemplar Cinerators]]",
        "Defensive Formation",
        "Shield Wall",
        "Tactics: [Take Down]",
        "Vengeance"
      ]
    }
  ]
}
