{
  "name": "Extoller Novitiate",
  "edition": 3,
  "revision": "2018 v1",
  "keywords": [
    "Skorne",
    "Solo"
  ],
  "point cost": 2,
  "field allowance": 3,
  "models": [
    {
      "model name": "Extoller",
      "spd": 6,
      "str": 5,
      "mat": 5,
      "rat": 4,
      "def": 13,
      "arm": 12,
      "cmd": 6,
      "boxes": 5,
      "base size": 30,
      "attacks": [
        {
          "attack name": "Mallet",
          "type": "melee",
          "rng": 0.5,
          "pow": 3,
          "p+s": 8,
          "weapon qualities": [
            "Damage Type: Magical"
          ]
        }
      ],
      "abilities": [
        "Leadership [Exalted]",
        {
          "Magic Ability": [
            "Repair [d3 + 1]",
            "Stone's Wrath"
          ]
        }
      ]
    }
  ]
}
