{
  "name": "Falcir, the Merciless",
  "edition": 3,
  "revision": "2021 v2",
  "keywords": [
    "Retribution",
    "Ellowuyr",
    "Warcaster"
  ],
  "warjack points": 28,
  "field allowance": "C",
  "models": [
    {
      "model name": "Falcir 1",
      "spd": 6,
      "str": 7,
      "mat": 7,
      "rat": 5,
      "def": 15,
      "arm": 17,
      "focus": 7,
      "cmd": 5,
      "boxes": 17,
      "base size": 30,
      "attacks": [
        {
          "attack name": "Iconoclast",
          "type": "melee",
          "rng": 2,
          "pow": 6,
          "p+s": 13,
          "weapon qualities": [
            "Damage Type: Magical",
            "Weapon Master"
          ],
          "abilities": [
            "Critical Amputation",
            "Paying the Price",
            "Thresher"
          ]
        }
      ],
      "abilities": [
        {
          "Bounty Hunter": [
            "Confuse",
            "Execute",
            "Falter Courage",
            "Snare"
          ]
        },
        "Springing the Trap",
        "Sprint",
        "Unstoppable"
      ],
      "feat": {
        "name": "Hunting Season",
        "flavor": "No one is certain how much time Falcir dedicates to plotting her enemies' demise prior to their engagement, only that she has prepared for every possible outcome to see her executioner's task complete. At a moment that only Falcir herself understands the implications of, glowing runes appear above the heads of her foes before shattering into oblivion. Each rune is a mark of death, materializing briefly before debilitating the strengths and exploiting the weaknesses of the enemy, all according to Falcir's intricate plans.",
        "text": "Place one bounty token on up to five different enemy models/units in Falcir's control range. Falcir's Bounty Hunter gains an additional effect you can spend bounty tokens for during this Activation Phase.\n\n* Prey Upon -- Friendly Faction models gain +2 to attack and damage rolls against the enemy model/unit the bounty token was spent from. Prey Upon lasts for one turn."
      },
      "spells": [
        "Flashing Steel",
        "Force Hammer",
        "Full Throttle",
        "Vanish"
      ]
    }
  ]
}
