{
  "name": "Farrow Brigands",
  "edition": 3,
  "revision": "2022 v1",
  "keywords": [
    "Minion",
    "Unit"
  ],
  "unit size": [
    {
      "min": [
        {
          "Leader": 1
        },
        {
          "Grunts": 5
        },
        {
          "point cost": 8
        }
      ]
    },
    {
      "max": [
        {
          "Leader": 1
        },
        {
          "Grunts": 9
        },
        {
          "point cost": 12
        }
      ]
    }
  ],
  "field allowance": 3,
  "models": [
    {
      "model name": "Leader",
      "spd": 5,
      "str": 6,
      "mat": 6,
      "rat": 5,
      "def": 12,
      "arm": 14,
      "cmd": 7,
      "boxes": 1,
      "advantages": [
        "Advance Deploy",
        "Pathfinder",
        "Tough"
      ],
      "base size": 30,
      "attacks": [
        {
          "attack name": "Pig Iron",
          "type": "ranged",
          "rng": 10,
          "rof": 1,
          "pow": 12
        },
        {
          "attack name": "Polearm",
          "type": "melee",
          "rng": 2,
          "pow": 4,
          "p+s": 10
        }
      ],
      "abilities": [
        {
          "Minions": [
            "Circle",
            "Legion",
            "Skorne",
            "Trollbloods"
          ]
        },
        "Dig In",
        "Hog Wild"
      ]
    },
    {
      "model name": "Grunts",
      "spd": 5,
      "str": 6,
      "mat": 6,
      "rat": 5,
      "def": 12,
      "arm": 14,
      "cmd": 7,
      "boxes": 1,
      "advantages": [
        "Advance Deploy",
        "Pathfinder",
        "Tough"
      ],
      "base size": 30,
      "attacks": [
        {
          "attack name": "Pig Iron",
          "type": "ranged",
          "rng": 10,
          "rof": 1,
          "pow": 12
        },
        {
          "attack name": "Club",
          "type": "melee",
          "rng": 0.5,
          "pow": 4,
          "p+s": 10
        }
      ],
      "abilities": [
        "Dig In"
      ]
    }
  ]
}
