{
  "name": "Farrow Commandos",
  "edition": 3,
  "revision": "2022 v1",
  "keywords": [
    "Minion",
    "Unit"
  ],
  "unit size": [
    {
      "min": [
        {
          "Leader": 1
        },
        {
          "Grunts": 5
        },
        {
          "point cost": 7
        }
      ]
    },
    {
      "max": [
        {
          "Leader": 1
        },
        {
          "Grunts": 9
        },
        {
          "point cost": 11
        }
      ]
    }
  ],
  "field allowance": 2,
  "models": [
    {
      "model name": "Leader & Grunts",
      "spd": 5,
      "str": 6,
      "mat": 6,
      "rat": 6,
      "def": 12,
      "arm": 14,
      "cmd": 8,
      "boxes": 1,
      "advantages": [
        "Advance Deploy",
        "Combined Ranged Attack",
        "Pathfinder",
        "Tough"
      ],
      "base size": 30,
      "attacks": [
        {
          "attack name": "Grenade",
          "type": "ranged",
          "rng": 6,
          "rof": 1,
          "aoe": 3,
          "pow": 12
        },
        {
          "attack name": "Kukri",
          "type": "melee",
          "rng": 0.5,
          "pow": 4,
          "p+s": 10,
          "abilities": [
            "Brutal Charge"
          ]
        }
      ],
      "abilities": [
        {
          "Minion": [
            "Circle",
            "Legion",
            "Skorne",
            "Trollbloods"
          ]
        },
        "Ambush",
        "Feigh Death",
        "Prowl"
      ]
    }
  ]
}
