{
  "name": "Farrow Razorback Crew",
  "edition": 3,
  "revision": "2022 v1",
  "keywords": [
    "Minion",
    "Weapon Crew",
    "Unit"
  ],
  "unit size": [
    {
      "only": [
        {
          "Gunner": 1
        },
        {
          "Grunt": 1
        },
        {
          "point cost": 4
        }
      ]
    }
  ],
  "field allowance": 2,
  "models": [
    {
      "model name": "Gunner",
      "spd": 3,
      "str": 6,
      "mat": 6,
      "rat": 5,
      "def": 12,
      "arm": 14,
      "cmd": 5,
      "boxes": 1,
      "advantages": [
        "Advance Deploy",
        "Officer",
        "Tough"
      ],
      "base size": 50,
      "attacks": [
        {
          "attack name": "Razorback",
          "type": "ranged",
          "rng": 14,
          "rof": 1,
          "aoe": 3,
          "pow": 14,
          "weapon qualities": [
            "Shield"
          ],
          "abilities": [
            "Brutal Damage"
          ]
        },
        {
          "attack name": "Club",
          "type": "melee",
          "rng": 0.5,
          "pow": 4,
          "p+s": 10
        }
      ],
      "abilities": [
        {
          "Minion": [
            "Circle",
            "Legion",
            "Skorne",
            "Trollbloods"
          ]
        },
        "Man-Sized",
        "Mobile Artillery",
        "Reposition [3\"]",
        "Take Up"
      ]
    },
    {
      "model name": "Grunt",
      "spd": 4,
      "str": 6,
      "mat": 6,
      "rat": 4,
      "def": 12,
      "arm": 14,
      "cmd": 5,
      "boxes": 1,
      "advantages": [
        "Advance Deploy",
        "Tough"
      ],
      "base size": 30,
      "attacks": [
        {
          "attack name": "Pig Iron",
          "type": "ranged",
          "rng": 10,
          "rof": 1,
          "pow": 12
        },
        {
          "attack name": "Club",
          "type": "melee",
          "rng": 0.5,
          "pow": 4,
          "p+s": 10
        }
      ],
      "abilities": [
        "Reposition [3\"]"
      ]
    }
  ]
}
