{
  "name": "Farrow Bone Grinders",
  "edition": 3,
  "revision": "2022 v1",
  "keywords": [
    "Minion",
    "Unit"
  ],
  "unit size": [
    {
      "min": [
        {
          "Leader": 1
        },
        {
          "Grunts": 3
        },
        {
          "point cost": 5
        }
      ]
    },
    {
      "max": [
        {
          "Leader": 1
        },
        {
          "Grunts": 5
        },
        {
          "point cost": 7
        }
      ]
    }
  ],
  "field allowance": "U",
  "models": [
    {
      "model name": "Leader & Grunts",
      "spd": 5,
      "str": 6,
      "mat": 6,
      "rat": 4,
      "def": 13,
      "arm": 14,
      "cmd": 6,
      "boxes": 1,
      "advantages": [
        "Combined Melee Attack",
        "Tough"
      ],
      "base size": 30,
      "attacks": [
        {
          "attack name": "Cleaver",
          "type": "melee",
          "rng": 0.5,
          "pow": 4,
          "p+s": 10,
          "weapon qualities": [
            "Damage Type: Magical"
          ],
          "abilities": [
            {
              "Attack Type": [
                "Grievous Wounds",
                "Inflict Pain"
              ]
            }
          ]
        }
      ],
      "abilities": [
        {
          "Minions": [
            "Circle",
            "Legion",
            "Skorne",
            "Trollbloods"
          ]
        },
        "Bloodthirst",
        "Craft Talisman",
        "Dismember"
      ]
    }
  ]
}
