{
  "name": "Fennblade Kithkar",
  "edition": 3,
  "revision": "2021 v1",
  "keywords": [
    "Trollblood",
    "Trollkin",
    "Solo"
  ],
  "point cost": 3,
  "field allowance": 2,
  "models": [
    {
      "model name": "Kithkar",
      "spd": 6,
      "str": 8,
      "mat": 7,
      "rat": 4,
      "def": 12,
      "arm": 15,
      "cmd": 7,
      "boxes": 8,
      "advantages": [
        "Tough"
      ],
      "base size": 40,
      "attacks": [
        {
          "attack name": "Battle Weapons",
          "type": "melee",
          "rng": 2,
          "pow": 5,
          "p+s": 13,
          "abilities": [
            "Powerful Charge"
          ]
        },
        {
          "attack name": "Battle Weapons",
          "type": "melee",
          "rng": 2,
          "pow": 5,
          "p+s": 13,
          "abilities": [
            "Powerful Charge"
          ]
        }
      ],
      "abilities": [
        "Hard",
        "Righteous Vengeace",
        "Veteran Leader [Fennblade]"
      ]
    }
  ]
}
