{
  "name": "Feora, Protector of the Flame",
  "edition": 3,
  "revision": "2016 v1",
  "keywords": [
    "Protectorate",
    "Warcaster"
  ],
  "warjack points": 28,
  "field allowance": "C",
  "models": [
    {
      "model name": "Feora 2",
      "spd": 6,
      "str": 7,
      "mat": 7,
      "rat": 5,
      "def": 15,
      "arm": 17,
      "focus": 6,
      "cmd": 9,
      "boxes": 16,
      "advantages": [
        "Immunity: Fire"
      ],
      "base size": 30,
      "attacks": [
        {
          "attack name": "Heavy Flame Thrower",
          "type": "ranged",
          "rng": "SP 10",
          "rof": 1,
          "pow": 12,
          "weapon qualities": [
            "Continuous Effect: Fire",
            "Damage Type: Fire"
          ]
        },
        {
          "attack name": "Apocalypse",
          "type": "melee",
          "rng": 2,
          "pow": 7,
          "p+s": 14,
          "weapon qualities": [
            "Critical Continuous Fire",
            "Damage Type: Magical"
          ]
        }
      ],
      "abilities": [
        "Caustic Presence [Fire]",
        "Righteous Flames"
      ],
      "feat": {
        "name": "Wildfire",
        "flavor": "The ultimate master of fire's all-consuming power, Feora can transmute flame into raw energy to strengthen her warjacks. She delivers her allies from the blazes around her by siphoning the flames and sending them leaping across the battlefield to her enemies.",
        "text": "Feora gains 1 focus point for each enemy model currently in her control range suffering the Fire continuous effect and can immediately give that focus to warjacks in her battlegroup that are in her control range. Feora can then remove the Fire continuous effects from any number of models in her control range. For each Fire continuous effect Feora removes, choose one model in her control range to suffer the Fire continuous effect."
      },
      "spells": [
        "Cleansing Fire",
        "Ember Spark",
        "Escort",
        "Firestarter",
        "Fire Step"
      ]
    }
  ]
}
