{
  "name": "Forge Master Syntherion",
  "edition": 3,
  "revision": "2020 v1",
  "keywords": [
    "Convergence",
    "Warcaster"
  ],
  "warjack points": 27,
  "field allowance": "C",
  "models": [
    {
      "model name": "Syntherion 1",
      "spd": 5,
      "str": 9,
      "mat": 6,
      "rat": 5,
      "def": 13,
      "arm": 18,
      "focus": 6,
      "cmd": 10,
      "boxes": 20,
      "advantages": [
        "Construct",
        "Pathfinder"
      ],
      "base size": 40,
      "attacks": [
        {
          "attack name": "Static Bolt",
          "type": "ranged",
          "rng": 11,
          "rof": 1,
          "pow": 11,
          "weapon qualities": [
            "Damage Type: Electrical"
          ]
        },
        {
          "attack name": "Workshop Array",
          "type": "melee",
          "rng": 0.5,
          "pow": 5,
          "p+s": 14
        },
        {
          "attack name": "Workshop Array",
          "type": "melee",
          "rng": 0.5,
          "pow": 5,
          "p+s": 14
        }
      ],
      "abilities": [
        "Auto-Repair",
        "Empower",
        "Field Marshal [Auto-Repair]",
        "Resourceful",
        "Soul Vessel"
      ],
      "feat": {
        "name": "Technological Superiority",
        "flavor": "Few can hope to comprehend even the simplest thoughts of Forge Master Syntherion. His acute and vigilant mind ever flickers from angle to angle, contemplating myriad possibilities in every moment. In times of great need, he forcuses his prodigious mental aptitude to a singular point of clarity and purpose, directing his vectors to simultaneously dismantle his foes with every last tool at their disposal.",
        "text": "Syntherion and models in his battlegroup beginning their activations in his control range gain 1 focus and Dual Attack. Technological Superiority lasts for one turn."
      },
      "spells": [
        "Convection",
        "Hot-Shot",
        "Magnetic Hold",
        "Reconstruct",
        "Synergy"
      ]
    }
  ]
}
