{
  "name": "Forward Kommander Sorscha",
  "edition": 3,
  "revision": "2021 v1",
  "keywords": [
    "Khador",
    "Warcaster"
  ],
  "warjack points": 29,
  "field allowance": "C",
  "models": [
    {
      "model name": "Sorscha 2",
      "spd": 6,
      "str": 6,
      "mat": 7,
      "rat": 6,
      "def": 16,
      "arm": 15,
      "focus": 6,
      "cmd": 8,
      "boxes": 17,
      "advantages": [
        "Immunity: Cold"
      ],
      "base size": 30,
      "attacks": [
        {
          "attack name": "Quad-Iron",
          "type": "ranged",
          "rng": 10,
          "rof": "d3+1",
          "pow": 10
        },
        {
          "attack name": "Frostfang",
          "type": "melee",
          "rng": 2,
          "pow": 7,
          "p+s": 13,
          "weapon qualities": [
            "Damage Type: Magical"
          ],
          "abilities": [
            "Critical Freeze",
            "Shatter"
          ]
        }
      ],
      "abilities": [
        "Desperate Pace [Winter Guard]",
        "Freezer"
      ],
      "feat": {
        "name": "Winter's Chill",
        "flavor": "Summoning the icy fury within her soul, Forward Kommander Sorscha unleashes the elements upon her enemies. The deadly rime with which she covers them freezes both steel and flesh.",
        "text": "When an enemy model without Immunity: Cold suffers a damage roll while in Sorscha's control range, double the damage that exceeds the model's ARM. Winter's Chill lasts for one turn."
      },
      "spells": [
        "Boundless Charge",
        "Cyclone",
        "Iron Flesh",
        "Razor Wind",
        "Shatter Storm"
      ]
    }
  ]
}
