{
  "name": "Fyanna, Torment of Everblight",
  "edition": 3,
  "revision": "2021 v1",
  "keywords": [
    "Legion",
    "Strider",
    "Warlock"
  ],
  "warbeast points": 28,
  "field allowance": "C",
  "models": [
    {
      "model name": "Fyanna 2",
      "spd": 7,
      "str": 7,
      "mat": 7,
      "rat": 3,
      "def": 15,
      "arm": 15,
      "fury": 6,
      "cmd": 9,
      "boxes": 16,
      "advantages": [
        "Pathfinder"
      ],
      "base size": 30,
      "attacks": [
        {
          "attack name": "Barbed Lash",
          "type": "melee",
          "rng": 2,
          "pow": 5,
          "p+s": 12,
          "weapon qualities": [
            "Chain Weapon",
            "Damage Type: Magical"
          ],
          "abilities": [
            "Chain Strike",
            "Critical Smite"
          ]
        }
      ],
      "abilities": [
        "Dodge",
        "Overtake",
        "Field Marshal [Overtake]"
      ],
      "feat": {
        "name": "Unstoppable Tide",
        "flavor": "By infusing blighted energy into the bodies of those around her, Fyanna lends her preternatural reflexes to her allies, allowing them to anticipate enemy movement and react with speed and agility bordering on precognition. Once within the enemy's defenses, Fyanna and her followers deliver the killing blow.",
        "text": "While in Fyanna's control range, friendly Faction models gain +3 DEF and Dodge. Unstoppable Tide lasts for one round."
      },
      "spells": [
        "Admonition",
        "Fury",
        "Gallows",
        "Iron Flesh"
      ]
    }
  ]
}
