{
  "name": "Garryth, Eye of Vengeance",
  "edition": 3,
  "revision": "2019 v2",
  "keywords": [
    "Retribution",
    "Mage Hunter",
    "Warcaster"
  ],
  "warjack points": 29,
  "field allowance": "C",
  "models": [
    {
      "model name": "Garryth 2",
      "spd": 7,
      "str": 6,
      "mat": 8,
      "rat": 7,
      "def": 17,
      "arm": 14,
      "focus": 6,
      "cmd": 8,
      "boxes": 16,
      "advantages": [
        "Pathfinder"
      ],
      "base size": 30,
      "attacks": [
        {
          "attack name": "Void Singer",
          "type": "ranged",
          "rng": 14,
          "rof": 1,
          "pow": 14,
          "weapon qualities": [
            "Blessed",
            "Damage Type: Magical"
          ],
          "abilities": [
            "Black Penny",
            "Witch Mark"
          ]
        },
        {
          "attack name": "Blade",
          "type": "melee",
          "rng": 0.5,
          "pow": 5,
          "p+s": 11,
          "weapon qualities": [
            "Blessed",
            "Damage Type: Magical",
            "Weapon Master"
          ]
        }
      ],
      "abilities": [
        "Field Marshal [Pathfinder]",
        {
          "Perfect Storm": [
            "Bullseye",
            "Camouflage",
            "Spitfire"
          ]
        },
        "Reposition [5\"]"
      ],
      "feat": {
        "name": "Zero Hour",
        "flavor": "When the Eye of Vengeance makes his move, his foe is marked for death. Perfectly orchestrating his attack force, Garryth uses his magic to guide every shot and blade to strike with preternatural accuracy, even in the midst of frenzied melee. The killing field he creates around himself ensures swift and deadly retaliation against any foolish enough to close on his position.",
        "text": "While friendly Factio nmodels are in Garryth's control range, their ranged weapons gain Black Penny. Additionally, when an enemy model advances and ends its movement in Garryth's control range, one friendly Faction model in Garryth's control range can target the enemy model with a basic melee or ranged attack. A model can only attack once as a result of Zero Hour. Zero Hour lasts for one round."
      },
      "spells": [
        "Mage Sight",
        "Mortality",
        "Occultation",
        "Road to War"
      ]
    }
  ]
}
