{
  "name": "General \"Thunderstone\" Brug",
  "edition": 3,
  "revision": "2020 v1",
  "keywords": [
    "Trollbloods",
    "Pyg",
    "Solo"
  ],
  "point cost": 4,
  "field allowance": "C",
  "models": [
    {
      "model name": "Brug 1",
      "spd": 6,
      "str": 5,
      "mat": 5,
      "rat": 6,
      "def": 13,
      "arm": 12,
      "cmd": 10,
      "boxes": 5,
      "advantages": [
        "Advance Deploy",
        "Gunfighter",
        "Pathfinder",
        "Tough"
      ],
      "base size": 30,
      "attacks": [
        {
          "attack name": "Grenade",
          "type": "ranged",
          "rng": 6,
          "rof": 1,
          "aoe": 3,
          "pow": 12
        },
        {
          "attack name": "Heavy Pistol",
          "type": "ranged",
          "rng": 8,
          "rof": 1,
          "pow": 12
        }
      ],
      "abilities": [
        {
          "Battle Plan": [
            "Get Down!",
            "Marching Orders",
            "Target Acquired!"
          ]
        },
        "Dig In",
        "Tactician [Pyg]",
        "Veteran Leader [Pyg]"
      ]
    }
  ]
}
