{
  "name": "Ghetorix",
  "edition": 3,
  "revision": "2021 v1",
  "keywords": [
    "Circle",
    "Warpwolf",
    "Heavy",
    "Warbeast"
  ],
  "point cost": 17,
  "field allowance": "C",
  "models": [
    {
      "model name": "Ghetorix 1",
      "spd": 6,
      "str": 12,
      "mat": 7,
      "rat": 3,
      "def": 14,
      "arm": 17,
      "cmd": 5,
      "advantages": [
        "Pathfinder"
      ],
      "base size": 50,
      "fury": 4,
      "threshold": 8,
      "boxes": {
        "Spiral 1": 5,
        "Spiral 2": 4,
        "Spiral 3": 8,
        "Spiral 4": 7,
        "Spiral 5": 6,
        "Spiral 6": 6
      },
      "attacks": [
        {
          "attack name": "Bite",
          "type": "melee",
          "rng": 1,
          "pow": 3,
          "p+s": 15
        },
        {
          "attack name": "Great Axe",
          "type": "melee",
          "rng": 2,
          "pow": 6,
          "p+s": 18
        }
      ],
      "abilities": [
        "Bond [Kromac]",
        {
          "Controlled Warping": [
            "Murderous",
            "Snacking",
            "Warp Strength"
          ]
        },
        "Rapid Healing"
      ],
      "animus": "Spiny Growth"
    }
  ]
}
