{
  "name": "Ghordson Avalancher",
  "edition": 3,
  "revision": "2022 v1",
  "keywords": [
    "Mercenary",
    "Rhulic",
    "Heavy",
    "Warjack"
  ],
  "point cost": 15,
  "field allowance": "U",
  "models": [
    {
      "model name": "Avalancher",
      "spd": 4,
      "str": 12,
      "mat": 6,
      "rat": 5,
      "def": 9,
      "arm": 20,
      "advantages": [
        "Construct"
      ],
      "base size": 50,
      "boxes": {
        "grid": [
          [
            2,
            1
          ],
          [
            3,
            1
          ],
          [
            4,
            1
          ],
          [
            5,
            1
          ],
          [
            1,
            2
          ],
          [
            2,
            2
          ],
          [
            3,
            2
          ],
          [
            4,
            2
          ],
          [
            5,
            2
          ],
          [
            6,
            2
          ],
          [
            1,
            3
          ],
          [
            2,
            3
          ],
          [
            3,
            3
          ],
          [
            4,
            3
          ],
          [
            5,
            3
          ],
          [
            6,
            3
          ],
          [
            1,
            4
          ],
          [
            2,
            4
          ],
          [
            3,
            4
          ],
          [
            4,
            4
          ],
          [
            5,
            4
          ],
          [
            6,
            4
          ],
          [
            1,
            5
          ],
          [
            2,
            5
          ],
          [
            3,
            5
          ],
          [
            4,
            5
          ],
          [
            5,
            5
          ],
          [
            6,
            5
          ],
          [
            2,
            6
          ],
          [
            3,
            6
          ],
          [
            4,
            6
          ],
          [
            5,
            6
          ]
        ],
        "systems": [
          {
            "Left Arm": [
              [
                5,
                1
              ],
              [
                4,
                2
              ],
              [
                4,
                2
              ]
            ]
          },
          {
            "Movement": [
              [
                6,
                2
              ],
              [
                5,
                3
              ],
              [
                6,
                3
              ]
            ]
          },
          {
            "Cortex": [
              [
                5,
                4
              ],
              [
                6,
                4
              ],
              [
                6,
                5
              ]
            ]
          },
          {
            "Right Arm": [
              [
                4,
                5
              ],
              [
                5,
                5
              ],
              [
                5,
                6
              ]
            ]
          }
        ]
      },
      "attacks": [
        {
          "attack name": "Avalanche Cannon",
          "type": "ranged",
          "loc": "L",
          "rng": 12,
          "rof": 1,
          "aoe": 4,
          "pow": 14,
          "abilities": [
            "Quake"
          ]
        },
        {
          "attack name": "Assault Shield",
          "type": "melee",
          "loc": "R",
          "rng": 1,
          "pow": 3,
          "p+s": 15,
          "weapon qualities": [
            "Shield"
          ]
        }
      ],
      "abilities": [
        "Shield Guard",
        "Sturdy"
      ]
    }
  ]
}
