{
  "name": "Ghordson Earthbreaker",
  "edition": 3,
  "revision": "2022 v1",
  "keywords": [
    "Mercenary",
    "Rhulic",
    "Colossal",
    "Warjack"
  ],
  "point cost": 33,
  "field allowance": 2,
  "models": [
    {
      "model name": "Earthbreaker",
      "spd": 5,
      "str": 17,
      "mat": 6,
      "rat": 5,
      "def": 8,
      "arm": 20,
      "advantages": [
        "Construct",
        "Pathfinder"
      ],
      "base size": 120,
      "boxes": {
        "Left": {
          "grid": [
            [
              3,
              1
            ],
            [
              4,
              1
            ],
            [
              5,
              1
            ],
            [
              6,
              1
            ],
            [
              3,
              2
            ],
            [
              4,
              2
            ],
            [
              5,
              2
            ],
            [
              6,
              2
            ],
            [
              2,
              3
            ],
            [
              3,
              3
            ],
            [
              4,
              3
            ],
            [
              5,
              3
            ],
            [
              6,
              3
            ],
            [
              2,
              4
            ],
            [
              3,
              4
            ],
            [
              4,
              4
            ],
            [
              5,
              4
            ],
            [
              6,
              4
            ],
            [
              1,
              5
            ],
            [
              2,
              5
            ],
            [
              3,
              5
            ],
            [
              4,
              5
            ],
            [
              5,
              5
            ],
            [
              6,
              5
            ],
            [
              1,
              6
            ],
            [
              2,
              6
            ],
            [
              3,
              6
            ],
            [
              4,
              6
            ],
            [
              5,
              6
            ],
            [
              6,
              6
            ]
          ],
          "systems": [
            {
              "Left Arm": [
                [
                  6,
                  1
                ],
                [
                  5,
                  2
                ],
                [
                  6,
                  2
                ],
                [
                  5,
                  3
                ],
                [
                  4,
                  4
                ]
              ]
            },
            {
              "Movement": [
                [
                  6,
                  3
                ],
                [
                  6,
                  4
                ],
                [
                  6,
                  5
                ],
                [
                  6,
                  6
                ]
              ]
            },
            {
              "Cortex": [
                [
                  5,
                  4
                ],
                [
                  4,
                  5
                ],
                [
                  5,
                  5
                ],
                [
                  4,
                  6
                ],
                [
                  5,
                  6
                ]
              ]
            }
          ]
        },
        "Right": {
          "grid": [
            [
              1,
              1
            ],
            [
              2,
              1
            ],
            [
              3,
              1
            ],
            [
              4,
              1
            ],
            [
              5,
              1
            ],
            [
              6,
              1
            ],
            [
              1,
              2
            ],
            [
              2,
              2
            ],
            [
              3,
              2
            ],
            [
              4,
              2
            ],
            [
              5,
              2
            ],
            [
              6,
              2
            ],
            [
              2,
              3
            ],
            [
              3,
              3
            ],
            [
              4,
              3
            ],
            [
              5,
              3
            ],
            [
              6,
              3
            ],
            [
              2,
              4
            ],
            [
              3,
              4
            ],
            [
              4,
              4
            ],
            [
              5,
              4
            ],
            [
              6,
              4
            ],
            [
              3,
              5
            ],
            [
              4,
              5
            ],
            [
              5,
              5
            ],
            [
              6,
              5
            ],
            [
              3,
              6
            ],
            [
              4,
              6
            ],
            [
              5,
              6
            ],
            [
              6,
              6
            ]
          ],
          "systems": [
            {
              "Cortex": [
                [
                  4,
                  1
                ],
                [
                  5,
                  1
                ],
                [
                  4,
                  2
                ],
                [
                  5,
                  2
                ],
                [
                  5,
                  3
                ]
              ]
            },
            {
              "Movement": [
                [
                  6,
                  1
                ],
                [
                  6,
                  2
                ],
                [
                  6,
                  3
                ],
                [
                  6,
                  4
                ]
              ]
            },
            {
              "Right Arm": [
                [
                  4,
                  3
                ],
                [
                  5,
                  4
                ],
                [
                  5,
                  5
                ],
                [
                  6,
                  5
                ],
                [
                  6,
                  6
                ]
              ]
            }
          ]
        }
      },
      "attacks": [
        {
          "attack name": "Torpedo",
          "type": "ranged",
          "field of fire": "Left",
          "loc": "L",
          "rng": 10,
          "rof": 1,
          "aoe": 4,
          "pow": 13,
          "abilities": [
            {
              "Attack Type": [
                "Crater",
                "Quake"
              ]
            },
            "From Beneath"
          ]
        },
        {
          "attack name": "Torpedo",
          "type": "ranged",
          "field of fire": "Right",
          "loc": "R",
          "rng": 10,
          "rof": 1,
          "aoe": 4,
          "pow": 13,
          "abilities": [
            {
              "Attack Type": [
                "Crater",
                "Quake"
              ]
            },
            "From Beneath"
          ]
        },
        {
          "attack name": "Repeating Cannon",
          "type": "ranged",
          "field of fire": "Left",
          "loc": "L",
          "rng": 12,
          "rof": "d3",
          "pow": 13
        },
        {
          "attack name": "Repeating Cannon",
          "type": "ranged",
          "field of fire": "Right",
          "loc": "R",
          "rng": 12,
          "rof": "d3",
          "pow": 13
        },
        {
          "attack name": "Steam Claws",
          "type": "melee",
          "field of fire": "Left",
          "loc": "L",
          "rng": 2,
          "pow": 4,
          "p+s": 21,
          "weapon qualities": [
            "Open Fist"
          ]
        },
        {
          "attack name": "Steam Claws",
          "type": "melee",
          "field of fire": "Right",
          "loc": "R",
          "rng": 2,
          "pow": 4,
          "p+s": 21,
          "weapon qualities": [
            "Open Fist"
          ]
        }
      ]
    }
  ]
}
