{
  "name": "Glacier King",
  "edition": 3,
  "revision": "2021 v1",
  "keywords": [
    "Trollblood",
    "Northkin",
    "Gargantuan",
    "Warbeast"
  ],
  "point cost": 32,
  "field allowance": 2,
  "models": [
    {
      "model name": "Glacier King",
      "spd": 5,
      "str": 15,
      "mat": 6,
      "rat": 5,
      "def": 9,
      "arm": 19,
      "cmd": 4,
      "advantages": [
        "Immunity: Cold",
        "Pathfinder"
      ],
      "base size": 120,
      "fury": 5,
      "threshold": 6,
      "boxes": {
        "Spiral 1": 8,
        "Spiral 2": 7,
        "Spiral 3": 13,
        "Spiral 4": 11,
        "Spiral 5": 12,
        "Spiral 6": 9
      },
      "attacks": [
        {
          "attack name": "Wind Thrower",
          "type": "ranged",
          "rng": 12,
          "rof": 1,
          "pow": 14,
          "weapon qualities": [
            "Damage Type: Cold"
          ],
          "abilities": [
            "Reload [2]",
            "Storm Chiller"
          ]
        },
        {
          "attack name": "Big Meaty Fist",
          "type": "melee",
          "field of fire": "Left",
          "loc": "L",
          "rng": 2,
          "pow": 4,
          "p+s": 19,
          "weapon qualities": [
            "Open Fist"
          ],
          "abilities": [
            "Freeze"
          ]
        },
        {
          "attack name": "Big Meaty Fist",
          "type": "melee",
          "field of fire": "Right",
          "loc": "R",
          "rng": 2,
          "pow": 4,
          "p+s": 19,
          "weapon qualities": [
            "Open Fist"
          ],
          "abilities": [
            "Freeze"
          ]
        }
      ],
      "abilities": [
        "Bulldoze",
        "Snacking",
        "Snowfall"
      ],
      "animus": "Frozen Ground"
    }
  ]
}
