{
  "name": "Glimmer Imp",
  "edition": 3,
  "revision": "2021 v1",
  "keywords": [
    "Grymkin",
    "Solo"
  ],
  "point cost": 3,
  "field allowance": 2,
  "models": [
    {
      "model name": "Glimmer Imp",
      "spd": 6,
      "str": 3,
      "mat": 5,
      "rat": 3,
      "def": 14,
      "arm": 10,
      "cmd": 5,
      "boxes": 5,
      "advantages": [
        "Eyeless Sight",
        "Stealth"
      ],
      "base size": 30,
      "attacks": [
        {
          "attack name": "Spoon",
          "type": "melee",
          "rng": 0.5,
          "weapon qualities": [
            "Damage Type: Magical"
          ],
          "abilities": [
            "Eye Thief",
            "Scoop"
          ]
        }
      ],
      "abilities": [
        "Paralyzing Gaze"
      ]
    }
  ]
}
