{
  "name": "Gorax Rager",
  "edition": 3,
  "revision": "2021 v1",
  "keywords": [
    "Circle",
    "Light",
    "Warbeast"
  ],
  "point cost": 6,
  "field allowance": "U",
  "models": [
    {
      "model name": "Gorax",
      "spd": 5,
      "str": 9,
      "mat": 5,
      "rat": 3,
      "def": 12,
      "arm": 16,
      "cmd": 2,
      "base size": 40,
      "fury": 3,
      "threshold": 6,
      "boxes": {
        "Spiral 1": 5,
        "Spiral 2": 4,
        "Spiral 3": 5,
        "Spiral 4": 5,
        "Spiral 5": 5,
        "Spiral 6": 4
      },
      "attacks": [
        {
          "attack name": "Claw",
          "type": "melee",
          "rng": 0.5,
          "pow": 3,
          "p+s": 12,
          "weapon qualities": [
            "Open Fist"
          ]
        },
        {
          "attack name": "Claw",
          "type": "melee",
          "rng": 0.5,
          "pow": 3,
          "p+s": 12,
          "weapon qualities": [
            "Open Fist"
          ]
        }
      ],
      "abilities": [
        "Pain Response"
      ],
      "animus": "Primal"
    }
  ]
}
