{
  "name": "Gorehound",
  "edition": 3,
  "revision": "2017 v1",
  "keywords": [
    "Grymkin",
    "Light",
    "Warbeast"
  ],
  "point cost": 6,
  "field allowance": "U",
  "models": [
    {
      "model name": "Gorehound",
      "spd": 7,
      "str": 8,
      "mat": 6,
      "rat": 3,
      "def": 14,
      "arm": 13,
      "cmd": 4,
      "base size": 40,
      "fury": 3,
      "threshold": 8,
      "boxes": {
        "Spiral 1": 4,
        "Spiral 2": 4,
        "Spiral 3": 5,
        "Spiral 4": 4,
        "Spiral 5": 5,
        "Spiral 6": 4
      },
      "attacks": [
        {
          "attack name": "Bite",
          "type": "melee",
          "rng": 2,
          "pow": 4,
          "p+s": 12,
          "abilities": [
            "Pull"
          ]
        }
      ],
      "abilities": [
        "Extended Control Range",
        "Ghostly",
        "Prowl"
      ],
      "animus": "Lightning Strike"
    }
  ]
}
