{
  "name": "Goreshade, Lord of Ruin",
  "edition": 3,
  "revision": "2016 v1",
  "keywords": [
    "Cryx",
    "Warcaster"
  ],
  "warjack points": 27,
  "field allowance": "C",
  "models": [
    {
      "model name": "Goreshade 3",
      "spd": 8,
      "str": 7,
      "mat": 7,
      "rat": 4,
      "def": 14,
      "arm": 17,
      "focus": 7,
      "cmd": 8,
      "boxes": 17,
      "advantages": [
        "Cavalry",
        "Immunity: Cold",
        "Undead"
      ],
      "base size": 50,
      "attacks": [
        {
          "attack name": "Voass",
          "type": "melee",
          "rng": 2,
          "pow": 8,
          "p+s": 15,
          "weapon qualities": [
            "Damage Type: Magical"
          ],
          "abilities": [
            "Freeze"
          ]
        },
        {
          "attack name": "Mount",
          "type": "melee",
          "rng": 0.5,
          "pow": 12
        }
      ],
      "abilities": [
        "Reposition [3\"]",
        "Spell Vortex"
      ],
      "feat": {
        "name": "Winter's Grasp",
        "flavor": "As proof that he truly is Lord of Ruin, Goreshade reaches inside Voass to steal the Father of Winter's divine power for his own profane use. With a sweep of the fozen blade Goreshade's enemies are seized in an unyielding grip, rendered helpless and vulnerable.",
        "text": "Center 3\" on any number of friendly Faction non-warcaster warrior models currently in Goreshade's control range. Enemy models within an AOE become stationary for one round unless they have Immunity: Cold, then the models the AOEs are centered on are destroyed."
      },
      "spells": [
        "Infernal Machine",
        "Mockery of Life",
        "Occultation",
        "Scything Touch",
        "Siphon Bolt"
      ]
    }
  ]
}
