{
  "name": "Goreshade The Bastard & Deathwalker",
  "edition": 3,
  "revision": "2021 v1",
  "keywords": [
    "Cryx",
    "Warcaster",
    "Unit"
  ],
  "warjack points": 29,
  "field allowance": "C",
  "models": [
    {
      "model name": "Goreshade 1",
      "spd": 6,
      "str": 7,
      "mat": 7,
      "rat": 4,
      "def": 15,
      "arm": 16,
      "focus": 7,
      "cmd": 7,
      "boxes": 17,
      "advantages": [
        "Officer",
        "Undead"
      ],
      "base size": 40,
      "attacks": [
        {
          "attack name": "Bloodcleaver",
          "type": "melee",
          "rng": 2,
          "pow": 7,
          "p+s": 14,
          "weapon qualities": [
            "Damage Type: Magical"
          ],
          "abilities": [
            "Deathwalk"
          ]
        }
      ],
      "abilities": [
        "Warcaster Unit - This unit is made up of Goreshade and the Deathwalker"
      ],
      "feat": {
        "name": "Dark Summons",
        "flavor": "Reaching into the frozen void between the realms of the living and the dead, the eldritch Goreshade calls upon his mastery of dark lore to summon a lethal group of bane warriors bound to him and obligated to fight at his  bidding.",
        "text": "Put a unit of Bane Warriors (one Leader and five Grunts) into play. Place each model completely within 3\" of Goreshade."
      },
      "spells": [
        "Bleed",
        "Hex Blast",
        "Lamentation",
        "Shadowmancer",
        "Soul Gate"
      ]
    },
    {
      "model name": "Deathwalker",
      "spd": 6,
      "str": 3,
      "mat": 4,
      "rat": 3,
      "def": 14,
      "arm": 10,
      "cmd": 5,
      "boxes": 1,
      "advantages": [
        "Undead"
      ],
      "base size": 1,
      "abilities": [
        "Breath Taker",
        "Dark Restoration",
        "Ghostly"
      ]
    }
  ]
}
