{
  "name": "Gorman The Mad",
  "edition": 3,
  "revision": "2019 v1",
  "keywords": [
    "Mercenary",
    "Llaelese",
    "Solo"
  ],
  "point cost": 5,
  "field allowance": "C",
  "models": [
    {
      "model name": "Gorman 2",
      "spd": 6,
      "str": 4,
      "mat": 5,
      "rat": 6,
      "def": 14,
      "arm": 12,
      "cmd": 6,
      "boxes": 5,
      "advantages": [
        "Gunfighter",
        "Immunity: Corrosion",
        "Immunity: Fire",
        "Stealth"
      ],
      "base size": 30,
      "attacks": [
        {
          "attack name": "Alchemical Blaster",
          "type": "ranged",
          "rng": "SP 8",
          "rof": 1,
          "pow": 12,
          "abilities": [
            {
              "Attack Type": [
                "Acid Wash",
                "Aetheric Blast (Gorman 2)",
                "Weaken"
              ]
            }
          ]
        }
      ],
      "abilities": [
        {
          "Mercenaries": [
            "Crucible Guard",
            "Cryx",
            "Cygnar",
            "Khador",
            "Protectorate"
          ]
        },
        "Partisan [Crucible Guard]",
        "Alchemical Mask",
        "Smoke Bombs"
      ]
    }
  ]
}
