{
  "name": "Grayle the Farstrider",
  "edition": 3,
  "revision": "2016 v2",
  "keywords": [
    "Circle",
    "Wolf Sworn",
    "Warlock"
  ],
  "warbeast points": 29,
  "field allowance": "C",
  "models": [
    {
      "model name": "Grayle 1",
      "spd": 7,
      "str": 6,
      "mat": 7,
      "rat": 4,
      "def": 15,
      "arm": 16,
      "fury": 6,
      "cmd": 9,
      "boxes": 17,
      "advantages": [
        "Pathfinder",
        "Stealth"
      ],
      "base size": 30,
      "attacks": [
        {
          "attack name": "Hunting Blade",
          "type": "melee",
          "rng": 1,
          "pow": 4,
          "p+s": 10,
          "weapon qualities": [
            "Damage Type: Magical",
            "Weapon Master"
          ],
          "abilities": [
            "Combo Strike"
          ]
        },
        {
          "attack name": "Hunting Blade",
          "type": "melee",
          "rng": 1,
          "pow": 4,
          "p+s": 10,
          "weapon qualities": [
            "Damage Type: Magical",
            "Weapon Master"
          ],
          "abilities": [
            "Combo Strike"
          ]
        }
      ],
      "abilities": [
        "Side Step",
        "Sprint",
        "Tactician [Wolf Sworn]"
      ],
      "feat": {
        "name": "Darkest Night",
        "flavor": "With the power granted him by Orboros, Grayle the Farstrider can invoke the darkness of night to shroud his hunting pack and grant them tremendous swiftness as they advance to strike deep into the heart of the enemy.",
        "text": "While in Grayle's control range, friendly Faction models gain Stealth. When a friendly Faction model in Grayle's control range destroys an enemy model with a melee attack during its activation, another friendly Faction model in Grayle's control range can advance up to 3\". A model can advance only once this turn as a result of Darkest Night. Darkest Night lasts for one round."
      },
      "spells": [
        "Death March",
        "Gallows",
        "Storm Rager",
        "Wind Blast"
      ]
    }
  ]
}
