{
  "name": "Greylord Forge Seer",
  "edition": 3,
  "revision": "2017 v1",
  "keywords": [
    "Khador",
    "Man-O-War",
    "Solo"
  ],
  "point cost": 4,
  "field allowance": 2,
  "models": [
    {
      "model name": "Forge Seer",
      "spd": 4,
      "str": 9,
      "mat": 6,
      "rat": 5,
      "def": 10,
      "arm": 16,
      "cmd": 7,
      "boxes": 8,
      "advantages": [
        "Immunity: Cold",
        "Jack Marshal"
      ],
      "base size": 40,
      "attacks": [
        {
          "attack name": "Rune Weapon",
          "type": "melee",
          "rng": 2,
          "pow": 5,
          "p+s": 14,
          "weapon qualities": [
            "Damage Type: Magical"
          ],
          "abilities": [
            "Critical Freeze"
          ]
        }
      ],
      "abilities": [
        "Battle Wizard",
        "Drive: Dark Sigils",
        {
          "Magic Ability [7]": [
            "Empower",
            "Hoarfrost",
            "Winter's Wind"
          ]
        },
        "Repairable"
      ]
    }
  ]
}
