{
  "name": "Greylord Outriders",
  "edition": 3,
  "revision": "2021 v1",
  "keywords": [
    "Khador",
    "Unit"
  ],
  "unit size": [
    {
      "min": [
        {
          "Leader": 1
        },
        {
          "Grunts": 2
        },
        {
          "point cost": 9
        }
      ]
    },
    {
      "max": [
        {
          "Leader": 1
        },
        {
          "Grunts": 4
        },
        {
          "point cost": 16
        }
      ]
    }
  ],
  "field allowance": 2,
  "models": [
    {
      "model name": "Leader & Grunts",
      "spd": 9,
      "str": 5,
      "mat": 5,
      "rat": 4,
      "def": 13,
      "arm": 15,
      "cmd": 9,
      "boxes": [
        {
          "Model A": 5
        },
        {
          "Model B": 5
        },
        {
          "Model C": 5
        },
        {
          "Model D": 5
        },
        {
          "Model E": 5
        }
      ],
      "advantages": [
        "Cavalry",
        "Immunity: Cold",
        "Pathfinder"
      ],
      "base size": 50,
      "attacks": [
        {
          "attack name": "Rune Axe",
          "type": "melee",
          "rng": 1,
          "pow": 5,
          "p+s": 10,
          "weapon qualities": [
            "Damage Type: Magical"
          ]
        },
        {
          "attack name": "Mount",
          "type": "mount",
          "rng": 0.5,
          "pow": 10
        }
      ],
      "abilities": [
        "Battle Wizard",
        {
          "Magic Ability [6]": [
            "Frostbite",
            "Winter's Wind"
          ]
        },
        "Snow-Wreathed",
        "Reposition [5\"]"
      ]
    }
  ]
}
