{
  "name": "Grotesque Raiders",
  "edition": 3,
  "revision": "2021 v1",
  "keywords": [
    "Legion",
    "Unit"
  ],
  "unit size": [
    {
      "min": [
        {
          "Leader": 1
        },
        {
          "Grunts": 5
        },
        {
          "point cost": 7
        }
      ]
    },
    {
      "max": [
        {
          "Leader": 1
        },
        {
          "Grunts": 9
        },
        {
          "point cost": 11
        }
      ]
    }
  ],
  "field allowance": 2,
  "models": [
    {
      "model name": "Leader & Grunts",
      "spd": 7,
      "str": 7,
      "mat": 5,
      "rat": 4,
      "def": 13,
      "arm": 13,
      "cmd": 7,
      "boxes": 1,
      "advantages": [
        "Flight"
      ],
      "base size": 30,
      "attacks": [
        {
          "attack name": "Claws",
          "type": "melee",
          "rng": 0.5,
          "pow": 3,
          "p+s": 10
        }
      ],
      "abilities": [
        "Gang"
      ]
    }
  ]
}
