{
  "name": "Grundback Gunner",
  "edition": 3,
  "revision": "2016 v1",
  "keywords": [
    "Mercenary",
    "Rhulic",
    "Light",
    "Warjack"
  ],
  "point cost": 6,
  "field allowance": "U",
  "models": [
    {
      "model name": "Gunner",
      "spd": 5,
      "str": 6,
      "mat": 5,
      "rat": 6,
      "def": 12,
      "arm": 18,
      "advantages": [
        "Construct"
      ],
      "base size": 40,
      "boxes": {
        "grid": [
          [
            5,
            1
          ],
          [
            6,
            1
          ],
          [
            4,
            2
          ],
          [
            5,
            2
          ],
          [
            6,
            2
          ],
          [
            3,
            3
          ],
          [
            4,
            3
          ],
          [
            5,
            3
          ],
          [
            6,
            3
          ],
          [
            3,
            4
          ],
          [
            4,
            4
          ],
          [
            5,
            4
          ],
          [
            6,
            4
          ],
          [
            4,
            5
          ],
          [
            5,
            5
          ],
          [
            6,
            5
          ],
          [
            5,
            6
          ],
          [
            6,
            6
          ]
        ],
        "systems": [
          {
            "Head": [
              [
                6,
                1
              ],
              [
                5,
                2
              ],
              [
                6,
                2
              ],
              [
                5,
                3
              ]
            ]
          },
          {
            "Movement": [
              [
                5,
                5
              ],
              [
                6,
                5
              ],
              [
                6,
                6
              ]
            ]
          },
          {
            "Cortex": [
              [
                6,
                3
              ],
              [
                5,
                4
              ],
              [
                6,
                4
              ]
            ]
          }
        ]
      },
      "attacks": [
        {
          "attack name": "Cannon",
          "type": "ranged",
          "loc": "H",
          "rng": 12,
          "rof": 1,
          "pow": 12,
          "abilities": [
            "Powerful Attack"
          ]
        },
        {
          "attack name": "Bash",
          "type": "melee",
          "rng": 0.5,
          "pow": 0,
          "p+s": 6
        }
      ],
      "abilities": [
        "Sturdy"
      ]
    }
  ]
}
