{
  "name": "Harlowe Holdenhigh",
  "edition": 3,
  "revision": "2019 v1",
  "keywords": [
    "Mercenary",
    "Rhulic",
    "Gun Mage",
    "Solo"
  ],
  "point cost": 5,
  "field allowance": "C",
  "models": [
    {
      "model name": "Harlowe 1",
      "spd": 5,
      "str": 5,
      "mat": 5,
      "rat": 7,
      "def": 13,
      "arm": 13,
      "cmd": 6,
      "boxes": 5,
      "advantages": [
        "Advance Deploy",
        "Gunfighter",
        "Pathfinder"
      ],
      "base size": 30,
      "attacks": [
        {
          "attack name": "Spellstorm Pistol",
          "type": "ranged",
          "rng": 12,
          "rof": 2,
          "pow": 12,
          "weapon qualities": [
            "Damage Type: Magical"
          ],
          "abilities": [
            {
              "Attack Type": [
                "Ghost Shot",
                "Incendiary",
                "Psychomorphic Destabilizer"
              ]
            }
          ]
        }
      ],
      "abilities": [
        {
          "Mercenary": [
            "Crucible Guard",
            "Cygnar",
            "Khador"
          ]
        },
        "Prowl",
        "Swift Hunter"
      ]
    }
  ]
}
