{
  "name": "Hierarch Severius",
  "edition": 3,
  "revision": "2017 v1",
  "keywords": [
    "Protectorate",
    "Warcaster"
  ],
  "warjack points": 26,
  "field allowance": "C",
  "models": [
    {
      "model name": "Severius 2",
      "spd": 5,
      "str": 5,
      "mat": 4,
      "rat": 4,
      "def": 14,
      "arm": 14,
      "focus": 8,
      "cmd": 10,
      "boxes": 16,
      "base size": 30,
      "attacks": [
        {
          "attack name": "Staff of Authority",
          "type": "melee",
          "rng": 2,
          "pow": 8,
          "p+s": 13,
          "weapon qualities": [
            "Damage Type: Magical"
          ],
          "abilities": [
            "Admonisher"
          ]
        }
      ],
      "abilities": [
        "Arcane Power",
        "Field Marshal [Oracular Vision]",
        "Oracular Vision"
      ],
      "feat": {
        "name": "Fires of Communion",
        "flavor": "With his divinely appointed authority, Hierach Severius can invoke the most sacred rites of his faith to call down curtains of holy fire from on high. Unholy blasphemies are transfigured to ash.",
        "text": "Choose d3 + 2 enemy non-warcaster, non-warlock living or undead warrior models currently in Severius' control range. The chosen models suffer a boostable POW 12 magical damage roll. If a model is boxed by Fires of Communion, center a 4\" AOE cloud effect on the boxed model and remove it from play. The AOE is a hazard that remains in play for one round. Enemy models entering or ending their activations in the AOE suffer a POW 12 fire damage roll and the Fire continuous effect."
      },
      "spells": [
        "Arcane Ward",
        "Ashes to Ashes",
        "Awareness",
        "Creator's Wrath",
        "Hex Blast",
        "Rebuke"
      ]
    }
  ]
}
