{
  "name": "High Executioner Servath Reznik",
  "edition": 3,
  "revision": "2016 v2",
  "keywords": [
    "Protectorate",
    "Warcaster"
  ],
  "warjack points": 28,
  "field allowance": "C",
  "models": [
    {
      "model name": "Reznik 1",
      "spd": 5,
      "str": 7,
      "mat": 7,
      "rat": 4,
      "def": 14,
      "arm": 17,
      "focus": 6,
      "cmd": 7,
      "boxes": 17,
      "base size": 40,
      "attacks": [
        {
          "attack name": "Confessor",
          "type": "melee",
          "rng": 2,
          "pow": 7,
          "p+s": 14,
          "weapon qualities": [
            "Damage Type: Magical"
          ],
          "abilities": [
            "Purgation"
          ]
        }
      ],
      "abilities": [
        "Excruciator",
        "Witch Hound"
      ],
      "feat": {
        "name": "Judgment Day",
        "flavor": "Heresy and blasphemy provoke the righteous wrath of High Executioner Servath Reznik, who delivers Menoth's final fire of judgment to those who would raw upon sorcerous power in defiance of the Lawgiver",
        "text": "Enemy models currently in Reznik's control range lose all focus and fury points. While in Reznik's control range, enemy models cannot upkeep spells or be allocated focus and those casting spells suffer the Fire continuous effect. Judgment Day lasts for one round."
      },
      "spells": [
        "Brand of Heresy",
        "Engine of Destruction",
        "Hex Blast",
        "Ignite",
        "Perdition"
      ]
    }
  ]
}
