{
  "name": "High Exemplar Gravus",
  "edition": 3,
  "revision": "2022 v1",
  "keywords": [
    "Protectorate",
    "Venger",
    "Dragoon",
    "Solo"
  ],
  "point cost": 7,
  "field allowance": "C",
  "models": [
    {
      "model name": "Gravus 1 (Mounted)",
      "spd": 8,
      "str": 5,
      "mat": 8,
      "rat": 4,
      "def": 12,
      "arm": 17,
      "cmd": 10,
      "boxes": 10,
      "advantages": [
        "Cavalry"
      ],
      "base size": 50,
      "attacks": [
        {
          "attack name": "Reverence",
          "type": "melee",
          "rng": 1,
          "pow": 6,
          "p+s": 11,
          "weapon qualities": [
            "Chain Weapon",
            "Damage Type: Magical",
            "Weapon Master"
          ],
          "abilities": [
            "Dispel"
          ]
        },
        {
          "attack name": "Mount",
          "type": "melee",
          "rng": 0.5,
          "pow": 12
        }
      ],
      "abilities": [
        "Brother's Keeper",
        "Desperate Pace [Small- Or Medium-Based Exemplar]",
        "Reposition [3\"]",
        {
          "Soul Taker: Crusader's Requiem": [
            "Soul-Powered",
            "Strength of Death"
          ]
        }
      ]
    },
    {
      "model name": "Gravus 1 (Dismounted)",
      "spd": 5,
      "aat": 5,
      "mat": 8,
      "rat": 4,
      "def": 12,
      "arm": 15,
      "ctrl": 10,
      "boxes": 5,
      "base size": 30,
      "attacks": [
        {
          "attack name": "Reverence",
          "type": "melee",
          "rng": 1,
          "pow": 6,
          "p+s": 11,
          "weapon qualities": [
            "Chain Weapon",
            "Damage Type: Magical",
            "Weapon Master"
          ],
          "abilities": [
            "Dispel"
          ]
        }
      ],
      "abilities": [
        "Brother's Keeper",
        "Desperate Pace [Small- Or Medium-Based Exemplar]",
        {
          "Soul Taker: Crusader's Requiem": [
            "Soul-Powered",
            "Strength of Death"
          ]
        }
      ]
    }
  ]
}
