{
  "name": "Hollow Holden",
  "edition": 3,
  "revision": "2021 v1",
  "keywords": [
    "Grymkin",
    "Hollowman",
    "Weapon Attachment"
  ],
  "point cost": 3,
  "field allowance": "C",
  "models": [
    {
      "model name": "Holden 1",
      "spd": 6,
      "str": 6,
      "mat": 5,
      "rat": 7,
      "def": 13,
      "arm": 12,
      "cmd": 7,
      "boxes": 5,
      "advantages": [
        "Eyeless Sight"
      ],
      "base size": 30,
      "attacks": [
        {
          "attack name": "Hunting Rifle",
          "type": "ranged",
          "rng": 14,
          "rof": 1,
          "pow": 10,
          "weapon qualities": [
            "Damage Type: Magical"
          ]
        },
        {
          "attack name": "Trench Knife",
          "type": "melee",
          "rng": 0.5,
          "pow": 3,
          "p+s": 9
        }
      ],
      "abilities": [
        "Attachment [Hollowmen]",
        "Annoyance",
        "Apparition",
        "Granted: Pathfinder",
        "Poisoned Fate",
        "Prowl",
        "Reposition [3\"]",
        "Sniper"
      ]
    }
  ]
}
