{
  "name": "Holy Zealots",
  "edition": 3,
  "revision": "2017 v1",
  "keywords": [
    "Protectorate",
    "Unit"
  ],
  "unit size": [
    {
      "min": [
        {
          "Leader": 1
        },
        {
          "Grunts": 5
        },
        {
          "point cost": 7
        }
      ]
    },
    {
      "max": [
        {
          "Leader": 1
        },
        {
          "Grunts": 9
        },
        {
          "point cost": 12
        }
      ]
    }
  ],
  "field allowance": 3,
  "models": [
    {
      "model name": "Leader & Grunts",
      "spd": 6,
      "str": 4,
      "mat": 5,
      "rat": 5,
      "def": 12,
      "arm": 12,
      "cmd": 6,
      "boxes": 1,
      "base size": 30,
      "attacks": [
        {
          "attack name": "Fire Bomb",
          "type": "ranged",
          "rng": 6,
          "rof": 1,
          "aoe": 3,
          "pow": 12,
          "weapon qualities": [
            "Damage Type: Fire",
            "Critical Continuous Fire"
          ]
        },
        {
          "attack name": "Mace",
          "type": "melee",
          "rng": 0.5,
          "pow": 3,
          "p+s": 7
        }
      ],
      "abilities": [
        {
          "Prayers": [
            "Fervor",
            "Path of Flames",
            "Warding"
          ]
        }
      ]
    }
  ]
}
