{
  "name": "Houseguard Thane",
  "edition": 3,
  "revision": "2021 v1",
  "keywords": [
    "Retribution",
    "Solo"
  ],
  "point cost": 3,
  "field allowance": 2,
  "models": [
    {
      "model name": "Thane",
      "spd": 6,
      "str": 5,
      "mat": 7,
      "rat": 6,
      "def": 13,
      "arm": 15,
      "cmd": 9,
      "boxes": 5,
      "base size": 30,
      "attacks": [
        {
          "attack name": "Carbine",
          "type": "ranged",
          "rng": 10,
          "rof": 1,
          "pow": 10
        },
        {
          "attack name": "Officer's Sword",
          "type": "melee",
          "rng": 0.5,
          "pow": 4,
          "p+s": 9,
          "weapon qualities": [
            "Weapon Master"
          ]
        }
      ],
      "abilities": [
        "Desperate Pace [Houseguard]",
        "Firing Solution [Houseguard]"
      ]
    }
  ]
}
