{
  "name": "Hunters Grim",
  "edition": 3,
  "revision": "2021 v1",
  "keywords": [
    "Trollblood",
    "Warlock",
    "Unit"
  ],
  "warbeast points": 29,
  "field allowance": "C",
  "models": [
    {
      "model name": "Grim 2",
      "spd": 6,
      "str": 7,
      "mat": 6,
      "rat": 8,
      "def": 16,
      "arm": 15,
      "fury": 6,
      "cmd": 8,
      "boxes": 17,
      "advantages": [
        "Officer",
        "Pathfinder",
        "Tough"
      ],
      "base size": 40,
      "attacks": [
        {
          "attack name": "Headhunter",
          "type": "ranged",
          "rng": 13,
          "rof": 1,
          "pow": 13,
          "weapon qualities": [
            "Damage Type: Magical"
          ],
          "abilities": [
            "Blood Lure"
          ]
        },
        {
          "attack name": "Gun Blade",
          "type": "melee",
          "rng": 1,
          "pow": 5,
          "p+s": 12
        }
      ],
      "abilities": [
        "Take Down",
        "Trollkin",
        "Warlock Unit (Grim 2)"
      ],
      "feat": {
        "name": "On My Mark",
        "flavor": "With a hunter's patience, Grim holds back the fire of his kin even as he stores up arcane poewr to release at the moment of his choosing. On his mark, the arms of his allies erupt in a deafening roar of unnaturally honed firepower.",
        "text": "While in Grim's control range, friendly Faction models gain Mark Target and their ranged weapons gain Snipe. On My Mark lasts for one turn."
      },
      "spells": [
        "Mage Sight",
        "Mirage",
        "Mortality",
        "Pursuit"
      ]
    },
    {
      "model name": "Muggs 1",
      "spd": 6,
      "str": 5,
      "mat": 5,
      "rat": 6,
      "def": 14,
      "arm": 12,
      "cmd": 7,
      "boxes": 5,
      "advantages": [
        "Pathfinder",
        "Tough"
      ],
      "base size": 30,
      "attacks": [
        {
          "attack name": "Snare Gun",
          "type": "ranged",
          "rng": 8,
          "rof": 1,
          "abilities": [
            "Knockdown"
          ]
        },
        {
          "attack name": "Hand Axe",
          "type": "melee",
          "rng": 0.5,
          "pow": 3,
          "p+s": 8
        }
      ],
      "abilities": [
        "Granted: Reposition [3\"]",
        "Pyg",
        "Take Down"
      ]
    },
    {
      "model name": "Krump 1",
      "spd": 6,
      "str": 5,
      "mat": 5,
      "rat": 6,
      "def": 14,
      "arm": 12,
      "cmd": 7,
      "boxes": 5,
      "advantages": [
        "Pathfinder",
        "Tough"
      ],
      "base size": 30,
      "attacks": [
        {
          "attack name": "Blunderbuss",
          "type": "ranged",
          "rng": 8,
          "rof": 1,
          "pow": 12
        },
        {
          "attack name": "Hand Axe",
          "type": "melee",
          "rng": 0.5,
          "pow": 3,
          "p+s": 8
        }
      ],
      "abilities": [
        "Granted: Circular Vision",
        "Pyg",
        "Take Down",
        "Trapper [5\"]"
      ]
    }
  ]
}
