{
  "name": "Hurricane",
  "edition": 3,
  "revision": "2021 v1",
  "keywords": [
    "Cygnar",
    "Colossal",
    "Warjack"
  ],
  "point cost": 33,
  "field allowance": 2,
  "models": [
    {
      "model name": "Hurricane",
      "spd": 5,
      "str": 17,
      "mat": 6,
      "rat": 6,
      "def": 10,
      "arm": 19,
      "advantages": [
        "Arc Node",
        "Construct",
        "Immunity: Electricity",
        "Pathfinder"
      ],
      "base size": 120,
      "boxes": {
        "Left": {
          "grid": [
            [
              3,
              1
            ],
            [
              4,
              1
            ],
            [
              5,
              1
            ],
            [
              6,
              1
            ],
            [
              3,
              2
            ],
            [
              4,
              2
            ],
            [
              5,
              2
            ],
            [
              6,
              2
            ],
            [
              3,
              3
            ],
            [
              4,
              3
            ],
            [
              5,
              3
            ],
            [
              6,
              3
            ],
            [
              2,
              4
            ],
            [
              3,
              4
            ],
            [
              4,
              4
            ],
            [
              5,
              4
            ],
            [
              6,
              4
            ],
            [
              2,
              5
            ],
            [
              3,
              5
            ],
            [
              4,
              5
            ],
            [
              5,
              5
            ],
            [
              6,
              5
            ],
            [
              1,
              6
            ],
            [
              2,
              6
            ],
            [
              3,
              6
            ],
            [
              4,
              6
            ],
            [
              5,
              6
            ],
            [
              6,
              6
            ]
          ],
          "systems": [
            {
              "Left Arm": [
                [
                  5,
                  1
                ],
                [
                  6,
                  1
                ],
                [
                  5,
                  2
                ],
                [
                  4,
                  3
                ],
                [
                  4,
                  4
                ]
              ],
              "Cortex": [
                [
                  6,
                  2
                ],
                [
                  5,
                  3
                ],
                [
                  5,
                  4
                ],
                [
                  5,
                  5
                ],
                [
                  4,
                  6
                ],
                [
                  5,
                  6
                ]
              ],
              "Movement": [
                [
                  6,
                  3
                ],
                [
                  6,
                  4
                ],
                [
                  6,
                  5
                ],
                [
                  6,
                  6
                ]
              ],
              "Arc Node": [
                [
                  3,
                  5
                ],
                [
                  5,
                  5
                ],
                [
                  3,
                  6
                ]
              ]
            }
          ]
        },
        "Right": {
          "grid": [
            [
              1,
              1
            ],
            [
              2,
              1
            ],
            [
              3,
              1
            ],
            [
              4,
              1
            ],
            [
              5,
              1
            ],
            [
              6,
              1
            ],
            [
              2,
              2
            ],
            [
              3,
              2
            ],
            [
              4,
              2
            ],
            [
              5,
              2
            ],
            [
              6,
              2
            ],
            [
              2,
              3
            ],
            [
              3,
              3
            ],
            [
              4,
              3
            ],
            [
              5,
              3
            ],
            [
              6,
              3
            ],
            [
              3,
              4
            ],
            [
              4,
              4
            ],
            [
              5,
              4
            ],
            [
              6,
              4
            ],
            [
              3,
              5
            ],
            [
              4,
              5
            ],
            [
              5,
              5
            ],
            [
              6,
              5
            ],
            [
              3,
              6
            ],
            [
              4,
              6
            ],
            [
              5,
              6
            ],
            [
              6,
              6
            ]
          ],
          "systems": [
            {
              "Right Arm": [
                [
                  4,
                  3
                ],
                [
                  4,
                  4
                ],
                [
                  5,
                  5
                ],
                [
                  5,
                  6
                ],
                [
                  6,
                  6
                ]
              ],
              "Cortex": [
                [
                  4,
                  1
                ],
                [
                  5,
                  1
                ],
                [
                  5,
                  2
                ],
                [
                  5,
                  3
                ],
                [
                  5,
                  4
                ],
                [
                  6,
                  5
                ]
              ],
              "Movement": [
                [
                  6,
                  1
                ],
                [
                  6,
                  2
                ],
                [
                  6,
                  3
                ],
                [
                  6,
                  4
                ]
              ],
              "Arc Node": [
                [
                  3,
                  1
                ],
                [
                  3,
                  2
                ],
                [
                  4,
                  2
                ]
              ]
            }
          ]
        }
      },
      "attacks": [
        {
          "attack name": "Storm Emitter",
          "type": "ranged",
          "field of fire": "Left",
          "loc": "L",
          "rng": 12,
          "rof": 1,
          "pow": 16,
          "weapon qualities": [
            "Damage Type: Electrical"
          ],
          "abilities": [
            "Thunder Charge"
          ]
        },
        {
          "attack name": "Storm Emitter",
          "type": "ranged",
          "field of fire": "Right",
          "loc": "R",
          "rng": 12,
          "rof": 1,
          "pow": 16,
          "weapon qualities": [
            "Damage Type: Electrical"
          ],
          "abilities": [
            "Thunder Charge"
          ]
        },
        {
          "attack name": "Cannon",
          "type": "ranged",
          "field of fire": "Left",
          "loc": "L",
          "rng": 14,
          "rof": 1,
          "aoe": 4,
          "pow": 13
        },
        {
          "attack name": "Cannon",
          "type": "ranged",
          "field of fire": "Right",
          "loc": "R",
          "rng": 14,
          "rof": 1,
          "aoe": 4,
          "pow": 13
        },
        {
          "attack name": "Shock Fist",
          "type": "melee",
          "field of fire": "Left",
          "loc": "L",
          "rng": 2,
          "pow": 3,
          "p+s": 20,
          "weapon qualities": [
            "Open Fist"
          ],
          "abilities": [
            "Cortex Damage"
          ]
        },
        {
          "attack name": "Shock Fist",
          "type": "melee",
          "field of fire": "Right",
          "loc": "R",
          "rng": 2,
          "pow": 3,
          "p+s": 20,
          "weapon qualities": [
            "Open Fist"
          ],
          "abilities": [
            "Cortex Damage"
          ]
        }
      ],
      "abilities": [
        "Turbulence"
      ]
    }
  ]
}
