{
  "name": "Ice Troll",
  "edition": 3,
  "revision": "2021 v1",
  "keywords": [
    "Trollblood",
    "Northkin",
    "Light",
    "Warbeast"
  ],
  "point cost": 8,
  "field allowance": "U",
  "models": [
    {
      "model name": "Ice Troll",
      "spd": 5,
      "str": 9,
      "mat": 6,
      "rat": 5,
      "def": 12,
      "arm": 16,
      "cmd": 3,
      "advantages": [
        "Immunity: Cold",
        "Pathfinder"
      ],
      "base size": 40,
      "fury": 3,
      "threshold": 9,
      "boxes": {
        "Spiral 1": 5,
        "Spiral 2": 4,
        "Spiral 3": 5,
        "Spiral 4": 5,
        "Spiral 5": 5,
        "Spiral 6": 4
      },
      "attacks": [
        {
          "attack name": "Thrown Ice Spear",
          "type": "ranged",
          "rng": 10,
          "rof": 1,
          "pow": 13,
          "weapon qualities": [
            "Damage Type: Cold"
          ],
          "abilities": [
            "Critical Freeze",
            "Thrown"
          ]
        },
        {
          "attack name": "Ice Spear",
          "type": "melee",
          "rng": 2,
          "pow": 4,
          "p+s": 13,
          "abilities": [
            "Critical Freeze"
          ]
        }
      ],
      "abilities": [
        "Regeneration [d3]"
      ],
      "animus": "Recoil"
    }
  ]
}
