{
  "name": "Incubus",
  "edition": 3,
  "revision": "2021 v1",
  "keywords": [
    "Legion",
    "Solo"
  ],
  "point cost": 5,
  "field allowance": 3,
  "models": [
    {
      "model name": "Incubus",
      "spd": 6,
      "str": 8,
      "mat": 6,
      "rat": 3,
      "def": 13,
      "arm": 15,
      "cmd": 1,
      "boxes": 1,
      "advantages": [
        "Soulless"
      ],
      "base size": 30,
      "attacks": [
        {
          "attack name": "Claw",
          "type": "melee",
          "rng": 0.5,
          "pow": 3,
          "p+s": 11,
          "abilities": [
            "Combo Strike"
          ]
        },
        {
          "attack name": "Claw",
          "type": "melee",
          "rng": 0.5,
          "pow": 3,
          "p+s": 11,
          "abilities": [
            "Combo Strike"
          ]
        }
      ],
      "abilities": [
        "Host"
      ]
    },
    {
      "model name": "Incubus",
      "spd": 6,
      "str": 8,
      "mat": 6,
      "rat": 3,
      "def": 13,
      "arm": 15,
      "cmd": 1,
      "boxes": 1,
      "advantages": [
        "Soulless"
      ],
      "base size": 30,
      "attacks": [
        {
          "attack name": "Claw",
          "type": "melee",
          "rng": 0.5,
          "pow": 3,
          "p+s": 11,
          "abilities": [
            "Combo Strike"
          ]
        },
        {
          "attack name": "Claw",
          "type": "melee",
          "rng": 0.5,
          "pow": 3,
          "p+s": 11,
          "abilities": [
            "Combo Strike"
          ]
        }
      ],
      "abilities": [
        "Host"
      ]
    },
    {
      "model name": "Incubus",
      "spd": 6,
      "str": 8,
      "mat": 6,
      "rat": 3,
      "def": 13,
      "arm": 15,
      "cmd": 1,
      "boxes": 1,
      "advantages": [
        "Soulless"
      ],
      "base size": 30,
      "attacks": [
        {
          "attack name": "Claw",
          "type": "melee",
          "rng": 0.5,
          "pow": 3,
          "p+s": 11,
          "abilities": [
            "Combo Strike"
          ]
        },
        {
          "attack name": "Claw",
          "type": "melee",
          "rng": 0.5,
          "pow": 3,
          "p+s": 11,
          "abilities": [
            "Combo Strike"
          ]
        }
      ],
      "abilities": [
        "Host"
      ]
    },
    {
      "model name": "Incubus",
      "spd": 6,
      "str": 8,
      "mat": 6,
      "rat": 3,
      "def": 13,
      "arm": 15,
      "cmd": 1,
      "boxes": 1,
      "advantages": [
        "Soulless"
      ],
      "base size": 30,
      "attacks": [
        {
          "attack name": "Claw",
          "type": "melee",
          "rng": 0.5,
          "pow": 3,
          "p+s": 11,
          "abilities": [
            "Combo Strike"
          ]
        },
        {
          "attack name": "Claw",
          "type": "melee",
          "rng": 0.5,
          "pow": 3,
          "p+s": 11,
          "abilities": [
            "Combo Strike"
          ]
        }
      ],
      "abilities": [
        "Host"
      ]
    },
    {
      "model name": "Incubus",
      "spd": 6,
      "str": 8,
      "mat": 6,
      "rat": 3,
      "def": 13,
      "arm": 15,
      "cmd": 1,
      "boxes": 1,
      "advantages": [
        "Soulless"
      ],
      "base size": 30,
      "attacks": [
        {
          "attack name": "Claw",
          "type": "melee",
          "rng": 0.5,
          "pow": 3,
          "p+s": 11,
          "abilities": [
            "Combo Strike"
          ]
        },
        {
          "attack name": "Claw",
          "type": "melee",
          "rng": 0.5,
          "pow": 3,
          "p+s": 11,
          "abilities": [
            "Combo Strike"
          ]
        }
      ],
      "abilities": [
        "Host"
      ]
    }
  ]
}
