{
  "name": "Intercessor Kreoss",
  "edition": 3,
  "revision": "2016 v1",
  "keywords": [
    "Protectorate",
    "Exemplar",
    "Warcaster"
  ],
  "warjack points": 28,
  "field allowance": "C",
  "models": [
    {
      "model name": "Kreoss 3",
      "spd": 8,
      "str": 6,
      "mat": 8,
      "rat": 4,
      "def": 14,
      "arm": 18,
      "focus": 7,
      "cmd": 10,
      "boxes": 18,
      "advantages": [
        "Cavalry"
      ],
      "base size": 50,
      "attacks": [
        {
          "attack name": "Conviction",
          "type": "melee",
          "rng": 2,
          "pow": 8,
          "p+s": 14,
          "weapon qualities": [
            "Blessed",
            "Damage Type: Magical"
          ],
          "abilities": [
            "Brutal Charge"
          ]
        },
        {
          "attack name": "Mount",
          "type": "melee",
          "rng": 0.5,
          "pow": 12
        }
      ],
      "abilities": [
        "Divine Inspiration",
        "Elite Cadre [Exemplar Vengers]",
        "Reposition [3\"]"
      ],
      "feat": {
        "name": "Invocations of the True Law",
        "flavor": "The invocations of the True Law as spoken by Intercessor Kreoss linger and resonate in the air as a holy manifestation of the Creator of Man. Before their truth, enemy glyphs and sigils are purged from existance, while allies of the Intercessor are instilled with righteous wrath and renewed zeal.",
        "text": "Enemy upkeep spells and animi in Kreoss' control range immediately expire. Then Kreoss can immediately cast each of his upkeep spells without spending focus."
      },
      "spells": [
        "Arcane Ward",
        "Assail",
        "Crevasse",
        "Death Sentence",
        "Force Hammer",
        "Ignite"
      ]
    }
  ]
}
