{
  "name": "Janissa Stonetide",
  "edition": 3,
  "revision": "2021 v1",
  "keywords": [
    "Trollblood",
    "Trollkin",
    "Runeshaper",
    "Solo"
  ],
  "point cost": 3,
  "field allowance": "C",
  "models": [
    {
      "model name": "Janissa 1",
      "spd": 5,
      "str": 6,
      "mat": 6,
      "rat": 4,
      "def": 12,
      "arm": 15,
      "cmd": 8,
      "boxes": 8,
      "advantages": [
        "Advance Deploy",
        "Pathfinder",
        "Tough"
      ],
      "base size": 40,
      "attacks": [
        {
          "attack name": "Earthsplitter",
          "type": "melee",
          "rng": 1,
          "pow": 3,
          "p+s": 9,
          "weapon qualities": [
            "Damage Type: Magical"
          ],
          "abilities": [
            "Armor-Piercing (special attack)"
          ]
        }
      ],
      "abilities": [
        "Battle Wizard",
        {
          "Magic Ability [8]": [
            "Raise Earth",
            "Rock Hammer",
            "Tectonic Shift"
          ]
        },
        "Steady",
        "Veteran Leader [Runeshaper]"
      ]
    }
  ]
}
