{
  "name": "Jarl Skuld, Devil of the Thornwood",
  "edition": 3,
  "revision": "2021 v1",
  "keywords": [
    "Trollblood",
    "Trollkin",
    "Warlock"
  ],
  "warbeast points": 30,
  "field allowance": "C",
  "models": [
    {
      "model name": "Skuld 1",
      "spd": 6,
      "str": 6,
      "mat": 5,
      "rat": 7,
      "def": 15,
      "arm": 15,
      "fury": 6,
      "cmd": 8,
      "boxes": 16,
      "advantages": [
        "Gunfighter",
        "Pathfinder",
        "Tough"
      ],
      "base size": 40,
      "attacks": [
        {
          "attack name": "Rune Pistol",
          "type": "ranged",
          "rng": 12,
          "rof": 1,
          "pow": 12,
          "weapon qualities": [
            "Damage Type: Magical"
          ],
          "abilities": [
            "Black Penny"
          ]
        },
        {
          "attack name": "Rune Pistol",
          "type": "ranged",
          "rng": 12,
          "rof": 1,
          "pow": 12,
          "weapon qualities": [
            "Damage Type: Magical"
          ],
          "abilities": [
            "Black Penny"
          ]
        },
        {
          "attack name": "Axe",
          "type": "melee",
          "rng": 0.5,
          "pow": 4,
          "p+s": 10
        }
      ],
      "abilities": [
        "Dodge",
        "Field Marshal [Swift Hunter]",
        "Swift Hunter",
        "Synergistic Magic"
      ],
      "feat": {
        "name": "Rolling Fog",
        "flavor": "The Devil of the Thornwood can summon a sudden dense fog to roll across the battlefield and plunge the enemy into chaos. While foes stumble blindly through choking mist, his allies deftly coordinate their movements to execute a devastating ambush by which even superior forces are annihilated.",
        "text": "Place d3 + 3 4\" AOE cloud effects anywhere completely within Skuld's control range. Rolling Fog AOEs do not block friendly Faction models' LOS. Friendly Faction models that are in a Rolling Fog AOE if they have enough movement to move completely past them. While in one or more Rolling Fog AOEs, living enemy models suffer -2 to attack rolls. Rolling Fog lasts for one round."
      },
      "spells": [
        "Magic Bullet",
        "Quicken",
        "Tactical Supremacy",
        "Weald Secrets"
      ]
    }
  ]
}
