{
  "name": "Kallus, Devastation of Everblight",
  "edition": 3,
  "revision": "2017 v2",
  "keywords": [
    "Legion",
    "Warlock"
  ],
  "warbeast points": 28,
  "field allowance": "C",
  "models": [
    {
      "model name": "Kallus 2",
      "spd": 7,
      "str": 8,
      "mat": 7,
      "rat": 4,
      "def": 13,
      "arm": 18,
      "fury": 6,
      "cmd": 8,
      "boxes": 20,
      "advantages": [
        "Cavalry",
        "Pathfinder",
        "Soulless"
      ],
      "base size": 50,
      "attacks": [
        {
          "attack name": "Hellbrand",
          "type": "melee",
          "rng": 2,
          "pow": 7,
          "p+s": 15,
          "weapon qualities": [
            "Damage Type: Magical"
          ],
          "abilities": [
            "Flame Burst"
          ]
        },
        {
          "attack name": "Mount",
          "type": "mount",
          "rng": 0.5,
          "pow": 14,
          "weapon qualities": [
            "Critical Knockdown"
          ]
        }
      ],
      "abilities": [
        "Field Marshal [Hand of the Dragon]",
        "Hyper-Regeneration",
        "Reposition [3\"]"
      ],
      "feat": {
        "name": "Dragon Breath",
        "flavor": "Kallus unleashes the blighted flames of his creator to turn enemies to ashes and drive his servants onward for the glory of the dragon.",
        "text": "Enemy models currently in Kallus' control range suffering the Fire continuous effect immediately suffer an unboostable POW 12 fire damage roll. While in Kallus' control range, friendly Faction models can charge or power attack slam an enemy model suffering the Fire continuous effect without being forced and gain +3\" of movement when charging or slam power attacking an enemy model suffering the Fire continuous effect. Dragon Breath lasts for one turn."
      },
      "spells": [
        "Battle Lust",
        "Blazing Path",
        "Brand of Fire",
        "Overrun"
      ]
    }
  ]
}
