{
  "name": "Kayazy Assassin Underboss",
  "edition": 3,
  "revision": "2016 v2",
  "keywords": [
    "Mercenary",
    "Command Attachment"
  ],
  "point cost": 4,
  "field allowance": 2,
  "models": [
    {
      "model name": "Underboss",
      "spd": 6,
      "str": 6,
      "mat": 8,
      "rat": 4,
      "def": 13,
      "arm": 12,
      "cmd": 9,
      "boxes": 5,
      "advantages": [
        "Officer",
        "Parry",
        "Stealth",
        "Tough"
      ],
      "base size": 30,
      "attacks": [
        {
          "attack name": "Assassin Blade",
          "type": "melee",
          "rng": 0.5,
          "pow": 4,
          "p+s": 10
        },
        {
          "attack name": "Assassin Blade",
          "type": "melee",
          "rng": 0.5,
          "pow": 4,
          "p+s": 10
        }
      ],
      "abilities": [
        "Attachment [Kayazy Assassins]",
        "Partisan [Khador]",
        "Anatomical Precision",
        "Gang",
        "Kill Stroke",
        "Tactics: Duelist"
      ]
    }
  ]
}
