{
  "name": "Kommander Harkevich, The Iron Wolf",
  "edition": 3,
  "revision": "2016 v1",
  "keywords": [
    "Khador",
    "Warcaster"
  ],
  "warjack points": 28,
  "field allowance": "C",
  "models": [
    {
      "model name": "Harkevich 1",
      "spd": 5,
      "str": 7,
      "mat": 7,
      "rat": 6,
      "def": 14,
      "arm": 16,
      "focus": 6,
      "cmd": 8,
      "boxes": 18,
      "base size": 30,
      "attacks": [
        {
          "attack name": "Hand Cannon",
          "type": "ranged",
          "rng": 12,
          "rof": 1,
          "pow": 12
        },
        {
          "attack name": "Minister",
          "type": "melee",
          "rng": 1,
          "pow": 7,
          "p+s": 14,
          "weapon qualities": [
            "Damage Type: Magical"
          ],
          "abilities": [
            "Stagger"
          ]
        }
      ],
      "abilities": [
        "Field Marshal [Reposition [3\"]]",
        "Iron Sentinel"
      ],
      "feat": {
        "name": "Hour Of The Wolf",
        "flavor": "Kommander Harkevich, the Iron Wolf, advances alongside his warjacks as part of an indomitable pack. His will is so strong that nothing can stand in their way during the Hour of the Wolf. Neither enemy fire nor obstacles can slow him or his warjacks as they drive forward to deliver a perfectly coordinated final assault.",
        "text": "While in Harkevich's control range, models in his battlegroup gain +3 ARM. Models in his battlegroup beginning their activations in his control range can charge or make slam power attacks without spending focus. A model in Harkevich's battlegroup that declares a charge or slam against and enemy model while in his control range can make a basic ranged attack before advancing. Hour of the Wolf lasts for one round."
      },
      "spells": [
        "Bombshell",
        "Broadside",
        "Jumpstart",
        "Mobility"
      ]
    }
  ]
}
