{
  "name": "Kommander Andrei Malakov",
  "edition": 3,
  "revision": "2021 v1",
  "keywords": [
    "Khador",
    "Warcaster"
  ],
  "warjack points": 28,
  "field allowance": "C",
  "models": [
    {
      "model name": "Malkov 2",
      "spd": 6,
      "str": 6,
      "mat": 7,
      "rat": 6,
      "def": 16,
      "arm": 14,
      "focus": 6,
      "cmd": 8,
      "boxes": 16,
      "base size": 30,
      "attacks": [
        {
          "attack name": "Hand Cannon",
          "type": "ranged",
          "rng": 12,
          "rof": 1,
          "pow": 12
        },
        {
          "attack name": "Evangeline",
          "type": "melee",
          "rng": 0.5,
          "pow": 6,
          "p+s": 12,
          "weapon qualities": [
            "Damage Type: Magical"
          ]
        }
      ],
      "abilities": [
        {
          "Battle Plan": [
            "Fighting Dirty",
            "Sneak",
            "Throat Cutter"
          ]
        },
        "Sucker!"
      ],
      "feat": {
        "name": "Poison Pill",
        "flavor": "Malakov weaves his devious tactical acumen together with his reserves of arcane poewr into a final desperate gambit. The warjacks under his control surge forward, turning the momentum of their enemies's attacks against them.",
        "text": "When a friendly non-battle engine Faction model suffers damage from an enemy attack while in Malakov's control range at any time except while it is advancing, after the attack is resolve the damaged model can immediately make a full advance. Additionally, while in Malakov's control range, friendly Faction models gain Parry and cannot become knocked down. Poison Pill lasts for one round."
      },
      "spells": [
        "Escort",
        "Open Fire",
        "Discombobulate",
        "Tactical Supremacy",
        "Veil of Mists"
      ]
    }
  ]
}
