{
  "name": "Kriel Warrior Caber Thrower",
  "edition": 3,
  "revision": "2021 v1",
  "keywords": [
    "Trollblood",
    "Trollkin",
    "Weapon Attachment"
  ],
  "point cost": 2,
  "field allowance": "U",
  "models": [
    {
      "model name": "Thrower",
      "spd": 5,
      "str": 6,
      "mat": 5,
      "rat": 4,
      "def": 12,
      "arm": 15,
      "cmd": 8,
      "boxes": 1,
      "advantages": [
        "Tough"
      ],
      "base size": 40,
      "attacks": [
        {
          "attack name": "Caber",
          "type": "melee",
          "rng": 2,
          "pow": 8,
          "p+s": 14,
          "abilities": [
            "Momentum",
            "Single Shot"
          ]
        }
      ],
      "abilities": [
        "Attachment [Krield Warrior]",
        "Carapace",
        "Easy Target",
        "Mobile Cover",
        "Take Up",
        "Unyielding"
      ]
    }
  ]
}
