{
  "name": "Lady Karianna Rose",
  "edition": 3,
  "revision": "2021 v1",
  "keywords": [
    "Grymkin",
    "Solo"
  ],
  "point cost": 3,
  "field allowance": "C",
  "models": [
    {
      "model name": "Lady Rose 1",
      "spd": 6,
      "str": 5,
      "mat": 5,
      "rat": 4,
      "def": 13,
      "arm": 12,
      "cmd": 8,
      "boxes": 5,
      "base size": 30,
      "attacks": [
        {
          "attack name": "Dagger",
          "type": "melee",
          "rng": 0.5,
          "pow": 2,
          "p+s": 7
        }
      ],
      "abilities": [
        "Ancillary Attack",
        "Enrage",
        "Shepherd's Call",
        "Sorrowful Rampage"
      ]
    }
  ]
}
