{
  "name": "Lady Aiyana & Master Holt",
  "edition": 3,
  "revision": "2022 v1",
  "keywords": [
    "Mercenary",
    "Privateer",
    "Unit"
  ],
  "unit size": [
    {
      "only": [
        {
          "Lady Aiyana": 1
        },
        {
          "Master Holt": 1
        },
        {
          "point cost": 7
        }
      ]
    }
  ],
  "field allowance": "C",
  "models": [
    {
      "model name": "Aiyana 1",
      "spd": 6,
      "str": 4,
      "mat": 4,
      "rat": 4,
      "def": 14,
      "arm": 11,
      "cmd": 6,
      "boxes": 5,
      "advantages": [
        "Officer"
      ],
      "base size": 30,
      "abilities": [
        {
          "Mercenaries": [
            "Cygnar",
            "Khador",
            "Protectorate",
            "Retribution"
          ]
        },
        {
          "Magic Ability [7]": [
            "Ayisla's Veil",
            "Kiss of Lyliss",
            "Sigil of Power"
          ]
        }
      ]
    },
    {
      "model name": "Holt 1",
      "spd": 6,
      "str": 5,
      "mat": 5,
      "rat": 8,
      "def": 14,
      "arm": 11,
      "cmd": 6,
      "boxes": 5,
      "base size": 30,
      "attacks": [
        {
          "attack name": "Hand Cannon",
          "type": "ranged",
          "rng": 12,
          "rof": 1,
          "pow": 12
        },
        {
          "attack name": "Hand Cannon",
          "type": "ranged",
          "rng": 12,
          "rof": 1,
          "pow": 12
        },
        {
          "attack name": "Gun Blade",
          "type": "melee",
          "rng": 0.5,
          "pow": 3,
          "p+s": 8
        },
        {
          "attack name": "Gun Blade",
          "type": "melee",
          "rng": 0.5,
          "pow": 3,
          "p+s": 8
        }
      ],
      "abilities": [
        "Dual Attack",
        "Quick Draw"
      ]
    }
  ]
}
