{
  "name": "Lantern Man",
  "edition": 3,
  "revision": "2017 v1",
  "keywords": [
    "Grymkin",
    "Command Attachment"
  ],
  "point cost": 3,
  "field allowance": 2,
  "models": [
    {
      "model name": "Lantern Man",
      "spd": 5,
      "str": 6,
      "mat": 5,
      "rat": 4,
      "def": 12,
      "arm": 12,
      "cmd": 7,
      "boxes": 5,
      "advantages": [
        "Eyeless Sight",
        "Officer"
      ],
      "base size": 30,
      "abilities": [
        "Attachment [Hollowmen]",
        "Apparition",
        "Granted: Blood-Bound",
        {
          "Magic Ability [6]": [
            "Ghost Light",
            "Obscuring Mist"
          ]
        }
      ]
    }
  ]
}
