{
  "name": "Ledfoot & Tredz",
  "edition": 3,
  "revision": "2019 v1",
  "keywords": [
    "Minion",
    "Pyg",
    "Pyg Tank",
    "Solo"
  ],
  "point cost": 7,
  "field allowance": "C",
  "models": [
    {
      "model name": "Ledfoot & Tredz 1",
      "spd": 6,
      "str": 8,
      "mat": 6,
      "rat": 7,
      "def": 12,
      "arm": 18,
      "cmd": 8,
      "boxes": 12,
      "advantages": [
        "Construct",
        "Pathfinder"
      ],
      "base size": 50,
      "attacks": [
        {
          "attack name": "Snub Nosed Cannon",
          "type": "ranged",
          "rng": 10,
          "rof": 1,
          "aoe": 3,
          "pow": 14,
          "abilities": [
            "Arcing Fire",
            "Trash"
          ]
        },
        {
          "attack name": "Tank Treads",
          "type": "melee",
          "rng": 0.5,
          "pow": 5,
          "p+s": 13,
          "abilities": [
            "Knockdown"
          ]
        }
      ],
      "abilities": [
        {
          "Minion": [
            "Trollbloods"
          ]
        },
        "Partisan [Trollbloods]",
        "Bulldoze",
        "Point-Blank",
        "Reposition [3\"]",
        "Ride Along",
        "Steady",
        "Veteran Leader [Pyg Tank]"
      ]
    }
  ]
}
