{
  "name": "Lich Lord Asphyxious",
  "edition": 3,
  "revision": "2021 v1",
  "keywords": [
    "Cryx",
    "Warcaster"
  ],
  "warjack points": 28,
  "field allowance": "C",
  "models": [
    {
      "model name": "Asphyxious 2",
      "spd": 5,
      "str": 7,
      "mat": 6,
      "rat": 3,
      "def": 15,
      "arm": 16,
      "focus": 7,
      "cmd": 8,
      "boxes": 18,
      "advantages": [
        "Undead"
      ],
      "base size": 40,
      "attacks": [
        {
          "attack name": "Daeamortus",
          "type": "melee",
          "rng": 2,
          "pow": 8,
          "p+s": 15,
          "weapon qualities": [
            "Damage Type: Magical"
          ]
        }
      ],
      "abilities": [
        "Soul Reaper",
        "Soul Taker: Cull Soul"
      ],
      "feat": {
        "name": "Spectral Legion",
        "flavor": "Calling on his powers of necromancy, Lich Lord Asphyxious beckons forth his former servantsfor one last sally against his enemies. A ghostly horde of tireless spirits carry out the lich lord's nefarious will.",
        "text": "Return up to d3+5 destroyed small- or medium-based Grunts that were part of a friendly Faction unit to play, placing them completely within 3\" of Asphyxious. Returned models gain Undead and Ghostly, become solos, and cannot be attacked or damaged for one turn. Returned models must charge during their activations and leave play at the end of the turn."
      },
      "spells": [
        "Caustic Mist",
        "Death Knell",
        "Excarnate",
        "Hellbound",
        "Parasite",
        "Teleport"
      ]
    }
  ]
}
