{
  "name": "Lieutenant Bastian Falk",
  "edition": 3,
  "revision": "2021 v1",
  "keywords": [
    "Cygnar",
    "Arcane Tempest",
    "Gun Mage",
    "Solo"
  ],
  "point cost": 3,
  "field allowance": "C",
  "models": [
    {
      "model name": "Falk 1",
      "spd": 6,
      "str": 6,
      "mat": 6,
      "rat": 7,
      "def": 15,
      "arm": 12,
      "cmd": 7,
      "boxes": 5,
      "advantages": [
        "Gunfighter",
        "Pathfinder"
      ],
      "base size": 30,
      "attacks": [
        {
          "attack name": "Magelock Scattergun",
          "type": "ranged",
          "rng": "SP 8",
          "rof": 1,
          "pow": 12,
          "weapon qualities": [
            "Damage Type: Magical"
          ],
          "abilities": [
            {
              "Attack Type": [
                "Hail Fire",
                "Incendiary",
                "Rune-Marked"
              ]
            }
          ]
        },
        {
          "attack name": "Sword",
          "type": "melee",
          "rng": 0.5,
          "pow": 3,
          "p+s": 9
        }
      ],
      "abilities": [
        "Prowl",
        "Reciprocate",
        "Run & Gun"
      ]
    }
  ]
}
