{
  "name": "Lord Carver, BMMD, Esq. III",
  "edition": 3,
  "revision": "2016 v2",
  "keywords": [
    "Minion",
    "Farrow",
    "Warlock"
  ],
  "warbeast points": 28,
  "field allowance": "C",
  "models": [
    {
      "model name": "Carver 1",
      "spd": 6,
      "str": 8,
      "mat": 7,
      "rat": 6,
      "def": 15,
      "arm": 17,
      "fury": 6,
      "cmd": 9,
      "boxes": 17,
      "advantages": [
        "Tough"
      ],
      "base size": 30,
      "attacks": [
        {
          "attack name": "Sawed-Off Scattergun",
          "type": "ranged",
          "rng": "SP 6",
          "rof": 2,
          "pow": 12,
          "abilities": [
            "Both Barrels"
          ]
        },
        {
          "attack name": "Hand of God",
          "type": "melee",
          "rng": 2,
          "pow": 7,
          "p+s": 15,
          "weapon qualities": [
            "Damage Type: Magical"
          ]
        }
      ],
      "abilities": [
        {
          "Minion": [
            "Circle",
            "Legion",
            "Skorne",
            "Trollbloods"
          ]
        },
        "Farrow Warlock",
        "Veteran Leader [Farrow Warrior]"
      ],
      "feat": {
        "name": "Hog Heaven",
        "flavor": "Lord Carver's ambition is boundless and his rage is beyond comprehension. With a bellow he can instill in his followers a share of his devastating power. Their voracious natural appetite for destruction and violence stirs them to untold savagery.",
        "text": "While in Carver's control range, friendly Farrow models gain Overtake and an additional die on melee damage rolls. Hog Heaven lasts for one turn."
      },
      "spells": [
        "Batten Down The Hatches",
        "Mobility",
        "Quagmire",
        "Rift"
      ]
    }
  ]
}
