{
  "name": "Lord Ghyrrshyld, the Forgiven",
  "edition": 3,
  "revision": "2018 v1",
  "keywords": [
    "Retribution",
    "Vyre",
    "Warcaster"
  ],
  "warjack points": 28,
  "field allowance": "C",
  "models": [
    {
      "model name": "Goreshade 4",
      "spd": 6,
      "str": 7,
      "mat": 7,
      "rat": 4,
      "def": 15,
      "arm": 16,
      "focus": 7,
      "cmd": 8,
      "boxes": 17,
      "advantages": [
        "Immunity: Cold"
      ],
      "base size": 40,
      "attacks": [
        {
          "attack name": "Voass",
          "type": "melee",
          "rng": 2,
          "pow": 8,
          "p+s": 15,
          "weapon qualities": [
            "Damage Type: Magical"
          ],
          "abilities": [
            "Freeze"
          ]
        }
      ],
      "abilities": [
        "Arcane Vortex",
        "Field Marshal [Arcane Vortex [focus point]]"
      ],
      "feat": {
        "name": "Whispers of the Veld",
        "flavor": "Lord Ghyrrshyld proves his standing as the Forgiven in every battle he fights to avenge the elven gods. His very presence ushers souls of the falled to the Veld, and in their passing, his power grows. Those guilty of harming Ghyrrshyld's allies are haunted by vengeful whispers of the slain, standing frozen in terror and made vulnerable to retribution.",
        "text": "When an enemy model without Immunity: Cold destroys or removes from plapy one or more friendly models in Ghyrrsyld's control range with a melee attack, the enemy model becomes stationary for one round after the attack is resolved. Additionally, when a friendly living Faction warrior model is destroyed by an enemy attack while in Ghyrrshyld's control range, Ghyrrshyld gains the destroyed model's soul token. After Ghrrshyld replensishes his focus during your next Control Phase, replace each soul token on him with 1 focus point, then Whispers of the Veld expires."
      },
      "spells": [
        "Dauntless Resolve",
        "Freezing Mist",
        "Ghost Walk",
        "Hand of Ice",
        "Light of Wrath",
        "Revive"
      ]
    }
  ]
}
