{
  "name": "Lord of the Feast",
  "edition": 3,
  "revision": "2021 v1",
  "keywords": [
    "Circle",
    "Solo"
  ],
  "point cost": 5,
  "field allowance": "C",
  "models": [
    {
      "model name": "Lord of the Feast 1",
      "spd": 6,
      "str": 8,
      "mat": 8,
      "rat": 7,
      "def": 12,
      "arm": 16,
      "cmd": 3,
      "boxes": 8,
      "advantages": [
        "Advance Deploy",
        "Pathfinder",
        "Stealth"
      ],
      "base size": 30,
      "attacks": [
        {
          "attack name": "Raven",
          "type": "ranged",
          "rng": 8,
          "rof": 1,
          "abilities": [
            "Shifter"
          ]
        },
        {
          "attack name": "Wurmblade",
          "type": "melee",
          "rng": 1,
          "pow": 5,
          "p+s": 13,
          "weapon qualities": [
            "Damage Type: Magical"
          ],
          "abilities": [
            "Blood Reaper",
            "Grievous Wounds"
          ]
        }
      ],
      "abilities": [
        "Death Feast",
        "Death-Powered",
        "Dual Attack",
        "Heart Eater"
      ]
    }
  ]
}
