{
  "name": "Lord Arcanist Ossyan",
  "edition": 3,
  "revision": "2017 v1",
  "keywords": [
    "Retribution",
    "Vyre",
    "Warcaster"
  ],
  "warjack points": 28,
  "field allowance": "C",
  "models": [
    {
      "model name": "Ossyan 1",
      "spd": 6,
      "str": 5,
      "mat": 5,
      "rat": 6,
      "def": 15,
      "arm": 15,
      "focus": 7,
      "cmd": 8,
      "boxes": 16,
      "base size": 30,
      "attacks": [
        {
          "attack name": "Chronophage Cannon",
          "type": "ranged",
          "rng": 12,
          "rof": 1,
          "pow": 13,
          "weapon qualities": [
            "Damage Type: Magical"
          ],
          "abilities": [
            "Temporal Distortion"
          ]
        },
        {
          "attack name": "Locus",
          "type": "melee",
          "rng": 1,
          "pow": 6,
          "p+s": 11,
          "weapon qualities": [
            "Damage Type: Magical"
          ],
          "abilities": [
            "Dispel"
          ]
        }
      ],
      "abilities": [
        "Field Marshal [Future Sight]",
        "Future Sight"
      ],
      "feat": {
        "name": "Gravity Well",
        "flavor": "Lord Arcanist Ossyan taps into the vast lore of House Vyre to bend natural laws to his will. Shaping gravity with consummate skill, he transforms his enemies into magnets for incoming fire while their own feeble projectiles are deflected to land far from the intended targets.",
        "text": "When an enemy model in Ossyan's control range makes a ranged attack damage roll, it rolls one fewer die. When a friendly Faction model makes a ranged attack damage roll against an enemy model in Ossyan's control range, it gains an additional die on the roll. Gravity Well lasts for one round."
      },
      "spells": [
        "Admonition",
        "Arcantrik Bolt",
        "Fortune",
        "Quicken",
        "Shatter Storm"
      ]
    }
  ]
}
