{
  "name": "Lord Roget D'Vyaros",
  "edition": 3,
  "revision": "2019 v1",
  "keywords": [
    "Infernal",
    "Solo"
  ],
  "point cost": 4,
  "field allowance": "C",
  "models": [
    {
      "model name": "D'Vyaros 1",
      "spd": 6,
      "str": 5,
      "mat": 5,
      "rat": 4,
      "def": 13,
      "arm": 12,
      "cmd": 10,
      "boxes": 5,
      "base size": 30,
      "attacks": [
        {
          "attack name": "Black Iron Blade",
          "type": "melee",
          "rng": 0.5,
          "pow": 5,
          "p+s": 10,
          "weapon qualities": [
            "Damage Type: Magical"
          ]
        }
      ],
      "abilities": [
        "Attached",
        {
          "Magic Ability [7]": [
            "Harmonious Exaltation",
            "Spell Slave"
          ]
        },
        "Marked Soul",
        "Willing Vessel"
      ]
    }
  ]
}
