{
  "name": "Lylyth, Reckoning of Everblight",
  "edition": 3,
  "revision": "2016 v1",
  "keywords": [
    "Legion",
    "Blighted",
    "Nyss",
    "Battle Engine",
    "Warlock"
  ],
  "warbeast points": 29,
  "field allowance": "C",
  "models": [
    {
      "model name": "Lylyth 3",
      "spd": 9,
      "str": 8,
      "mat": 6,
      "rat": 8,
      "def": 15,
      "arm": 16,
      "fury": 5,
      "cmd": 8,
      "boxes": 18,
      "advantages": [
        "Cavalry",
        "Eyeless Sight",
        "Pathfinder"
      ],
      "base size": 120,
      "attacks": [
        {
          "attack name": "Whisper",
          "type": "ranged",
          "rng": 12,
          "rof": 3,
          "pow": 12,
          "weapon qualities": [
            "Damage Type: Magical"
          ],
          "abilities": [
            "Blood Boon",
            "Rear Attack"
          ]
        },
        {
          "attack name": "Mount",
          "type": "mount",
          "rng": 0.5,
          "pow": 12,
          "abilities": [
            "Trampling Hooves"
          ]
        }
      ],
      "abilities": [
        "Dual Attack",
        "Repairable",
        "Reposition [5\"]",
        "Treshing Blades",
        "Trample Power Attack"
      ],
      "feat": {
        "name": "The Reaping",
        "flavor": "Lylyth can harnass the blighted energies of Everblight to leech the warmth from her enemies and replace it with the cold touch of imminent death. Guided by the attacks of her allies, this power renders her enemies helpless before the Legion's slaughterous advance.",
        "text": "When an enemy model is directly hit by a ranged attack made by a friendly Faction model while the friendly Faction model is in Lylyth's control range, the enemy model becomes stationary for one round. The Reaping lasts for one turn."
      },
      "spells": [
        "Battle Host",
        "Frost Hammer",
        "Wind Wall"
      ]
    }
  ]
}
