{
  "name": "Mage Hunter Strike Force",
  "edition": 3,
  "revision": "2021 v1",
  "keywords": [
    "Retribution",
    "Unit"
  ],
  "unit size": [
    {
      "min": [
        {
          "Leader": 1
        },
        {
          "Grunts": 5
        },
        {
          "point cost": 10
        }
      ]
    },
    {
      "max": [
        {
          "Leader": 1
        },
        {
          "Grunts": 9
        },
        {
          "point cost": 16
        }
      ]
    }
  ],
  "field allowance": 2,
  "models": [
    {
      "model name": "Leader & Grunts",
      "spd": 6,
      "str": 5,
      "mat": 6,
      "rat": 6,
      "def": 14,
      "arm": 11,
      "cmd": 8,
      "boxes": 1,
      "advantages": [
        "Advance Deploy",
        "Combined Melee Attack",
        "Combined Ranged Attack",
        "Pathfinder",
        "Stealth"
      ],
      "base size": 30,
      "attacks": [
        {
          "attack name": "Crossbow",
          "type": "ranged",
          "rng": 12,
          "rof": 1,
          "pow": 10,
          "weapon qualities": [
            "Blessed",
            "Damage Type: Magical"
          ]
        },
        {
          "attack name": "Saber",
          "type": "melee",
          "rng": 0.5,
          "pow": 4,
          "p+s": 9,
          "weapon qualities": [
            "Blessed"
          ]
        }
      ],
      "abilities": [
        "Jack Hunter"
      ]
    }
  ]
}
