{
  "name": "Magnus The Traitor",
  "edition": 3,
  "revision": "2016 v1",
  "keywords": [
    "Mercenary",
    "Warcaster"
  ],
  "warjack points": 30,
  "field allowance": "C",
  "models": [
    {
      "model name": "Magnus 1",
      "spd": 5,
      "str": 6,
      "mat": 7,
      "rat": 6,
      "def": 14,
      "arm": 17,
      "focus": 6,
      "cmd": 9,
      "boxes": 17,
      "base size": 30,
      "attacks": [
        {
          "attack name": "Scattergun",
          "type": "ranged",
          "rng": "SP 8",
          "rof": 1,
          "pow": 12
        },
        {
          "attack name": "Foecleaver",
          "type": "melee",
          "rng": 1,
          "pow": 7,
          "p+s": 13,
          "weapon qualities": [
            "Damage Type: Magical"
          ],
          "abilities": [
            "Powerful Attack"
          ]
        },
        {
          "attack name": "Mechanikal Arm",
          "type": "melee",
          "rng": 0.5,
          "pow": 5,
          "p+s": 11,
          "abilities": [
            "Knockdown"
          ]
        }
      ],
      "abilities": [
        {
          "Mercenary": [
            "Cryx",
            "Khador",
            "Protectorate"
          ]
        },
        "Backstab",
        "Feign Death",
        "Repair [d3 + 1]",
        "Resourceful"
      ],
      "feat": {
        "name": "Hit & Run",
        "flavor": "Driven to acts of reckless courage, Magnus has learned that constant motion is the key to maintaining the initiative. By overextending his warjacks in combat, he can close in, attack, and then distance himself from an enemy while exploiting his foes' inability to adapt to the changing tides of battle.",
        "text": "Models in Magnus' battlegroup currently in his control range can make a full advance or run after all friendly models have completed their activations this turn. Warjacks do not have to spend focus to run during this movement. Additionally, while in Magnus' control range, models in his battlegroup gain Parry. Hit & Run lasts for one turn."
      },
      "spells": [
        "Arcantrik Bolt",
        "Blur",
        "Death Ward",
        "Iron Aggression",
        "Scourge",
        "Snipe"
      ]
    }
  ]
}
