{
  "name": "Major Aline Benett",
  "edition": 3,
  "revision": "2020 v1",
  "keywords": [
    "Crucible Guard",
    "Rocketman",
    "Warcaster"
  ],
  "warjack points": 28,
  "field allowance": "C",
  "models": [
    {
      "model name": "Benett 1",
      "spd": 8,
      "str": 6,
      "mat": 5,
      "rat": 7,
      "def": 17,
      "arm": 14,
      "focus": 6,
      "cmd": 9,
      "boxes": 16,
      "advantages": [
        "Flight",
        "Gunfighter"
      ],
      "base size": 40,
      "attacks": [
        {
          "attack name": "Flame Thrower",
          "type": "ranged",
          "rng": "SP 8",
          "rof": 1,
          "pow": 12,
          "weapon qualities": [
            "Continuous Effect: Fire",
            "Damage Type: Fire"
          ],
          "abilities": [
            "Both Barrels"
          ]
        }
      ],
      "abilities": [
        "Dodge",
        "Elite Cadre [Rocketman]",
        "Flying High",
        "Reposition [5\"]"
      ],
      "feat": {
        "name": "Air Support",
        "flavor": "During her many years serving as a rocketman, Major Benett has learned the value of having armed friends hiding the clouds -- enemy soldiers expect ambushes from the trees, not the skies. Using her arcane power, Benett conceals a squad of rocketmen from above the battlefield, hiding them in plain sight even on clear days. When the time comes, she gives a signal to her compatriots above to join the fray, catching her foes off guard as she and her allies rain death from above.",
        "text": "Put a unit of Crucible Guard Rocketmen (one Leader and five Grunts) and a Rocketman Ace into play. Place each model completely within 3\" of Benett."
      },
      "spells": [
        "Arcane Propulsion",
        "Down Range",
        "Occultation",
        "Raid",
        "Wind Burst"
      ]
    }
  ]
}
