{
  "name": "Malvin, Revenge Artist",
  "edition": 3,
  "revision": "2021 v1",
  "keywords": [
    "Mercenary",
    "Minion",
    "Gobber",
    "Solo"
  ],
  "point cost": 5,
  "field allowance": "C",
  "models": [
    {
      "model name": "Malvin 2",
      "spd": 6,
      "str": 4,
      "mat": 4,
      "rat": 6,
      "def": 14,
      "arm": 14,
      "cmd": 8,
      "boxes": 5,
      "advantages": [
        "Gunfighter",
        "Immunity: Cold"
      ],
      "base size": 30,
      "attacks": [
        {
          "attack name": "Frost Gun",
          "type": "ranged",
          "rng": 8,
          "rof": 1,
          "aoe": 3,
          "pow": 12,
          "weapon qualities": [
            "Damage Type: Cold",
            "Damage Type: Magical"
          ],
          "abilities": [
            "Freeze",
            "Range Modulator"
          ]
        }
      ],
      "abilities": [
        "Mastermind [Gobber]",
        "Creeper",
        "Freezer",
        "Hazard Suit"
      ]
    }
  ]
}
