{
  "name": "Man-O-War Demolition Corps",
  "edition": 3,
  "revision": "2021 v1",
  "keywords": [
    "Khador",
    "Unit"
  ],
  "unit size": [
    {
      "min": [
        {
          "Leader": 1
        },
        {
          "Grunts": 2
        },
        {
          "point cost": 7
        }
      ]
    },
    {
      "max": [
        {
          "Leader": 1
        },
        {
          "Grunts": 4
        },
        {
          "point cost": 12
        }
      ]
    }
  ],
  "field allowance": 3,
  "models": [
    {
      "model name": "Leader & Grunts",
      "spd": 4,
      "str": 9,
      "mat": 7,
      "rat": 5,
      "def": 10,
      "arm": 16,
      "cmd": 7,
      "boxes": [
        {
          "Model A": 8
        },
        {
          "Model B": 8
        },
        {
          "Model C": 8
        },
        {
          "Model D": 8
        },
        {
          "Model E": 8
        }
      ],
      "base size": 40,
      "attacks": [
        {
          "attack name": "Ice Maul",
          "type": "melee",
          "rng": 2,
          "pow": 7,
          "p+s": 16,
          "abilities": [
            "Critical Freeze",
            "Shatter"
          ]
        }
      ],
      "abilities": [
        "Repairable"
      ]
    }
  ]
}
