{
  "name": "Man-O-War Drakhun",
  "edition": 3,
  "revision": "2021 v1",
  "keywords": [
    "Khador",
    "Dragoon",
    "Solo"
  ],
  "point cost": 8,
  "field allowance": 2,
  "models": [
    {
      "model name": "Drakhun (Mounted)",
      "spd": 7,
      "str": 9,
      "mat": 8,
      "rat": 6,
      "def": 10,
      "arm": 18,
      "cmd": 7,
      "boxes": 10,
      "advantages": [
        "Cavalry"
      ],
      "base size": 50,
      "attacks": [
        {
          "attack name": "Shield Cannon",
          "type": "ranged",
          "rng": 6,
          "rof": 1,
          "pow": 14,
          "weapon qualities": [
            "Shield"
          ]
        },
        {
          "attack name": "Annihilator Blade",
          "type": "melee",
          "rng": 2,
          "pow": 5,
          "p+s": 14,
          "weapon qualities": [
            "Weapon Master"
          ]
        },
        {
          "attack name": "Mount",
          "type": "mount",
          "rng": 0.5,
          "pow": 14,
          "abilities": [
            "Critical Knockdown"
          ]
        }
      ],
      "abilities": [
        "Countercharge",
        "Repairable",
        "Reposition [3\"]",
        "Steady"
      ]
    },
    {
      "model name": "Drakhun (Dismounted)",
      "spd": 4,
      "str": 9,
      "mat": 8,
      "rat": 6,
      "def": 10,
      "arm": 16,
      "cmd": 7,
      "boxes": 8,
      "base size": 40,
      "attacks": [
        {
          "attack name": "Shield Cannon",
          "type": "ranged",
          "rng": 6,
          "rof": 1,
          "pow": 14,
          "weapon qualities": [
            "Shield"
          ]
        },
        {
          "attack name": "Annihilator Blade",
          "type": "melee",
          "rng": 2,
          "pow": 5,
          "p+s": 14,
          "weapon qualities": [
            "Weapon Master"
          ]
        }
      ],
      "abilities": [
        "Repairable"
      ]
    }
  ]
}
