{
  "name": "Meat Thresher",
  "edition": 3,
  "revision": "2019 v1",
  "keywords": [
    "Minion",
    "Farrow",
    "Battle Engine"
  ],
  "point cost": 16,
  "field allowance": 2,
  "models": [
    {
      "model name": "Meat Thresher",
      "spd": 6,
      "str": 12,
      "mat": 6,
      "rat": 5,
      "def": 10,
      "arm": 19,
      "cmd": 10,
      "boxes": 36,
      "advantages": [
        "Construct",
        "Pathfinder"
      ],
      "base size": 120,
      "attacks": [
        {
          "attack name": "Hailer",
          "type": "ranged",
          "rng": 12,
          "rof": "d3 + 1",
          "pow": 13,
          "abilities": [
            "Volume Fire"
          ]
        },
        {
          "attack name": "Crusher",
          "type": "melee",
          "rng": 1,
          "pow": 4,
          "p+s": 16,
          "abilities": [
            "Grinding Wheel",
            "High-Impact",
            "Knockdown",
            "Trash"
          ]
        }
      ],
      "abilities": [
        {
          "Minion": [
            "Circle",
            "Legion",
            "Skorne",
            "Trollbloods"
          ]
        },
        "Bulldoze",
        "Dual Attack",
        "Exhaust Fumes",
        "Turn Up The Heat"
      ]
    }
  ]
}
