{
  "name": "Medium Phantasm",
  "edition": 3,
  "revision": "2019 v2",
  "keywords": [
    "Grymkin",
    "Solo"
  ],
  "models": [
    {
      "model name": "Medium Phantasm",
      "spd": 6,
      "str": 7,
      "mat": 3,
      "rat": 3,
      "def": 12,
      "arm": 16,
      "cmd": 1,
      "boxes": 5,
      "advantages": [
        "Soulless"
      ],
      "base size": 40,
      "abilities": [
        "Annoyance",
        "Channeler [Friendly Faction Warlock]",
        "Created"
      ]
    }
  ]
}
