{
  "name": "Menite Archon",
  "edition": 3,
  "revision": "2019 v1",
  "keywords": [
    "Mercenary",
    "Solo"
  ],
  "point cost": 8,
  "field allowance": 2,
  "models": [
    {
      "model name": "Archon",
      "spd": 6,
      "str": 9,
      "mat": 8,
      "rat": 3,
      "def": 13,
      "arm": 19,
      "cmd": 10,
      "boxes": 15,
      "advantages": [
        "Immunity: Fire",
        "Flight"
      ],
      "base size": 50,
      "attacks": [
        {
          "attack name": "Blazing Sword",
          "type": "melee",
          "rng": 2,
          "pow": 6,
          "p+s": 15,
          "weapon qualities": [
            "Continuous Effect: Fire",
            "Damage Type: Magical"
          ],
          "abilities": [
            "Dispel"
          ]
        },
        {
          "attack name": "Flail",
          "type": "melee",
          "rng": 2,
          "pow": 4,
          "p+s": 13,
          "weapon qualities": [
            "Chain Weapon",
            "Continuous Effect: Fire",
            "Damage Type: Magical"
          ],
          "abilities": [
            "Grievous Wounds",
            "Thresher"
          ]
        }
      ],
      "abilities": [
        {
          "Mercenary": [
            "Khador",
            "Protectorate"
          ]
        },
        "Partisan [Protectorate]",
        "Animosity [Morrowan or Thamarite Models]",
        "Ashen Veil",
        "Divine Inspiration",
        "Divine Manifestation",
        "Fuel For The Flames",
        "Righteous Fury",
        "Soul Ward",
        "Swift Vengeance"
      ]
    }
  ]
}
