{
  "name": "Mortitheurge Willbreaker",
  "edition": 3,
  "revision": "2021 v1",
  "keywords": [
    "Skorne",
    "Solo"
  ],
  "point cost": 2,
  "field allowance": 2,
  "models": [
    {
      "model name": "Mortitheurge",
      "spd": 6,
      "str": 5,
      "mat": 5,
      "rat": 4,
      "def": 13,
      "arm": 13,
      "cmd": 9,
      "boxes": 5,
      "base size": 30,
      "abilities": [
        "Beast Master",
        {
          "Magic Ability [7]": [
            "Flesh-Hardening",
            "Influence",
            "Puppet Master"
          ]
        }
      ]
    }
  ]
}
