{
  "name": "Necrotech",
  "edition": 3,
  "revision": "2021 v1",
  "keywords": [
    "Cryx",
    "Solo"
  ],
  "point cost": 1,
  "field allowance": 3,
  "models": [
    {
      "model name": "Necrotech",
      "spd": 5,
      "str": 6,
      "mat": 6,
      "rat": 3,
      "def": 12,
      "arm": 13,
      "cmd": 7,
      "boxes": 5,
      "advantages": [
        "Undead"
      ],
      "base size": 40,
      "attacks": [
        {
          "attack name": "Vise Claw",
          "type": "melee",
          "rng": 2,
          "pow": 4,
          "p+s": 10
        }
      ],
      "abilities": [
        "Create Scrap Thrall",
        "Repair [d6]",
        "Spare Parts",
        "Steady"
      ]
    }
  ]
}
