{
  "name": "Nephilim Soldier",
  "edition": 3,
  "revision": "2021 v1",
  "keywords": [
    "Legion",
    "Light",
    "Warbeast"
  ],
  "point cost": 7,
  "field allowance": "U",
  "models": [
    {
      "model name": "Soldier",
      "spd": 6,
      "str": 8,
      "mat": 7,
      "rat": 3,
      "def": 13,
      "arm": 16,
      "cmd": 5,
      "advantages": [
        "Eyeless Sight",
        "Flight"
      ],
      "base size": 40,
      "fury": 3,
      "threshold": 10,
      "boxes": {
        "Spiral 1": 5,
        "Spiral 2": 5,
        "Spiral 3": 5,
        "Spiral 4": 4,
        "Spiral 5": 5,
        "Spiral 6": 4
      },
      "attacks": [
        {
          "attack name": "Two-Handed Sword",
          "type": "melee",
          "rng": 2,
          "pow": 5,
          "p+s": 13,
          "abilities": [
            "Brutal Charge"
          ]
        }
      ],
      "abilities": [
        "Precision Strike"
      ],
      "animus": "Massacre"
    }
  ]
}
