{
  "name": "Ol' Grim",
  "edition": 3,
  "revision": "2020 v1",
  "keywords": [
    "Khador",
    "Cryx",
    "Windowmaker",
    "Wraith",
    "Solo"
  ],
  "point cost": 6,
  "field allowance": "C",
  "models": [
    {
      "model name": "Ol' Grim 1",
      "spd": 6,
      "str": 5,
      "mat": 4,
      "rat": 8,
      "def": 15,
      "arm": 13,
      "cmd": 5,
      "boxes": 5,
      "advantages": [
        "Gunfighter",
        "Incorporeal",
        "Undead"
      ],
      "base size": 30,
      "attacks": [
        {
          "attack name": "Vanar Oppressor",
          "type": "ranged",
          "rng": 14,
          "rof": 2,
          "pow": 12,
          "weapon qualities": [
            "Damage Type: Magical"
          ],
          "abilities": [
            "Wraith Shot"
          ]
        }
      ],
      "abilities": [
        "Apparition",
        "Sniper",
        {
          "Soul Taker: Body Count": [
            "Dark Blessing"
          ]
        }
      ]
    }
  ]
}
