{
  "name": "Orsus The Chained",
  "edition": 3,
  "revision": "2019 v1",
  "keywords": [
    "Khador",
    "Doom Reaver",
    "Solo"
  ],
  "point cost": 7,
  "field allowance": "C",
  "models": [
    {
      "model name": "Butcher 4",
      "spd": 5,
      "str": 8,
      "mat": 9,
      "rat": 5,
      "def": 14,
      "arm": 15,
      "cmd": 1,
      "boxes": 10,
      "advantages": [
        "Tough"
      ],
      "base size": 40,
      "attacks": [
        {
          "attack name": "Fell Lola",
          "type": "melee",
          "rng": 2,
          "pow": 8,
          "p+s": 16,
          "weapon qualities": [
            "Damage Type: Magical",
            "Weapon Master"
          ],
          "abilities": [
            "Dispel"
          ]
        },
        {
          "attack name": "Gauntlet",
          "type": "melee",
          "rng": 0.5,
          "pow": 4,
          "p+s": 12,
          "abilities": [
            "Beat Back"
          ]
        }
      ],
      "abilities": [
        "Berserk",
        "Blood Bath",
        "Carapace",
        "Relentless Charge",
        "Spell Ward"
      ]
    }
  ]
}
