{
  "name": "Paladin of the Order of the Wall",
  "edition": 3,
  "revision": "2021 v1",
  "keywords": [
    "Protectorate",
    "Solo"
  ],
  "point cost": 4,
  "field allowance": 3,
  "models": [
    {
      "model name": "Paladin",
      "spd": 6,
      "str": 7,
      "mat": 8,
      "rat": 4,
      "def": 13,
      "arm": 18,
      "cmd": 9,
      "boxes": 5,
      "base size": 30,
      "attacks": [
        {
          "attack name": "Firebrand",
          "type": "melee",
          "rng": 1,
          "pow": 6,
          "p+s": 13,
          "weapon qualities": [
            "Critical Continuous Fire",
            "Damage Type: Magical",
            "Weapon Master"
          ]
        }
      ],
      "abilities": [
        "Stone-and-Mortar Stance"
      ]
    }
  ]
}
