{
  "name": "Patrol Dog",
  "edition": 3,
  "revision": "2021 v1",
  "keywords": [
    "Cygnar",
    "Trencher",
    "Solo"
  ],
  "point cost": 1,
  "field allowance": 2,
  "models": [
    {
      "model name": "Dog",
      "spd": 7,
      "str": 4,
      "mat": 5,
      "rat": 0,
      "def": 14,
      "arm": 13,
      "cmd": 3,
      "boxes": 1,
      "advantages": [
        "Advance Deploy",
        "Pathfinder",
        "Tough"
      ],
      "base size": 30,
      "attacks": [
        {
          "attack name": "Bite",
          "type": "melee",
          "rng": 0.5,
          "pow": 3,
          "p+s": 7,
          "abilities": [
            "Critical Knockdown"
          ]
        }
      ],
      "abilities": [
        "Annoyance",
        "Dodge",
        "Foxhole Buddy",
        "Leadership [Trencher]",
        "Noisy"
      ]
    }
  ]
}
