{
  "name": "Perforators",
  "edition": 3,
  "revision": "2020 v1",
  "keywords": [
    "Convergence",
    "Unit"
  ],
  "unit size": [
    {
      "min": [
        {
          "Leader": 1
        },
        {
          "Grunts": 2
        },
        {
          "point cost": 10
        }
      ]
    },
    {
      "max": [
        {
          "Leader": 1
        },
        {
          "Grunts": 4
        },
        {
          "point cost": 16
        }
      ]
    }
  ],
  "field allowance": 2,
  "models": [
    {
      "model name": "Leader & Grunts",
      "spd": 5,
      "str": 8,
      "mat": 7,
      "rat": 6,
      "def": 12,
      "arm": 15,
      "cmd": 7,
      "boxes": [
        {
          "Model A": 8
        },
        {
          "Model B": 8
        },
        {
          "Model C": 8
        },
        {
          "Model D": 8
        },
        {
          "Model E": 8
        }
      ],
      "advantages": [
        "Assault",
        "Construct"
      ],
      "base size": 40,
      "attacks": [
        {
          "attack name": "Protean Javelin",
          "type": "ranged",
          "rng": 7,
          "rof": 1,
          "pow": 6,
          "abilities": [
            "Armor-Piercing",
            "Predator Protocol"
          ]
        },
        {
          "attack name": "Gear Blade",
          "type": "melee",
          "rng": 0.5,
          "pow": 4,
          "p+s": 12
        }
      ],
      "abilities": [
        "Soul Vessel",
        {
          "Variable [Ranged]": [
            "Empowered Attack",
            "Snipe"
          ]
        }
      ]
    }
  ]
}
