{
  "name": "Praetorian Karax",
  "edition": 3,
  "revision": "2021 v1",
  "keywords": [
    "Skorne",
    "Unit"
  ],
  "unit size": [
    {
      "min": [
        {
          "Leader": 1
        },
        {
          "Grunts": 5
        },
        {
          "point cost": 7
        }
      ]
    },
    {
      "max": [
        {
          "Leader": 1
        },
        {
          "Grunts": 9
        },
        {
          "point cost": 11
        }
      ]
    }
  ],
  "field allowance": "U",
  "models": [
    {
      "model name": "Leader & Grunts",
      "spd": 6,
      "str": 6,
      "mat": 5,
      "rat": 4,
      "def": 12,
      "arm": 15,
      "cmd": 8,
      "boxes": 1,
      "advantages": [
        "Combined Melee Attack"
      ],
      "base size": 30,
      "attacks": [
        {
          "attack name": "Pike",
          "type": "melee",
          "rng": 2,
          "pow": 5,
          "p+s": 11
        }
      ],
      "abilities": [
        "Girded",
        "Set Defense",
        "Shield Wall"
      ]
    }
  ]
}
