{
  "name": "Press Gangers",
  "edition": 3,
  "revision": "2022 v1",
  "keywords": [
    "Mercenary",
    "Privateer",
    "Sea Dog",
    "Unit"
  ],
  "unit size": [
    {
      "min": [
        {
          "Lass": 1
        },
        {
          "Grunts": 5
        },
        {
          "point cost": 7
        }
      ]
    },
    {
      "max": [
        {
          "Lass": 1
        },
        {
          "Grunts": 9
        },
        {
          "point cost": 12
        }
      ]
    }
  ],
  "field allowance": 2,
  "models": [
    {
      "model name": "Lass",
      "spd": 6,
      "str": 6,
      "mat": 5,
      "rat": 4,
      "def": 13,
      "arm": 11,
      "cmd": 7,
      "boxes": 1,
      "advantages": [
        "Advance Deploy",
        "Officer",
        "Tough"
      ],
      "base size": 30,
      "attacks": [
        {
          "attack name": "Hand Weapons",
          "type": "melee",
          "rng": 0.5,
          "pow": 3,
          "p+s": 9
        }
      ],
      "abilities": [
        {
          "Mercenaries": [
            "Crucible Guard",
            "Cryx",
            "Cygnar",
            "Khador",
            "Protectorate"
          ]
        },
        "Ambush",
        "Gang",
        "Seduction",
        "Shanghai"
      ]
    },
    {
      "model name": "Grunts",
      "spd": 6,
      "str": 6,
      "mat": 5,
      "rat": 4,
      "def": 13,
      "arm": 11,
      "cmd": 6,
      "boxes": 1,
      "advantages": [
        "Advance Deploy",
        "Tough"
      ],
      "base size": 30,
      "attacks": [
        {
          "attack name": "Hand Weapons",
          "type": "melee",
          "rng": 0.5,
          "pow": 3,
          "p+s": 9
        }
      ],
      "abilities": [
        "Ambush",
        "Gang",
        "Shanghai"
      ]
    }
  ]
}
