{
  "name": "Primal Archon",
  "edition": 3,
  "revision": "2019 v1",
  "keywords": [
    "Minion",
    "Solo"
  ],
  "point cost": 8,
  "field allowance": 2,
  "models": [
    {
      "model name": "Archon",
      "spd": 6,
      "str": 10,
      "mat": 8,
      "rat": 3,
      "def": 12,
      "arm": 19,
      "cmd": 10,
      "boxes": 18,
      "advantages": [
        "Pathfinder",
        "Tough"
      ],
      "base size": 50,
      "attacks": [
        {
          "attack name": "Horn",
          "type": "melee",
          "rng": 1,
          "pow": 5,
          "p+s": 15,
          "weapon qualities": [
            "Damage Type: Magical"
          ],
          "abilities": [
            "Earth Shaker"
          ]
        },
        {
          "attack name": "Claw",
          "type": "melee",
          "rng": 1,
          "pow": 4,
          "p+s": 14,
          "weapon qualities": [
            "Damage Type: Magical"
          ],
          "abilities": [
            "Beat Back",
            "Earth Shaker"
          ]
        },
        {
          "attack name": "Claw",
          "type": "melee",
          "rng": 1,
          "pow": 4,
          "p+s": 14,
          "weapon qualities": [
            "Damage Type: Magical"
          ],
          "abilities": [
            "Beat Back",
            "Earth Shaker"
          ]
        }
      ],
      "abilities": [
        {
          "Minion": [
            "Circle",
            "Grymkin",
            "Legion",
            "Trollbloods"
          ]
        },
        "Partisan [Circle]",
        "Countercharge",
        "Divine Manifestation",
        "Hyper-Regeneration",
        "Reality Anchor",
        "Roiling Earth",
        "Sturdy"
      ]
    }
  ]
}
