{
  "name": "Pummeler Crew",
  "edition": 3,
  "revision": "2021 v1",
  "keywords": [
    "Trollkin",
    "Trollblood",
    "Weapon Crew",
    "Unit"
  ],
  "unit size": [
    {
      "only": [
        {
          "Gunner": 1
        },
        {
          "Grunts": 2
        },
        {
          "point cost": 4
        }
      ]
    }
  ],
  "field allowance": 2,
  "models": [
    {
      "model name": "Gunner",
      "spd": 2,
      "str": 6,
      "mat": 5,
      "rat": 5,
      "def": 12,
      "arm": 14,
      "cmd": 5,
      "boxes": 1,
      "advantages": [
        "Officer",
        "Tough"
      ],
      "base size": 50,
      "attacks": [
        {
          "attack name": "Pummeler",
          "type": "ranged",
          "rng": 16,
          "rof": 1,
          "aoe": 3,
          "pow": 14,
          "abilities": [
            "Arcing Fire",
            "Bounce",
            "High-Explosive",
            "Inaccurate",
            "Minimum Range [8\"]"
          ]
        },
        {
          "attack name": "Axe",
          "type": "melee",
          "rng": 0.5,
          "pow": 4,
          "p+s": 10
        }
      ],
      "abilities": [
        "Mobile Artillery",
        "Take Up"
      ]
    },
    {
      "model name": "Grunts",
      "spd": 4,
      "str": 6,
      "mat": 5,
      "rat": 5,
      "def": 12,
      "arm": 14,
      "cmd": 5,
      "boxes": 1,
      "advantages": [
        "Tough"
      ],
      "base size": 40,
      "attacks": [
        {
          "attack name": "Axe",
          "type": "melee",
          "rng": 0.5,
          "pow": 4,
          "p+s": 10
        }
      ]
    }
  ]
}
