{
  "name": "Pyrrhus, Flameguard Hero",
  "edition": 3,
  "revision": "2018 v1",
  "keywords": [
    "Protectorate",
    "Temple Flameguard",
    "Solo"
  ],
  "point cost": 5,
  "field allowance": "C",
  "models": [
    {
      "model name": "Pyrrhus 1",
      "spd": 6,
      "str": 7,
      "mat": 7,
      "rat": 4,
      "def": 15,
      "arm": 14,
      "cmd": 9,
      "boxes": 5,
      "advantages": [
        "Tough"
      ],
      "base size": 30,
      "attacks": [
        {
          "attack name": "Flame Spear",
          "type": "melee",
          "rng": 2,
          "pow": 4,
          "p+s": 11,
          "weapon qualities": [
            "Critical Continuous Fire",
            "Weapon Master"
          ]
        },
        {
          "attack name": "Shield",
          "type": "melee",
          "rng": 0.5,
          "pow": 2,
          "p+s": 9,
          "weapon qualities": [
            "Shield",
            "Weapon Master"
          ],
          "abilities": [
            "Beat Back"
          ]
        }
      ],
      "abilities": [
        "Impenetrable Shield",
        "Leadership [Temple Flameguard]",
        "Rapid Strike",
        "Relentless Charge",
        "Set Defense",
        "Unyielding"
      ]
    }
  ]
}
