{
  "name": "Raek",
  "edition": 3,
  "revision": "2020 v1",
  "keywords": [
    "Legion",
    "Light",
    "Warbeast"
  ],
  "point cost": 6,
  "field allowance": "U",
  "models": [
    {
      "model name": "Raek",
      "spd": 7,
      "str": 8,
      "mat": 6,
      "rat": 3,
      "def": 15,
      "arm": 14,
      "cmd": 4,
      "advantages": [
        "Eyeless Sight",
        "Pathfinder",
        "Soulless",
        "Stealth"
      ],
      "base size": 40,
      "fury": 3,
      "threshold": 9,
      "boxes": {
        "Spiral 1": 4,
        "Spiral 2": 4,
        "Spiral 3": 5,
        "Spiral 4": 4,
        "Spiral 5": 5,
        "Spiral 6": 4
      },
      "attacks": [
        {
          "attack name": "Bite",
          "type": "melee",
          "rng": 0.5,
          "pow": 3,
          "p+s": 11
        },
        {
          "attack name": "Tail Strike",
          "type": "melee",
          "rng": 1,
          "pow": 4,
          "p+s": 12
        }
      ],
      "abilities": [
        "Bounding Leap",
        "Extended Control Range"
      ],
      "animus": "Still As Death"
    }
  ]
}
