{
  "name": "Ravagore",
  "edition": 3,
  "revision": "2021 v1",
  "keywords": [
    "Legion",
    "Heavy",
    "Warbeast"
  ],
  "point cost": 14,
  "field allowance": "U",
  "models": [
    {
      "model name": "Ravagore",
      "spd": 5,
      "str": 12,
      "mat": 6,
      "rat": 5,
      "def": 12,
      "arm": 18,
      "cmd": 3,
      "advantages": [
        "Eyeless Sight",
        "Pathfinder",
        "Soulless"
      ],
      "base size": 50,
      "fury": 4,
      "threshold": 9,
      "boxes": {
        "Spiral 1": 5,
        "Spiral 2": 5,
        "Spiral 3": 7,
        "Spiral 4": 7,
        "Spiral 5": 6,
        "Spiral 6": 6
      },
      "attacks": [
        {
          "attack name": "Blight Blast",
          "type": "ranged",
          "rng": 14,
          "rof": 1,
          "aoe": 4,
          "pow": 15,
          "weapon qualities": [
            "Damage Type: Fire"
          ],
          "abilities": [
            "Arcing Fire",
            "Scather"
          ]
        },
        {
          "attack name": "Talon",
          "type": "melee",
          "rng": 1,
          "pow": 4,
          "p+s": 16,
          "weapon qualities": [
            "Open Fist"
          ]
        },
        {
          "attack name": "Talon",
          "type": "melee",
          "rng": 1,
          "pow": 4,
          "p+s": 16,
          "weapon qualities": [
            "Open Fist"
          ]
        },
        {
          "attack name": "Bite",
          "type": "melee",
          "rng": 1,
          "pow": 3,
          "p+s": 15
        }
      ],
      "animus": "Recoil"
    }
  ]
}
