{
  "name": "Ravyn, the Eternal Light",
  "edition": 3,
  "revision": "2018 v1",
  "keywords": [
    "Retribution",
    "Mage Hunter",
    "Warcaster"
  ],
  "warjack points": 28,
  "field allowance": "C",
  "models": [
    {
      "model name": "Ravyn 1",
      "spd": 6,
      "str": 6,
      "mat": 7,
      "rat": 7,
      "def": 15,
      "arm": 16,
      "focus": 6,
      "cmd": 9,
      "boxes": 16,
      "base size": 30,
      "attacks": [
        {
          "attack name": "Hellbore",
          "type": "ranged",
          "rng": 12,
          "rof": 1,
          "pow": 12,
          "weapon qualities": [
            "Damage Type: Magical"
          ],
          "abilities": [
            "Blaster"
          ]
        },
        {
          "attack name": "Blade",
          "type": "melee",
          "rng": 2,
          "pow": 7,
          "p+s": 13,
          "weapon qualities": [
            "Damage Type: Magical",
            "Weapon Master"
          ],
          "abilities": [
            "Thresher"
          ]
        }
      ],
      "abilities": [
        "Dual Attack",
        "Quick Work",
        "Sprint",
        "Swift Hunter"
      ],
      "feat": {
        "name": "Firestorm",
        "flavor": "Ravyn, the Eternal Light can call on the blessings of Scyrah to instill her allies with singular devotion. Putting aside all distractions to annihilate the enemy, her forces advance as a storm of vengeance that will not be denied.",
        "text": "While in Ravyn's control range this turn, friendly Faction models gain boosted ranged attack rolls and Swift Hunter."
      },
      "spells": [
        "Countermeasure",
        "Energizer",
        "Open Fire",
        "Snipe",
        "Veil of Mists"
      ]
    }
  ]
}
