{
  "name": "Reclaimer Gatekeeper",
  "edition": 3,
  "revision": "2021 v1",
  "keywords": [
    "Protectorate",
    "Solo"
  ],
  "point cost": 2,
  "field allowance": 2,
  "models": [
    {
      "model name": "Reclaimer",
      "spd": 5,
      "str": 5,
      "mat": 5,
      "rat": 4,
      "def": 13,
      "arm": 13,
      "ctrl": 8,
      "boxes": 5,
      "advantages": [
        "Jack Marshall"
      ],
      "base size": 30,
      "attacks": [
        {
          "attack name": "Torch",
          "type": "melee",
          "rng": 1,
          "pow": 5,
          "weapon qualities": [
            "Continuous Effect: Fire"
          ]
        }
      ],
      "abilities": [
        "Ashen Veil",
        {
          "Soul Mastery": [
            "Ashes of Urcaen",
            "Glimpse of Fate",
            "Obscuring Haze"
          ]
        },
        "Soul Taker: Soul Keeper"
      ]
    }
  ]
}
