{
  "name": "Reflex Servitors",
  "edition": 3,
  "revision": "2021 v1",
  "keywords": [
    "Convergence",
    "Solo"
  ],
  "point cost": 3,
  "field allowance": 3,
  "models": [
    {
      "model name": "Servitor",
      "spd": 6,
      "str": 3,
      "mat": 5,
      "rat": 5,
      "def": 12,
      "arm": 13,
      "boxes": 1,
      "advantages": [
        "Advance Deploy",
        "Construct",
        "Pathfinder"
      ],
      "base size": 30,
      "attacks": [
        {
          "attack name": "Probability Mine",
          "type": "melee",
          "rng": 0.5,
          "abilities": [
            "Detonation"
          ]
        }
      ],
      "abilities": [
        "Countercharge",
        "Dig In",
        "Steady"
      ]
    },
    {
      "model name": "Servitor",
      "spd": 6,
      "str": 3,
      "mat": 5,
      "rat": 5,
      "def": 12,
      "arm": 13,
      "boxes": 1,
      "advantages": [
        "Advance Deploy",
        "Construct",
        "Pathfinder"
      ],
      "base size": 30,
      "attacks": [
        {
          "attack name": "Probability Mine",
          "type": "melee",
          "rng": 0.5,
          "abilities": [
            "Detonation"
          ]
        }
      ],
      "abilities": [
        "Countercharge",
        "Dig In",
        "Steady"
      ]
    },
    {
      "model name": "Servitor",
      "spd": 6,
      "str": 3,
      "mat": 5,
      "rat": 5,
      "def": 12,
      "arm": 13,
      "boxes": 1,
      "advantages": [
        "Advance Deploy",
        "Construct",
        "Pathfinder"
      ],
      "base size": 30,
      "attacks": [
        {
          "attack name": "Probability Mine",
          "type": "melee",
          "rng": 0.5,
          "abilities": [
            "Detonation"
          ]
        }
      ],
      "abilities": [
        "Countercharge",
        "Dig In",
        "Steady"
      ]
    }
  ]
}
