{
  "name": "Rocketman Stinger",
  "edition": 3,
  "revision": "2021 v1",
  "keywords": [
    "Crucible Guard",
    "Solo"
  ],
  "point cost": 4,
  "field allowance": 2,
  "models": [
    {
      "model name": "Stinger",
      "spd": 7,
      "str": 6,
      "mat": 7,
      "rat": 5,
      "def": 16,
      "arm": 11,
      "cmd": 8,
      "boxes": 5,
      "advantages": [
        "Flight",
        "Parry"
      ],
      "base size": 30,
      "attacks": [
        {
          "attack name": "Alchemical Injector",
          "type": "melee",
          "rng": 1,
          "p+s": "*",
          "abilities": [
            {
              "Attack Type": [
                "Blind",
                "Shadow Bind",
                "Volatile Expansion"
              ]
            },
            "Incise"
          ]
        },
        {
          "attack name": "Alchemical Injector",
          "type": "melee",
          "rng": 1,
          "p+s": "*",
          "abilities": [
            {
              "Attack Type": [
                "Blind",
                "Shadow Bind",
                "Volatile Expansion"
              ]
            },
            "Incise"
          ]
        }
      ],
      "abilities": [
        "Breather",
        "High Flier",
        "Reposition [5\"]",
        "Side Step"
      ]
    }
  ]
}
