{
  "name": "Ryssovass Defenders",
  "edition": 3,
  "revision": "2021 v1",
  "keywords": [
    "Leader & Grunts"
  ],
  "unit size": [
    {
      "min": [
        {
          "Leader": 1
        },
        {
          "Grunts": 5
        },
        {
          "point cost": 9
        }
      ]
    },
    {
      "max": [
        {
          "Leader": 1
        },
        {
          "Grunts": 9
        },
        {
          "point cost": 15
        }
      ]
    }
  ],
  "field allowance": 2,
  "models": [
    {
      "model name": "Leader & Grunts",
      "spd": 6,
      "str": 6,
      "mat": 7,
      "rat": 4,
      "def": 12,
      "arm": 16,
      "cmd": 9,
      "boxes": 1,
      "advantages": [
        "Tough"
      ],
      "base size": 30,
      "attacks": [
        {
          "attack name": "Ryssovass Blade",
          "type": "melee",
          "rng": 2,
          "pow": 4,
          "p+s": 10,
          "weapon qualities": [
            "Weapon Master"
          ]
        }
      ],
      "abilities": [
        "Defensive Line",
        "Girded",
        "Precision Strike"
      ]
    }
  ]
}
