{
  "name": "Saeryn, Omen of Everblight",
  "edition": 3,
  "revision": "2021 v1",
  "keywords": [
    "Legion",
    "Blighted",
    "Nyss",
    "Warlock"
  ],
  "warbeast points": 28,
  "field allowance": "C",
  "models": [
    {
      "model name": "Saeryn 1",
      "spd": 7,
      "str": 5,
      "mat": 6,
      "rat": 7,
      "def": 16,
      "arm": 14,
      "fury": 7,
      "cmd": 8,
      "boxes": 16,
      "base size": 30,
      "attacks": [
        {
          "attack name": "Thrown Deathspur",
          "type": "ranged",
          "rng": 7,
          "rof": 3,
          "pow": 10,
          "weapon qualities": [
            "Damage Type: Magical"
          ],
          "abilities": [
            "Grievous Wounds",
            "Thrown"
          ]
        },
        {
          "attack name": "Deathspur",
          "type": "melee",
          "rng": 0.5,
          "pow": 5,
          "p+s": 10,
          "weapon qualities": [
            "Damage Type: Magical"
          ],
          "abilities": [
            "Grievous Wounds"
          ]
        }
      ],
      "abilities": [
        "Channeler [Rhyas]",
        "Force Barrier"
      ],
      "feat": {
        "name": "Foreboding",
        "flavor": "By her sorcerous skill, Saeryn can reach out to fill her army with blighted power, an ominous shroud that protects their flesh and steels their minds, allowing them to endure what would be killing blows before retaliating in kind.",
        "text": "While in Saeryn's control range, friendly Faction models gain +3 ARM and models in her battlegroup gain Retaliatory Strike. Foreboding lasts for one round."
      },
      "spells": [
        "Arcane Ward",
        "Blight Bringer",
        "Breath Stealer",
        "Hellfire",
        "Respawn"
      ]
    }
  ]
}
