{
  "name": "Saeryn & Rhyas, Talons of Everblight",
  "edition": 3,
  "revision": "2016 v1",
  "keywords": [
    "Legion",
    "Blighted",
    "Nyss",
    "Warlock",
    "Unit"
  ],
  "warbeast points": 24,
  "field allowance": "C",
  "models": [
    {
      "model name": "Saeryn 2",
      "spd": 7,
      "str": 5,
      "mat": 6,
      "rat": 7,
      "def": 16,
      "arm": 14,
      "fury": 7,
      "cmd": 8,
      "boxes": 8,
      "advantages": [
        "Officer"
      ],
      "base size": 30,
      "attacks": [
        {
          "attack name": "Staff of the Shyvess",
          "type": "melee",
          "rng": 2,
          "pow": 5,
          "p+s": 10,
          "weapon qualities": [
            "Damage Type: Magical"
          ],
          "abilities": [
            "Dispel"
          ]
        }
      ],
      "abilities": [
        "Channeler [Rhyas]",
        "Twin Sister",
        "Warlock Unit (Saeryn 2)"
      ],
      "feat": {
        "name": "Conjoined Spirits",
        "flavor": "Saeryn and Rhyas are inseparable, each the shadow of the other. In the heat of battle, the twins call upon the dragon blood coursing through their veins to bend reality, returning from the brink of death or trading places in a shimmer of blighted energy.",
        "text": "Conjoined Spirits can be used once per game by either Saeryn or Rhyas. When it is used, you can either have Saeryn and Rhyas immediately trade places or you can return on of them to play. If you choose to return Saeryn or Rhyas to play, place the returned model completely within 3\" of the model that used Conjoined Spirits. The returned model comes into play with a number of fury points equal to its FURY. After Conjoined Spirits is used, Saeryn and Rhyas cannot advance for the rest of the turn. If either Saeryn or Rhyas is damaged by an attack made by the other, they both lose Conjoined Spirits for the rest of the game."
      },
      "spells": [
        "Banishing Ward",
        "Blood Rain",
        "Marked For Death",
        "Psychic Vampire",
        "Razor Wind"
      ]
    },
    {
      "model name": "Rhyas 2",
      "spd": 7,
      "str": 6,
      "mat": 8,
      "rat": 6,
      "def": 16,
      "arm": 14,
      "fury": 6,
      "cmd": 8,
      "boxes": 8,
      "advantages": [
        "Parry"
      ],
      "base size": 30,
      "attacks": [
        {
          "attack name": "Antiphon",
          "type": "melee",
          "rng": 2,
          "pow": 7,
          "p+s": 13,
          "weapon qualities": [
            "Damage Type: Magical",
            "Weapon Master"
          ],
          "abilities": [
            "Critical Decapitation"
          ]
        }
      ],
      "abilities": [
        "Acrobatics",
        "Channeler [Saeryn]",
        "Granted: Riposte",
        "Twin Sister"
      ],
      "feat": {
        "name": "Conjoined Spirits",
        "flavor": "Saeryn and Rhyas are inseparable, each the shadow of the other. In the heat of battle, the twins call upon the dragon blood coursing through their veins to bend reality, returning from the brink of death or trading places in a shimmer of blighted energy.",
        "text": "Conjoined Spirits can be used once per game by either Saeryn or Rhyas. When it is used, you can either have Saeryn and Rhyas immediately trade places or you can return on of them to play. If you choose to return Saeryn or Rhyas to play, place the returned model completely within 3\" of the model that used Conjoined Spirits. The returned model comes into play with a number of fury points equal to its FURY. After Conjoined Spirits is used, Saeryn and Rhyas cannot advance for the rest of the turn. If either Saeryn or Rhyas is damaged by an attack made by the other, they both lose Conjoined Spirits for the rest of the game."
      },
      "spells": [
        "Flashing Blade",
        "Occultation",
        "Onslaught"
      ]
    }
  ]
}
