{
  "name": "Savio Montero Acosta",
  "edition": 3,
  "revision": "2021 v1",
  "keywords": [
    "Mercenary",
    "Ordic",
    "Storm Knight",
    "Thamarite"
  ],
  "point cost": 6,
  "field allowance": "C",
  "models": [
    {
      "model name": "Acosta 1",
      "spd": 7,
      "str": 6,
      "mat": 9,
      "rat": 6,
      "def": 15,
      "arm": 15,
      "cmd": 7,
      "boxes": 5,
      "advantages": [
        "Immunity: Electricity"
      ],
      "base size": 30,
      "attacks": [
        {
          "attack name": "Storm Glaive Blast",
          "type": "ranged",
          "rng": 6,
          "rof": 1,
          "pow": 14,
          "weapon qualities": [
            "Damage Type: Electrical"
          ]
        },
        {
          "attack name": "Storm Glaive Blast",
          "type": "ranged",
          "rng": 6,
          "rof": 1,
          "pow": 14,
          "weapon qualities": [
            "Damage Type: Electrical"
          ]
        },
        {
          "attack name": "Storm Glaive",
          "type": "melee",
          "rng": 1,
          "pow": 9,
          "p+s": 15,
          "weapon qualities": [
            "Weapon Master"
          ]
        }
      ],
      "abilities": [
        {
          "Mercenary": [
            "Cygnar"
          ]
        },
        "Partisan [Cygnar]",
        "Dodge",
        "Riposte",
        "Swift Vengeance"
      ]
    }
  ]
}
