{
  "name": "Saxon Orrik",
  "edition": 3,
  "revision": "2019 v1",
  "keywords": [
    "Mercenary",
    "Minion",
    "Solo"
  ],
  "point cost": 4,
  "field allowance": "C",
  "models": [
    {
      "model name": "Orrik 1",
      "spd": 6,
      "str": 6,
      "mat": 7,
      "rat": 7,
      "def": 15,
      "arm": 14,
      "cmd": 7,
      "boxes": 5,
      "advantages": [
        "Advance Deploy",
        "Pathfinder",
        "Stealth",
        "Tough"
      ],
      "base size": 30,
      "attacks": [
        {
          "attack name": "Military Rifle",
          "type": "ranged",
          "rng": 10,
          "rof": 1,
          "pow": 11
        },
        {
          "attack name": "Sword",
          "type": "melee",
          "rng": 0.5,
          "pow": 4,
          "p+s": 10
        },
        {
          "attack name": "Skinning Knife",
          "type": "melee",
          "rng": 0.5,
          "pow": 2,
          "p+s": 8,
          "abilities": [
            "Inflict Pain"
          ]
        }
      ],
      "abilities": [
        {
          "Mercenary": [
            "Cryx",
            "Infernals",
            "Khador",
            "Protectorate"
          ]
        },
        {
          "Minion": [
            "Circle",
            "Skorne",
            "Trollbloods"
          ]
        },
        "Partisan [Infernal]",
        "Blind Spot",
        "Dismember",
        "Marked Soul",
        "Reconnaissance",
        "Reposition [3\"]"
      ]
    }
  ]
}
