{
  "name": "Scrap Thrall",
  "edition": 3,
  "revision": "2016 v1",
  "keywords": [
    "Cryx",
    "Solo"
  ],
  "point cost": 2,
  "field allowance": 3,
  "models": [
    {
      "model name": "Scrap Thrall",
      "spd": 5,
      "str": 4,
      "mat": 5,
      "rat": 3,
      "def": 11,
      "arm": 12,
      "cmd": 1,
      "boxes": 1,
      "advantages": [
        "Undead"
      ],
      "base size": 30,
      "attacks": [
        {
          "attack name": "Mechano-Claw",
          "type": "melee",
          "rng": 0.5,
          "pow": 4,
          "p+s": 8,
          "abilities": [
            "Death Burst"
          ]
        }
      ],
      "abilities": [
        "Thrall Bomb"
      ]
    },
    {
      "model name": "Scrap Thrall",
      "spd": 5,
      "str": 4,
      "mat": 5,
      "rat": 3,
      "def": 11,
      "arm": 12,
      "cmd": 1,
      "boxes": 1,
      "advantages": [
        "Undead"
      ],
      "base size": 30,
      "attacks": [
        {
          "attack name": "Mechano-Claw",
          "type": "melee",
          "rng": 0.5,
          "pow": 4,
          "p+s": 8,
          "abilities": [
            "Death Burst"
          ]
        }
      ],
      "abilities": [
        "Thrall Bomb"
      ]
    },
    {
      "model name": "Scrap Thrall",
      "spd": 5,
      "str": 4,
      "mat": 5,
      "rat": 3,
      "def": 11,
      "arm": 12,
      "cmd": 1,
      "boxes": 1,
      "advantages": [
        "Undead"
      ],
      "base size": 30,
      "attacks": [
        {
          "attack name": "Mechano-Claw",
          "type": "melee",
          "rng": 0.5,
          "pow": 4,
          "p+s": 8,
          "abilities": [
            "Death Burst"
          ]
        }
      ],
      "abilities": [
        "Thrall Bomb"
      ]
    }
  ]
}
