{
  "name": "Sergeant Dragos Dragadovich",
  "edition": 3,
  "revision": "2021 v1",
  "keywords": [
    "Khador",
    "Man-O-War",
    "Command Attachment"
  ],
  "point cost": 4,
  "field allowance": "C",
  "models": [
    {
      "model name": "Dragadovich 1",
      "spd": 4,
      "str": 9,
      "mat": 8,
      "rat": 5,
      "def": 10,
      "arm": 16,
      "cmd": 8,
      "boxes": 8,
      "advantages": [
        "Officer",
        "Tough"
      ],
      "base size": 40,
      "attacks": [
        {
          "attack name": "Ice Maul",
          "type": "melee",
          "rng": 2,
          "pow": 7,
          "p+s": 16,
          "abilities": [
            "Critical Freeze",
            "Shatter"
          ]
        },
        {
          "attack name": "Ice Maul",
          "type": "melee",
          "rng": 2,
          "pow": 7,
          "p+s": 16,
          "abilities": [
            "Critical Freeze",
            "Shatter"
          ]
        }
      ],
      "abilities": [
        "Attachment [Man-O-War Demolition Corps]",
        "Bond of Brotherhood",
        "Granted: Vengeance",
        "Repairable",
        "Tactics: Defensive Line"
      ]
    }
  ]
}
