{
  "name": "Sergeant Nicolas Verendrye",
  "edition": 3,
  "revision": "2019 v1",
  "keywords": [
    "Mercenary",
    "Llaelese",
    "Steelhead",
    "Steelhead Halberdier",
    "Solo"
  ],
  "point cost": 4,
  "field allowance": "C",
  "models": [
    {
      "model name": "Verendrye 1",
      "spd": 6,
      "str": 6,
      "mat": 6,
      "rat": 6,
      "def": 13,
      "arm": 14,
      "cmd": 9,
      "boxes": 5,
      "base size": 30,
      "attacks": [
        {
          "attack name": "Pistol",
          "type": "ranged",
          "rng": 8,
          "rof": 1,
          "pow": 10
        },
        {
          "attack name": "Halberd",
          "type": "melee",
          "rng": 2,
          "pow": 5,
          "p+s": 11,
          "abilities": [
            "Powerful Charge"
          ]
        }
      ],
      "abilities": [
        {
          "Mercenary": [
            "Crucible Guard",
            "Cryx",
            "Cygnar",
            "Khador",
            "Protectorate"
          ]
        },
        "Battle Brothers [Steelhead Halberdiers]",
        "Flank [Steelhead Halberdiers]",
        "Heal [d3 + 1]",
        "Leadership [Steelhead Halberdiers]",
        "Reinforcements [Steelhead]",
        "Set Defense"
      ]
    }
  ]
}
