{
  "name": "Skarlock Thrall",
  "edition": 3,
  "revision": "2021 v1",
  "keywords": [
    "Cryx",
    "Solo"
  ],
  "point cost": 3,
  "field allowance": 1,
  "models": [
    {
      "model name": "Skarlock Thrall",
      "spd": 6,
      "str": 4,
      "mat": 3,
      "rat": 3,
      "def": 14,
      "arm": 12,
      "cmd": 5,
      "boxes": 5,
      "advantages": [
        "Undead"
      ],
      "base size": 30,
      "attacks": [
        {
          "attack name": "Claws",
          "type": "melee",
          "rng": 0.5,
          "pow": 2,
          "p+s": 6
        }
      ],
      "abilities": [
        "Attached",
        {
          "Magic Ability [6]": [
            "Dark Fire",
            "Spell Slave"
          ]
        },
        {
          "Soul Taker: Soul Cage": [
            "Strength of Death"
          ]
        }
      ]
    }
  ]
}
