{
  "name": "Skarath",
  "edition": 3,
  "revision": "2017 v1",
  "keywords": [
    "Mercenary",
    "Minion",
    "Tatzylwurm",
    "Heavy",
    "Warbeast"
  ],
  "field allowance": "C",
  "models": [
    {
      "model name": "Skarath 1",
      "spd": 6,
      "str": 10,
      "mat": 6,
      "rat": 6,
      "def": 14,
      "arm": 17,
      "cmd": 6,
      "advantages": [
        "Gunfighter"
      ],
      "base size": 50,
      "fury": 4,
      "threshold": 9,
      "boxes": {
        "Spiral 1": 5,
        "Spiral 2": 2,
        "Spiral 3": 7,
        "Spiral 4": 4,
        "Spiral 5": 6,
        "Spiral 6": 3
      },
      "attacks": [
        {
          "attack name": "Acid Spray",
          "type": "ranged",
          "rng": "SP 10",
          "rof": 1,
          "pow": 12,
          "weapon qualities": [
            "Continuous Effect: Corrosion",
            "Damage Type: Corrosion"
          ]
        },
        {
          "attack name": "Bite",
          "type": "melee",
          "rng": 2,
          "pow": 6,
          "p+s": 16,
          "abilities": [
            "Critical Consume",
            "Paralysis"
          ]
        }
      ],
      "abilities": [
        "Bond [Dahlia Hallyr]",
        "Companion [Dahlia Hallyr]",
        "Serpentine"
      ],
      "animus": "Counterblast"
    }
  ]
}
