{
  "name": "Skarlock Commander",
  "edition": 3,
  "revision": "2021 v1",
  "keywords": [
    "Officer",
    "Undead"
  ],
  "point cost": 3,
  "field allowance": "U",
  "models": [
    {
      "model name": "Skarlock",
      "spd": 6,
      "str": 4,
      "mat": 6,
      "rat": 3,
      "def": 14,
      "arm": 12,
      "cmd": 8,
      "boxes": 5,
      "advantages": [
        "Officer",
        "Undead"
      ],
      "base size": 30,
      "attacks": [
        {
          "attack name": "Fell Spear",
          "type": "melee",
          "rng": 2,
          "pow": 6,
          "p+s": 10,
          "weapon qualities": [
            "Damage Type: Magical"
          ]
        }
      ],
      "abilities": [
        "Attachment [Mechanithralls or Bile Thralls]",
        "Battle Wizard",
        {
          "Magic Ability": [
            "Dark Fire",
            "Disbinding"
          ]
        },
        "Soul Taker: Soul Cage",
        "Invigorate",
        "Strength of Death",
        "Tactics: Advance Deployment"
      ]
    }
  ]
}
