{
  "name": "Small Phantasm",
  "edition": 3,
  "revision": "2019 v2",
  "keywords": [
    "Grymkin",
    "Solo"
  ],
  "models": [
    {
      "model name": "Small Phantasm",
      "spd": 7,
      "str": 4,
      "mat": 2,
      "rat": 2,
      "def": 14,
      "arm": 12,
      "cmd": 1,
      "boxes": 5,
      "advantages": [
        "Soulless"
      ],
      "base size": 30,
      "abilities": [
        "Annoyance",
        "Created",
        "Dodge",
        "Mark Target"
      ]
    }
  ]
}
