{
  "name": "Snapjaw",
  "edition": 3,
  "revision": "2016 v1",
  "keywords": [
    "Mercenary",
    "Minion",
    "Gatorman",
    "Heavy",
    "Warbeast"
  ],
  "field allowance": "C",
  "models": [
    {
      "model name": "Snapjaw",
      "spd": 5,
      "str": 12,
      "mat": 6,
      "rat": 1,
      "def": 12,
      "arm": 18,
      "cmd": 2,
      "advantages": [
        "Amphibious"
      ],
      "base size": 50,
      "fury": 4,
      "threshold": 8,
      "boxes": {
        "Spiral 1": 4,
        "Spiral 2": 1,
        "Spiral 3": 8,
        "Spiral 4": 6,
        "Spiral 5": 5,
        "Spiral 6": 3
      },
      "attacks": [
        {
          "attack name": "Bite",
          "type": "melee",
          "rng": 1,
          "pow": 6,
          "p+s": 18
        },
        {
          "attack name": "Tail",
          "type": "melee",
          "rng": 1,
          "pow": 3,
          "p+s": 15,
          "abilities": [
            "Critical Knockdown"
          ]
        }
      ],
      "abilities": [
        "Bloodthirst",
        "Bond [Wrong Eye]",
        "Companion [Wrong Eye]",
        "Man-Eater"
      ],
      "animus": "Submerge"
    }
  ]
}
