{
  "name": "Soulless Escort",
  "edition": 3,
  "revision": "2016 v1",
  "keywords": [
    "Retribution",
    "Weapon Attachment"
  ],
  "point cost": 1,
  "field allowance": "U",
  "models": [
    {
      "model name": "Escort",
      "spd": 6,
      "str": 6,
      "mat": 5,
      "rat": 3,
      "def": 12,
      "arm": 12,
      "cmd": 6,
      "boxes": 1,
      "advantages": [
        "Soulless"
      ],
      "base size": 30,
      "attacks": [
        {
          "attack name": "Sword",
          "type": "melee",
          "rng": 0.5,
          "pow": 3,
          "p+s": 9,
          "weapon qualities": [
            "Damage Type: Magical"
          ]
        }
      ],
      "abilities": [
        "Attachment [Retribution]",
        "Attachment Deployment",
        "Disbinding",
        "Mage Static"
      ]
    }
  ]
}
