{
  "name": "Steelhead Gunner",
  "edition": 3,
  "revision": "2019 v1",
  "keywords": [
    "Rhulic",
    "Mercenary",
    "Solo"
  ],
  "point cost": 3,
  "field allowance": 3,
  "models": [
    {
      "model name": "Gunner",
      "spd": 5,
      "str": 6,
      "mat": 6,
      "rat": 6,
      "def": 13,
      "arm": 13,
      "cmd": 8,
      "boxes": 5,
      "advantages": [
        "Tough"
      ],
      "base size": 30,
      "attacks": [
        {
          "attack name": "Fire Breather",
          "type": "ranged",
          "rng": "SP 8",
          "rof": 1,
          "pow": 12,
          "weapon qualities": [
            "Continuous Effect: Fire",
            "Damage Type: Fire"
          ]
        },
        {
          "attack name": "Sword",
          "type": "melee",
          "rng": 0.5,
          "pow": 3,
          "p+s": 9
        }
      ],
      "abilities": [
        {
          "Mercenary": [
            "Crucible Guard",
            "Cryx",
            "Cygnar",
            "Khador",
            "Protectorate"
          ]
        },
        "Desperate Pace [Rhulic or Steelhead Weapon Crew Units]",
        "Hit The Deck!",
        "Siege Tactics",
        "Veteran Leader [Rhulic Weapon Crew or Steelhead Weapon Crew Units]"
      ]
    }
  ]
}
