{
  "name": "Storm Lances",
  "edition": 3,
  "revision": "2021 v1",
  "keywords": [
    "Cygnar",
    "Storm Knight",
    "Unit"
  ],
  "unit size": [
    {
      "min": [
        {
          "Leader": 1
        },
        {
          "Grunts": 2
        },
        {
          "point cost": 11
        }
      ]
    },
    {
      "max": [
        {
          "Leader": 1
        },
        {
          "Grunts": 4
        },
        {
          "point cost": 18
        }
      ]
    }
  ],
  "field allowance": 2,
  "models": [
    {
      "model name": "Leader & Grunts",
      "spd": 8,
      "str": 6,
      "mat": 7,
      "rat": 5,
      "def": 13,
      "arm": 17,
      "cmd": 9,
      "boxes": [
        {
          "Model A": 5
        },
        {
          "Model B": 5
        },
        {
          "Model C": 5
        },
        {
          "Model D": 5
        },
        {
          "Model E": 5
        }
      ],
      "advantages": [
        "Assault",
        "Cavalry",
        "Immunity: Electricity"
      ],
      "base size": 50,
      "attacks": [
        {
          "attack name": "Electrical Bolt",
          "type": "ranged",
          "rng": 8,
          "rof": 1,
          "pow": 12,
          "weapon qualities": [
            "Damage Type: Electrical"
          ]
        },
        {
          "attack name": "Electro Lance",
          "type": "melee",
          "rng": 2,
          "pow": 8,
          "p+s": 14,
          "abilities": [
            "Brutal Charge",
            "Electro Leap"
          ]
        },
        {
          "attack name": "Mount",
          "type": "melee",
          "rng": 0.5,
          "pow": 12
        }
      ],
      "abilities": [
        "Reposition [3\"]"
      ]
    }
  ]
}
