{
  "name": "Strider Scout Officer & Musician",
  "edition": 3,
  "revision": "2016 v1",
  "keywords": [
    "Legion",
    "Command Attachment"
  ],
  "point cost": 4,
  "field allowance": 2,
  "models": [
    {
      "model name": "Officer",
      "spd": 7,
      "str": 6,
      "mat": 6,
      "rat": 7,
      "def": 15,
      "arm": 11,
      "cmd": 7,
      "boxes": 5,
      "advantages": [
        "Advance Deploy",
        "Officer",
        "Pathfinder",
        "Stealth"
      ],
      "base size": 30,
      "attacks": [
        {
          "attack name": "Nyss Longbow",
          "type": "ranged",
          "rng": 12,
          "rof": 1,
          "pow": 10,
          "abilities": [
            "Lure"
          ]
        },
        {
          "attack name": "Sword",
          "type": "melee",
          "rng": 0.5,
          "pow": 3,
          "p+s": 9
        }
      ],
      "abilities": [
        "Attachment [Strider Scouts]",
        "Granted: Reposition [3\"]",
        "Tactics: Hunter"
      ]
    },
    {
      "model name": "Musician",
      "spd": 7,
      "str": 6,
      "mat": 5,
      "rat": 6,
      "def": 15,
      "arm": 11,
      "cmd": 7,
      "boxes": 1,
      "advantages": [
        "Advance Deploy",
        "Pathfinder",
        "Stealth"
      ],
      "base size": 30,
      "attacks": [
        {
          "attack name": "Nyss Longbow",
          "type": "ranged",
          "rng": 12,
          "rof": 1,
          "pow": 10,
          "abilities": [
            "Lure"
          ]
        },
        {
          "attack name": "Sword",
          "type": "melee",
          "rng": 0.5,
          "pow": 3,
          "p+s": 9
        }
      ],
      "abilities": [
        "In Step",
        "Take Up"
      ]
    }
  ]
}
