{
  "name": "Supreme Kommandant Irusk",
  "edition": 3,
  "revision": "2021 v1",
  "keywords": [
    "Khador",
    "Warcaster"
  ],
  "warjack points": 27,
  "field allowance": "C",
  "models": [
    {
      "model name": "Irusk 2",
      "spd": 6,
      "str": 6,
      "mat": 7,
      "rat": 6,
      "def": 15,
      "arm": 15,
      "focus": 7,
      "cmd": 10,
      "boxes": 17,
      "base size": 30,
      "attacks": [
        {
          "attack name": "Hand Cannon",
          "type": "ranged",
          "rng": 12,
          "rof": 1,
          "pow": 12
        },
        {
          "attack name": "Endgame",
          "type": "melee",
          "rng": 0.5,
          "pow": 7,
          "p+s": 13,
          "weapon qualities": [
            "Damage Type: Magical"
          ]
        }
      ],
      "abilities": [
        "Tactician [Faction Warrior]",
        "Total Obedience"
      ],
      "feat": {
        "name": "Desperate Ground",
        "flavor": "In his lifetime of innovating tactics on countless battlefields, Supreme Kommandant Irusk has learned how to wrest the initiative from his enemies and turn untenable ground into an advantage. He strikes at the crucial hour and raises the Khadoran standard as he leads his army through any obstacles to seize victory.",
        "text": "Friendly Faction models currently in Irusk's control range ignore cloud effects and forests when determining LOS and gain Pathfinder. Affected models currently knocked down immediately stand up unless they become knocked down this turn. Enemy models/units beginning their activations in Irusk's control range suffer -3 SPD. Desperate Ground lasts for one turn."
      },
      "spells": [
        "Airburst",
        "Artifice Of Deviation",
        "Battle Lust",
        "Energizer",
        "Fire For Effect",
        "Solid Ground"
      ]
    }
  ]
}
