{
  "name": "Swamp Gobber River Raider",
  "edition": 3,
  "revision": "2022 v1",
  "keywords": [
    "Mercenary",
    "Minion",
    "Privateer",
    "Sea Dog",
    "Solo"
  ],
  "point cost": 1,
  "field allowance": 9,
  "models": [
    {
      "model name": "Raider",
      "spd": 6,
      "str": 3,
      "mat": 5,
      "rat": 5,
      "def": 14,
      "arm": 11,
      "cmd": 5,
      "boxes": 1,
      "base size": 30,
      "attacks": [
        {
          "attack name": "Harpoon Pistol",
          "type": "ranged",
          "rng": 6,
          "rof": 1,
          "pow": 10,
          "abilities": [
            "Reel In"
          ]
        },
        {
          "attack name": "Poisoned Hand Weapon",
          "type": "melee",
          "rng": 0.5,
          "pow": 3,
          "p+s": 6,
          "abilities": [
            "Bane",
            "Weaken"
          ]
        }
      ],
      "abilities": [
        {
          "Mercenary": [
            "Cryx"
          ]
        },
        {
          "Minion": [
            "Circle",
            "Skorne"
          ]
        },
        "Dual Attack",
        "Prowl"
      ]
    }
  ]
}
