{
  "name": "Thagrosh, The Messiah",
  "edition": 3,
  "revision": "2021 v1",
  "keywords": [
    "Legion",
    "Blighted",
    "Ogrun",
    "Warlock"
  ],
  "warbeast points": 28,
  "field allowance": "C",
  "models": [
    {
      "model name": "Thagrosh 2",
      "spd": 6,
      "str": 11,
      "mat": 7,
      "rat": 5,
      "def": 14,
      "arm": 18,
      "fury": 7,
      "cmd": 10,
      "boxes": 20,
      "advantages": [
        "Flight",
        "Tough"
      ],
      "base size": 50,
      "attacks": [
        {
          "attack name": "Blight Fire",
          "type": "ranged",
          "rng": "SP 10",
          "rof": 1,
          "pow": 12,
          "weapon qualities": [
            "Continuous Effect: Fire",
            "Damage Type: Magical"
          ],
          "abilities": [
            "Critical Freeze"
          ]
        },
        {
          "attack name": "Rapture",
          "type": "melee",
          "rng": 2,
          "pow": 7,
          "p+s": 18,
          "weapon qualities": [
            "Damage Type: Magical"
          ],
          "abilities": [
            "Eruption of Ash"
          ]
        },
        {
          "attack name": "Claw",
          "type": "melee",
          "rng": 0.5,
          "pow": 3,
          "p+s": 14
        }
      ],
      "abilities": [
        "Anthac",
        "Blood Spawn",
        "Sacrificial Spawn [Lesser Warlock]"
      ],
      "feat": {
        "name": "Dragon Storm",
        "flavor": "Mortal flesh should not bear the weight of a hidden god. With an ear-rending howl Thagrosh expels a fraction of that power to ignite the blood of all draconic horrors blessed of Everblight. Boiling over with fury and strength, they surge forward to annihilate anything in their paths.",
        "text": "After all friendly models have completed their activations this turn, each warbeast in Thagrosh's battlegroup that is in his control range can make a full advance followed by one basic melee attack. Completely resolve each warbeast's movement and attack before moving on to the next."
      },
      "spells": [
        "Aggravator",
        "Dragon's Blood",
        "Manifest Destiny",
        "Scourge"
      ]
    }
  ]
}
