{
  "name": "Tharn Ravagers",
  "edition": 3,
  "revision": "2018 v1",
  "keywords": [
    "Circle",
    "Unit"
  ],
  "unit size": [
    {
      "min": [
        {
          "Leader": 1
        },
        {
          "Grunts": 3
        },
        {
          "point cost": 10
        }
      ]
    },
    {
      "max": [
        {
          "Leader": 1
        },
        {
          "Grunts": 5
        },
        {
          "point cost": 15
        }
      ]
    }
  ],
  "field allowance": 2,
  "models": [
    {
      "model name": "Leader & Grunts",
      "spd": 6,
      "str": 8,
      "mat": 7,
      "rat": 5,
      "def": 13,
      "arm": 15,
      "cmd": 7,
      "boxes": [
        {
          "Modal A": 5
        },
        {
          "Modal B": 5
        },
        {
          "Modal C": 5
        },
        {
          "Modal D": 5
        },
        {
          "Modal E": 5
        },
        {
          "Modal F": 5
        }
      ],
      "advantages": [
        "Pathfinder",
        "Tough"
      ],
      "base size": 40,
      "attacks": [
        {
          "attack name": "Tharn Axe",
          "type": "melee",
          "rng": 2,
          "pow": 5,
          "p+s": 13,
          "abilities": [
            "Brutal Charge"
          ]
        }
      ],
      "abilities": [
        "Heart Eater",
        "Rapid Healing",
        "Treewalker"
      ]
    }
  ]
}
