{
  "name": "Tharn Ravager White Mane",
  "edition": 3,
  "revision": "2018 v1",
  "keywords": [
    "Circle",
    "Solo"
  ],
  "point cost": 5,
  "field allowance": "C",
  "models": [
    {
      "model name": "White Mane",
      "spd": 6,
      "str": 8,
      "mat": 8,
      "rat": 3,
      "def": 13,
      "arm": 15,
      "cmd": 8,
      "boxes": 8,
      "advantages": [
        "Pathfinder",
        "Tough"
      ],
      "base size": 40,
      "attacks": [
        {
          "attack name": "Tharn Axe",
          "type": "melee",
          "rng": 2,
          "pow": 5,
          "p+s": 13,
          "abilities": [
            "Brutal Charge"
          ]
        }
      ],
      "abilities": [
        "Countercharge",
        "Heart Eater",
        "Rapid Healing",
        "Treewalker",
        "Veteran Leader [Tharn]"
      ]
    }
  ]
}
