{
  "name": "The Withershadow Combine",
  "edition": 3,
  "revision": "2021 v1",
  "keywords": [
    "Cryx",
    "Iron Lich",
    "Unit"
  ],
  "point cost": 7,
  "field allowance": "C",
  "models": [
    {
      "model name": "Maelovus 1",
      "spd": 5,
      "str": 7,
      "mat": 7,
      "rat": 4,
      "def": 13,
      "arm": 15,
      "cmd": 7,
      "boxes": 5,
      "advantages": [
        "Officer",
        "Stealth",
        "Undead"
      ],
      "base size": 30,
      "attacks": [
        {
          "attack name": "Lich Claws",
          "type": "melee",
          "rng": 0.5,
          "pow": 5,
          "p+s": 12,
          "weapon qualities": [
            "Damage Type: Magical"
          ]
        }
      ],
      "abilities": [
        "Attached",
        {
          "Magic Ability [7]": [
            "Dark Fire",
            "Spell Slave"
          ]
        },
        {
          "Soul Taker: Soul Cage": [
            "Strength of Death"
          ]
        }
      ]
    },
    {
      "model name": "Admonia 1",
      "spd": 5,
      "str": 7,
      "mat": 7,
      "rat": 4,
      "def": 13,
      "arm": 15,
      "cmd": 7,
      "boxes": 5,
      "advantages": [
        "Stealth",
        "Undead"
      ],
      "base size": 30,
      "attacks": [
        {
          "attack name": "Lich Claws",
          "type": "melee",
          "rng": 0.5,
          "pow": 5,
          "p+s": 12,
          "weapon qualities": [
            "Damage Type: Magical"
          ]
        }
      ],
      "abilities": [
        "Attached",
        "Black Arts",
        {
          "Magic Ability [7]": [
            "Dark Fire",
            "Sigil of Power"
          ]
        },
        {
          "Soul Taker: Soul Cage": [
            "Strength of Death"
          ]
        }
      ]
    },
    {
      "model name": "Tremulus 1",
      "spd": 5,
      "str": 6,
      "mat": 6,
      "rat": 4,
      "def": 13,
      "arm": 15,
      "cmd": 7,
      "boxes": 5,
      "advantages": [
        "Stealth",
        "Undead"
      ],
      "base size": 30,
      "attacks": [
        {
          "attack name": "Lich Claws",
          "type": "melee",
          "rng": 0.5,
          "pow": 5,
          "p+s": 12,
          "weapon qualities": [
            "Damage Type: Magical"
          ]
        }
      ],
      "abilities": [
        "Attached",
        {
          "Magic Ability [7]": [
            "Dark Fire",
            "Puppet Master"
          ]
        },
        {
          "Soul Taker: Soul Cage": [
            "Strength of Death"
          ]
        }
      ]
    }
  ]
}
