{
  "name": "The Devil's Shadow Mutineers",
  "edition": 3,
  "revision": "2022 v2",
  "keywords": [
    "Mercenary",
    "Privateer",
    "Sea Dog",
    "Thamarite",
    "Unit"
  ],
  "unit size": [
    {
      "only": [
        {
          "Mar": 1
        },
        {
          "Morland": 1
        },
        {
          "Zira": 1
        },
        {
          "point cost": 7
        }
      ]
    }
  ],
  "field allowance": "C",
  "models": [
    {
      "model name": "Mar 1",
      "spd": 6,
      "str": 6,
      "mat": 7,
      "def": 14,
      "arm": 12,
      "cmd": 8,
      "boxes": 5,
      "advantages": [
        "Officer",
        "Tough"
      ],
      "base size": 30,
      "attacks": [
        {
          "attack name": "Saber",
          "type": "melee",
          "rng": 1,
          "pow": 3,
          "p+s": 9,
          "weapon qualities": [
            "Damage Type: Magical",
            "Weapon  Master"
          ]
        }
      ],
      "abilities": [
        "Berserk",
        "Tough",
        "Blood-Bound"
      ]
    },
    {
      "model name": "Morland 1",
      "spd": 6,
      "str": 7,
      "mat": 7,
      "rat": 4,
      "def": 14,
      "arm": 12,
      "cmd": 8,
      "boxes": 5,
      "advantages": [
        "Tough"
      ],
      "base size": 30,
      "attacks": [
        {
          "attack name": "Pistol",
          "type": "ranged",
          "rng": 8,
          "rof": 1,
          "pow": 10,
          "weapon qualities": [
            "Damage Type: Magical"
          ]
        },
        {
          "attack name": "Cutlass",
          "type": "melee",
          "rng": 1,
          "pow": 4,
          "p+s": 11,
          "weapon qualities": [
            "Damage Type: Magical"
          ],
          "abilities": [
            "Combo Strike"
          ]
        },
        {
          "attack name": "Cutlass",
          "type": "melee",
          "rng": 1,
          "pow": 4,
          "p+s": 11,
          "weapon qualities": [
            "Damage Type: Magical"
          ],
          "abilities": [
            "Combo Strike"
          ]
        }
      ],
      "abilities": [
        "Blood-Bound"
      ]
    },
    {
      "model name": "Zira 1",
      "spd": 6,
      "str": 6,
      "mat": 4,
      "rat": 7,
      "def": 14,
      "arm": 12,
      "cmd": 8,
      "boxes": 5,
      "advantages": [
        "Eyeless Sight",
        "Gunfighter",
        "Tough"
      ],
      "base size": 30,
      "attacks": [
        {
          "attack name": "Cursed Pistol",
          "type": "ranged",
          "rng": 8,
          "rof": 1,
          "pow": 10,
          "weapon qualities": [
            "Damage Type: Magical",
            "Weapon Master"
          ],
          "abilities": [
            "Black Penny"
          ]
        },
        {
          "attack name": "Cursed Pistol",
          "type": "ranged",
          "rng": 8,
          "rof": 1,
          "pow": 10,
          "weapon qualities": [
            "Damage Type: Magical",
            "Weapon Master"
          ],
          "abilities": [
            "Black Penny"
          ]
        }
      ],
      "abilities": [
        "Blood-Bound"
      ]
    }
  ]
}
