{
  "name": "The Terrorizer",
  "edition": 3,
  "revision": "2020 v1",
  "keywords": [
    "Skorne",
    "Agonizer",
    "Titan",
    "Lesser",
    "Warbeast"
  ],
  "point cost": 7,
  "field allowance": "C",
  "models": [
    {
      "model name": "Terrorizer",
      "spd": 6,
      "str": 6,
      "mat": 6,
      "rat": 5,
      "def": 13,
      "arm": 14,
      "cmd": 7,
      "advantages": [
        "Parry"
      ],
      "base size": 30,
      "fury": 2,
      "threshold": 8,
      "boxes": {
        "Spiral 1": 3,
        "Spiral 2": 3,
        "Spiral 3": 4,
        "Spiral 4": 3,
        "Spiral 5": 4,
        "Spiral 6": 3
      },
      "attacks": [
        {
          "attack name": "Scattergun",
          "type": "ranged",
          "rng": "SP 8",
          "rof": 1,
          "pow": 12
        },
        {
          "attack name": "Slug Gun",
          "type": "ranged",
          "rng": 4,
          "rof": 1,
          "pow": 14
        },
        {
          "attack name": "Ripper",
          "type": "melee",
          "rng": 0.5,
          "pow": 3,
          "p+s": 9,
          "weapon qualities": [
            "Damage Type: Magical"
          ],
          "abilities": [
            "Inflict Pain"
          ]
        },
        {
          "attack name": "Sword",
          "type": "melee",
          "rng": 1,
          "pow": 3,
          "p+s": 9
        }
      ],
      "abilities": [
        "Animosity [Rasheth]",
        "Bond [Naraash]",
        "Point-Blank",
        "Rage Fueled",
        "Side Step"
      ],
      "animus": "Rush"
    }
  ]
}
