{
  "name": "The Child",
  "edition": 3,
  "revision": "2019 v1",
  "keywords": [
    "Grymkin",
    "Warlock"
  ],
  "warbeast points": 29,
  "field allowance": "C",
  "models": [
    {
      "model name": "Child 1",
      "spd": 6,
      "str": 12,
      "mat": 8,
      "rat": 3,
      "def": 13,
      "arm": 17,
      "fury": 7,
      "cmd": 5,
      "boxes": 18,
      "base size": 50,
      "attacks": [
        {
          "attack name": "Claw",
          "type": "melee",
          "rng": 1,
          "pow": 4,
          "p+s": 16,
          "weapon qualities": [
            "Damage Type: Magical"
          ],
          "abilities": [
            "Critical Pitch"
          ]
        },
        {
          "attack name": "Claw",
          "type": "melee",
          "rng": 1,
          "pow": 4,
          "p+s": 16,
          "weapon qualities": [
            "Damage Type: Magical"
          ],
          "abilities": [
            "Critical Pitch"
          ]
        }
      ],
      "abilities": [
        "Bulldoze",
        "Field Marshal [Pain Response]",
        "Outrage",
        "Retaliatory Strike"
      ],
      "trump arcana": "Wrath",
      "spells": [
        "Abuse",
        "Discord",
        "Force Hammer",
        "Tantrum"
      ]
    }
  ]
}
