{
  "name": "Thrall Warrior",
  "edition": 3,
  "revision": "2016 v2",
  "keywords": [
    "Mercenary",
    "Solo"
  ],
  "models": [
    {
      "model name": "Thrall Warrior",
      "spd": 6,
      "str": 6,
      "mat": 6,
      "rat": 3,
      "def": 11,
      "arm": 14,
      "cmd": 3,
      "boxes": 1,
      "advantages": [
        "Undead"
      ],
      "base size": 30,
      "attacks": [
        {
          "attack name": "Great Sword",
          "type": "melee",
          "rng": 1,
          "pow": 4,
          "p+s": 10,
          "weapon qualities": [
            "Weapon Master"
          ]
        }
      ],
      "abilities": [
        "Created"
      ]
    }
  ]
}
