{
  "name": "Tormentor",
  "edition": 3,
  "revision": "2021 v1",
  "keywords": [
    "Infernal",
    "Heavy",
    "Horror"
  ],
  "point cost": 12,
  "field allowance": "U",
  "models": [
    {
      "model name": "Tormentor",
      "spd": 5,
      "str": 11,
      "mat": 6,
      "rat": 5,
      "def": 11,
      "arm": 18,
      "essence": 4,
      "cmd": 5,
      "boxes": {
        "outer ring": 12,
        "center ring": 8,
        "inner ring": 4
      },
      "advantages": [
        "eyeless sight",
        "soulless"
      ],
      "base size": 50,
      "attacks": [
        {
          "attack name": "Crushing Claw",
          "type": "melee",
          "rng": 1,
          "pow": 6,
          "p+s": 17,
          "weapon qualities": [
            "Open Fist",
            "Damage Type: Magical"
          ],
          "abilities": [
            "Chain Attack: Grab & Smash"
          ]
        },
        {
          "attack name": "Crushing Claw",
          "type": "melee",
          "rng": 1,
          "pow": 6,
          "p+s": 17,
          "weapon qualities": [
            "Open Fist",
            "Damage Type: Magical"
          ],
          "abilities": [
            "Chain Attack: Grab & Smash"
          ]
        }
      ],
      "abilities": [
        "Countercharge",
        "Snacking",
        "Steady"
      ]
    }
  ]
}
