{
  "name": "Trapperkin",
  "edition": 3,
  "revision": "2017 v1",
  "keywords": [
    "Grymkin Solo"
  ],
  "point cost": 3,
  "field allowance": 2,
  "models": [
    {
      "model name": "Trapperkin",
      "spd": 7,
      "str": 5,
      "mat": 6,
      "rat": 4,
      "def": 14,
      "arm": 11,
      "cmd": 5,
      "boxes": 5,
      "advantages": [
        "Advance Deploy",
        "Pathfinder"
      ],
      "base size": 30,
      "attacks": [
        {
          "attack name": "Claws",
          "type": "melee",
          "rng": 0.5,
          "pow": 4,
          "p+s": 9,
          "weapon qualities": [
            "Damage Type: Magical",
            "Weapon Master"
          ]
        }
      ],
      "abilities": [
        "Backstab",
        "Dodge",
        "Sprint",
        "Trap Door"
      ]
    }
  ]
}
