{
  "name": "Trencher Commando Scattergunner",
  "edition": 3,
  "revision": "2021 v1",
  "keywords": [
    "Cygnar",
    "Weapon Attachment"
  ],
  "point cost": 1,
  "field allowance": "U",
  "models": [
    {
      "model name": "Scattergunner",
      "spd": 6,
      "str": 6,
      "mat": 7,
      "rat": 6,
      "def": 13,
      "arm": 13,
      "cmd": 8,
      "boxes": 1,
      "advantages": [
        "Advance Deploy",
        "Pathfinder",
        "Stealth",
        "Tough"
      ],
      "base size": 30,
      "attacks": [
        {
          "attack name": "Scatter Gun",
          "type": "ranged",
          "rng": "SP 8",
          "rof": 1,
          "pow": 12,
          "abilities": [
            "Anatomical Precision"
          ]
        },
        {
          "attack name": "Trench Knife",
          "type": "melee",
          "rng": 0.5,
          "pow": 3,
          "p+s": 9
        }
      ],
      "abilities": [
        "Attachment [Trencher Commando]"
      ]
    }
  ]
}
