{
  "name": "Trencher Cannon Crew",
  "edition": 3,
  "revision": "2021 v1",
  "keywords": [
    "Cygnar",
    "Weapon Crew",
    "Unit"
  ],
  "unit size": [
    {
      "only": [
        {
          "Leader": 1
        },
        {
          "Grunts": 2
        },
        {
          "point cost": 4
        }
      ]
    }
  ],
  "field allowance": 2,
  "models": [
    {
      "model name": "Gunner",
      "spd": 2,
      "str": 6,
      "mat": 6,
      "rat": 6,
      "def": 13,
      "arm": 13,
      "cmd": 5,
      "boxes": 1,
      "advantages": [
        "Advance Deploy",
        "Officer",
        "Tough"
      ],
      "base size": 50,
      "attacks": [
        {
          "attack name": "Cannon",
          "type": "ranged",
          "rng": 13,
          "rof": 1,
          "aoe": 3,
          "pow": 13,
          "abilities": [
            "Brutal Damage"
          ]
        },
        {
          "attack name": "Trench Knife",
          "type": "melee",
          "rng": 0.5,
          "pow": 3,
          "p+s": 9
        }
      ],
      "abilities": [
        "Dig In",
        "Man-Sized",
        "Mobile Artillery",
        "Take Up"
      ]
    },
    {
      "model name": "Grunts",
      "spd": 4,
      "str": 6,
      "mat": 6,
      "rat": 6,
      "def": 13,
      "arm": 13,
      "cmd": 5,
      "boxes": 1,
      "advantages": [
        "Advance Deploy",
        "Tough"
      ],
      "base size": 30,
      "attacks": [
        {
          "attack name": "Military Rifle",
          "type": "ranged",
          "rng": 10,
          "rof": 1,
          "pow": 11
        },
        {
          "attack name": "Trench Knife",
          "type": "melee",
          "rng": 0.5,
          "pow": 3,
          "p+s": 9
        }
      ],
      "abilities": [
        "Dig In"
      ]
    }
  ]
}
