{
  "name": "Trollkin Sorcerer",
  "edition": 3,
  "revision": "2021 v1",
  "keywords": [
    "Trollblood",
    "Weapon Attachment"
  ],
  "point cost": 2,
  "field allowance": "U",
  "models": [
    {
      "model name": "Sorceror",
      "spd": 6,
      "str": 6,
      "mat": 5,
      "rat": 4,
      "def": 12,
      "arm": 14,
      "cmd": 8,
      "boxes": [
        {
          "Model A": 5
        },
        {
          "Model B": 5
        },
        {
          "Model C": 5
        }
      ],
      "advantages": [
        "Tough"
      ],
      "base size": 40,
      "attacks": [
        {
          "attack name": "Rune Axe",
          "type": "melee",
          "rng": 1,
          "pow": 4,
          "p+s": 10,
          "weapon qualities": [
            "Damage Type: Magical"
          ]
        }
      ],
      "abilities": [
        "Attachment [Trollkin]",
        "Attachment Deployment",
        "Combat Caster",
        {
          "Combat Caster": [
            "Disbinding",
            "Razor Wind",
            "Rituals of Power"
          ]
        }
      ]
    }
  ]
}
