{
  "name": "Tyrant Commander & Standard Bearer",
  "edition": 3,
  "revision": "2017 v1",
  "keywords": [
    "Skorne",
    "Unit"
  ],
  "unit size": [
    {
      "only": [
        {
          "Tyrant": 1
        },
        {
          "Bearer": 1
        },
        {
          "point cost": 6
        }
      ]
    }
  ],
  "field allowance": 2,
  "models": [
    {
      "model name": "Tyrant",
      "spd": 5,
      "str": 7,
      "mat": 8,
      "rat": 4,
      "def": 12,
      "arm": 16,
      "cmd": 10,
      "boxes": 8,
      "advantages": [
        "Officer",
        "Tough"
      ],
      "base size": 40,
      "attacks": [
        {
          "attack name": "Halberd",
          "type": "melee",
          "rng": 2,
          "pow": 5,
          "p+s": 12,
          "weapon qualities": [
            "Weapon Master"
          ]
        }
      ],
      "abilities": [
        {
          "Battle Plan": [
            "March",
            "Push To The Limit",
            "Reveille"
          ]
        },
        "Set Defense"
      ]
    },
    {
      "model name": "Standard Bearer",
      "spd": 5,
      "str": 6,
      "mat": 6,
      "rat": 4,
      "def": 13,
      "arm": 14,
      "cmd": 8,
      "boxes": 5,
      "base size": 30,
      "attacks": [
        {
          "attack name": "Sword",
          "type": "melee",
          "rng": 0.5,
          "pow": 3,
          "p+s": 9
        }
      ],
      "abilities": [
        "Standard Bearer"
      ]
    }
  ]
}
