{
  "name": "Tyrant Xerxis",
  "edition": 3,
  "revision": "2019 v1",
  "keywords": [
    "Skorne",
    "Warlock"
  ],
  "warbeast points": 28,
  "field allowance": "C",
  "models": [
    {
      "model name": "Xerxis 1",
      "spd": 5,
      "str": 8,
      "mat": 8,
      "rat": 4,
      "def": 13,
      "arm": 18,
      "fury": 5,
      "cmd": 10,
      "boxes": 19,
      "advantages": [
        "Tough"
      ],
      "base size": 40,
      "attacks": [
        {
          "attack name": "Pillar of Halaak",
          "type": "melee",
          "rng": 2,
          "pow": 6,
          "p+s": 14,
          "weapon qualities": [
            "Damage Type: Magical"
          ],
          "abilities": [
            "Combo Strike"
          ]
        },
        {
          "attack name": "Pillar of Halaak",
          "type": "melee",
          "rng": 2,
          "pow": 6,
          "p+s": 14,
          "weapon qualities": [
            "Damage Type: Magical"
          ],
          "abilities": [
            "Combo Strike"
          ]
        }
      ],
      "abilities": [
        {
          "Battle Plan": [
            "March",
            "Push To The Limit",
            "Stir The Blood"
          ]
        },
        "Overtake",
        "Great Power",
        "Tactician [Faction Warrior]"
      ],
      "feat": {
        "name": "Total Annihilation",
        "flavor": "A mortitheurge utterly dedicated to the arts of war, Xerxis can call upon his raw power to harden the flesh of his warriors and bend their minds to a single, bloody purpose. Unleashed, they fall upon the enemy like a storm of threshing iron.",
        "text": "While in Xerxis' control range, friendly Faction models gain an additional die on their melee damage rolls. While in Xerxis' control range and B2B with another friendly Faction model, friendly Faction models gain +2 ARM. Total Annihilation lasts for one round."
      },
      "spells": [
        "Defender's Ward",
        "Energizer",
        "Tactical Supremacy"
      ]
    }
  ]
}
