{
  "name": "Una The Falconer",
  "edition": 3,
  "revision": "2021 v1",
  "keywords": [
    "Circle",
    "Blackclad",
    "Solo"
  ],
  "point cost": 3,
  "field allowance": "C",
  "models": [
    {
      "model name": "Una 1",
      "spd": 6,
      "str": 5,
      "mat": 5,
      "rat": 6,
      "def": 15,
      "arm": 13,
      "cmd": 7,
      "boxes": 5,
      "advantages": [
        "Pathfinder"
      ],
      "base size": 30,
      "attacks": [
        {
          "attack name": "Bird of Prey",
          "type": "ranged",
          "rng": "CTRL",
          "rof": 3,
          "pow": 10,
          "abilities": [
            "Black Penny"
          ]
        },
        {
          "attack name": "Talonstrike",
          "type": "melee",
          "rng": 2,
          "pow": 4,
          "p+s": 9,
          "weapon qualities": [
            "Damage Type: Magical"
          ]
        }
      ],
      "abilities": [
        "Affinity [Warbeasts With Flight]",
        "Bird's Eye",
        "Lesser Warlock"
      ],
      "spells": [
        "Dog Pile",
        "Guardian Beast"
      ]
    }
  ]
}
