{
  "name": "Venator Flayer Cannon Crew",
  "edition": 3,
  "revision": "2016 v1",
  "keywords": [
    "Skorne",
    "Weapon Crew",
    "Unit"
  ],
  "unit size": [
    {
      "only": [
        {
          "Gunner": 1
        },
        {
          "Grunt": 1
        },
        {
          "point cost": 5
        }
      ]
    }
  ],
  "field allowance": 2,
  "models": [
    {
      "model name": "Gunner",
      "spd": 2,
      "str": 5,
      "mat": 5,
      "rat": 5,
      "def": 13,
      "arm": 13,
      "cmd": 5,
      "boxes": 1,
      "advantages": [
        "Officer"
      ],
      "base size": 50,
      "attacks": [
        {
          "attack name": "Flayer Cannon",
          "type": "ranged",
          "rng": 12,
          "rof": "d3",
          "pow": 13,
          "abilities": [
            "Volume Fire",
            "Fast Reload"
          ]
        },
        {
          "attack name": "Sword",
          "type": "melee",
          "rng": 0.5,
          "pow": 3,
          "p+s": 8
        }
      ],
      "abilities": [
        "Man-Sized",
        "Mobile Artillery",
        "Take Up"
      ]
    },
    {
      "model name": "Grunt",
      "spd": 4,
      "str": 5,
      "mat": 5,
      "rat": 5,
      "def": 13,
      "arm": 13,
      "cmd": 5,
      "boxes": 1,
      "base size": 30,
      "attacks": [
        {
          "attack name": "Sword",
          "type": "melee",
          "rng": 0.5,
          "pow": 3,
          "p+s": 8
        }
      ]
    }
  ]
}
