{
  "name": "Vigilant",
  "edition": 3,
  "version": "2021 v1",
  "keywords": [
    "Protectorate",
    "Light",
    "Warjack"
  ],
  "point cost": 8,
  "field allowance": "U",
  "models": [
    {
      "model name": "Vigilant",
      "spd": 5,
      "str": 9,
      "mat": 6,
      "rat": 5,
      "def": 12,
      "arm": 17,
      "advantages": [
        "Construct"
      ],
      "base size": 40,
      "boxes": {
        "grid": [
          [
            3,
            1
          ],
          [
            4,
            1
          ],
          [
            5,
            1
          ],
          [
            2,
            2
          ],
          [
            3,
            2
          ],
          [
            4,
            2
          ],
          [
            5,
            2
          ],
          [
            6,
            2
          ],
          [
            2,
            3
          ],
          [
            3,
            3
          ],
          [
            4,
            3
          ],
          [
            5,
            3
          ],
          [
            6,
            3
          ],
          [
            2,
            4
          ],
          [
            3,
            4
          ],
          [
            4,
            4
          ],
          [
            5,
            4
          ],
          [
            6,
            4
          ],
          [
            2,
            5
          ],
          [
            3,
            5
          ],
          [
            4,
            5
          ],
          [
            5,
            5
          ],
          [
            6,
            5
          ],
          [
            3,
            6
          ],
          [
            4,
            6
          ],
          [
            5,
            6
          ]
        ],
        "systems": [
          {
            "Left Arm": [
              [
                5,
                1
              ],
              [
                4,
                2
              ],
              [
                5,
                2
              ]
            ]
          },
          {
            "Movement": [
              [
                6,
                2
              ],
              [
                5,
                3
              ],
              [
                6,
                3
              ]
            ]
          },
          {
            "Cortex": [
              [
                5,
                4
              ],
              [
                6,
                4
              ],
              [
                6,
                5
              ]
            ]
          },
          {
            "Right Arm": [
              [
                4,
                5
              ],
              [
                5,
                5
              ],
              [
                5,
                6
              ]
            ]
          }
        ]
      },
      "attacks": [
        {
          "attack name": "Shield Fist",
          "type": "melee",
          "loc": "L",
          "rng": 0.5,
          "pow": 2,
          "p+s": 11,
          "weapon qualities": [
            "Open Fist",
            "Shield"
          ]
        },
        {
          "attack name": "Shield Fist",
          "type": "melee",
          "loc": "R",
          "rng": 0.5,
          "pow": 2,
          "p+s": 11,
          "weapon qualities": [
            "Open Fist",
            "Shield"
          ]
        }
      ],
      "abilities": [
        "Girded",
        "Roadblock"
      ]
    }
  ]
}
