{
  "name": "Void Seer Mordikaar",
  "edition": 3,
  "revision": "2018 v1",
  "keywords": [
    "Skorne",
    "Warlock"
  ],
  "warbeast points": 29,
  "field allowance": "C",
  "models": [
    {
      "model name": "Mordikaar 1",
      "spd": 6,
      "str": 5,
      "mat": 5,
      "rat": 6,
      "def": 15,
      "arm": 15,
      "fury": 7,
      "cmd": 8,
      "boxes": 16,
      "base size": 30,
      "attacks": [
        {
          "attack name": "Death Blast",
          "type": "ranged",
          "rng": 10,
          "rof": 1,
          "aoe": 3,
          "pow": 13,
          "weapon qualities": [
            "Damage Type: Magical"
          ],
          "abilities": [
            "Life Drinker"
          ]
        },
        {
          "attack name": "Eidolon",
          "type": "melee",
          "rng": 0.5,
          "pow": 6,
          "p+s": 11,
          "weapon qualities": [
            "Damage Type: Magical"
          ],
          "abilities": [
            "Life Drinker"
          ]
        }
      ],
      "abilities": [
        "Elite Cadre [Void Spirits]",
        "Irregulars [Void Spirits]",
        "Poltergeist",
        "Soul Taker: Cull Soul"
      ],
      "feat": {
        "name": "Void Wind",
        "flavor": "Void Seer Mordikaar is a master manipulator of the unfathomable emtiness of the Void. With effort he can call upon these energies to enshroud the forces under his control, protecting them with manifestations of ghostly wind.",
        "text": "While in Mordikaar's control range, friendly Faction models gain +3 DEF and Poltergeist. Void Wind lasts for one round."
      },
      "spells": [
        "Essence Blast",
        "Hollow",
        "Host of Shadows",
        "Manifest Void",
        "Revive"
      ]
    }
  ]
}
