{
  "name": "Warwitch Initiate Deneghra",
  "edition": 3,
  "revision": "2021 v1",
  "keywords": [
    "Cryx",
    "Solo"
  ],
  "point cost": 5,
  "field allowance": "C",
  "models": [
    {
      "model name": "Deneghrar 0",
      "spd": 7,
      "str": 5,
      "mat": 5,
      "rat": 4,
      "def": 15,
      "arm": 14,
      "cmd": 6,
      "boxes": 5,
      "advantages": [
        "Parry",
        "Stealth"
      ],
      "base size": 30,
      "attacks": [
        {
          "attack name": "Shadow Blade",
          "type": "melee",
          "rng": 0.5,
          "pow": 4,
          "p+s": 9,
          "weapon qualities": [
            "Damage Type: Magical"
          ],
          "abilities": [
            "Shadow Bind"
          ]
        },
        {
          "attack name": "Shadow Blade",
          "type": "melee",
          "rng": 0.5,
          "pow": 4,
          "p+s": 9,
          "weapon qualities": [
            "Damage Type: Magical"
          ],
          "abilities": [
            "Shadow Bind"
          ]
        }
      ],
      "abilities": [
        "Battlegroup Controller",
        "Soul Taker: Cull Soul"
      ],
      "spells": [
        "Curse of Shadows",
        "Venom",
        "Witch Bond"
      ]
    }
  ]
}
