{
  "name": "Winter Guard Mortar Crew",
  "edition": 3,
  "revision": "2016 v1",
  "keywords": [
    "Khador",
    "Weapon Crew",
    "Unit"
  ],
  "unit size": [
    {
      "only": [
        {
          "Gunner": 1
        },
        {
          "Grunts": 1
        },
        {
          "point cost": 3
        }
      ]
    }
  ],
  "field allowance": 2,
  "models": [
    {
      "model name": "Gunner",
      "spd": 2,
      "str": 5,
      "mat": 5,
      "rat": 5,
      "def": 12,
      "arm": 13,
      "cmd": 5,
      "boxes": 1,
      "advantages": [
        "Officer"
      ],
      "base size": 50,
      "attacks": [
        {
          "attack name": "Mortar",
          "type": "ranged",
          "rng": 18,
          "rof": 1,
          "aoe": 4,
          "pow": 16,
          "abilities": [
            "Arcing Fire",
            "High-Explosive",
            "Minimum Range [8\"]"
          ]
        },
        {
          "attack name": "Axe",
          "type": "melee",
          "rng": 0.5,
          "pow": 3,
          "p+s": 8
        }
      ],
      "abilities": [
        "Man-Sized",
        "Mobile Artillery",
        "Take Up"
      ]
    },
    {
      "model name": "Grunt",
      "spd": 4,
      "str": 5,
      "mat": 5,
      "rat": 5,
      "def": 12,
      "arm": 13,
      "cmd": 5,
      "boxes": 1,
      "base size": 30,
      "attacks": [
        {
          "attack name": "Blunderbuss",
          "type": "ranged",
          "rng": 8,
          "rof": 1,
          "pow": 12
        },
        {
          "attack name": "Axe",
          "type": "melee",
          "rng": 0.5,
          "pow": 3,
          "p+s": 8
        }
      ]
    }
  ]
}
