{
  "name": "Winter Guard Artillery Kapitan",
  "edition": 3,
  "revision": "2021 v1",
  "keywords": [
    "Khador",
    "Solo"
  ],
  "point cost": 3,
  "field allowance": 2,
  "models": [
    {
      "model name": "Artillery Kapitan",
      "spd": 6,
      "str": 6,
      "mat": 6,
      "rat": 6,
      "def": 12,
      "arm": 13,
      "cmd": 8,
      "boxes": 5,
      "advantages": [
        "Tough"
      ],
      "base size": 30,
      "attacks": [
        {
          "attack name": "Blunderbuss",
          "type": "ranged",
          "rng": 8,
          "rof": 1,
          "pow": 12
        },
        {
          "attack name": "Axe",
          "type": "melee",
          "rng": 0.5,
          "pow": 3,
          "p+s": 9
        }
      ],
      "abilities": [
        "Artillerist",
        "Fire & Displace",
        "Veteran Leader [Winter Guard]"
      ]
    }
  ]
}
