{
  "name": "Wolves of Orboros",
  "edition": 3,
  "revision": "2021 v1",
  "keywords": [
    "Circle",
    "Wolf Sworn",
    "Unit"
  ],
  "unit size": [
    {
      "min": [
        {
          "Leader": 1
        },
        {
          "Grunts": 5
        },
        {
          "point cost": 7
        }
      ]
    },
    {
      "max": [
        {
          "Leader": 1
        },
        {
          "Grunts": 9
        },
        {
          "point cost": 11
        }
      ]
    }
  ],
  "field allowance": 3,
  "models": [
    {
      "model name": "Leader & Grunts",
      "spd": 6,
      "str": 6,
      "mat": 6,
      "rat": 4,
      "def": 13,
      "arm": 13,
      "cmd": 7,
      "boxes": 1,
      "advantages": [
        "Combined Melee Attack",
        "Pathfinder"
      ],
      "base size": 30,
      "attacks": [
        {
          "attack name": "Cleft Spear",
          "type": "melee",
          "rng": 2,
          "pow": 5,
          "p+s": 11,
          "abilities": [
            "Powerful Charge"
          ]
        }
      ]
    }
  ]
}
