{
  "name": "Zuriel",
  "edition": 3,
  "revision": "2021 v1",
  "keywords": [
    "Legion",
    "Nephilim",
    "Heavy",
    "Warbeast"
  ],
  "point cost": 16,
  "field allowance": "C",
  "models": [
    {
      "model name": "Zuriel 1",
      "spd": 6,
      "str": 11,
      "mat": 8,
      "rat": 6,
      "def": 13,
      "arm": 17,
      "cmd": 6,
      "advantages": [
        "Eyeless Sight",
        "Flight"
      ],
      "base size": 50,
      "fury": 4,
      "threshold": 10,
      "boxes": {
        "Spiral 1": 6,
        "Spiral 2": 6,
        "Spiral 3": 6,
        "Spiral 4": 5,
        "Spiral 5": 6,
        "Spiral 6": 5
      },
      "attacks": [
        {
          "attack name": "Dragon Breath",
          "type": "ranged",
          "rng": "SP 8",
          "rof": 1,
          "pow": 12,
          "weapon qualities": [
            "Continuous Effect: Fire",
            "Damage Type: Fire"
          ]
        },
        {
          "attack name": "War Blade",
          "type": "melee",
          "rng": 2,
          "pow": 5,
          "p+s": 16,
          "abilities": [
            "Combo Strike"
          ]
        },
        {
          "attack name": "War Blade",
          "type": "melee",
          "rng": 2,
          "pow": 5,
          "p+s": 16,
          "abilities": [
            "Combo Strike"
          ]
        }
      ],
      "abilities": [
        "Bond [Rhyas or Saeryn]",
        "Dual Attack",
        "Kill Shot",
        "Precision Strike"
      ],
      "animus": "Elusive"
    }
  ]
}
