{
    "name": "Ashlynn D'Elyse",
    "edition": 3,
    "revision": "2019 v1",
    "keywords": [
        "Mercenary",
        "Llaelese",
        "Morrowan",
        "Warcaster"
    ],
    "warjack points": 29,
    "field allowance": "C",
    "models": [
        {
            "Ashlynn 1": {
                "spd": 6,
                "str": 5,
                "mat": 8,
                "rat": 7,
                "def": 17,
                "arm": 15,
                "focus": 6,
                "cmd": 9,
                "boxes": 16,
                "advantages": ["Parry"],
                "base size": 30,
                "attacks": [
                    {
                        "Hand Cannon": {
                            "type": "ranged",
                            "rng": 12,
                            "rof": 1,
                            "pow": 12
                        }
                    },
                    {
                        "Nemesis": {
                            "type": "melee",
                            "rng": 1,
                            "pow": 6,
                            "p+s": 11,
                            "weapon qualities": [
                                "Damage Type: Magical",
                                "Weapon Master"
                            ],
                            "abilities": ["Lunge"]
                        }
                    }
                ],
                "abilities": [
                    {
                        "Mercenary": [
                            "Crucible Guard",
                            "Cygnar",
                            "Protectorate"
                        ]
                    },
                    "Dual Attack",
                    "Riposte",
                    "Veteran Leader [Llaelese]"
                ],
                "feat": {
                    "name": "Roulette",
                    "flavor": "Through heightened skills and senses bolstered by her arcane power, Ashlynn stacks the odds of battle around her to cheat fate. A true gambler never takes risks -- and Ashlynn's games carry the highest stakes.",
                    "text": "While in Ashlynn's control range, models gain two additional dice on their attack rolls. For each of those attack rolls, you choose two of the dice rolled to be discarded. Roulette lasts for one round."
                },
                "spells": [
                    "Admonition",
                    "Chosen Ground",
                    "Distraction",
                    "Flashing Blade",
                    "Gallows",
                    "Quicken"
                ]
            }
        }
    ]
}
