{
    "name": "Captain Sam MacHorne & The Devil Dogs",
    "edition": 3,
    "revision": "2022 v1",
    "keywords": [
        "Mercenary",
        "Ordic",
        "Unit"
    ],
    "unit size": [
        {
            "min": [
                {"MacHorne": 1},
                {"Grunts": 5},
                {"point cost": 9}
            ]
        },
        {
            "max": [
                {"MacHorne": 1},
                {"Grunts": 9},
                {"point cost": 14}
            ]
        }
    ],
    "field allowance": "C",
    "models": [
        {
            "MacHorne 1": {
                "spd": 6,
                "str": 6,
                "mat": 7,
                "rat": 6,
                "def": 15,
                "arm": 12,
                "cmd": 9,
                "boxes": 5,
                "advantages": [
                    "Jack Marhsal",
                    "Officer" 
                ],
                "base size": 30,
                "attacks": [
                    {
                        "Hand Cannon": {
                            "type": "ranged",
                            "rng": 12,
                            "rof": 2,
                            "pow": 12
                        }
                    },
                    {
                        "Stun Sword": {
                            "type": "melee",
                            "rng": 0.5,
                            "pow": 4,
                            "p+s": 10,
                            "abilities": ["Stall"]
                        }
                    }
                ],
                "abilities": [
                    {
                        "Mercenaries": [
                            "Crucible Guard",
                            "Cygnar",
                            "Protectorate"
                        ]
                    },
                    "Drive: Reposition [5\"]",
                    "Iron Sentinel"
                ]
            }
        },
        {
            "Grunts": {
                "spd": 6,
                "str": 6,
                "mat": 6,
                "rat": 4,
                "def": 13,
                "arm": 13,
                "cmd": 7,
                "boxes": 1,
                "base size": 30,
                "attacks": [
                    {
                        "Slug Gun": {
                            "type": "ranged",
                            "rng": 4,
                            "rof": 1,
                            "pow": 14
                        }
                    },
                    {
                        "Net": {
                            "type": "ranged",
                            "rng": 4,
                            "rof": 1,
                            "aoe": 3,
                            "abilities": [
                                "Cumbersome",
                                "Knockdown"
                            ]
                        }
                    },
                    {
                        "Pick Axe": {
                            "type": "melee",
                            "rng": 1,
                            "pow": 4,
                            "p+s": 10
                        }
                    }
                ],
                "abilities": ["Dismantle"]
            }
        }
    ]
}
