{
    "name": "Colbie Sterling, Captain of the BRI",
    "edition": 3,
    "revision": "2022 v1",
    "keywords": [
        "Mercenary",
        "Solo"
    ],
    "point cost": 2,
    "field allowance": "C",
    "models": [
        {
            "Colbie 1": {
                "spd": 6,
                "str": 6,
                "mat": 6,
                "rat": 6,
                "def": 14,
                "arm": 13,
                "cmd": 7,
                "boxes": 5,
                "advantages": [
                    "Gunfighter",
                    "Jack Marshal"
                ],
                "base size": 30,
                "attacks": [
                    {
                        "Slug Gun": {
                            "type": "ranged",
                            "rng": 4,
                            "rof": 1,
                            "pow": 14
                        }
                    },
                    {
                        "Wrench": {
                            "type": "melee",
                            "rng": 0.5,
                            "pow": 3,
                            "p+s": 9
                        }
                    }
                ],
                "abilities": [
                    {
                        "Mercenary": [
                            "Crucible Guard",
                            "Cygnar",
                            "Khador",
                            "Protectorate"
                        ]
                    },
                    "Dodge",
                    "Drive: Reposition [3\"]",
                    "Mechanikally Adept",
                    "Repair [d3 + 1]"
                ]
            }
        }
    ]
}
