{
    "name": "Death Archon",
    "edition": 3,
    "revision": "2022 v1",
    "keywords": [
        "Mercenary",
        "Minion",
        "Solo"
    ],
    "point cost": 9,
    "field allowance": 2,
    "models": [
        {
            "Archon": {
                "spd": 6,
                "str": 9,
                "mat": 7,
                "rat": 3,
                "def": 14,
                "arm": 17,
                "cmd": 10,
                "boxes": 15,
                "advantages": ["Flight"],
                "base size": 50,
                "attacks": [
                    {
                        "Iron Reaper": {
                            "type": "melee",
                            "rng": 2,
                            "pow": 6,
                            "p+s": 15,
                            "weapon qualities": ["Damage Type: Magical"],
                            "abilities": [
                                "Blood Reaper",
                                "Chain Attack: Death Chill"
                            ]
                        }
                    },
                    {
                        "Iron Reaper": {
                            "type": "melee",
                            "rng": 2,
                            "pow": 6,
                            "p+s": 15,
                            "weapon qualities": ["Damage Type: Magical"],
                            "abilities": [
                                "Blood Reaper",
                                "Chain Attack: Death Chill"
                            ]
                        }
                    }
                ],
                "abilities": [
                    "Animosity [Other Types of Archons]",
                    {
                        "Mercenary": [
                            "Convergence",
                            "Crucible Guard",
                            "Cryx",
                            "Cygnar",
                            "Khador",
                            "Protectorate",
                            "Retribution"
                        ]
                    },
                    {
                        "Minion": [
                            "Circle",
                            "Grymkin",
                            "Legion",
                            "Skorne",
                            "Trollbloods"
                        ]
                    },
                    "Bring Out Your Dead! (Death Archon)",
                    {
                        "Carnage Incarnate": [
                            "Divine Inspiration",
                            "Mortal Fear",
                            "Spectral Flicker"
                        ]
                    },
                    "Divine Manifestation",
                    "Vendetta [Other Types of Archon]"
                ]
            }
        }
    ]
}
