{
    "name": "Dez",
    "edition": 3,
    "revision": "2019 v1",
    "keywords": [
        "Mercenary",
        "Ordic",
        "Solo"
    ],
    "point cost": 4,
    "field allowance": "C",
    "models": [
        {
            "Dez 1": {
                "spd": 5,
                "str": 6,
                "mat": 6,
                "rat": 6,
                "def": 13,
                "arm": 16,
                "cmd": 7,
                "boxes": 5,
                "advantages": ["Tough"],
                "base size": 40,
                "attacks": [
                    {
                        "Bazooka": {
                            "type": "ranged",
                            "rng": 12,
                            "rof": 1,
                            "pow": 14,
                            "weapon qualities": ["Damage Type: Magical"],
                            "abilities": ["Momentum"]
                        }
                    },
                    {
                        "Dagger": {
                            "type": "melee",
                            "rng": 0.5,
                            "pow": 2,
                            "p+s": 8
                        }
                    }
                ],
                "abilities": [
                    {
                        "Mercenary": [
                            "Crucible Guard",
                            "Cygnar",
                            "Khador",
                            "Protectorate"
                        ]
                    },
                    "Buried Treasure",
                    "Dig In",
                    "Money Is Power"
                ]
            }
        }
    ]
}
