{
    "name": "Dirty Meg",
    "edition": 3,
    "revision": "2022 v1",
    "keywords": [
        "Mercenary",
        "Privateer",
        "Solo"
    ],
    "point cost": 2,
    "field allowance": "C",
    "models": [
        {
            "Meg 1": {
                "spd": 5,
                "str": 6,
                "mat": 6,
                "rat": 5,
                "def": 13,
                "arm": 13,
                "cmd": 8,
                "boxes": 5,
                "advantages": [
                    "Jack Marshal",
                    "Tough"
                ],
                "base size": 30,
                "attacks": [
                    {
                        "Junker": {
                            "type": "ranged",
                            "rng": 10,
                            "rof": 1,
                            "pow": 12,
                            "abilities": ["Stall"]
                        }
                    },
                    {
                        "Great Wrench": {
                            "type": "melee",
                            "rng": 0.5,
                            "pow": 3,
                            "p+s": 9
                        }
                    }
                ],
                "abilities": [
                    {
                        "Mercenary": [
                            "Crucible Guard",
                            "Cygnar",
                            "Khador",
                            "Protectorate"
                        ]
                    },
                    "Drive: Off-Road",
                    "Iron Sentinel",
                    "Repair [d6]"
                ]
            }
        }
    ]
}
