{
    "name": "Doc Killingsworth",
    "edition": 3,
    "revision": "2018 v1",
    "keywords": [
        "Mercenary",
        "Privateer",
        "Solo"
    ],
    "point cost": 4,
    "field allowance": "C",
    "models": [
        {
            "Killingsworth 1": {
                "spd": 5,
                "str": 7,
                "mat": 6,
                "rat": 5,
                "def": 12,
                "arm": 13,
                "cmd": 7,
                "boxes": 5,
                "advantages": ["Tough"],
                "base size": 30,
                "attacks": [
                    {
                        "Dirty Throwing Knives": {
                            "type": "ranged",
                            "rng": 6,
                            "rof": 1,
                            "pow": 9,
                            "abilities": [
                                "Poison",
                                "Thrown"
                            ]
                        }
                    },
                    {
                        "Meat Cleaver": {
                            "type": "melee",
                            "rng": 0.5,
                            "pow": 4,
                            "p+s": 11
                        }
                    }
                ],
                "abilities": [
                    {
                        "Mercenaries": [
                            "Crucible Guard",
                            "Cryx",
                            "Cygnar",
                            "Khador",
                            "Protectorate"
                        ]
                    },
                    "Anatomical Precision",
                    "Heal [d6]",
                    "No, I'm Fine"
                ]
            }
        }
    ]
}
