{
    "name": "Dreyfus & Flubbin, Storm Patrol",
    "edition": 3,
    "revision": "2021 v1",
    "keywords": [
        "Mercenary",
        "Minion",
        "Storm Knight",
        "Gobber",
        "Solo"
    ],
    "point cost": 5,
    "field allowance": "C",
    "models": [
        {
            "Dreyfus 2 & Flubbin 2": {
                "spd": 7,
                "str": 6,
                "mat": 7,
                "rat": 6,
                "def": 13,
                "arm": 17,
                "cmd": 9,
                "boxes": 8,
                "advantages": [
                    "Flight",
                    "Immunity: Electricity"
                ],
                "base size": 50,
                "attacks": [
                    {
                        "Gravity Bomb": {
                            "type": "ranged",
                            "rng": 4,
                            "rof": 1,
                            "aoe": 3,
                            "pow": 12,
                            "abilities": [
                                "Brutal Damage",
                                "Sky-Dropped"
                            ]
                        }
                    },
                    {
                        "Voltaic Lance": {
                            "type": "melee",
                            "rng": 2,
                            "pow": 6,
                            "p+s": 12,
                            "abilities": [
                                "Brutal Charge",
                                "Free Fall"
                            ]
                        }
                    }
                ],
                "abilities": [
                    {
                        "Mercenary": [
                            "Crucible Guard",
                            "Cygnar",
                            "Khador"
                        ]
                    },
                    {"Minion": ["Trollblood"]},
                    "Partisan [Cygnar]",
                    "Dogfighter",
                    "Dual Attack",
                    "Flying High",
                    "Reposition [5\"]"
                ]
            }
        }
    ]
}
