{
    "name": "Eiryss, Mage Hunter of Ios",
    "edition": 3,
    "revision": "2022 v1",
    "keywords": [
        "Mercenary",
        "Solo"
    ],
    "point cost": 6,
    "field allowance": "C",
    "models": [
        {
            "Eiryss 1": {
                "spd": 7,
                "str": 4,
                "mat": 6,
                "rat": 9,
                "def": 16,
                "arm": 12,
                "cmd": 9,
                "boxes": 5,
                "advantages": [
                    "Advance Deploy",
                    "Pathfinder",
                    "Stealth"
                ],
                "base size": 30,
                "attacks": [
                    {
                        "Crossbow": {
                            "type": "ranged",
                            "rng": 12,
                            "rof": 1,
                            "pow": 10,
                            "weapon qualities": ["Damage Type: Magical"],
                            "abilities": [
                                {
                                    "Attack Type": [
                                        "Deadly Shot",
                                        "Disruptor Bolt",
                                        "Phantom Seeker"
                                    ]
                                }
                            ]
                        }
                    },
                    {
                        "Bayonet": {
                            "type": "melee",
                            "rng": 0.5,
                            "pow": 2,
                            "p+s": 6,
                            "weapon qualities": ["Damage Type: Magical"]
                        }
                    },
                    {
                        "Saber": {
                            "type": "melee",
                            "rng": 0.5,
                            "pow": 3,
                            "p+s": 7,
                            "weapon qualities": ["Damage Type: Magical"]
                        }
                    }
                ],
                "abilities": [
                    {
                        "Mercenary": [
                            "Cygnar",
                            "Khador",
                            "Protectorate",
                            "Retribution"
                        ]
                    },
                    "Partisan [Retribution]"
                ]
            }
        }
    ]
}
