{
    "name": "Exulon Thexus",
    "edition": 3,
    "revision": "2022 v1",
    "keywords": [
        "Mercenary",
        "Cephalyx",
        "Warcaster"
    ],
    "warjack points": 29,
    "field allowance": "C",
    "models": [
        {
            "Thexus 1": {
                "spd": 6,
                "str": 6,
                "mat": 5,
                "rat": 4,
                "def": 14,
                "arm": 14,
                "focus": 8,
                "cmd": 10,
                "boxes": 15,
                "advantages": ["Pathfinder"],
                "base size": 40,
                "attacks": [
                    {
                        "Prosthetic Blades": {
                            "type": "melee",
                            "rng": 1,
                            "pow": 5,
                            "p+s": 11,
                            "abilities": ["Inflict Pain"]
                        }
                    }
                ],
                "abilities": [
                    {
                        "Mercenary": ["Cryx"]
                    },
                    "Selective",
                    "Aggressive Reaction",
                    "Sacrificial Pawn [Monstrosity]",
                    "Spell Driver"
                ],
                "feat": {
                    "name": "Telekinetic Tide",
                    "flavor": "The mental powers of Exulon Thexus are vast and nearly inexhaustible, and through them he can reach into the world to seize hold of his enemies and manipulate them at will. Transformed into mere pieces on a board game, his enemies are helpless to resist the tide of his arcane might.",
                    "text": "Push each enemy non-warcaster, non-warlock model currently in Thexus' control range 2\" in any direction."
                },
                "spells": [
                    "Deceleration",
                    "Hex Blast",
                    "Influence",
                    "Psycho Surgery",
                    "Rampager",
                    "Telekinesis"
                ]
            }
        }
    ]
}
