{
    "name": "Flugwug The Filcher",
    "edition": 3,
    "revision": "2019 v1",
    "keywords": [
        "Mercenary",
        "Minion",
        "Croak",
        "Solo"
    ],
    "point cost": 4,
    "field allowance": "C",
    "models": [
        {
            "Flugwug 1": {
                "spd": 6,
                "str": 5,
                "mat": 7,
                "rat": 4,
                "def": 14,
                "arm": 14,
                "cmd": 6,
                "boxes": 5,
                "advantages": [
                    "Amphibious",
                    "Immunity: Corrosion",
                    "Stealth"
                ],
                "base size": 30,
                "attacks": [
                    {
                        "Sticky Tongue": {
                            "type": "melee",
                            "rng": 1,
                            "pow": 5,
                            "p+s": 10,
                            "abilities": [
                                "Chain Strike",
                                "Pull",
                                "Rapid Strike"
                            ]
                        }
                    }
                ],
                "abilities": [
                    {"Mercenary": ["Cryx"]},
                    {
                        "Minion": [
                            "Circle",
                            "Legion",
                            "Skorne",
                            "Trollbloods"
                        ]
                    },
                    "Greased Palms",
                    "Jump",
                    "Money Is Power",
                    "Mug",
                    "Reposition [5\"]"
                ]
            }
        }
    ]
}
