{
    "name": "Ghordson Driller",
    "edition": 3,
    "revision": "2022 v1",
    "keywords": [
        "Mercenary",
        "Rhulic",
        "Heavy",
        "Warjack"
    ],
    "point cost": 10,
    "field allowance": "U",
    "models": [
        {
            "Driller": {
                "spd": 4,
                "str": 12,
                "mat": 6,
                "rat": 5,
                "def": 9,
                "arm": 20,
                "advantages": ["Construct"],
                "base size": 50,
                "boxes": {
                    "grid": [
                        [2,1],
                        [3,1],
                        [4,1],
                        [5,1],
                        [1,2],
                        [2,2],
                        [3,2],
                        [4,2],
                        [5,2],
                        [6,2],
                        [1,3],
                        [2,3],
                        [3,3],
                        [4,3],
                        [5,3],
                        [6,3],
                        [1,4],
                        [2,4],
                        [3,4],
                        [4,4],
                        [5,4],
                        [6,4],
                        [1,5],
                        [2,5],
                        [3,5],
                        [4,5],
                        [5,5],
                        [6,5],
                        [2,6],
                        [3,6],
                        [4,6],
                        [5,6]
                    ],
                    "systems": [
                        {
                            "Left Arm": [
                                [5,1],
                                [4,2],
                                [4,2]
                            ]
                        },
                        {
                            "Movement": [
                                [6,2],
                                [5,3],
                                [6,3]
                            ]
                        },
                        {
                            "Cortex": [
                                [5,4],
                                [6,4],
                                [6,5]
                            ]
                        },
                        {
                            "Right Arm": [
                                [4,5],
                                [5,5],
                                [5,6]
                            ]
                        }
                    ]
                },
                "attacks": [
                    {
                        "Grappler": {
                            "type": "melee",
                            "loc": "L",
                            "rng": 1,
                            "pow": 4,
                            "p+s": 16,
                            "weapon qualities": ["Open Fist"]
                        }
                    },
                    {
                        "Drill": {
                            "type": "melee",
                            "loc": "R",
                            "rng": 1,
                            "pow": 6,
                            "p+s": 18,
                            "abilities": ["Sustained Attack"]
                        }
                    }
                ],
                "abilities": ["Sturdy"]
            }
        }
    ]
}
