{
    "name": "Herne & Jonne",
    "edition": 3,
    "revision": "2022 v1",
    "keywords": [
        "Mercenary",
        "Rhulic",
        "Unit"
    ],
    "unit size": [
        {
            "only": [
                {"Herne": 1},
                {"Jonne": 1},
                {"point cost": 5}
            ]
        }
    ],
    "field allowance": "C",
    "models": [
        {
            "Herne 1": {
                "spd": 5,
                "str": 6,
                "mat": 6,
                "rat": 6,
                "def": 12,
                "arm": 13,
                "cmd": 5,
                "boxes": 5,
                "advantages": ["Officer"],
                "base size": 30,
                "attacks": [
                    {
                        "Pistol": {
                            "type": "ranged",
                            "rng": 8,
                            "rof": 1,
                            "pow": 10
                        }
                    },
                    {
                        "Axe": {
                            "type": "melee",
                            "rng": 0.5,
                            "pow": 3,
                            "p+s": 9
                        }
                    }
                ],
                "abilities": [
                    {
                       "Mercenaries": [
                           "Crucible Guard",
                           "Cygnar",
                           "Khador",
                           "Protectorate"
                       ]
                    },
                    "Artillerist" 
                ]
            }
        },
        {
            "Jonne 1": {
                "spd": 5,
                "str": 8,
                "mat": 6,
                "rat": 4,
                "def": 12,
                "arm": 15,
                "cmd": 5,
                "boxes": 8,
                "advantages": ["Tough"],
                "base size": 40,
                "attacks": [
                    {
                        "Barrage Arquebus": {
                            "type": "ranged",
                            "rng": 12,
                            "rof": 1,
                            "aoe": 3,
                            "pow": 14,
                            "abilities": ["Scattershot"]
                        }
                    },
                    {
                        "Great Axe": {
                            "type": "melee",
                            "rng": 1,
                            "pow": 5,
                            "p+s": 13
                        }
                    }
                ]
            }
        }
    ]
}
