{
    "name": "Horgenhold Forge Guard",
    "edition": 3,
    "revision": "2022 v1",
    "keywords": [
        "Merenary",
        "Rhulic",
        "Unit"
    ],
    "unit size": [
        {
            "min": [
                {"Leader": 1},
                {"Grunts": 5},
                {"point cost": 9}
            ]
        },
        {
            "max": [
                {"Leader": 1},
                {"Grunts": 9},
                {"point cost": 15}
            ]
        }
    ],
    "field allowance": 3,
    "models": [
        {
            "Leader & Grunts": {
                "spd": 4,
                "str": 6,
                "mat": 7,
                "rat": 4,
                "def": 10,
                "arm": 16,
                "cmd": 8,
                "boxes": 1,
                "base size": 30,
                "attacks": [
                    {
                        "Mechanikal Hammer": {
                            "type": "melee",
                            "rng": 2,
                            "pow": 5,
                            "p+s": 11,
                            "weapon qualities": ["Weapon Master"],
                            "abilities": ["Critical Smite"]
                        }
                    }
                ],
                "abilities": [
                    {
                        "Mercenaries": [
                            "Crucible Guard",
                            "Cygnar",
                            "Protectorate"
                        ]
                    },
                    "Wall of Steel"
                ]
            }
        }
    ]
}
