{
    "name": "Idrian Skirmisher Chieftain & Guide",
    "edition": 3,
    "revision": "2016 v1",
    "keywords": [
        "Mercenary",
        "Command Attachment"
    ],
    "point cost": 5,
    "field allowance": 2,
    "models": [
        {
            "Chieftain": {
                "spd": 6,
                "str": 6,
                "mat": 7,
                "rat": 6,
                "def": 13,
                "arm": 12,
                "cmd": 8,
                "boxes": 5,
                "advantages": [
                    "Advance Deploy",
                    "Combined Ranged Attack",
                    "Officer",
                    "Pathfinder"
                ],
                "base size": 30,
                "attacks": [
                    {
                        "Military Rifle": {
                            "type": "ranged",
                            "rng": 10,
                            "rof": 1,
                            "pow": 11
                        }
                    },
                    {
                        "Kopis": {
                            "type": "melee",
                            "rng": 0.5,
                            "pow": 4,
                            "p+s": 10,
                            "abilities": ["Brutal Charge"]
                        }
                    },
                    {
                        "Kopis": {
                            "type": "melee",
                            "rng": 0.5,
                            "pow": 4,
                            "p+s": 10,
                            "abilities": ["Brutal Charge"]
                        }
                    }
                ],
                "abilities": [
                    "Attachment [Idrian Skirmisher]",
                    "Partisan [Protectorate]",
                    "Go To Ground",
                    "Tactics: Reposition [3\"]"
                ]
            }
        },
        {
            "Guide": {
                "spd": 6,
                "str": 6,
                "mat": 6,
                "rat": 5,
                "def": 13,
                "arm": 12,
                "cmd": 7,
                "boxes": 5,
                "advantages": [
                    "Advance Deploy",
                    "Combined Ranged Attack",
                    "Pathfinder"
                ],
                "base size": 30,
                "attacks": [
                    {
                        "Military Rifle": {
                            "type": "ranged",
                            "rng": 10,
                            "rof": 1,
                            "pow": 11
                        }
                    },
                    {
                        "Kopis": {
                            "type": "melee",
                            "rng": 0.5,
                            "pow": 4,
                            "p+s": 10,
                            "abilities": ["Brutal Charge"]
                        }
                    }
                ],
                "abilities": ["Granted: Prey"]
            }
        }
    ]
}
