{
    "name": "Lord Rockbottom",
    "edition": 3,
    "revision": "2019 v1",
    "keywords": [
        "Mercenary",
        "Privateer",
        "Solo"
    ],
    "point cost": 4,
    "field allowance": "C",
    "models": [
        {
            "Rockbottom 1": {
                "spd": 4,
                "str": 6,
                "mat": 6,
                "rat": 6,
                "def": 12,
                "arm": 14,
                "cmd": 6,
                "boxes": 5,
                "advantages": ["Tough"],
                "base size": 30,
                "coins": 5,
                "attacks": [
                    {
                        "Fire Breather": {
                            "type": "ranged",
                            "rng": "SP 8",
                            "rof": 1,
                            "pow": 12,
                            "weapon qualities": [
                                "Continuous Effect: Fire",
                                "Damage Type: Fire"
                            ]
                        }
                    },
                    {
                        "Cutlass": {
                            "type": "melee",
                            "rng": 0.5,
                            "pow": 4,
                            "p+s": 10
                        }
                    }
                ],
                "abilities": [
                    {
                        "Mercenary": [
                            "Crucible Guard",
                            "Cryx",
                            "Cygnar",
                            "Khador",
                            "Protectorate"
                        ]
                    },
                    "Coin",
                    {
                        "Paymaster [Privateer]": [
                            "Money Shot",
                            "Payday",
                            "Walk It Off"
                        ]
                    }
                ]
            }
        }
    ]
}
