{
    "name": "Major Harrison Gibbs",
    "edition": 3,
    "revision": "2018 v1",
    "keywords": [
        "Mercenary",
        "Llaelese",
        "Trencher",
        "Solo"
    ],
    "point cost": 4,
    "field allowance": "C",
    "models": [
        {
            "Gibbs 1": {
                "spd": 6,
                "str": 6,
                "mat": 6,
                "rat": 6,
                "def": 13,
                "arm": 13,
                "cmd": 7,
                "boxes": 30,
                "advantages": [
                    "Assault",
                    "Tough"
                ],
                "base size": 30,
                "attacks": [
                    {
                        "Military Rifle": {
                            "type": "ranged",
                            "rng": 10,
                            "rof": 1,
                            "pow": "*",
                            "abilities": [
                                {
                                    "Attack Type": [
                                        "Rifle Grenade",
                                        "Rifle Shot"
                                    ]
                                }
                            ]
                        }
                    },
                    {
                        "Club": {
                            "type": "Melee",
                            "rng": 0.5,
                            "pow": 4,
                            "p+s": 10,
                            "abilities": ["Critical Brutal Damage"]
                        }
                    }
                ],
                "abilities": [
                    {
                        "Mercenary": [
                            "Crucible Guard",
                            "Cygnar"
                        ]
                    },
                    "Partisan [Cygnar]",
                    "Dodge",
                    "Feign Death",
                    "Hot Meal",
                    "Leadership [Llaelese]",
                    "Reposition [3\"]"
                ]
            }
        }
    ]
}
