{
    "name": "Master Gunner Dougal MacNaile",
    "edition": 3,
    "revision": "2019 v2",
    "keywords": [
        "Mercenary",
        "Privateer",
        "Solo"
    ],
    "point cost": 4,
    "field allowance": "C",
    "models": [
        {
            "MacNaile 1": {
                "spd": 5,
                "str": 5,
                "mat": 6,
                "rat": 6,
                "def": 14,
                "arm": 13,
                "cmd": 8,
                "boxes": 5,
                "advantages": ["Tough"],
                "base size": 30,
                "attacks": [
                    {
                        "Grenade": {
                            "type": "ranged",
                            "rng": 6,
                            "rof": 1,
                            "aoe": 3,
                            "pow": 12,
                            "abilities": ["Cumbersome"]
                        }
                    },
                    {
                        "Quad-Iron": {
                            "type": "ranged",
                            "rng": 10,
                            "rof": "d3+1",
                            "pow": 10
                        }
                    },
                    {
                        "Cutlass": {
                            "type": "melee",
                            "rng": 0.5,
                            "pow": 4,
                            "p+s": 9
                        }
                    }
                ],
                "abilities": [
                    {
                        "Mercenary": [
                            "Crucible Guard",
                            "Cryx",
                            "Cygnar",
                            "Khador",
                            "Protectorate"
                        ]
                    },
                    "Artillerist",
                    "Double Powder Ration",
                    "Hit The Deck!",
                    "Spyglass"
                ]
            }
        }
    ]
}
