{
    "name": "Ogrun Assault Corps",
    "edition": 3,
    "revision": "2022 v1",
    "keywords": [
        "Mercenary",
        "Rhulic",
        "Unit"
    ],
    "unit size": [
        {
            "min": [
                {"Leader": 1},
                {"Grunts": 2},
                {"point cost": 6}
            ]
        },
        {
            "max": [
                {"Leader": 1},
                {"Grunts": 4},
                {"point cost": 9}
            ]
        }
    ],
    "field allowance": 2,
    "models": [
        {
            "Leader & Grunts": {
                "spd": 5,
                "str": 8,
                "mat": 6,
                "rat": 5,
                "def": 12,
                "arm": 16,
                "cmd": 7,
                "boxes": [
                    {"Model A": 5},
                    {"Model B": 5},
                    {"Model C": 5},
                    {"Model D": 5},
                    {"Model E": 5}
                ],
                "advantages": [
                    "Assault",
                    "Combined Melee Attack",
                    "Combined Ranged Attack",
                    "Tough"
                ],
                "base size": 40,
                "attacks": [
                    {
                        "Battlecannon": {
                            "type": "ranged",
                            "rng": 12,
                            "rof": 1,
                            "aoe": 3,
                            "pow": 12
                        }
                    },
                    {
                        "Axe": {
                            "type": "melee",
                            "rng": 1,
                            "pow": 4,
                            "p+s": 12
                        }
                    }
                ],
                "abilities": [
                    {
                        "Mercenaries": [
                            "Crucible Guard",
                            "Cygnar",
                            "Protectorate"
                        ]
                    }
                ]
            }
        }
    ]
}
