{
    "name": "Order of Illumination Vigilants",
    "edition": 3,
    "revision": "2019 v1",
    "keywords": [
        "Mercenary",
        "Morrowan",
        "Unit"
    ],
    "unit size": [
        {
            "min": [
                {"Leader": 1},
                {"Grunts": 2},
                {"point cost": 6}
            ]
        },
        {
            "max": [
                {"Leader": 1},
                {"Grunts": 4},
                {"point cost": 10}
            ]
        }
    ],
    "field allowance": 2,
    "models": [
        {
            "Leader & Grunts": {
                "spd": 6,
                "str": 6,
                "mat": 7,
                "rat": 7,
                "def": 14,
                "arm": 12,
                "cmd": 8,
                "boxes": 1,
                "advantages": [
                    "Advance Deploy",
                    "Pathfinder",
                    "Stealth"  
                ],
                "base size": 30,
                "attacks": [
                    {
                        "Heavy Crossbow": {
                            "type": "ranged",
                            "rng": 10,
                            "rof": 1,
                            "pow": 12,
                            "weapon qualities": [
                                "Blessed",
                                "Damage Type: Magical"
                            ]
                        }
                    },
                    {
                        "Great Sword": {
                            "type": "melee",
                            "rng": 1,
                            "pow": 5,
                            "p+s": 11,
                            "weapon qualities": [
                                "Blessed",
                                "Damage Type: Magical"
                            ]
                        }
                    }
                ],
                "abilities": [
                    {
                        "Mercenaries": [
                            "Crucible Guard",
                            "Cygnar",
                            "Khador"
                        ]
                    },
                    "Partisan [Cygnar]",
                    "Gang"
                ]
            }
        }
    ]
}
