{
    "name": "Orin Midwinter, Rogue Inquisitor",
    "edition": 3,
    "revision": "2019 v1",
    "keywords": [
        "Mercenary",
        "Minion",
        "Solo"
    ],
    "point cost": 5,
    "field allowance": "C",
    "models": [
        {
            "Midwinter 1": {
                "spd": 6,
                "str": 4,
                "mat": 6,
                "rat": 4,
                "def": 13,
                "arm": 12,
                "cmd": 8,
                "boxes": 5,
                "base size": 30,
                "attacks": [
                    {
                        "Void Staff": {
                            "type": "melee",
                            "rng": 2,
                            "pow": 5,
                            "p+s": 9,
                            "weapon qualities": ["Damage Type: Magical"]
                        }
                    }
                ],
                "abilities": [
                    {
                        "Mercenary": [
                            "Cryx",
                            "Infernals",
                            "Khador",
                            "Protectorate"
                        ]
                    },
                    {"Minion": ["Skorne"]},
                    "Partisan [Infernals]",
                    "Arcane Vortex [power token]",
                    "Inquisitor's Talisman",
                    {
                        "Magic Ability [7]": [
                            "Chain Lightning",
                            "Stealth"
                        ]
                    },
                    "Marked Soul"
                ]
            }
        }
    ]
}
