{
    "name": "Powder Monkey",
    "edition": 3,
    "revision": "2019 v1",
    "keywords": [
        "Mercenary",
        "Sea Dog",
        "Privateer",
        "Solo"
    ],
    "point cost": 2,
    "field allowance": "3",
    "models": [
        {
            "Monkey": {
                "spd": 6,
                "str": 3,
                "mat": 5,
                "rat": 5,
                "def": 13,
                "arm": 10,
                "cmd": 3,
                "boxes": 1,
                "base size": 30,
                "attacks": [
                    {
                        "Pistol": {
                            "type": "pistol",
                            "rng": 8,
                            "rof": 1,
                            "pow": 10
                        }
                    },
                    {
                        "Bite": {
                            "type": "melee",
                            "rng": 0.5,
                            "pow": 3,
                            "p+s": 6
                        }
                    }
                ],
                "abilities": [
                    {
                        "Mercenary": [
                            "Cryx",
                            "Cygnar",
                            "Khador"
                        ]
                    },
                    "Ancillary Attack (Powder Monkey)",
                    "Catastrophic Explosion",
                    "Empower",
                    "Monkey Bite"
                ]
            }
        }
    ]
}
