{
    "name": "Raluk Moorclaw, the Ironmonger",
    "edition": 3,
    "revision": "2022 v1",
    "keywords": [
        "Mercenary",
        "Minion",
        "Trollkin",
        "Solo"
    ],
    "point cost": 2,
    "field allowance": "C",
    "models": [
        {
            "Moorclaw 1": {
                "spd": 5,
                "str": 7,
                "mat": 6,
                "rat": 6,
                "def": 13,
                "arm": 15,
                "cmd": 9,
                "boxes": 5,
                "advantages": [
                    "Jack Marshal",
                    "Assault",
                    "Tough"
                ],
                "base size": 40,
                "attacks": [
                    {
                        "Slug Gun": {
                            "type": "ranged",
                            "rng": 4,
                            "rof": 1,
                            "pow": 14
                        }
                    },
                    {
                        "Battle Axe": {
                            "type": "melee",
                            "rng": 1,
                            "pow": 6,
                            "p+s": 13
                        }
                    }
                ],
                "abilities": [
                    {
                        "Mercenary": [
                            "Cryx",
                            "Cygnar",
                            "Khador"
                        ]
                    },
                    {
                        "Minion": ["Trollbloods"]
                    },
                    "Drive: Assault",
                    "Iron Sentinel",
                    "Mechanikally Adept",
                    "Repair [d6]"
                ]
            }
        }
    ]
}
