{
    "name": "Steelhead Ironhead",
    "edition": 3,
    "revision": "2019 v1",
    "keywords": [
        "Mercenary",
        "Solo"
    ],
    "point cost": 4,
    "field allowance": 2,
    "models": [
        {
            "Ironhead": {
                "spd": 5,
                "str": 8,
                "mat": 5,
                "rat": 5,
                "def": 10,
                "arm": 18,
                "cmd": 7,
                "boxes": 10,
                "advantages": ["Jack Marshal"],
                "base size": 40,
                "attacks": [
                    {
                        "Industrial Clamp": {
                            "type": "melee",
                            "rng": 1,
                            "pow": 5,
                            "p+s": 13,
                            "abilities": ["Clamp"]
                        }
                    },
                    {
                        "Forge Hammer": {
                            "type": "melee",
                            "rng": 1,
                            "pow": 6,
                            "p+s": 14
                        }
                    }
                ],
                "abilities": [
                    {
                        "Mercenary": [
                            "Crucible Guard",
                            "Cryx",
                            "Cygnar",
                            "Khador",
                            "Protectorate"
                        ]
                    },
                    "Girded",
                    "Mechanikally Adept",
                    "Power Lifter",
                    "Repair [d3 + 2]",
                    "Repairable"
                ]
            }
        }
    ]
}
