{
    "name": "Swashbuckler",
    "edition": 3,
    "revision": "2019 v1",
    "keywords": [
        "Mercenary",
        "Privateer",
        "Light",
        "Warjack"
    ],
    "point cost": 8,
    "field allowance": "U",
    "models": [
        {
            "Swashbuckler": {
                "spd": 6,
                "str": 8,
                "mat": 6,
                "rat": 5,
                "def": 13,
                "arm": 16,
                "advantages": [
                    "Amphibious",
                    "Assault",
                    "Construct"
                ],
                "base size": ,
                "boxes": {
                    "grid": [
                        [3,1],
                        [4,1],
                        [5,1],
                        [2,2],
                        [3,2],
                        [4,2],
                        [5,2],
                        [6,2],
                        [2,3],
                        [3,3],
                        [4,3],
                        [5,3],
                        [6,3],
                        [2,4],
                        [3,4],
                        [4,4],
                        [5,4],
                        [6,4],
                        [2,5],
                        [3,5],
                        [4,5],
                        [5,5],
                        [6,5],
                        [3,6],
                        [4,6],
                        [5,6]
                    ],
                    "systems": [
                        {
                            "Left Arm": [
                                [5,1],
                                [4,2],
                                [5,2]
                            ]
                        },
                        {
                            "Movement": [
                                [6,2],
                                [5,3],
                                [6,3]
                            ]
                        },
                        {
                            "Cortex": [
                                [5,4],
                                [6,4],
                                [6,5]
                            ]
                        },
                        {
                            "Right Arm": [
                                [4,5],
                                [5,5],
                                [5,6]
                            ]
                        }
                    ]
                },
                "attacks": [
                    {
                        "Clamp Cannon": {
                            "type": "ranged",
                            "loc": "R",
                            "rng": 6,
                            "rof": 1,
                            "pow": 12
                        }
                    },
                    {
                        "Clamp": {
                            "type": "melee",
                            "loc": "R",
                            "rng": 0.5,
                            "pow": 3,
                            "p+s": 11,
                            "weapon qualities": ["Open Fist"]
                        }
                    },
                    {
                        "Cutlass": {
                            "type": "melee",
                            "loc": "L",
                            "rng": 1,
                            "pow": 5,
                            "p+s": 13
                        }
                    }
                ],
                "abilities": [
                    "Defensive Strike",
                    "Dodge",
                    "Duelist"
                ]
            }
        }
    ]
}
