{
    "name": "Talon",
    "edition": 3,
    "revision": "2022 v1",
    "keywords": [
        "Mercenary",
        "Light",
        "Warjack"
    ],
    "point cost": 6,
    "field allowance": "U",
    "models": [
        {
            "Talon": {
                "spd": 6,
                "str": 8,
                "mat": 6,
                "rat": 4,
                "def": 12,
                "arm": 16,
                "advantages": ["Construct"],
                "base size": 40,
                "boxes": {
                    "grid": [
                        [2,1],
                        [3,1],
                        [4,1],
                        [5,1],
                        [2,2],
                        [3,2],
                        [4,2],
                        [5,2],
                        [6,2],
                        [1,3],
                        [2,3],
                        [3,3],
                        [4,3],
                        [5,3],
                        [6,3],
                        [1,4],
                        [2,4],
                        [3,4],
                        [4,4],
                        [5,4],
                        [6,4],
                        [2,5],
                        [3,5],
                        [4,5],
                        [5,5],
                        [6,5],
                        [2,6],
                        [3,6],
                        [4,6],
                        [5,6]
                    ],
                    "systems": [
                        {
                            "Left Arm": [
                                [5,1],
                                [4,2],
                                [4,2]
                            ]
                        },
                        {
                            "Movement": [
                                [6,2],
                                [5,3],
                                [6,3]
                            ]
                        },
                        {
                            "Cortex": [
                                [5,4],
                                [6,4],
                                [6,5]
                            ]
                        },
                        {
                            "Right Arm": [
                                [4,5],
                                [5,5],
                                [5,6]
                            ]
                        }
                    ]
                },
                "attacks": [
                    {
                        "Shield": {
                            "type": "melee",
                            "loc": "L",
                            "rng": 0.5,
                            "pow": 2,
                            "p+s": 10,
                            "weapon qualities": ["Shield"]
                        }
                    },
                    {
                        "Stun Lance": {
                            "type": "melee",
                            "loc": "R",
                            "rng": 2,
                            "pow": 5,
                            "p+s": 13,
                            "abilities": [
                                "Powerful Charge",
                                "Stall"
                            ]
                        }
                    }
                ],
                "abilities": ["Tried & True"]
            }
        }
    ]
}
