{
    "name": "Thamarite Advocate",
    "edition": 3,
    "revision": "2019 v1",
    "keywords": [
        "Mercenary",
        "Minion",
        "Solo"
    ],
    "point cost": 3,
    "field allowance": 3,
    "models": [
        {
            "Advocate": {
                "spd": 6,
                "str": 5,
                "mat": 5,
                "rat": 5,
                "def": 14,
                "arm": 12,
                "cmd": 8,
                "boxes": 5,
                "base size": 30,
                "abilities": [
                    {
                        "Mercenary": [
                            "Crucible Guard",
                            "Cygnar",
                            "Khador"
                        ]
                    },
                    {"Minion": ["Circle"]},
                    "Blessed of Thamar",
                    {
                        "Magic Ability": [
                            "Barring the Gates",
                            "Fell Curse",
                            "Hex Bolt"
                        ]
                    },
                    "Reposition [3\"]",
                    "Sucker!"
                ]
            }
        }
    ]
}
