{
    "name": "Vanguard",
    "edition": 3,
    "revision": "2022 f1",
    "keywords": [
        "Mercenary",
        "Llaelese",
        "Light",
        "Warjack"
    ],
    "point cost": 10,
    "field allowance": "U",
    "models": [
        {
            "Vanguard": {
                "spd": 6,
                "str": 9,
                "mat": 6,
                "rat": 6,
                "def": 13,
                "arm": 17,
                "advantages": [
                    "Assault",
                    "Construct"
                ],
                "base size": 40,
                "boxes": {
                    "grid": [
                        [3,1],
                        [4,1],
                        [5,1],
                        [2,2],
                        [3,2],
                        [4,2],
                        [5,2],
                        [6,2],
                        [2,3],
                        [3,3],
                        [4,3],
                        [5,3],
                        [6,3],
                        [2,4],
                        [3,4],
                        [4,4],
                        [5,4],
                        [6,4],
                        [2,5],
                        [3,5],
                        [4,5],
                        [5,5],
                        [6,5],
                        [3,6],
                        [4,6],
                        [5,6]
                    ],
                    "systems": [
                        {
                            "Left Arm": [
                                [5,1],
                                [4,2],
                                [5,2]
                            ]
                        },
                        {
                            "Movement": [
                                [6,2],
                                [5,3],
                                [6,3]
                            ]
                        },
                        {
                            "Cortex": [
                                [5,4],
                                [6,4],
                                [6,5]
                            ]
                        },
                        {
                            "Right Arm": [
                                [4,5],
                                [5,5],
                                [5,6]
                            ]
                        }
                    ]
                },
                "attacks": [
                    {
                        "Shield Gun": {
                            "type": "ranged",
                            "loc": "L",
                            "rng": 8,
                            "rof": 1,
                            "pow": 12
                        }
                    },
                    {
                        "Shield": {
                            "type": "melee",
                            "loc": "L",
                            "rng": 0.5,
                            "pow": 2,
                            "p+s": 11,
                            "weapon qualities": ["Shield"]
                        }
                    },
                    {
                        "Guisarme": {
                            "type": "melee",
                            "loc": "R",
                            "rng": 2,
                            "pow": 5,
                            "p+s": 14
                        }
                    }
                ],
                "abilities": [
                    "Marker's Mark [Crucible Guard]",
                    "Set Defense",
                    "Shield Guard"
                ]
            }
        }
    ]
}
