{
    "name": "Ace",
    "edition": 3,
    "revision": "2018 v1",
    "keywords": [
        "Cygnar",
        "Light",
        "Warjack"
    ],
    "point cost": 10,
    "field allowance": "C",
    "models": [
        {
            "Ace 1": {
                "spd": 6,
                "str": 8,
                "mat": 6,
                "rat": 7,
                "def": 14,
                "arm": 15,
                "advantages": [
                    "Construct",
                    "Pathfinder"
                ],
                "base size": 40,
                "boxes": {
                    "grid": [
                        [3,1],
                        [4,1],
                        [5,1],
                        [3,2],
                        [4,2],
                        [5,2],
                        [6,2],
                        [2,3],
                        [3,3],
                        [4,3],
                        [5,3],
                        [6,3],
                        [2,4],
                        [3,4],
                        [4,4],
                        [5,4],
                        [6,4],
                        [3,5],
                        [4,5],
                        [5,5],
                        [6,5],
                        [3,6],
                        [4,6],
                        [5,6]
                    ],
                    "systems": [
                        {
                            "Left Arm": [
                                [5,1],
                                [4,2],
                                [5,2]
                            ]
                        },
                        {
                            "Movement": [
                                [6,2],
                                [5,3],
                                [6,3]
                            ]
                        },
                        {
                            "Cortex": [
                                [5,4],
                                [6,4],
                                [6,5]
                            ]
                        },
                        {
                            "Right Arm": [
                                [4,5],
                                [5,5],
                                [5,6]
                            ]
                        }
                    ]
                },
                "attacks": [
                    {
                        "Rune Shot Cannon": {
                            "type": "ranged",
                            "loc": "L",
                            "rng": 14,
                            "rof": 1,
                            "pow": 12,
                            "weapon qualities": ["Damage Type: Magical"]
                        }
                    },
                    {
                        "Battle Axe": {
                            "type": "melee",
                            "loc": "R",
                            "rng": 1,
                            "pow": 4,
                            "p+s": 12
                        }
                    }
                ],
                "abilities": [
                    {
                        "Bond [Caine]": [
                            "Shadow Fire",
                            "Thunderbolt",
                            "Trick Shot"
                        ]
                    },
                    "Infiltrate",
                    "True Sight"
                ]
            }
        }
    ]
}
