{
    "name": "Arcane Tempest Rifleman",
    "edition": 3,
    "revision": "2021 v1",
    "keywords": [
        "Cygnar",
        "Gun Mage",
        "Solo"
    ],
    "point cost": 3,
    "field allowance": 2,
    "models": [
        {
            "Rifleman": {
                "spd": 6,
                "str": 4,
                "mat": 5,
                "rat": 7,
                "def": 14,
                "arm": 11,
                "cmd": 7,
                "boxes": 5,
                "base size": 30,
                "attacks": [
                    {
                        "Magelock Rifle": {
                            "type": "ranged",
                            "rng": 14,
                            "rof": 1,
                            "pow": 10,
                            "weapon qualities": ["Damage Type: Magical"],
                            "abilities": [
                                {
                                    "Attack Type": [
                                        "Deadly Shot",
                                        "Snipe",
                                        "Ward Breaker"
                                    ]
                                }
                            ]
                        }
                    },
                    {
                        "Sword": {
                            "type": "melee",
                            "rng": 0.5,
                            "pow": 3,
                            "p+s": 7
                        }
                    }
                ],
                "abilities": [
                    "Arcane Precision",
                    "Marksman",
                    "Reposition [3\"]"
                ]
            }
        }
    ]
}
