{
    "name": "Captain Jonas Murdoch",
    "edition": 3,
    "revision": "2016 v1",
    "keywords": [
            "Cygnar",
            "Command Attachment",
            "Trencher"
    ],
    "point cost": 4,
    "field allowance": "C",
    "models": [
        {
            "Murdoch 1": {
                "spd": 6,
                "str": 6,
                "mat": 7,
                "rat": 6,
                "def": 13,
                "arm": 14,
                "cmd": 9,
                "boxes": 5,
                "advantages": [
                    "Officer",
                    "Tough"
                ],
                "base size": 30,
                "attacks": [
                    {
                        "Carbine": {
                            "type": "ranged",
                            "rng": 10,
                            "rof": 1,
                            "pow": 10
                        }
                    },
                    {
                        "Trench Knife": {
                            "type": "melee",
                            "rng": 0.5,
                            "pow": 3,
                            "p+s": 9
                        }
                    }
                ],
                "abilities": [
                    "Attachment [Small- or Medium-Based Mercenary]",
                    "Go To Ground",
                    "Granted: Assault",
                    "Ranking Officer",
                    "Trencher"
                ]
            }
        }
    ]
}
