{
    "name": "Firefly",
    "edition": 3,
    "revision": "2021 v1",
    "keywords": [
        "Cygnar",
        "Light",
        "Warjack"
    ],
    "point cost": 7,
    "field allowance": "U",
    "models": [
        {
            "Firefly": {
                "spd": 6,
                "str": 9,
                "mat": 6,
                "rat": 6,
                "def": 13,
                "arm": 16,
                "advantages": [
                    "Construct",
                    "Immunity: Electricity"
                ],
                "base size": 40,
                "boxes": {
                    "grid": [
                        [3,1],
                        [4,1],
                        [5,1],
                        [2,2],
                        [3,2],
                        [4,2],
                        [5,2],
                        [6,2],
                        [2,3],
                        [3,3],
                        [4,3],
                        [5,3],
                        [6,3],
                        [2,4],
                        [3,4],
                        [4,4],
                        [5,4],
                        [6,4],
                        [2,5],
                        [3,5],
                        [4,5],
                        [5,5],
                        [6,5],
                        [3,6],
                        [4,6],
                        [4,6]
                    ],
                    "systems": [
                        {
                            "Left Arm": [
                                [5,1],
                                [4,2],
                                [5,2]
                            ]
                        },
                        {
                            "Movement": [
                                [6,2],
                                [5,3],
                                [6,3]
                            ]
                        },
                        {
                            "Cortex": [
                                [5,4],
                                [6,4],
                                [6,5]
                            ]
                        },
                        {
                            "Right Arm": [
                                [4,5],
                                [5,5],
                                [5,6]
                            ]
                        }
                    ]
                },
                "attacks": [
                    {
                        "Storm Blaster": {
                            "type": "ranged",
                            "loc": "L",
                            "rng": 10,
                            "rof": 1,
                            "pow": 10,
                            "weapon qualities": ["Damage Type: Electrical"],
                            "abilities": ["Lightning Generator"]
                        }
                    },
                    {
                        "Electro Glaive": {
                            "type": "melee",
                            "loc": "R",
                            "rng": 2,
                            "pow": 4,
                            "p+s": 13
                        }
                    }
                ],
                "abilities": ["Ionization"]
            }
        }
    ]
}
