{
    "name": "Grenadier",
    "edition": 3,
    "revision": "2017 v1",
    "keywords": [
        "Cygnar",
        "Light",
        "Warjack"
    ],
    "point cost": 9,
    "field allowance": "U",
    "models": [
        {
            "Grenadier": {
                "spd": 6,
                "str": 8,
                "mat": 6,
                "rat": 6,
                "def": 14,
                "arm": 15,
                "advantages": [
                    "Advance Deploy",
                    "Construct"
                ],
                "base size": 40,
                "boxes": {
                    "grid": [
                        [3,1],
                        [4,1],
                        [5,1],
                        [3,2],
                        [4,2],
                        [5,2],
                        [6,2],
                        [2,3],
                        [3,3],
                        [4,3],
                        [5,3],
                        [6,3],
                        [2,4],
                        [3,4],
                        [4,4],
                        [5,4],
                        [6,4],
                        [3,5],
                        [4,5],
                        [5,5],
                        [6,5],
                        [3,6],
                        [4,6],
                        [5,6]
                    ],
                    "systems": [
                        {
                            "Left Arm": [
                                [5,1],
                                [4,2],
                                [5,2]
                            ]
                        },
                        {
                            "Movement": [
                                [6,2],
                                [5,3],
                                [6,3]
                            ]
                        },
                        {
                            "Cortex": [
                                [5,4],
                                [6,4],
                                [6,5]
                            ]
                        },
                        {
                            "Right Arm": [
                                [4,5],
                                [5,5],
                                [5,6]
                            ]
                        }
                    ]
                },
                "attacks": [
                    {
                        "Grenade Launcher": {
                            "type": "ranged",
                            "loc": "L",
                            "rng": 10,
                            "rof": 1,
                            "aoe": 3,
                            "pow": 13,
                            "abilities": [
                                "Arcing Fire",
                                "Manual Reload"
                            ]
                        }
                    },
                    {
                        "Mattock": {
                            "type": "melee",
                            "loc": "R",
                            "rng": 1,
                            "pow": 5,
                            "p+s": 13,
                            "abilities": ["Brutal Charge"]
                        }
                    }
                ],
                "abilities": ["Dig In"]
            }
        }
    ]
}
