{
    "name": "Journeyman Lieutenant Allister Caine",
    "edition": 3,
    "revision": "2021 v1",
    "keywords": [
        "Cygnar",
        "Arcane Tempest",
        "Gun Mage",
        "Solo"
    ],
    "point cost": 4,
    "field allowance": "C",
    "models": [
        {
            "Caine 0": {
                "spd": 7,
                "str": 5,
                "mat": 4,
                "rat": 7,
                "def": 15,
                "arm": 13,
                "focus": 4,
                "cmd": 6,
                "boxes": 5,
                "advantages": ["Gunfighter"],
                "base size": 30,
                "attacks": [
                    {
                        "Magelock Pistol": {
                            "type": "ranged",
                            "rng": 10,
                            "rof": 1,
                            "pow": 10,
                            "weapon qualities": ["Damage Type: Magical"],
                            "abilities": [
                                {
                                    "Attack Type": [
                                        "Snipe",
                                        "Thunderbolt",
                                        "Trick Shot"
                                    ]
                                }
                            ]
                        }
                    }
                ],
                "abilities": [
                    "Battlegroup Controller"
                ],
                "spells": [
                    "Fire For Effect",
                    "Spirit Door"
                ]
            }
        }
    ]
}
