{
    "name": "Long Gunner Infantry",
    "edition": 3,
    "revision": "2021 v1",
    "keywords": [
        "Cygnar",
        "Unit"
    ],
    "unit size": [
        {
            "min": [
                {"Leader": 1},
                {"Grunts": 5},
                {"point cost": 8}
            ]
        },
        {
            "max": [
                {"Leader": 1},
                {"Grunts": 9},
                {"point cost": 13}
            ]
        }
    ],
    "field allowance": 2,
    "models": [
        {
            "Leader & Grunts": {
                "spd": 6,
                "str": 4,
                "mat": 4,
                "rat": 5,
                "def": 12,
                "arm": 12,
                "cmd": 7,
                "boxes": 1,
                "advantages": ["Combined Ranged Attack"],
                "base size": 30,
                "attacks": [
                    {
                        "Repeating Long Gun": {
                            "type": "ranged",
                            "rng": 14,
                            "rof": 1,
                            "pow": 10
                        }
                    },
                    {
                        "Sword": {
                            "type": "melee",
                            "rng": 0.5,
                            "pow": 3,
                            "p+s": 7
                        }
                    }
                ],
                "abilities": ["Dual Shot"]
            }
        }
    ]
}
