{
    "name": "Lord General Coleman Stryker",
    "edition": 3,
    "revision": "2019 v1",
    "keywords": [
        "Cygnar",
        "Morrowan",
        "Warcaster"
    ],
    "warjack points": 28,
    "field allowance": "C",
    "models": [
        {
            "Stryker 3": {
                "spd": 8,
                "str": 6,
                "mat": 7,
                "rat": 6,
                "def": 15,
                "arm": 16,
                "focus": 6,
                "cmd": 10,
                "boxes": 18,
                "advantages": [
                    "Assault",
                    "Cavalry",
                    "Immunity: Electricity"
                ],
                "base size": 50,
                "attacks": [
                    {
                        "Quicksilver Blast": {
                            "type": "ranged",
                            "rng": 8,
                            "rof": 1,
                            "pow": 14,
                            "weapon qualities": [
                                "Damage Type: Electrical",
                                "Damage Type: Magical"
                            ]
                        }
                    },
                    {
                        "Quicksilver Mk III": {
                            "type": "melee",
                            "rng": 2,
                            "pow": 8,
                            "p+s": 14,
                            "weapon qualities": [
                                "Damage Type: Magical",
                                "Disruption"
                            ]
                        }
                    },
                    {
                        "Mount": {
                            "type": "melee",
                            "rng": 0.5,
                            "pow": 12
                        }
                    }
                ],
                "abilities": [
                    "Plasma Nimbus",
                    "Reposition [3\"]"
                ],
                "feat": {
                    "name": "Lightning Charge",
                    "flavor": "Ordered forward by Lord General Coleman Stryker, the Storm Division becomes a sweeping tempest of destruction. Whether advancing on foot or galloping on horseback, Stryker's knights rush forward while the air arkens with black clouds. They smash into the enemy line as a galvanic inferno of arcing lightning and booming thunder.",
                    "text": "When a friendly Faction model makes an impact attack or a charge attack while in Stryker's control range, the attack automatically hits and gains an additional die on the damage roll. Lightning Charge lasts for one round."
                },
                "spells": [
                    "Arcane Bolt",
                    "Chain Blast",
                    "Escort",
                    "Fury",
                    "Iron Aggression"
                ]
            }
        }
    ]
}
