{
    "name": "Major Prime Victoria Haley",
    "edition": 3,
    "revision": "2021 v1",
    "keywords": [
        "Cygnar",
        "Warcaster",
        "Unit"
    ],
    "warjack points": 27,
    "field allowance": "C",
    "models": [
        {
            "Haley 3": {
                "spd": 6,
                "str": 5,
                "mat": 6,
                "rat": 5,
                "def": 16,
                "arm": 14,
                "focus": 8,
                "cmd": 9,
                "boxes": 15,
                "advantages": ["Officer"],
                "base size": 30,
                "attacks": [
                    {
                        "Hand Cannon": {
                            "type": "ranged",
                            "rng": 12,
                            "rof": 1,
                            "pow": 12
                        }
                    },
                    {
                        "Echo": {
                            "type": "melee",
                            "rng": 2,
                            "pow": 7,
                            "p+s": 12,
                            "weapon qualities": ["Damage Type: Magical"]
                        }
                    }
                ],
                "abilities": [
                    "Reiteration",
                    "Set Defense",
                    "Time Walker",
                    "Warcaster Unit (Haley 3)"
                ],
                "feat": {
                    "name": "Arcane Singularity",
                    "flavor": "Victoria Haley's mastery of time and space has served to refine her seemingly infinite mystical potential. Drawing what has been, what is, and what will be, Haley summons a maelstrom of arcane power.",
                    "text": "Models in this unit currently in this model's control range gain +2 FOCUS for one turn and immediately gain 2 focus points."
                },
                "spells": [
                    "Domination",
                    "Repudiate",
                    "Tactical Supremacy",
                    "Temporal Distortion"
                ]
            }
        },
        {
            "Haley Past": {
                "spd": 6,
                "str": 5,
                "mat": 6,
                "rat": 5,
                "def": 16,
                "arm": 14,
                "focus": 4,
                "cmd": 8,
                "boxes": 5,
                "advantages": ["Incorporeal"],
                "base size": 30,
                "attacks": [
                    {
                        "Telekinetic Strike": {
                            "type": "melee",
                            "rng": 2,
                            "pow": 5,
                            "p+s": 10,
                            "weapon qualities": ["Damage Type: Magical"]
                        }
                    }
                ],
                "abilities": [
                    "Raw Talent",
                    "Time Projection"
                ],
                "spells": [
                    "Chain Blast",
                    "Force Hammer"
                ]
            }
        },
        {
            "Haley Future": {
                "spd": 6,
                "str": 5,
                "mat": 6,
                "rat": 5,
                "def": 16,
                "arm": 14,
                "focus": 4,
                "cmd": 8,
                "boxes": 5,
                "advantages": [
                    "Gunfighter",
                    "Incorporeal"
                ],
                "base size": 30,
                "attacks": [
                    {
                        "Phase Bolt": {
                            "type": "ranged",
                            "rng": 10,
                            "rof": 1,
                            "pow": 13,
                            "weapon qualities": ["Damage Type: Magical"],
                            "abilities": ["Reload [2]"]
                        }
                    }
                ],
                "abilities": [
                    "Granted: True Sight",
                    "Time Projection"
                ],
                "spells": [
                    "Ghost Walk",
                    "Revive"
                ]
            }
        }
    ]
}
