{
    "name": "Ol' Rowdy",
    "edition": 3,
    "revision": "2021 v1",
    "keywords": ["Construct"],
    "point cost": 17,
    "field allowance": "C",
    "models": [
        {
            "Rowdy 1": {
                "spd": 5,
                "str": 11,
                "mat": 8,
                "rat": 6,
                "def": 12,
                "arm": 19,
                "advantages": ["Construct"],
                "base size": 50,
                "boxes": {
                    "grid": [
                        [2,1],
                        [3,1],
                        [4,1],
                        [5,1],
                        [2,2],
                        [3,2],
                        [4,2],
                        [5,2],
                        [6,2],
                        [1,3],
                        [2,3],
                        [3,3],
                        [4,3],
                        [5,3],
                        [6,3],
                        [1,4],
                        [2,4],
                        [3,4],
                        [4,4],
                        [5,4],
                        [6,4],
                        [2,5],
                        [3,5],
                        [4,5],
                        [5,5],
                        [6,5],
                        [2,6],
                        [3,6],
                        [4,6],
                        [5,6]
                    ],
                    "systems": [
                        {
                            "Left Arm": [
                                [5,1],
                                [4,2],
                                [5,2]
                            ]
                        },
                        {
                            "Movement": [
                                [6,2],
                                [5,3],
                                [6,3]
                            ]
                        },
                        {
                            "Cortex": [
                                [5,4],
                                [6,4],
                                [6,5]
                            ]
                        },
                        {
                            "Right Arm": [
                                [4,5],
                                [5,5],
                                [5,6]
                            ]
                        }
                    ]
                },
                "attacks": [
                    {
                        "Quake Hammer": {
                            "type": "melee",
                            "loc": "L",
                            "rng": 1,
                            "pow": 7,
                            "p+s": 18,
                            "abilities": [
                                "Critical Knockdown",
                                "Tremor"
                            ]
                        }
                    },
                    {
                        "Open Fist": {
                            "type": "melee",
                            "loc": "R",
                            "rng": 1,
                            "pow": 3,
                            "p+s": 14,
                            "weapon qualities": [
                                "Buckler",
                                "Open Fist"
                            ]
                        }
                    }
                ],
                "abilities": [
                    "Aggressive",
                    "Bond [Stryker]",
                    "Countercharge",
                    "Retaliatory Strike"
                ]
            }
        }
    ]
}
