{
    "name": "Rangers",
    "edition": 3,
    "revision": "2021 v1",
    "keywords": [
        "Cygnar",
        "Unit"
    ],
    "unit size": [
        {
            "only": [
                {"Leader": 1},
                {"Grunts": 5},
                {"point cost": 7}
            ]
        }
    ],
    "field allowance": 2,
    "models": [
        {
            "Leader & Grunts": {
                "spd": 7,
                "str": 5,
                "mat": 5,
                "rat": 6,
                "def": 14,
                "arm": 11,
                "cmd": 8,
                "boxes": 1,
                "advantages": [
                    "Advance Deploy",
                    "Pathfinder"
                ],
                "base size": 30,
                "attacks": [
                    {
                        "Military Rifle": {
                            "type": "ranged",
                            "rng": 10,
                            "rof": 1,
                            "pow": 11
                        }
                    },
                    {
                        "Knife": {
                            "type": "melee",
                            "rng": 0.5,
                            "pow": 2,
                            "p+s": 7
                        }
                    }
                ],
                "abilities": [
                    "Mark Target",
                    "Prowl"
                ]
            }
        }
    ]
}
