{
    "name": "Stormblade Infantry",
    "edition": 3,
    "revision": "2021 v1",
    "keywords": [
        "Cygnar",
        "Storm Knight",
        "Unit"
    ],
    "unit size": [
        {
            "only": [
                {"Leader": 1},
                {"Grunts": 5},
                {"point cost": 9}
            ]
        }
    ],
    "field allowance": 2,
    "models": [
        {
            "Leader": {
                "spd": 5,
                "str": 6,
                "mat": 7,
                "rat": 5,
                "def": 13,
                "arm": 15,
                "cmd": 8,
                "boxes": 1,
                "advantages": [
                    "Assault",
                    "Combined Melee Attack",
                    "Immunity: Electricy"
                ],
                "base size": 30,
                "attacks": [
                    {
                        "Rod Bolt": {
                            "type": "ranged",
                            "rng": 6,
                            "rof": 1,
                            "pow": 14,
                            "weapon qualities": ["Damage Type: Electrical"]
                        }
                    },
                    {
                        "Storm Rod": {
                            "type": "melee",
                            "rng": 2,
                            "pow": 9,
                            "p+s": 15
                        }
                    }
                ]
            }
        },
        {
            "Grunts": {
                "spd": 5,
                "str": 6,
                "mat": 7,
                "rat": 5,
                "def": 13,
                "arm": 15,
                "cmd": 8,
                "boxes": 1,
                "advantages": [
                    "Assault",
                    "Combined Melee Attack",
                    "Immunity: Electricity"
                ],
                "base size": 30,
                "attacks": [
                    {
                        "Glaive Bolt": {
                            "type": "ranged",
                            "rng": 6,
                            "rof": 1,
                            "pow": 14,
                            "weapon qualities": ["Damage Type: Electrical"]
                        }
                    },
                    {
                        "Storm Glaive": {
                            "type": "melee",
                            "rng": 1,
                            "pow": 9,
                            "p+s": 15
                        }
                    }
                ]
            }
        }
    ]
}
