{
    "name": "Stormblade Infantry Officer & Standard",
    "edition": 3,
    "revision": "2021 v1",
    "keywords": [
        "Cygnar",
        "Storm Knight",
        "Command Attachment"
    ],
    "unit size": [
        {
            "only": [
                {"Leader": 1},
                {"Grunts": 5},
                {"point cost": 2}
            ]
        }
    ],
    "field allowance": 2,
    "models": [
        {
            "Officer": {
                "spd": 5,
                "str": 6,
                "mat": 8,
                "rat": 6,
                "def": 13,
                "arm": 15,
                "cmd": 8,
                "boxes": 5,
                "advantages": [
                    "Assault",
                    "Combined Melee Attack",
                    "Immunity: Electricity",
                    "Jack Marshal",
                    "Officer"
                ],
                "base size": 30,
                "attacks": [
                    {
                        "Storm Glaive Blast": {
                            "type": "ranged",
                            "rng": 6,
                            "rof": 1,
                            "pow": 14,
                            "weapon qualities": ["Damage Type: Electrical"]
                        }
                    },
                    {
                        "Storm Glaive": {
                            "type": "melee",
                            "rng": 1,
                            "pow": 9,
                            "p+s": 15
                        }
                    }
                ],
                "abilities": [
                    "Attachment [Stormblade Infantry]",
                    "Granted: Relentless Charge",
                    "Iron Zeal"
                ]
            }
        },
        {
            "Standard Bearer": {
                "spd": 5,
                "str": 6,
                "mat": 7,
                "rat": 5,
                "def": 13,
                "arm": 15,
                "cmd": 8,
                "boxes": 1,
                "advantages": [
                    "Assault",
                    "Combined Melee Attack",
                    "Immunity: Electricity"
                ],
                "base size": 30,
                "attacks": [
                    {
                        "Storm Glaive Blast": {
                            "type": "ranged",
                            "rng": 6,
                            "rof": 1,
                            "pow": 14,
                            "weapon qualities": ["Damage Type: Electrical"]
                        }
                    },
                    {
                        "Storm Glaive": {
                            "type": "melee",
                            "rng": 1,
                            "pow": 9,
                            "p+s": 15
                        }
                    }
                ],
                "abilities": [
                    "Attachment [Stormblade Infantry]",
                    "Conductor",
                    "Standard Bearer",
                    "Take Up"
                ]
            }
        }
    ]
}
