{
    "name": "Sword Knight Officer & Standard",
    "edition": 3,
    "revision": "2021 v1",
    "keywords": [
        "Cygnar",
        "Command Attachment"
    ],
    "point cost": 3,
    "field allowance": 2,
    "models": [
        {
            "Officer": {
                "spd": 6,
                "str": 6,
                "mat": 7,
                "rat": 4,
                "def": 13,
                "arm": 14,
                "cmd": 8,
                "boxes": 5,
                "advantages": [
                    "Jack Marshal",
                    "Officer"
                ],
                "base size": 30,
                "attacks": [
                    {
                        "Battle Blade": {
                            "type": "melee",
                            "rng": 1,
                            "pow": 4,
                            "p+s": 10
                        }
                    }
                ],
                "abilities": [
                    "Attachment [Sword Knight]",
                    "Defensive Line",
                    "Flank [Friendly Faction Warjack]",
                    "Granted: Reposition [3\"]",
                    "Pentrating Strike",
                    "Tactics: Combined Melee Attack"
                ]
            }
        },
        {
            "Standard Bearer": {
                "spd": 6,
                "str": 6,
                "mat": 6,
                "rat": 4,
                "def": 13,
                "arm": 14,
                "cmd": 8,
                "boxes": 1,
                "base size": 30,
                "abilities": [
                    "Attachment [Sword Knight]",
                    "Defensive Line",
                    "Standard Bearer",
                    "Take Up"
                ]
            }
        }
    ]
}
