{
    "name": "Trencher Infantry Officer & Sniper",
    "edition": 3,
    "revision": "2021 v1",
    "keywords": [
        "Cygnar",
        "Command Attachment"
    ],
    "point cost": 4,
    "field allowance": "U",
    "models": [
        {
            "Officer": {
                "spd": 6,
                "str": 6,
                "mat": 7,
                "rat": 6,
                "def": 13,
                "arm": 13,
                "cmd": 8,
                "boxes": 5,
                "advantages": [
                    "Advance Deploy",
                    "Assault",
                    "Combined Ranged Attack",
                    "Officer",
                    "Tough"
                ],
                "base size": 30,
                "attacks": [
                    {
                        "Military Rifle": {
                            "type": "ranged",
                            "rng": 10,
                            "rof": 1,
                            "pow": 11
                        }
                    },
                    {
                        "Bayonet": {
                            "type": "melee",
                            "rng": 1,
                            "pow": 3,
                            "p+s": 9,
                            "abilities": ["Brutal Charge"]
                        }
                    }
                ],
                "abilities": [
                    "Attachment [Trencher Infantry]",
                    "Cautious Advance",
                    "Dig In",
                    "Into The Breach",
                    "Smoke Bombs"
                ]
            }
        },
        {
            "Sniper": {
                "spd": 6,
                "str": 6,
                "mat": 6,
                "rat": 7,
                "def": 13,
                "arm": 13,
                "cmd": 8,
                "boxes": 1,
                "advantages": [
                    "Advance Deploy",
                    "Assault",
                    "Tough"
                ],
                "base size": 30,
                "attacks": [
                    {
                        "Scoped Rifle": {
                            "type": "ranged",
                            "rng": 14,
                            "rof": 1,
                            "pow": 11
                        }
                    },
                    {
                        "Bayonet": {
                            "type": "melee",
                            "rng": 1,
                            "pow": 3,
                            "p+s": 9,
                            "abilities": ["Brutal Charge"]
                        }
                    }
                ],
                "abilities": [
                    "Attachment [Trencher Infantry]",
                    "Dig In",
                    "Smoke Bombs",
                    "Sniper"
                ]
            }
        }
    ]
}
