{
    "name": "Trencher Express Team",
    "edition": 3,
    "revision": "2017 v1",
    "keywords": [
        "Cygnar",
        "Weapon Crew",
        "Unit"
    ],
    "unit size": [
        {
            "only": [
                {"Spotter": 1},
                {"Gunner": 1},
                {"point cost": 5}
            ]
        }
    ],
    "field allowance": 2,
    "models": [
        {
            "Spotter": {
                "spd": 6,
                "str": 6,
                "mat": 6,
                "rat": 6,
                "def": 13,
                "arm": 13,
                "cmd": 5,
                "boxes": 5,
                "advantages": [
                    "Advance Deploy",
                    "Officer",
                    "Pathfinder",
                    "Tough"
                ],
                "base size": 30,
                "attacks": [
                    {
                        "Carbine": {
                            "type": "ranged",
                            "rng": 10,
                            "rof": 1,
                            "pow": 10
                        }
                    },
                    {
                        "Trench Knife": {
                            "type": "melee",
                            "rng": 0.5,
                            "pow": 3,
                            "p+s": 9
                        }
                    }
                ],
                "abilities": [
                    "Cautious Advance",
                    "Dig In"
                ]
            }
        },
        {
            "Gunner": {
                "spd": 6,
                "str": 7,
                "mat": 6,
                "rat": 5,
                "def": 13,
                "arm": 15,
                "cmd": 5,
                "boxes": 5,
                "advantages": [
                    "Advance Deploy",
                    "Pathfinder",
                    "Tough"
                ],
                "base size": 40,
                "attacks": [
                    {
                        "Raevhan Express Gun": {
                            "type": "ranged",
                            "rng": 14,
                            "rof": 1,
                            "pow": 14,
                            "abilities": [
                                "Grievous Wounds",
                                "Range Finder",
                                "Thunderbolt"
                            ]
                        }
                    },
                    {
                        "Trench Knife": {
                            "type": "melee",
                            "rng": 0.5,
                            "pow": 3,
                            "p+s": 10
                        }
                    }
                ],
                "abilities": [
                    "Dig In",
                    "Trollkin"
                ]
            }
        }
    ]
}
