{
    "name": "Crabbit",
    "edition": 3,
    "revision": "2021 v1",
    "keywords": [
        "Grymkin",
        "Lesser",
        "Warbeast"
    ],
    "point cost": 3,
    "field allowance": "U",
    "models": [
        {
            "Crabbit": {
                "spd": 6,
                "str": 5,
                "mat": 5,
                "rat": 1,
                "def": 13,
                "arm": 12,
                "cmd": 2,
                "base size": 30,
                "fury": 2,
                "threshold": 6,
                "boxes": {
                    "Spiral 1": 3,
                    "Spiral 2": 3,
                    "Spiral 3": 4,
                    "Spiral 4": 3,
                    "Spiral 5": 3,
                    "Spiral 6": 3
                },
                "attacks": [
                    {
                        "Bite": {
                            "type": "melee",
                            "rng": 0.5,
                            "pow": 3,
                            "p+s": 8
                        }
                    }
                ],
                "abilities": [
                    "Bounding Leap",
                    "Shield Guard"
                ],
                "animus": "Elusive"
            }
        }
    ]
}
