{
    "name": "Hollowmen",
    "edition": 3,
    "revision": "2021 v1",
    "keywords": [
        "Grymkin",
        "Unit"
    ],
    "unit size": [
        {
            "min": [
                {"Leader": 1},
                {"Grunts": 5},
                {"point cost": 8}
            ]
        },
        {
            "max": [
                {"Leader": 1},
                {"Grunts": 9},
                {"point cost": 13}
            ]
        }
    ],
    "field allowance": 2,
    "models": [
        {
            "Leader & Grunts": {
                "spd": 5,
                "str": 6,
                "mat": 5,
                "rat": 5,
                "def": 12,
                "arm": 12,
                "cmd": 7,
                "boxes": 1,
                "advantages": [
                    "Combined Ranged Attack",
                    "Eyeless Sight"
                ],
                "base size": 30,
                "attacks": [
                    {
                        "Military Rifle": {
                            "type": "ranged",
                            "rng": 10,
                            "rof": 1,
                            "pow": 11
                        }
                    },
                    {
                        "Bayonet": {
                            "type": "melee",
                            "rng": 1,
                            "pow": 3,
                            "p+s": 9,
                            "abilities": ["Brutal Charge"]
                        }
                    }
                ],
                "abilities": [
                    "Apparition",
                    "Reposition [3\"]"
                ]
            }
        }
    ]
}
