{
    "name": "The Four Horseymans",
    "edition": 3,
    "revision": "2020 v1",
    "keywords": [
        "Grymkin",
        "Neigh",
        "Slayer",
        "Solo"
    ],
    "point cost": 6,
    "field allowance": "C",
    "models": [
        {
            "Horseymans 1": {
                "spd": 6,
                "str": 6,
                "mat": 6,
                "rat": 3,
                "def": 13,
                "arm": 14,
                "cmd": 7,
                "boxes": 4,
                "advantages": ["Cavalry"],
                "base size": 50,
                "attacks": [
                    {
                        "Apocawypse": {
                            "type": "melee",
                            "rng": "*",
                            "pow": 3,
                            "p+s": 9,
                            "abilities": [
                                "Armor-Piercing",
                                "Lance"
                            ]
                        }
                    },
                    {
                        "Mount": {
                            "type": "mount",
                            "rng": 0.5,
                            "pow": 10
                        }
                    }
                ],
                "abilities": [
                    "Ancient Shroud",
                    "Relentless Charge",
                    {
                        "The End Of All Things": [
                            "Death",
                            "Famine",
                            "Pestilence",
                            "War"
                        ]
                    },
                    "The Last Ride"
                ]
            }
        }
    ]
}
