{
    "name": "The Wanderer",
    "edition": 3,
    "revision": "2017 v1",
    "keywords": [
        "Grymkin",
        "Warlock"
    ],
    "warbeast points": 28,
    "field allowance": "C",
    "models": [
        {
            "Wanderer 1": {
                "spd": 6,
                "str": 5,
                "mat": 5,
                "rat": 7,
                "def": 15,
                "arm": 14,
                "fury": 6,
                "cmd": 8,
                "boxes": 16,
                "advantages": ["Pathfinder"],
                "base size": 30,
                "attacks": [
                    {
                        "Lantern's Light": {
                            "type": "ranged",
                            "rng": "SP 10",
                            "rof": 1,
                            "abilities": ["Flare"]
                        }
                    },
                    {
                        "Lantern": {
                            "type": "melee",
                            "rng": 2,
                            "pow": 6,
                            "p+s": 11,
                            "weapon qualities": [
                                "Continuous Effect: Fire",
                                "Damage Type: Fire"
                            ],
                            "abilities": [
                                "Beacon",
                                "Flare"
                            ]
                        }
                    }
                ],
                "abilities": [
                    "Attuned Spirit [Friendly Faction]",
                    "Crossroads",
                    "Hidden Paths"
                ],
                "trump arcana": "Divergent Path",
                "spells": [
                    "Fog of War",
                    "Repudiate",
                    "Star-Crossed",
                    "Veil of Mists"
                ]
            }
        }
    ]
}
