{
    "name": "The Dreamer",
    "edition": 3,
    "revision": "2019 v2",
    "keywords": [
        "Grymkin",
        "Warlock"
    ],
    "warbeast points": 28,
    "field allowance": "C",
    "models": [
        {
            "Dreamer 1": {
                "spd": 6,
                "str": 4,
                "mat": 3,
                "rat": 7,
                "def": 15,
                "arm": 14,
                "fury": 7,
                "cmd": 7,
                "boxes": 15,
                "advantages": ["Gunfighter"],
                "base size": 30,
                "attacks": [
                    {
                        "Call To Sleep": {
                            "type": "ranged",
                            "rng": 10,
                            "rof": 1,
                            "abilities": [
                                "Reload [1]",
                                "Sleepwalker"
                            ]
                        }
                    }
                ],
                "abilities": [
                    "Future Sight",
                    "Hat Trick",
                    "Wraith Walker"
                ],
                "trump arcana": "All Fall Down",
                "spells": [
                    "Abyssal Gate",
                    "Artifice of Deviation",
                    "Enfeeble",
                    "Manifest Destiny",
                    "Mirage"
                ]
            }
        }
    ]
}
