{
    "name": "Zevanna Agha, The Fate Keeper",
    "edition": 3,
    "revision": "2021 v1",
    "keywords": [
        "Grymkin",
        "Battle Engine",
        "Warlock"
    ],
    "warbeast points": 29,
    "field allowance": "C",
    "models": [
        {
            "Old Witch 3": {
                "spd": 6,
                "str": 12,
                "mat": 5,
                "rat": 6,
                "def": 12,
                "arm": 19,
                "fury": 7,
                "cmd": 8,
                "boxes": 20,
                "advantages": ["Pathfinder"],
                "base size": 120,
                "attacks": [
                    {
                        "Carrion Crows": {
                            "type": "ranged",
                            "rng": 12,
                            "rof": 1,
                            "aoe": "*",
                            "abilities": ["Black Wings"]
                        }
                    },
                    {
                        "Stomp": {
                            "type": "melee",
                            "field of fire": "Left",
                            "loc": "L",
                            "rng": 2,
                            "pow": 3,
                            "p+s": 15
                        }
                    },
                    {
                        "Stomp": {
                            "type": "melee",
                            "field of fire": "Right",
                            "loc": "R",
                            "rng": 2,
                            "pow": 3,
                            "p+s": 15
                        }
                    }
                ],
                "abilities": [
                    {
                        "Arcane Machinery": [
                            "Arcane Calibrations",
                            "Divinator",
                            "Hellhole",
                            "Range Amplifier",
                            "Vexing Alignment"
                        ]
                    },
                    "Dual Attack",
                    "Old School",
                    "Repairable"
                ],
                "feat": {
                    "name": "Hour Of Reckoning",
                    "flavor": "No one but Zevanna Agha comprehends the scope of her plans, and any who stand in her way face the full power of her arcane mastery. Entwining her command over black arts with the eleborate mystical devices borne upon her towering battle mount, the Fate Keeper stands ready to unleash a maelstrom of destructive judgment.",
                    "text": "The Old Witch gains the benefit of all of her Arcane Machinery effects this activation."
                },
                "spells": [
                    "Boundless Charge",
                    "Curse of Shadows",
                    "Respawn",
                    "Scourge",
                    "Windstorm"
                ]
            }
        }
    ]
}
