{
    "name": "Goreshade the Bastard",
    "keywords": [
        "Cryx",
        "Bane",
        "Warcaster"
    ],
    "field allowance": "C",
    "models": [
        {
            "Goreshade 1": {
                "spd": 6,
                "aat": 7,
                "mat": 7,
                "rat": 4,
                "def": 15,
                "arm": 16,
                "arc": 7,
                "ctrl": 14,
                "boxes": 17,
                "advantages": [
                    "Undead"
                ],
                "base size": 40,
                "attacks": [
                    {
                        "Bloodcleaver": {
                            "type": "melee",
                            "rng": 2,
                            "pow": 14,
                            "weapon qualities": ["Damage Type: Magical"],
                            "abilities": ["Deathwalk"]
                        }
                    }
                ],
                "feat": {
                    "name": "Dark Summons",
                    "text": "Put a small-based Bane unit into play. Place each model completely within 3\" of Goreshade."
                },
                "spells": [
                        {"spell rack options": 0},
                        "Bleed",
                        "Hex Blast",
                        "Lamentation",
                        "Shadowmancer",
                        "Soul Gate"
                ]
            }
        }
    ]
}
