{
    "name": "Nightwretch",
    "keywords": [
        "Cryx",
        "Bane",
        "Light",
        "Warjack"
    ],
    "point cost": 6,
    "field allowance": 4,
    "models": [
        {
            "Nightwretch": {
                "spd": 7,
                "mat": 5,
                "rat": 5,
                "def": 14,
                "arm": 14,
                "advantages": [
                    "Arc Node",
                    "Construct",
                    "Dual Attack",
                    "Headbutt Power Attack",
                    "Slam Power Attack"
                ],
                "base size": 40,
                "boxes": {
                    "grid": [
                        [4,1],
                        [5,1],
                        [6,1],
                        [4,2],
                        [5,2],
                        [6,2],
                        [3,3],
                        [4,3],
                        [5,3],
                        [6,3],
                        [3,4],
                        [4,4],
                        [5,4],
                        [6,4],
                        [4,5],
                        [5,5],
                        [6,5],
                        [4,6],
                        [5,6],
                        [6,6]
                    ],
                    "systems": [
                        {
                            "Front": [
                                [5,1],
                                [6,1],
                                [5,2]
                            ]
                        },
                        {
                            "Cortex": [
                                [6,2],
                                [5,3],
                                [6,3]
                            ]
                        },
                        {
                            "Arc Node": [
                                [5,4],
                                [5,5]
                            ]
                        },
                        {
                            "Movement": [
                                [6,4],
                                [6,5],
                                [5,6],
                                [6,6]
                            ]
                        }
                    ]
                },
                "attacks": [
                    {
                        "Doomspitter": {
                            "type": "ranged",
                            "loc": "F",
                            "rng": 6,
                            "rof": 1,
                            "aoe": 2,
                            "pow": "14/8"
                        },
                        "Bash": {
                            "type": "melee",
                            "rng": 1,
                            "pow": 7
                        }
                    }
                ]
            }
        }
    ]
}
