{
    "name": "Seether",
    "keywords": [
        "Cryx",
        "Bane",
        "Heavy",
        "Warjack"
    ],
    "point cost": 10,
    "field allowance": 4,
    "models": [
        {
            "Seether": {
                "spd": 6,
                "mat": 8,
                "rat": 5,
                "def": 12,
                "arm": 17,
                "advantages": [
                    "Construct",
                    "Gladiator",
                    "Headbutt Power Attack",
                    "Slam Power Attack",
                    "Trample Power Attack"
                ],
                "base size": 50,
                "boxes": {
                    "grid": [
                        [3,1],
                        [4,1],
                        [5,1],
                        [2,2],
                        [3,2],
                        [4,2],
                        [5,2],
                        [6,2],
                        [1,3],
                        [2,3],
                        [3,3],
                        [4,3],
                        [5,3],
                        [6,3],
                        [1,4],
                        [2,4],
                        [3,4],
                        [4,4],
                        [5,4],
                        [6,4],
                        [2,5],
                        [3,5],
                        [4,5],
                        [5,5],
                        [6,5],
                        [3,6],
                        [4,6],
                        [5,6]
                    ],
                    "systems": [
                        {"Left Arm": [
                            [5,1],
                            [4,2],
                            [5,2]
                        ]},
                        {"Movement": [
                            [6,2],
                            [5,3],
                            [6,3]
                        ]},
                        {"Cortex": [
                            [5,4],
                            [6,4],
                            [6,5]
                        ]},
                        {"Right Arm": [
                            [4,5],
                            [5,5],
                            [5,6]
                        ]}
                    ]
                },
                "attacks": [
                    {
                        "Talon": {
                            "type": "melee",
                            "loc": "R",
                            "rng": 1,
                            "pow": 17,
                            "weapon qualities": ["Throw Power Attack"]
                        },
                        "Talon": {
                            "type": "melee",
                            "loc": "L",
                            "rng": 1,
                            "pow": 17,
                            "weapon qualities": ["Throw Power Attack"]
                        },
                        "Tusks": {
                            "type": "melee",
                            "rng": 1,
                            "pow": 12
                        }
                    }
                ],
                "abilities": ["Uncontrollable Rage"]
            }
        }
    ]
}
