{
    "name": "Stalker",
    "keywords": [
        "Cryx",
        "Bane",
        "Light",
        "Warjack"
    ],
    "point cost": 7,
    "field allowance": 4,
    "models": [
        {
            "Stalker": {
                "spd": 7,
                "mat": 7,
                "rat": 4,
                "def": 15,
                "arm": 13,
                "advantages": [
                    "Advance Deploy",
                    "Construct",
                    "Headbutt Power Attack",
                    "Pathfinder",
                    "Slam Power Attack",
                    "Stealth"
                ],
                "base size": 40,
                "boxes": {
                    "grid": [
                        [4,1],
                        [5,1],
                        [3,2],
                        [4,2],
                        [5,2],
                        [6,2],
                        [4,3],
                        [5,3],
                        [6,3],
                        [4,4],
                        [5,4],
                        [6,4],
                        [3,5],
                        [4,5],
                        [5,5],
                        [6,5],
                        [4,6],
                        [5,6]
                    ],
                    "systems": [
                        {
                            "Left Arm": [
                                [5,1],
                                [4,2],
                                [5,2]
                            ]
                        },
                        {
                            "Movement": [
                                [6,2],
                                [5,3],
                                [6,3]
                            ]
                        },
                        {
                            "Cortex": [
                                [5,4],
                                [6,4],
                                [6,5]
                            ]
                        },
                        {
                            "Right Arm": [
                                [4,5],
                                [5,5],
                                [5,6]
                            ]
                        }
                    ]
                },
                "attacks": [
                    {
                        "Eviscerator": {
                            "type": "melee",
                            "loc": "R",
                            "rng": 1,
                            "pow": 12,
                            "weapon qualities": ["Blessed"]
                        },
                        "Eviscerator": {
                            "type": "melee",
                            "loc": "L",
                            "rng": 1,
                            "pow": 12,
                            "weapon qualities": ["Blessed"]
                        }                    
                    }
                ],
                "abilities": [
                    "Bounding Leap",
                    "Extended Control Range"
                ]
            }
        }
    ]
}
