{
    "name": "Aelyth Vyr, Blade of Nyssor",
    "edition": 3,
    "revision": "2021 v2",
    "keywords": [
        "Retribution",
        "Nyss",
        "Ryssovass",
        "Solo"
    ],
    "point cost": 5,
    "field allowance": "C",
    "models": [
        {
            "Aelyth 1": {
                "spd": 6,
                "str": 8,
                "mat": 8,
                "rat": 4,
                "def": 14,
                "arm": 16,
                "cmd": 9,
                "boxes": 5,
                "advantages": ["Tough"],
                "base size": 30,
                "attacks": [
                    {
                        "Great Sword": {
                            "type": "melee",
                            "rng": 2,
                            "pow": 4,
                            "p+s": 12,
                            "weapon qualities": ["Weapon Damage"]
                        }
                    }
                ],
                "abilities": [
                    "Cleave",
                    "Dying Breath",
                    "Girded",
                    "Elite Cadre [Ryssovass Defenders]",
                    "Precision Strike",
                    "Steady",
                    "Veteran Leader [Nyss]"
                ]
            }
        }
    ]
}
