{
    "name": "Dawnguard Sentinel Scyir",
    "edition": 3,
    "revision": "2016 v2",
    "keywords": [
        "Retribution",
        "Solo"
    ],
    "point cost": 4,
    "field allowance": 2,
    "models": [
        {
            "Scyir": {
                "spd": 5,
                "str": 6,
                "mat": 8,
                "rat": 4,
                "def": 13,
                "arm": 16,
                "cmd": 9,
                "boxes": 5,
                "advantages": ["Jack Marshal"],
                "base size": 30,
                "attacks": [
                    {
                        "Great Sword": {
                            "type": "melee",
                            "rng": 2,
                            "pow": 6,
                            "p+s": 12,
                            "weapon qualities": ["Weapon Master"]
                        }
                    }
                ],
                "abilities": [
                    "Drive: Righteous Vengeance",
                    "Iron Sentinel",
                    "Righteous Vengeance",
                    "Tactician [Dawnguard]"
                ]
            }
        }
    ]
}
