{
    "name": "Dawnguard Destors",
    "edition": 3,
    "revision": "2021 v1",
    "keywords": [
        "Retribution",
        "Unit"
    ],
    "unit size": [
        {
            "min": [
                {"Leader": 1},
                {"Grunts": 2},
                {"point cost": 11}
            ]
        },
        {
            "max": [
                {"Leader": 1},
                {"Grunts": 4},
                {"point cost": 18}
            ]
        }
    ],
    "field allowance": 2,
    "models": [
        {
            "Leaders & Grunts": {
                "spd": 8,
                "str": 6,
                "mat": 7,
                "rat": 6,
                "def": 13,
                "arm": 18,
                "cmd": 9,
                "boxes": [
                    {"Model A": 5},                    
                    {"Model B": 5},                    
                    {"Model C": 5},                    
                    {"Model D": 5},                    
                    {"Model E": 5}                    
                ],
                "advantages": ["Cavalry"],
                "base size": 50,
                "attacks": [
                    {
                        "Lance Cannon": {
                            "type": "ranged",
                            "rng": 10,
                            "rof": 1,
                            "pow": 14
                        }
                    },
                    {
                        "Lance": {
                            "type": "melee",
                            "rng": "*",
                            "pow": 8,
                            "p+s": 14,
                            "abilities": [
                                "Close Volley",
                                "Lance"
                            ]
                        }
                    },
                    {
                        "Mount": {
                            "type": "melee",
                            "rng": 0.5,
                            "pow": 12
                        }
                    }
                ],
                "abilities": [
                    "Dual Attack",
                    "Reposition [3\"]"
                ]
            }
        }
    ]
}
