{
    "name": "Dawnguard Sentinel Officer & Standard",
    "edition": 3,
    "revision": "2016 v1",
    "keywords": [
        "Retribution",
        "Command Attachment"
    ],
    "point cost": 4,
    "field allowance": 2,
    "models": [
        {
            "Officer": {
                "spd": 5,
                "str": 6,
                "mat": 8,
                "rat": 4,
                "def": 12,
                "arm": 15,
                "cmd": 8,
                "boxes": 5,
                "advantages": ["Officer"],
                "base size": 30,
                "attacks": [
                    {
                        "Great Sword": {
                            "type": "melee",
                            "rng": 2,
                            "pow": 6,
                            "p+s": 12,
                            "weapon qualities": ["Weapon Master"]
                        }
                    }
                ],
                "abilities": [
                    "Attachment [Dawnguard Sentinels]",
                    "Iron Zeal",
                    "Tactics: Relentless Charge",
                    "Vengeance",
                    "Wall of Steel"
                ]
            }
        },
        {
            "Standard Bearer": {
                "spd": 5,
                "str": 6,
                "mat": 7,
                "rat": 4,
                "def": 12,
                "arm": 15,
                "cmd": 8,
                "boxes": 1,
                "base size": 30,
                "abilities": [
                    "Attachment [Dawnguard Sentinels]",
                    "Standard Bearer",
                    "Take Up",
                    "Vengeance",
                    "Wall of Steel"
                ]
            }
        }
    ]
}
