{
    "name": "Dawnlord Vyros",
    "edition": 3,
    "revision": "2017 v1",
    "keywords": [
        "Retribution",
        "Dawnguard",
        "Warcaster"
    ],
    "warjack points": 28,
    "field allowance": "C",
    "models": [
        {
            "Vyros 1": {
                "spd": 5,
                "str": 7,
                "mat": 8,
                "rat": 4,
                "def": 15,
                "arm": 17,
                "focus": 6,
                "cmd": 10,
                "boxes": 18,
                "base size": 30,
                "attacks": [
                    {
                        "Justicar": {
                            "type": "melee",
                            "rng": 2,
                            "pow": 7,
                            "p+s": 14,
                            "weapon qualities": ["Damage Type: Magical"]
                        }
                    }
                ],
                "abilities": [
                    "Bird's Eye",
                    "Flank [Friendly Faction Warjack]"
                ],
                "feat": {
                    "name": "Perfect Execution",
                    "flavor": "For Dawnlord Vyros, nothing can be left to chance. At his command men and machine act with perfect synchronicity, bringing swift annihilation to any who would oppose him.",
                    "text": "While in Vyros' control range, warjacks in his battlegroup gain Flank [friendly Faction warrior model]. Perfect Execution lasts for one turn."
                },
                "spells": [
                    "Eliminator",
                    "Hallowed Avenger",
                    "Inviolable Resolve",
                    "Mobility",
                    "Stranglehold"
                ]
            }
        }
    ]
}
