{
    "name": "Ghost Sniper",
    "edition": 3,
    "revision": "2016 v1",
    "keywords": [
        "Retribution",
        "Solo"
    ],
    "point cost": 3,
    "field allowance": 2,
    "models": [
        {
            "Ghost Sniper": {
                "spd": 6,
                "str": 4,
                "mat": 4,
                "rat": 7,
                "def": 14,
                "arm": 11,
                "cmd": 7,
                "boxes": 5,
                "advantages": ["Pathfinder"],
                "base size": 30,
                "attacks": [
                    {
                        "Arcane Cannon": {
                            "type": "ranged",
                            "rng": 14,
                            "rof": 1,
                            "pow": 10,
                            "abilities": ["Deadly Shot"]
                        }
                    },
                    {
                        "Sword": {
                            "type": "melee",
                            "rng": 0.5,
                            "pow": 3,
                            "p+s": 7
                        }
                    }
                ],
                "abilities": [
                    "Marksman",
                    "Swift Hunter"
                ]
            }
        }
    ]
}
