{
    "name": "Houseguard Halberdiers",
    "edition": 3,
    "revision": "2021 v1",
    "keywords": [
        "Retribution",
        "Unit"
    ],
    "unit size": [
        {
            "min": [
                {"Leader": 1},
                {"Grunts": 5},
                {"point cost": 8}
            ]
        },
        {
            "max": [
                {"Leader": 1},
                {"Grunts": 9},
                {"point cost": 13}
            ]
        }
    ],
    "field allowance": "U",
    "models": [
        {
            "Leader & Grunts": {
                "spd": 6,
                "str": 5,
                "mat": 6,
                "rat": 4,
                "def": 13,
                "arm": 14,
                "cmd": 7,
                "boxes": 1,
                "advantages": ["Combined Melee Attack"],
                "base size": 30,
                "attacks": [
                    {
                        "Halberd": {
                            "type": "melee",
                            "rng": 2,
                            "pow": 5,
                            "p+s": 10,
                            "abilities": ["Brutal Charge"]
                        }
                    }
                ],
                "abilities": [
                    "Practiced Maneuvers",
                    "Set Defense",
                    "Shield Wall"
                ]
            }
        }
    ]
}
