{
    "name": "Houseguard Halberdier Officer & Standard",
    "edition": 3,
    "revision": "2016 v1",
    "keywords": [
        "Retribution",
        "Command Attachment"
    ],
    "point cost": 4,
    "field allowance": "U",
    "models": [
        {
            "Officer": {
                "spd": 6,
                "str": 5,
                "mat": 7,
                "rat": 4,
                "def": 13,
                "arm": 14,
                "cmd": 7,
                "boxes": 5,
                "advantages": [
                    "Officer",
                    "Combined Melee Attack"
                ],
                "base size": 30,
                "attacks": [
                    {
                        "Halberd": {
                            "type": "melee",
                            "rng": 2,
                            "pow": 5,
                            "p+s": 10,
                            "abilities": ["Brutal Charge"]
                        }
                    }
                ],
                "abilities": [
                    "Granted: Reposition [3\"]",
                    "Practiced Maneuvers",
                    "Set Defense",
                    "Team Effort"
                ]
            }
        },
        {
            "Standard Bearer": {
                "spd": 6,
                "str": 5,
                "mat": 6,
                "rat": 4,
                "def": 13,
                "arm": 14,
                "cmd": 7,
                "boxes": 1,
                "base size": 30,
                "abilities": [
                    "Attachment [Houseguard Halberdiers]",
                    "Practiced Maneuvers",
                    "Standard Bearer",
                    "Take Up"
                ]
            }
        }
    ]
}
