{
    "name": "House Shyeel Artificer",
    "edition": 3,
    "revision": "2021 v1",
    "keywords": [
        "Retribution",
        "Battle Mage",
        "Solo"
    ],
    "point cost": 3,
    "field allowance": 2,
    "models": [
        {
            "Artificer": {
                "spd": 5,
                "str": 9,
                "mat": 7,
                "rat": 4,
                "def": 12,
                "arm": 17,
                "cmd": 9,
                "boxes": 5,
                "advantages": [
                    "Jack Marshal",
                    "Pathfinder"
                ],
                "base size": 40,
                "attacks": [
                    {
                        "Power Gauntlet": {
                            "type": "melee",
                            "rng": 1,
                            "pow": 4,
                            "p+s": 13,
                            "weapon qualities": ["Damage Type: Magical"],
                            "abilities": ["Combo Smite"]
                        }
                    },
                    {
                        "Power Gauntlet": {
                            "type": "melee",
                            "rng": 1,
                            "pow": 4,
                            "p+s": 13,
                            "weapon qualities": ["Damage Type: Magical"],
                            "abilities": ["Combo Smite"]
                        }
                    }
                ],
                "abilities": [
                    "Drive: Field Reinforcement",
                    "Force Barrier",
                    {
                        "Magic Ability [7]": [
                            "Force Manipulation",
                            "Force Wall",
                            "Magno Bolt"
                        ]
                    },
                    "Set Defense"
                ]
            }
        }
    ]
}
