{
    "name": "Hydra",
    "edition": 3,
    "revision": "2021 v1",
    "keywords": [
        "Retribution",
        "Shyeel",
        "Heavy",
        "Warjack"
    ],
    "point cost": 14,
    "field allowance": "U",
    "models": [
        {
            "Hydra": {
                "spd": 6,
                "str": 10,
                "mat": 7,
                "rat": 5,
                "def": 13,
                "arm": 18,
                "advantages": ["Construct"],
                "base size": 50,
                "boxes": {
                    "force field": 10,
                    "grid": [
                        [4,1],
                        [5,1],
                        [3,2],
                        [4,2],
                        [5,2],
                        [6,2],
                        [2,3],
                        [3,3],
                        [4,3],
                        [5,3],
                        [6,3],
                        [2,4],
                        [3,4],
                        [4,4],
                        [5,4],
                        [6,4],
                        [3,5],
                        [4,5],
                        [5,5],
                        [6,5],
                        [4,6],
                        [5,6]
                    ],
                    "systems": [
                        {
                            "Left Arm": [
                                [5,1],
                                [4,2],
                                [5,2]
                            ]
                        },
                        {
                            "Movement": [
                                [6,2],
                                [5,3],
                                [6,3]
                            ]
                        },
                        {
                            "Shield Generator": [
                                [4,3],
                                [4,4]
                            ]
                        },
                        {
                            "Cortex": [
                                [5,4],
                                [6,4],
                                [6,5]
                            ]
                        },
                        {
                            "Right Arm": [
                                [4,5],
                                [5,5],
                                [5,6]
                            ]
                        }
                    ]
                },
                "attacks": [
                    {
                        "Force Cannon": {
                            "type": "ranged",
                            "rng": 12,
                            "rof": 1,
                            "pow": 12,
                            "weapon qualities": ["Damage Type: Magical"],
                            "abilities": ["Focus-Powered"]
                        }
                    },
                    {
                        "Force Fist": {
                            "type": "melee",
                            "loc": "L",
                            "rng": 1,
                            "pow": 5,
                            "p+s": 15,
                            "weapon qualities": ["Open Fist"],
                            "abilities": ["Chain Attack: Grab & Smash"]
                        }
                    },
                    {
                        "Force Fist": {
                            "type": "melee",
                            "loc": "R",
                            "rng": 1,
                            "pow": 5,
                            "p+s": 15,
                            "weapon qualities": ["Open Fist"],
                            "abilities": ["Chain Attack: Grab & Smash"]
                        }
                    }
                ],
                "abilities": [
                    "Field Dependent (Hydra)",
                    "Focus Battery",
                    "Kinetic Capacitor"
                ]
            }
        }
    ]
}
