{
    "name": "Hypnos",
    "edition": 3,
    "revision": "2018 v1",
    "keywords": [
        "Retribution",
        "Vyre",
        "Heavy",
        "Warjack"
    ],
    "point cost": 17,
    "field allowance": "C",
    "models": [
        {
            "Hypnos": {
                "spd": 5,
                "str": 11,
                "mat": 7,
                "rat": 6,
                "def": 12,
                "arm": 19,
                "advantages": [
                    "Arc Node",
                    "Construct"
                ],
                "base size": 50,
                "boxes": {
                    "grid": [
                        [2,1],
                        [3,1],
                        [4,1],
                        [5,1],
                        [2,2],
                        [3,2],
                        [4,2],
                        [5,2],
                        [6,2],
                        [1,3],
                        [2,3],
                        [3,3],
                        [4,3],
                        [5,3],
                        [6,3],
                        [1,4],
                        [2,4],
                        [3,4],
                        [4,4],
                        [5,4],
                        [6,4],
                        [2,5],
                        [3,5],
                        [4,5],
                        [5,5],
                        [6,5],
                        [2,6],
                        [3,6],
                        [4,6],
                        [5,6]
                    ],
                    "systems": [
                        {
                            "Left Arm": [
                                [5,1],
                                [4,2],
                                [5,2]
                            ]
                        },
                        {
                            "Movement": [
                                [6,2],
                                [5,3],
                                [6,3]
                            ]
                        },
                        {
                            "Arc Node": [
                                [4,3],
                                [4,4]
                            ]
                        },
                        {
                            "Cortex": [
                                [5,4],
                                [6,4],
                                [6,5]
                            ]
                        },
                        {
                            "Right Arm": [
                                [4,5],
                                [5,5],
                                [5,6]
                            ]
                        }
                    ]
                },
                "attacks": [
                    {
                        "Phase Gun": {
                            "type": "ranged",
                            "loc": "R",
                            "rng": 10,
                            "rof": 1,
                            "aoe": 4,
                            "pow": 14,
                            "weapon qualities": ["Damage Type: Magical"],
                            "abilities": ["Ghost Shot"]
                        }
                    },
                    {
                        "Heavy Arcano-Pulse Fist": {
                            "type": "melee",
                            "loc": "L",
                            "rng": 1,
                            "pow": 6,
                            "p+s": 17,
                            "weapon qualities": ["Damage Type: Magical"],
                            "abilities": ["Shadow Bind"]
                        }
                    },
                    {
                        "Light Arcano-Pulse Fist": {
                            "type": "melee",
                            "loc": "R",
                            "rng": 1,
                            "pow": 4,
                            "p+s": 15,
                            "weapon qualities": ["Damage Type: Magical"],
                            "abilities": ["Shadow Bind"]
                        }
                    }
                ],
                "abilities": [
                    "Bond [Ossyan]",
                    "Sacred Ward"
                ]
            }
        }
    ]
}
