{
    "name": "Mage Hunter Assassin",
    "edition": 3,
    "revision": "2016 v1",
    "keywords": [
        "Retribution",
        "Solo"
    ],
    "point cost": 4,
    "field allowance": 2,
    "models": [
        {
            "Assassin": {
                "spd": 7,
                "str": 5,
                "mat": 7,
                "rat": 4,
                "def": 15,
                "arm": 12,
                "cmd": 7,
                "boxes": 5,
                "advantages": [
                    "Advance Deploy",
                    "Pathfinder",
                    "Stealth"
                ],
                "base size": 30,
                "attacks": [
                    {
                        "Chain Blade": {
                            "type": "melee",
                            "rng": 0.5,
                            "pow": 4,
                            "p+s": 9,
                            "weapon qualities": [
                                "Blessed",
                                "Chain Weapon",
                                "Weapon Master"
                            ],
                            "abilities": [
                                "Chain Strike",
                                "Decapitation"
                            ]
                        }
                    }
                ]
            }
        }
    ]
}
