{
    "name": "Mage Hunter Strike Force Commander",
    "edition": 3,
    "revision": "2021 v1",
    "keywords": [
        "Retribution",
        "Command Attachment"
    ],
    "point cost": 4,
    "field allowance": 2,
    "models": [
        {
            "Commander": {
                "spd": 6,
                "str": 5,
                "mat": 7,
                "rat": 7,
                "def": 14,
                "arm": 11,
                "cmd": 9,
                "boxes": 5,
                "advantages": [
                    "Advance Deploy",
                    "Combined Melee Attack",
                    "Combined Ranged Attack",
                    "Officer",
                    "Pathfinder",
                    "Stealth"
                ],
                "base size": 30,
                "attacks": [
                    {
                        "Crossbow": {
                            "type": "ranged",
                            "rng": 12,
                            "rof": 1,
                            "pow": 10,
                            "weapon qualities": [
                                "Blessed",
                                "Damage Type: Magical"
                            ],
                            "abilities": ["Dispel"]
                        }
                    },
                    {
                        "Saber": {
                            "type": "melee",
                            "rng": 0.5,
                            "pow": 4,
                            "p+s": 9,
                            "weapon qualities": ["Blessed"]
                        }
                    }
                ],
                "abilities": [
                    "Attachment [Mage Hunter Strike Force]",
                    "Jack Hunter",
                    "Phantom Barrage",
                    "Tactics Reposition [3\"]"
                ]
            }
        }
    ]
}
