{
    "name": "Magister Helynna",
    "edition": 3,
    "revision": "2020 v1",
    "keywords": [
        "Retribution",
        "Shyeel",
        "Warcaster"
    ],
    "warjack points": 30,
    "field allowance": "C",
    "models": [
        {
            "Helynna 1": {
                "spd": 6,
                "str": 6,
                "mat": 6,
                "rat": 5,
                "def": 15,
                "arm": 15,
                "focus": 7,
                "cmd": 9,
                "boxes": 16,
                "base size": 30,
                "attacks": [
                    {
                        "Redirection Blast": {
                            "type": "ranged",
                            "rng": 12,
                            "rof": 1,
                            "pow": 11,
                            "weapon qualities": ["Damage Type: Magical"],
                            "abilities": ["Force Grip"]
                        }
                    },
                    {
                        "Redirection": {
                            "type": "melee",
                            "rng": 2,
                            "pow": 5,
                            "p+s": 11,
                            "weapon qualities": ["Damage Type: Magical"],
                            "abilities": ["Force Grip"]
                        }
                    }
                ],
                "abilities": [
                    "Field Marshal [Conveyance]",
                    "Repair [d3 + 3]",
                    "Tune Up"
                ],
                "feat": {
                    "name": "Arcantrik Aptitude",
                    "flavor": "With a surge of arcane energy, Magister Helynna instantly restores the force fields of her myrmidons. Her knowledge of their inner workings is such that she holds damaged systems together by force of will and can prevent armored plates from sundering under an enemy onslaught.",
                    "text": "Remove all damage points from the force fields of friendly Faction warjacks in Helynna's control range. While in Helynna's control range, friendly Faction models gain +3 ARM and do not suffer the effects of crippled systems. Arcantrik Aptitude lasts for one round."
                },
                "spells": [
                    "Deceleration",
                    "Force Strike",
                    "Hand of Destruction",
                    "Obliteration",
                    "Rhythm of War"
                ]
            }
        }
    ]
}
