{
    "name": "Phoenix",
    "edition": 3,
    "revision": "2021 v1",
    "keywords": [
        "Retribution",
        "Shyeel",
        "Heavy",
        "Warjack"
    ],
    "point cost": 17,
    "field allowance": "U",
    "models": [
        {
            "Phoenix": {
                "spd": 6,
                "str": 10,
                "mat": 7,
                "rat": 5,
                "def": 13,
                "arm": 18,
                "advantages": [
                    "Arc Node",
                    "Construct"
                ],
                "base size": 50,
                "boxes": {
                    "force field": 10,
                    "grid": [
                        [4,1],
                        [5,1],
                        [3,2],
                        [4,2],
                        [5,2],
                        [6,2],
                        [2,3],
                        [3,3],
                        [4,3],
                        [5,3],
                        [6,3],
                        [2,4],
                        [3,4],
                        [4,4],
                        [5,4],
                        [6,4],
                        [3,5],
                        [4,5],
                        [5,5],
                        [6,5],
                        [4,6],
                        [5,6]
                    ],
                    "systems": [
                        {
                            "Left Arm": [
                                [5,1],
                                [4,2],
                                [5,2]
                            ]
                        },
                        {
                            "Movement": [
                                [6,2],
                                [5,3],
                                [6,3]
                            ]
                        },
                        {
                            "Arc Node": [
                                [3,3],
                                [3,4]
                            ]
                        },
                        {
                            "Shield Generator": [
                                [4,3],
                                [4,4]
                            ]
                        },
                        {
                            "Cortex": [
                                [5,4],
                                [6,4],
                                [6,5]
                            ]
                        },
                        {
                            "Right Arm": [
                                [4,5],
                                [5,5],
                                [5,6]
                            ]
                        }
                    ]
                },
                "attacks": [
                    {
                        "Halo Cannon": {
                            "type": "ranged",
                            "rng": 10,
                            "rof": 1,
                            "aoe": 3,
                            "pow": 14,
                            "weapon qualities": [
                                "Critical Continuous Fire",
                                "Damage Type: Fire",
                                "Damage Type: Magical"
                            ]
                        }
                    },
                    {
                        "Open Fist": {
                            "type": "melee",
                            "loc": "L",
                            "rng": 1,
                            "pow": 3,
                            "p+s": 13,
                            "weapon qualities": ["Open Fist"]
                        }
                    },
                    {
                        "Thermal Blade": {
                            "type": "melee",
                            "loc": "R",
                            "rng": 2,
                            "pow": 7,
                            "p+s": 17,
                            "weapon qualities": [
                                "Continuous Effect: Fire",
                                "Damage Type: Magical"
                            ]
                        }
                    }
                ],
                "abilities": [
                    "Combustion",
                    "Field Dependent (Phoenix)",
                    "Phoenix Field"
                ]
            }
        }
    ]
}
