{
    "name": "Siren",
    "edition": 3,
    "revision": "2017 v1",
    "keywords": [
        "Retribution",
        "Vyre",
        "Light",
        "Warjack"
    ],
    "point cost": 8,
    "field allowance": "U",
    "models": [
        {
            "Siren": {
                "spd": 5,
                "str": 9,
                "mat": 6,
                "rat": 6,
                "def": 12,
                "arm": 17,
                "advantages": ["Construct"],
                "base size": 40,
                "boxes": {
                    "grid": [
                        [3,1],
                        [4,1],
                        [5,1],
                        [2,2],
                        [3,2],
                        [4,2],
                        [5,2],
                        [6,2],
                        [2,3],
                        [3,3],
                        [4,3],
                        [5,3],
                        [6,3],
                        [2,4],
                        [3,4],
                        [4,4],
                        [5,4],
                        [6,4],
                        [2,5],
                        [3,5],
                        [4,5],
                        [5,5],
                        [6,5],
                        [3,6],
                        [4,6],
                        [5,6]
                    ],
                    "systems": [
                        {
                            "Left Arm": [
                                [5,1],
                                [4,2],
                                [5,2]
                            ]
                        },
                        {
                            "Movement": [
                                [6,2],
                                [5,3],
                                [6,3]
                            ]
                        },
                        {
                            "Cortex": [
                                [5,4],
                                [6,4],
                                [6,5]
                            ]
                        },
                        {
                            "Right Arm": [
                                [4,5],
                                [5,5],
                                [5,6]
                            ]
                        }
                    ]
                },
                "attacks": [
                    {
                        "Force Shock": {
                            "type": "ranged",
                            "loc": "R",
                            "rng": 10,
                            "rof": 1,
                            "pow": 12,
                            "weapon qualities": ["Damage Type: Magical"],
                            "abilities": ["Death Driver"]
                        }
                    },
                    {
                        "Rune Blade": {
                            "type": "melee",
                            "loc": "L",
                            "rng": 1,
                            "pow": 5,
                            "p+s": 14,
                            "weapon qualities": [
                                "Blessed",
                                "Damage Type: Magical",
                                "Open Fist"
                            ]
                        }
                    },
                    {
                        "Light Rune Blade": {
                            "type": "melee",
                            "loc": "R",
                            "rng": 0.5,
                            "pow": 3,
                            "p+s": 12,
                            "weapon qualities": [
                                "Blessed",
                                "Damage Type: Magical",
                                "Open Fist"
                            ]
                        }
                    }
                ],
                "abilities": ["Oracular Vision"]
            }
        }
    ]
}
