{
    "name": "Soulless Voidtracer",
    "edition": 3,
    "revision": "2021 v1",
    "keywords": [
        "Retribution",
        "Mage Hunter",
        "Solo"
    ],
    "point cost": 1,
    "field allowance": 3,
    "models": [
        {
            "Voidtracer": {
                "spd": 6,
                "str": 6,
                "mat": 6,
                "rat": 3,
                "def": 13,
                "arm": 13,
                "cmd": 5,
                "boxes": 1,
                "advantages": [
                    "Soulless",
                    "Stealth"
                ],
                "base size": 30,
                "attacks": [
                    {
                        "Two-Handed Sword": {
                            "type": "melee",
                            "rng": 1,
                            "pow": 6,
                            "p+s": 12,
                            "weapon qualities": ["Damage Type: Magical"]
                        }
                    }
                ],
                "abilities": [
                    "Arcane Void",
                    "Spell Ward"
                ]
            }
        }
    ]
}
