{
    "name": "Aurum Lucanum Athanor Locke",
    "edition": 3,
    "revision": "2021 v1",
    "keywords": [
        "Crucible Guard",
        "Convergence",
        "Ordic",
        "Warcaster"
    ],
    "warjack points": 29,
    "field allowance": "C",
    "models": [
        {
            "Locke 1": {
                "spd": 5,
                "str": 7,
                "mat": 5,
                "rat": 5,
                "def": 15,
                "arm": 17,
                "focus": 7,
                "cmd": 8,
                "boxes": 18,
                "base size": 40,
                "attacks": [
                    {
                        "Flame Jet": {
                            "type": "ranged",
                            "rng": "SP 6",
                            "rof": 1,
                            "pow": 12,
                            "weapon qualities": [
                                "Continuous Effect: Fire",
                                "Damage Type: Fire"
                            ]
                        }
                    },
                    {
                        "Flame Jet": {
                            "type": "ranged",
                            "rng": "SP 6",
                            "rof": 1,
                            "pow": 12,
                            "weapon qualities": [
                                "Continuous Effect: Fire",
                                "Damage Type: Fire"
                            ]
                        }
                    },
                    {
                        "Enhanced Fist": {
                            "type": "melee",
                            "rng": 1,
                            "pow": 5,
                            "p+s": 12,
                            "abilities": ["Critical Knockdown"]
                        }
                    }
                ],
                "abilities": [
                    "Field Marshal [Precision Strike]",
                    "Repair [d3 + 3]",
                    "Resourceful",
                    "Split Loyalties"
                ],
                "feat": {
                    "name": "Arcanodynamic Catalysis",
                    "flavor": "Few understand the interplay of arcane energies better than Athanor Locke. She can harness the magic others wield, as well as the latent energy of a warjack's cortex. She transforms one spell into another by rapid-fire mental calculations, releasing a torrent of residual magic.",
                    "text": "Enemy upkeep spells and animi in Locke's control range immediately expire. For one round, when an enemy model is forced, casts a spell, or spends 1 or more focus, fury, or essence points except to pay tithe while in Locke's control range, you can place one catalytic token on a model in Locke's battlegroup currently in her control range. Arcanodynamic Catalysis triggers only once. A model cannot have more than three catalytic tokens on it at any time. A model gains +1 DEF and ARM for each catalytic token on it. The weapons of a model with one or more catalytic tokens gain Damage Type: Magical. Remove one catalytic token from each affected model at the end of its activation."
                },
                "spells": [
                    "Bombshell",
                    "Engine of Destruction",
                    "Jackhammer",
                    "Redline",
                    "Road To War",
                    "Sentry"
                ]
            }
        }
    ]
}
