{
    "name": "Combat Alchemists",
    "edition": 3,
    "revision": "2021 v1",
    "keywords": [
        "Crucible Guard Unit"
    ],
    "unit size": [
        {
            "only": [
                {"Leader": 1},
                {"Grunts": 2},
                {"point cost": 7}
            ]
        }
    ],
    "field allowance": 3,
    "models": [
        {
            "Leader & Grunts": {
                "spd": 6,
                "str": 5,
                "mat": 5,
                "rat": 6,
                "def": 14,
                "arm": 11,
                "cmd": 7,
                "boxes": 1,
                "advantages": [
                    "Advance Deploy",
                    "Immunity: Corrosion",
                    "Immunity: Fire",
                    "Pathfinder"
                ],
                "base size": 30,
                "attacks": [
                    {
                        "Alchemical Grenade": {
                            "type": "ranged",
                            "rng": 6,
                            "rof": 1,
                            "aoe": 3,
                            "pow": 12,
                            "abilities": [
                                {
                                    "Attack Type": [
                                        "Acid Bomb",
                                        "Blood of Urcaen",
                                        "Ice Cage"
                                    ]
                                }
                            ]
                        }
                    },
                    {
                        "Dagger": {
                            "type": "melee",
                            "rng": 0.5,
                            "pow": 2,
                            "p+s": 7
                        }
                    }
                ],
                "abilities": [
                    "Alchemical Mask",
                    "Prowl",
                    "Smoke Bombs",
                    "Swift Hunter"
                ]
            }
        }
    ]
}
