{
    "name": "Crucible Guard Mechanik",
    "edition": 3,
    "revision": "2021 v1",
    "keywords": [
        "Crucible Guard",
        "Solo"
    ],
    "point cost": 1,
    "field allowance": 4,
    "models": [
        {
            "Mechanik": {
                "spd": 6,
                "str": 6,
                "mat": 5,
                "rat": 5,
                "def": 12,
                "arm": 14,
                "cmd": 6,
                "boxes": 1,
                "advantages": [
                    "Gunfighter",
                    "Immunity: Corrosion",
                    "Immunity: Fire"
                ],
                "base size": 30,
                "attacks": [
                    {
                        "Carbine": {
                            "type": "ranged",
                            "rng": 10,
                            "rof": 1,
                            "pow": 19
                        }
                    },
                    {
                        "Torch": {
                            "type": "melee",
                            "rng": 1,
                            "pow": 4,
                            "p+s": 10,
                            "weapon qualities": [
                                "Critical Continuous Fire",
                                "Damage Type: Fire"
                            ]
                        }
                    }
                ],
                "abilities": [
                    "All-Terrain",
                    "Breather",
                    "Repair [d3 + 1]"
                ]
            }
        }
    ]
}
