{
    "name": "Crucible Guard Assault Troopers",
    "edition": 3,
    "revision": "2021 v1",
    "keywords": [
        "Crucible Guard",
        "Unit"
    ],
    "unit size": [
        {
            "min": [
                {"Leader": 1},
                {"Grunts": 2},
                {"point cost": 8}
            ]
        },
        {
            "max": [
                {"Leader": 1},
                {"Grunts": 4},
                {"point cost": 13}
            ]
        }
    ],
    "field allowance": 3,
    "models": [
        {
            "Leader & Grunts": {
                "spd": 5,
                "str": 7,
                "mat": 7,
                "rat": 4,
                "def": 11,
                "arm": 16,
                "cmd": 8,
                "boxes": [
                    {"Model A": 5},
                    {"Model B": 5},
                    {"Model C": 5},
                    {"Model D": 5},
                    {"Model E": 5}
                ],
                "advantages": [
                    "Immunity: Corrosion",
                    "Immunity: Fire"

                ],
                "base size": 40,
                "attacks": [
                    {
                        "Thermal Hammer": {
                            "type": "melee",
                            "rng": 2,
                            "pow": 5,
                            "p+s": 12,
                            "weapon qualities": [
                                "Critical Continuous Fire",
                                "Weapon Master"
                            ],
                            "abilities": ["Eruption of Ash"]
                        }
                    }
                ],
                "abilities": [
                    "Ashen Veil",
                    "Backdraft",
                    "Breather",
                    "Carapace"
                ]
            }
        }
    ]
}
