{
    "name": "Doctor Alejandro Mosby",
    "edition": 3,
    "revision": "2018 v1",
    "keywords": [
        "Crucible Guard",
        "Command Attachment"
    ],
    "point cost": 4,
    "field allowance": "C",
    "models": [
        {
            "Mosby 1": {
                "spd": 6,
                "str": 5,
                "mat": 6,
                "rat": 5,
                "def": 13,
                "arm": 12,
                "cmd": 7,
                "boxes": 5,
                "advantages": ["Officer"],
                "base size": 30,
                "attacks": [
                    {
                        "Combat Syringe": {
                            "type": "melee",
                            "rng": 0.5,
                            "p+s": "*",
                            "abilities": [
                                "Anesthesia",
                                "Needle"
                            ]
                        }
                    }
                ],
                "abilities": [
                    "Attachment [Small- Or Medium-Based Mercenary]",
                    "Breather",
                    {
                        "Field Work": [
                            "Coagulum of Entropy",
                            "Fortemorphic Elixir",
                            "The Good Stuff"
                        ]
                    },
                    "Heal [d3 + 2]",
                    "Ranking Officer",
                    "Revivifier"
                ]
            }
        }
    ]
}
