{
    "name": "Suppressor",
    "edition": 3,
    "revision": "2021 v1",
    "keywords": [
        "Crucible Guard",
        "Heavy",
        "Warjack"
    ],
    "point cost": 13,
    "field allowance": "U",
    "models": [
        {
            "Suppressor": {
                "spd": 5,
                "str": 11,
                "mat": 6,
                "rat": 5,
                "def": 11,
                "arm": 18,
                "advantages": ["Construct"],
                "base size": 50,
                "boxes": {
                    "grid": [
                        [2,1],
                        [3,1],
                        [4,1],
                        [5,1],
                        [2,2],
                        [3,2],
                        [4,2],
                        [5,2],
                        [6,2],
                        [1,3],
                        [2,3],
                        [3,3],
                        [4,3],
                        [5,3],
                        [6,3],
                        [1,4],
                        [2,4],
                        [3,4],
                        [4,4],
                        [5,4],
                        [6,4],
                        [2,5],
                        [3,5],
                        [4,5],
                        [5,5],
                        [6,5],
                        [2,6],
                        [3,6],
                        [4,6],
                        [5,6]
                    ],
                    "systems": [
                        {
                            "Left Arm": [
                                [5,1],
                                [4,2],
                                [5,2]
                            ]
                        },
                        {
                            "Movement": [
                                [6,2],
                                [5,3],
                                [6,3]
                            ]
                        },
                        {
                            "Cortex": [
                                [5,4],
                                [6,4],
                                [6,5]
                            ]
                        },
                        {
                            "Right Arm": [
                                [4,5],
                                [5,5],
                                [5,6]
                            ]
                        }
                    ]
                },
                "attacks": [
                    {
                        "Pyrodraulic Jet": {
                            "type": "ranged",
                            "loc": "L",
                            "rng": "SP 8",
                            "rof": 1,
                            "pow": 14,
                            "abilities": [
                                {
                                    "Attack Type": [
                                        "Ice Cage",
                                        "Incendiary",
                                        "Rust"
                                    ]
                                }
                            ]
                        }
                    },
                    {
                        "Pyrodraulic Jet": {
                            "type": "ranged",
                            "loc": "R",
                            "rng": "SP 8",
                            "rof": 1,
                            "pow": 14,
                            "abilities": [
                                {
                                    "Attack Type": [
                                        "Ice Cage",
                                        "Incendiary",
                                        "Rust"
                                    ]
                                }
                            ]
                        }
                    },
                    {
                        "Fist": {
                            "type": "melee",
                            "loc": "L",
                            "rng": 1,
                            "pow": 3,
                            "p+s": 14,
                            "weapon qualities": ["Open Fist"]
                        }
                    },
                    {
                        "Fist": {
                            "type": "melee",
                            "loc": "L",
                            "rng": 1,
                            "pow": 3,
                            "p+s": 14,
                            "weapon qualities": ["Open Fist"]
                        }
                    }
                ],
                "abilities": [
                    "Alchemically Treated",
                    "Dual Attack",
                    "Shooting Gallery"
                ]
            }
        }
    ]
}
