{
    "name": "Trancer",
    "edition": 3,
    "revision": "2018 v1",
    "keywords": [
        "Crucible Guard",
        "Solo"
    ],
    "point cost": 3,
    "field allowance": 4,
    "models": [
        {
            "Trancer": {
                "spd": 6,
                "str": 7,
                "mat": 4,
                "rat": 3,
                "def": 13,
                "arm": 11,
                "cmd": 5,
                "boxes": 5,
                "advantages": [
                    "Advance Deploy",
                    "Pathfinder"
                ],
                "base size": 30,
                "attacks": [
                    {
                        "Force Blow": {
                            "type": "melee",
                            "rng": 2,
                            "pow": 7,
                            "p+s": 14,
                            "weapon qualities": ["Damage Type: Magical"],
                            "abilities": ["Smite (weapon ability)"]
                        }
                    }
                ],
                "abilities": [
                    "Force Barrier",
                    "Mental Force",
                    "Poltergeist",
                    "Psychokinetic Blast",
                    "Steady"
                ]
            }
        }
    ]
}
