{
    "name": "Vulcan",
    "edition": 3,
    "revision": "2019 v1",
    "keywords": [
        "Crucible Guard",
        "Colossal",
        "Warjack"
    ],
    "point cost": 35,
    "field allowance": 2,
    "models": [
        {
            "Vulcan": {
                "spd": 6,
                "str": 16,
                "mat": 6,
                "rat": 6,
                "def": 8,
                "arm": 19,
                "advantages": [
                    "Construct",
                    "Pathfinder"
                ],
                "base size": 120,
                "boxes": {
                    "Left": {
                        "grid": [
                            [3,1],
                            [4,1],
                            [5,1],
                            [6,1],
                            [3,2],
                            [4,2],
                            [5,2],
                            [6,2],
                            [3,3],
                            [4,3],
                            [5,3],
                            [6,3],
                            [2,4],
                            [3,4],
                            [4,4],
                            [5,4],
                            [6,4],
                            [1,5],
                            [2,5],
                            [3,5],
                            [4,5],
                            [5,5],
                            [6,5],
                            [1,6],
                            [2,6],
                            [3,6],
                            [4,6],
                            [5,6],
                            [6,6]
                        ],
                        "systems": [
                            {
                                "Left Arm": [
                                    [5,1],
                                    [6,1],
                                    [5,2],
                                    [4,3],
                                    [4,4]
                                ]
                            },
                            {
                                "Movement": [
                                    [6,3],
                                    [6,4],
                                    [6,5],
                                    [6,6]
                                ]
                            },
                            {
                                "Cortex": [
                                    [6,2],
                                    [5,3],
                                    [5,4],
                                    [4,6],
                                    [5,6]
                                ]
                            },
                            {
                                "Special": [
                                    [3,5],
                                    [4,5],
                                    [3,6]
                                ]
                            }
                        ]
                    },
                    "Right": {
                        "grid": [
                            [1,1],
                            [2,1],
                            [3,1],
                            [4,1],
                            [5,1],
                            [6,1],
                            [1,2],
                            [2,2],
                            [3,2],
                            [4,2],
                            [5,2],
                            [6,2],
                            [2,3],
                            [3,3],
                            [4,3],
                            [5,3],
                            [6,3],
                            [3,4],
                            [4,4],
                            [5,4],
                            [6,4],
                            [3,5],
                            [4,5],
                            [5,5],
                            [6,5],
                            [3,6],
                            [4,6],
                            [5,6],
                            [6,6]
                           ],
                           "systems": [
                               {
                                   "Special": [
                                        [3,1],
                                        [3,2],
                                        [4,2]
                                    ]
                               },
                               {
                                    "Cortex": [
                                        [4,1],
                                        [5,1],
                                        [5,2],
                                        [5,3],
                                        [5,4],
                                        [6,5]
                                    ]
                               },
                               {
                                    "Movement": [
                                        [6,1],
                                        [6,2],
                                        [6,3],
                                        [6,4]
                                    ]
                               },
                               {
                                    "Right Arm": [
                                        [4,3],
                                        [4,4],
                                        [5,5],
                                        [5,6],
                                        [6,6]
                                    ]
                               }
                           ]
                        }
                },
                "attacks": [
                    {
                        "Aqua Mortuum Rocket": {
                            "type": "ranged",
                            "field of fire": "Right",
                            "loc": "R",
                            "rng": 14,
                            "rof": 1,
                            "aoe": 4,
                            "pow": 14,
                            "abilities": [
                                "Chem Trail",
                                "Minimum Range [5\"]",
                                "Primary Weapon",
                                "Reload [1]"
                            ]
                        }
                    },
                    {
                        "Vitriolic Deflagrator": {
                            "type": "ranged",
                            "field of fire": "Left",
                            "loc": "L",
                            "rng": "SP 10",
                            "rof": 1,
                            "pow": 14,
                            "weapon qualities": [
                                "Continuous Effect: Corrosion",
                                "Damage Type: Corrosion"
                            ]
                        }
                    },
                    {
                        "Vitriolic Deflagrator": {
                            "type": "ranged",
                            "field of fire": "Right",
                            "loc": "R",
                            "rng": "SP 10",
                            "rof": 1,
                            "pow": 14,
                            "weapon qualities": [
                                "Continuous Effect: Corrosion",
                                "Damage Type: Corrosion"
                            ]
                        }
                    },
                    {
                        "Fist": {
                            "type": "melee",
                            "field of fire": "Left",
                            "loc": "L",
                            "rng": 2,
                            "pow": 3,
                            "p+s": 19,
                            "weapon qualities": ["Open Fist"]
                        }
                    },
                    {
                        "Fist": {
                            "type": "melee",
                            "field of fire": "Right",
                            "loc": "R",
                            "rng": 2,
                            "pow": 3,
                            "p+s": 19,
                            "weapon qualities": ["Open Fist"]
                        }
                    }
                ],
                "abilities": [
                    "Alchemically Treated",
                    {
                        "Alchemical Vents": [
                            "Iron Bane",
                            "Miasma Of Death",
                            "Unnatural Affliction"
                        ]
                    },
                    "Bulldoze"
                ]
                    }
        }
    ]
}
