{
    "name": "Black Dragons",
    "edition": 3,
    "revision": "2021 v1",
    "keywords": [
        "Khador",
        "Iron Fang",
        "Unit"
    ],
    "unit size": [
        {
            "min": [
                {"Leader": 1},
                {"Grunts": 5},
                {"point cost": 9}
            ]
        },
        {
            "max": [
                {"Leader": 1},
                {"Grunts": 9},
                {"point cost": 15}
            ]
        }
    ],
    "field allowance": 2,
    "models": [
        {
            "Leader & Grunts": {
                "spd": 6,
                "str": 6,
                "mat": 7,
                "rat": 4,
                "def": 12,
                "arm": 14,
                "cmd": 8,
                "boxes": 1,
                "advantages": ["Combined Melee Attack"],
                "base size": 30,
                "attacks": [
                    {
                        "Blasting Pike": {
                            "type": "melee",
                            "rng": 2,
                            "pow": 7,
                            "p+s": 13,
                            "abilities": ["Critical Knockdown"]
                        }
                    }
                ],
                "abilities": [
                    "Practiced Maneuvers",
                    "Precision Strike",
                    "Shield Wall"
                ]
            }
        }
    ]
}
