{
    "name": "Bulkhead",
    "edition": 3,
    "revision": "2020 v1",
    "keywords": [
        "Khador",
        "Man-O-War",
        "Solo"
    ],
    "point cost": 5,
    "field allowance": "C",
    "models": [
        {
            "Bulkhead 1": {
                "spd": 4,
                "str": 9,
                "mat": 8,
                "rat": 6,
                "def": 10,
                "arm": 17,
                "cmd": 8,
                "boxes": 8,
                "base size": 40,
                "attacks": [
                    {
                        "Sawed-Off Shotcannon": {
                            "type": "ranged",
                            "rng": "SP 6",
                            "rof": 2,
                            "pow": 16,
                            "abilities": ["Both Barrels"]
                        }
                    },
                    {
                        "Riot Shield": {
                            "type": "melee",
                            "rng": 0.5,
                            "pow": 3,
                            "p+s": 12,
                            "weapon qualities": ["Shield"]
                        }
                    }
                ],
                "abilities": [
                    "Bulldoze",
                    "Dual Attack",
                    "Follow Up",
                    "Immovable Object",
                    "Repairable",
                    "Shield Guard",
                    "Slam Power Attack"
                ]
            }
        }
    ]
}
