{
    "name": "Fenris",
    "edition": 3,
    "revision": "2019 v1",
    "keywords": [
        "Khador",
        "Doom Reaver",
        "Dragoon",
        "Solo"
    ],
    "point cost": 8,
    "field allowance": "C",
    "models": [
        {
            "Fenris 1 (Mounted)": {
                "spd": 8,
                "str": 7,
                "mat": 8,
                "rat": 4,
                "def": 13,
                "arm": 16,
                "cmd": 10,
                "boxes": 10,
                "advantages": ["Cavalry"],
                "base size": 50,
                "attacks": [
                    {
                        "Fellblade": {
                            "type": "melee",
                            "rng": 2,
                            "pow": 5,
                            "p+s": 12,
                            "weapon qualities": [
                                "Damage Type: Magical",
                                "Weapon Master"
                            ],
                            "abilities": ["Grievous Wounds"]
                        }
                    },
                    {
                        "Fellblade": {
                            "type": "melee",
                            "rng": 2,
                            "pow": 5,
                            "p+s": 12,
                            "weapon qualities": [
                                "Damage Type: Magical",
                                "Weapon Master"
                            ],
                            "abilities": ["Grievous Wounds"]
                        }
                    },
                    {
                        "Mount": {
                            "type": "mount",
                            "rng": 0.5,
                            "pow": 12
                        }
                    }
                ],
                "abilities": [
                    "Berserk",
                    "Blood-Quenched",
                    "Leadership [Doom Reavers]",
                    "Relentless Charge",
                    "Reposition [3\"]",
                    "Rise",
                    "Spell Ward"
                ]
            }
        },
        {
            "Fenris": {
                "spd": 6,
                "str": 7,
                "mat": 8,
                "rat": 4,
                "def": 13,
                "arm": 14,
                "cmd": 10,
                "boxes": 5,
                "advantages": ["Tough"],
                "base size": 30,
                "attacks": [
                    {
                        "Fellblade": {
                            "type": "melee",
                            "rng": 2,
                            "pow": 5,
                            "p+s": 12,
                            "weapon qualities": [
                                "Damage Type: Magical",
                                "Weapon Master"
                            ],
                            "abilities": ["Grievous Wounds"]
                        }
                    },
                    {
                        "Fellblade": {
                            "type": "melee",
                            "rng": 2,
                            "pow": 5,
                            "p+s": 12,
                            "weapon qualities": [
                                "Damage Type: Magical",
                                "Weapon Master"
                            ],
                            "abilities": ["Grievous Wounds"]
                        }
                    }
                ],
                "abilities": [
                    "Berserk",
                    "Blood-Quenched",
                    "Leadership [Doom Reavers]",
                    "Relentless Charge",
                    "Rise",
                    "Spell Ward"
                ]
            }
        }
    ]
}
