{
    "name": "Greylord Escort",
    "edition": 3,
    "revision": "2021 v1",
    "keywords": [
        "Khador",
        "Doom Reaver",
        "Command Attachment"
    ],
    "point cost": 3,
    "field allowance": "U",
    "models": [
        {
            "Greylord Escort": {
                "spd": 6,
                "str": 5,
                "mat": 5,
                "rat": 4,
                "def": 13,
                "arm": 13,
                "cmd": 9,
                "boxes": 5,
                "advantages": [
                    "Advance Deploy",
                    "Immunity: Cold",
                    "Officer"
                ],
                "base size": 30,
                "attacks": [
                    {
                        "Orgoth Staff": {
                            "type": "melee",
                            "rng": 2,
                            "pow": 5,
                            "p+s": 10,
                            "weapon qualities": ["Damage Type: Magical"]
                        }
                    }
                ],
                "abilities": [
                    "Attachment [Doom Reaver Swordsmen]",
                    "Combat Caster",
                    "Granted: Silence",
                    {
                        "Magic Ability [7]": [
                            "Death Strider",
                            "Fell Curse",
                            "Frostbite"
                        ]
                    },
                    "Sacrificial Pawn [Doom Reaver]",
                    "Spell Ward"
                ]
            }
        }
    ]
}
