{
    "name": "Juggernaut",
    "edition": 3,
    "revision": "2018 v1",
    "keywords": [
        "Khador",
        "Heavy",
        "Warjack"
    ],
    "point cost": 13,
    "field allowance": "U",
    "models": [
        {
            "Juggernaut": {
                "spd": 4,
                "str": 12,
                "mat": 7,
                "rat": 4,
                "def": 10,
                "arm": 20,
                "advantages": ["Construct"],
                "base size": 50,
                "boxes": {
                    "grid": [
                        [1,1],
                        [2,1],
                        [3,1],
                        [4,1],
                        [5,1],
                        [1,2],
                        [2,2],
                        [3,2],
                        [4,2],
                        [5,2],
                        [6,2],
                        [1,3],
                        [2,3],
                        [3,3],
                        [4,3],
                        [5,3],
                        [6,3],
                        [1,4],
                        [2,4],
                        [3,4],
                        [4,4],
                        [5,4],
                        [6,4],
                        [1,5],
                        [2,5],
                        [3,5],
                        [4,5],
                        [5,5],
                        [6,5],
                        [1,6],
                        [2,6],
                        [3,6],
                        [4,6],
                        [5,6]
                    ],
                    "systems": [
                        {
                            "Left Arm": [
                                [5,1],
                                [4,2],
                                [5,2]
                            ]
                        },
                        {
                            "Movement": [
                                [6,2],
                                [5,3],
                                [6,3]
                            ]
                        },
                        {
                            "Cortex": [
                                [5,4],
                                [6,4],
                                [6,5]
                            ]
                        },
                        {
                            "Right Arm": [
                                [4,5],
                                [5,5],
                                [5,6]
                            ]
                        }
                    ]
                },
                "attacks": [
                    {
                        "Open Fist": {
                            "type": "melee",
                            "loc": "L",
                            "rng": 1,
                            "pow": 3,
                            "p+s": 15,
                            "weapon qualities": ["Open Fist"]
                        }
                    },
                    {
                        "Ice Axe": {
                            "type": "melee",
                            "loc": "R",
                            "rng": 1,
                            "pow": 7,
                            "p+s": 19,
                            "abilities": ["Critical Freeze"]
                        }
                    }
                ]
            }
        }
    ]
}
