{
    "name": "Karchev The Terrible",
    "edition": 3,
    "revision": "2018 v1",
    "keywords": [
        "Khador",
        "Greylord",
        "Warcaster"
    ],
    "warjack points": 30,
    "field allowance": "C",
    "models": [
        {
            "Karchev 1": {
                "spd": 4,
                "str": 12,
                "mat": 7,
                "rat": 5,
                "def": 12,
                "arm": 19,
                "focus": 6,
                "cmd": 8,
                "base size": 50,
                "boxes": {
                    "grid": [
                        [1,1],
                        [2,1],
                        [3,1],
                        [4,1],
                        [5,1],
                        [1,2],
                        [2,2],
                        [3,2],
                        [4,2],
                        [5,2],
                        [6,2],
                        [1,3],
                        [2,3],
                        [3,3],
                        [4,3],
                        [5,3],
                        [6,3],
                        [1,4],
                        [2,4],
                        [3,4],
                        [4,4],
                        [5,4],
                        [6,4],
                        [1,5],
                        [2,5],
                        [3,5],
                        [4,5],
                        [5,5],
                        [6,5],
                        [1,6],
                        [2,6],
                        [3,6],
                        [4,6],
                        [5,6]
                    ],
                    "systems": [
                        {
                            "Left Arm": [
                                [5,1],
                                [5,2],
                                [6,2]
                            ]
                        },
                        {
                            "Movement": [
                                [5,3],
                                [6,3],
                                [6,4]
                            ]
                        },
                        {
                            "Right Arm": [
                                [5,5],
                                [6,5],
                                [5,6]
                            ]
                        }
                    ]
                },
                "attacks": [
                    {
                        "Fissure": {
                            "type": "ranged",
                            "loc": "R",
                            "rng": "SP 10",
                            "rof": 1,
                            "pow": 12,
                            "weapon qualities": ["Damage Type: Magical"],
                            "abilities": ["Knockdown"]
                        }
                    },
                    {
                        "Open Fist": {
                            "type": "melee",
                            "loc": "L",
                            "rng": 1,
                            "pow": 3,
                            "p+s": 15,
                            "weapon qualities": ["Open Fist"]
                        }
                    },
                    {
                        "Sunder": {
                            "type": "melee",
                            "loc": "R",
                            "rng": 2,
                            "pow": 7,
                            "p+s": 19,
                            "weapon qualities": ["Damage Type: Magical"]
                        }
                    }
                ],
                "abilities": [
                    "Arcantrik Turbine",
                    "Man In The Machine",
                    "Repairable",
                    "Unyielding" 
                ],
                "feat": {
                    "name": "Unearthly Rage",
                    "flavor": "Karchev was preserved to serve the Motherland, and his seething rage at its enemies has only grown over the decades. He can tap into this anger to guide his warjacks as a singular mechanical maelstrom of unrestrained destruction.",
                    "text": "While in Karchev's control range, models in his battlegroup gain boosted melee damage rolls and their melee weaopns gain Damage Type: Magical. Unearthly Rage lasts for one turn."
                },
                "spells": [
                    "Battle-Charged",
                    "Eruption",
                    "Ground Zero",
                    "Jumpstart",
                    "Road To War"
                ]
            }
        }
    ]
}
