{
    "name": "Kovnik Apprentice Kratikoff",
    "edition": 3,
    "revision": "2019 v1",
    "keywords": [
        "Khador",
        "Winter Guard",
        "Solo"
    ],
    "point cost": 4,
    "field allowance": "C",
    "models": [
        {
            "Sorscha 0": {
                "spd": 6,
                "str": 6,
                "mat": 5,
                "rat": 5,
                "def": 15,
                "arm": 14,
                "focus": 4,
                "cmd": 6,
                "boxes": 5,
                "advantages": ["Immunity: Cold"],
                "base size": 30,
                "attacks": [
                    {
                        "Blunderbuss": {
                            "type": "ranged",
                            "rng": 8,
                            "rof": 1,
                            "pow": 12
                        }
                    },
                    {
                        "Mechanika Axe": {
                            "type": "melee",
                            "rng": 1,
                            "pow": 6,
                            "p+s": 12,
                            "weapon qualities": ["Damage Type: Magical"]
                        }
                    }
                ],
                "abilities": [
                    "Battlegroup Controller",
                    "No Sleeping On The Job [Winter Guard]" 
                ],
                "spells": [
                    "Boundless Charge",
                    "Fog of War"
                ]
            }
        }
    ]
}
