{
    "name": "Kovnik Andrei Malakov",
    "edition": 3,
    "revision": "2021 v1",
    "keywords": [
        "Khador",
        "Solo"
    ],
    "point cost": 3,
    "field allowance": "C",
    "models": [
        {
            "Malakov 1": {
                "spd": 6,
                "str": 6,
                "mat": 6,
                "rat": 4,
                "def": 14,
                "arm": 13,
                "focus": 4,
                "cmd": 7,
                "boxes": 5,
                "base size": 30,
                "attacks": [
                    {
                        "Hand Cannon": {
                            "type": "ranged",
                            "rng": 12,
                            "rof": 1,
                            "pow": 12
                        }
                    },
                    {
                        "Mechanika Blade": {
                            "type": "melee",
                            "rng": 0.5,
                            "pow": 5,
                            "p+s": 11,
                            "weapon qualities": ["Damage Type: Magical"]
                        }
                    }
                ],
                "abilities": [
                    "Battlegroup Controller",
                    "Sucker!"
                ],
                "spells": [
                    "Razor Wind",
                    "Redline"
                ]
            }
        }
    ]
}
