{
    "name": "Lord Kozlov, Viscount Of Scarsgrad",
    "edition": 3,
    "revision": "2020 v1",
    "keywords": [
        "Khador",
        "Warcaster"
    ],
    "warjack points": 28,
    "field allowance": "C",
    "models": [
        {
            "Kozlov 1": {
                "spd": 6,
                "str": 7,
                "mat": 7,
                "rat": 5,
                "def": 15,
                "arm": 17,
                "focus": 6,
                "cmd": 9,
                "boxes": 17,
                "advantages": ["Tough"],
                "base size": 30,
                "attacks": [
                    {
                        "Great Axe": {
                            "type": "melee",
                            "rng": 2,
                            "pow": 5,
                            "p+s": 12,
                            "weapon qualities": [
                                "Damage Type: Magical",
                                "Weapon Master"
                            ]
                        }
                    }
                ],
                "abilities": [
                    "Field Marshal [Gang Fighter]",
                    "Gang Fighter",
                    "Precision Strike",
                    "Side Step"
                ],
                "feat": {
                    "name": "Onrush",
                    "flavor": "As viscount of Scarsgrad, Lord Kozlov has the responsibility of protesting his people. He has a special bond with the soldier he leads, able to inspire singular acts of courage and valor. At his command both men and machines swiftly cross the battlefield and close with the enemy, shrugging off incoming blows.",
                    "text": "Friendly Faction models currently in Kozlov's control range gain +2 SPD and ARM. Additionally, friendly Faction models activating in Kozlov's control range gain an additional die on charge attack damage rolls. Onrush lasts for one round."
                },
                "spells": [
                    "Avalanche",
                    "Chosen Ground",
                    "Fury",
                    "Jackhammer",
                    "Razor Wind",
                    "Tactical Supremacy"
                ]
            }
        }
    ]
}
