{
    "name": "Man-O-War Assault Chariot",
    "edition": 3,
    "revision": "2018 v1",
    "keywords": [
        "Khador",
        "Battle Engine"
    ],
    "point cost": 14,
    "field allowance": 2,
    "models": [
        {
            "Assault Chariot": {
                "spd": 7,
                "str": 9,
                "mat": 7,
                "rat": 6,
                "def": 9,
                "arm": 19,
                "cmd": 10,
                "boxes": 28,
                "advantages": [
                    "Cavalry",
                    "Pathfinder"
                ],
                "base size": 120,
                "attacks": [
                    {
                        "Barrage Gun": {
                            "type": "ranged",
                            "rng": 10,
                            "rof": "d3+1",
                            "aoe": 4,
                            "pow": 12,
                            "abilities": ["High-Explosive"]
                        }
                    },
                    {
                        "Mount": {
                            "type": "mount",
                            "rng": 0.5,
                            "pow": 15,
                            "abilities": [
                                "Knockdown",
                                "Trampling Hooves"
                            ]
                        }
                    }
                ],
                "abilities": [
                    "Dual Attack",
                    "Line Breaker",
                    "Repairable",
                    "Reposition [3\"]"
                ]
            }
        }
    ]
}
