{
    "name": "Man-O-War Suppression Tanker",
    "edition": 3,
    "revision": "2019 v1",
    "keywords": [
        "Khador",
        "Solo"
    ],
    "point cost": 6,
    "field allowance": 2,
    "models": [
        {
            "Tanker": {
                "spd": 4,
                "str": 9,
                "mat": 7,
                "rat": 6,
                "def": 9,
                "arm": 17,
                "cmd": 5,
                "boxes": 10,
                "base size": 50,
                "attacks": [
                    {
                        "Volley Gun": {
                            "type": "ranged",
                            "rng": 10,
                            "rof": "d3",
                            "pow": 10,
                            "abilities": [
                                "Covering Fire",
                                "Full Blast",
                                "Volley Fire"
                            ]
                        }
                    },
                    {
                        "Volley Gun": {
                            "type": "ranged",
                            "rng": 10,
                            "rof": "d3",
                            "pow": 10,
                            "abilities": [
                                "Covering Fire",
                                "Full Blast",
                                "Volley Fire"
                            ]
                        }
                    },
                    {
                        "Shield": {
                            "type": "melee",
                            "rng": 0.5,
                            "pow": 3,
                            "p+s": 12,
                            "weapon qualities": ["Shield"]
                        }
                    },
                    {
                        "Shield": {
                            "type": "melee",
                            "rng": 0.5,
                            "pow": 3,
                            "p+s": 12,
                            "weapon qualities": ["Shield"]
                        }
                    }
                ],
                "abilities": [
                    "Bulldoze",
                    "Repairable" 
                ]
            }
        }
    ]
}
