{
    "name": "Orsus Zoktavir, The Butcher Of Khardov",
    "edition": 3,
    "revision": "2021 v1",
    "keywords": [
        "Khador",
        "Warcaster"
    ],
    "warjack points": 28,
    "field allowance": "C",
    "models": [
        {
            "Butcher 1": {
                "spd": 5,
                "str": 8,
                "mat": 9,
                "rat": 5,
                "def": 14,
                "arm": 18,
                "focus": 6,
                "cmd": 7,
                "boxes": 20,
                "advantages": ["Tough"],
                "base size": 40,
                "attacks": [
                    {
                        "Butcher": {
                            "type": "ranged",
                            "rng": 8,
                            "rof": 1,
                            "pow": 12
                        }
                    },
                    {
                        "Lola": {
                            "type": "melee",
                            "rng": 2,
                            "pow": 8,
                            "p+s": 16,
                            "weapon qualities": [
                                "Damage Type: Magical",
                                "Weapon Master"
                            ]
                        }
                    }
                ],
                "feat": {
                    "name": "Blood Frenzy",
                    "flavor": "The Butcher's rage runs deep. It is the well from which he draws his power and the drive to lead his forces into battle. When the Butcher relinquishes what little control he has over this infectious fury, all who march by his side -- man and machine alike -- succumb to its bloodlust.",
                    "text": "While in the Butcher's control range, friendly Faction models gain an additional die on attack damage rolls this turn."
                },
                "spells": [
                    "Full Throttle",
                    "Fury",
                    "Iron Flesh",
                    "Obliteration",
                    "Vengeful"
                ]
            }
        }
    ]
}
