{
    "name": "Spriggan",
    "edition": 3,
    "revision": "2021 v1",
    "keywords": [
        "Khador",
        "Heavy",
        "Warjack"
    ],
    "point cost": 17,
    "field allowance": "U",
    "models": [
        {
            "Spriggan": {
                "spd": 4,
                "str": 12,
                "mat": 6,
                "rat": 4,
                "def": 10,
                "arm": 19,
                "advantages": ["Construct"],
                "base size": 50,
                "boxes": {
                    "grid": [
                        [1,1],
                        [2,1],
                        [3,1],
                        [4,1],
                        [5,1],
                        [1,2],
                        [2,2],
                        [3,2],
                        [4,2],
                        [5,2],
                        [6,2],
                        [1,3],
                        [2,3],
                        [3,3],
                        [4,3],
                        [5,3],
                        [6,3],
                        [1,4],
                        [2,4],
                        [3,4],
                        [4,4],
                        [5,4],
                        [6,4],
                        [1,5],
                        [2,5],
                        [3,5],
                        [4,5],
                        [5,5],
                        [6,5],
                        [1,6],
                        [2,6],
                        [3,6],
                        [4,6],
                        [5,6]
                    ],
                    "systems": [
                        {
                            "Left Arm": [
                                [5,1],
                                [4,2],
                                [5,2]
                            ]
                        },
                        {
                            "Movement": [
                                [6,2],
                                [5,3],
                                [6,3]
                            ]
                        },
                        {
                            "Cortex": [
                                [5,4],
                                [6,4],
                                [6,5]
                            ]
                        },
                        {
                            "Right Arm": [
                                [4,5],
                                [5,5],
                                [5,6]
                            ]
                        }
                    ]
                },
                "attacks": [
                    {
                        "Grenade Launcher": {
                            "type": "ranged",
                            "loc": "L",
                            "rng": 10,
                            "rof": 1,
                            "aoe": 3,
                            "pow": 10,
                            "abilities": [
                                "Arcing Fire",
                                "Flare"
                            ]
                        }   
                    },
                    {
                        "Grenade Launcher": {
                            "type": "ranged",
                            "loc": "R",
                            "rng": 10,
                            "rof": 1,
                            "aoe": 3,
                            "pow": 10,
                            "abilities": [
                                "Arcing Fire",
                                "Flare"
                            ]
                        }   
                    },
                    {
                        "Shield": {
                            "type": "melee",
                            "loc": "L",
                            "rng": 1,
                            "pow": 2,
                            "p+s": 14,
                            "weapon qualities": ["Shield"]
                        }
                    },
                    {
                        "War Lance": {
                            "type": "melee",
                            "loc": "R",
                            "rng": 2,
                            "pow": 6,
                            "p+s": 18,
                            "abilities": ["Powerful Charge"]
                        }
                    }
                ],
                "abilities": [
                    "Bulldoze",
                    "Dual Attack",
                    "Steady"
                ]
            }
        }
    ]
}
