{
    "name": "Vladimir Tzepesci, The Dark Prince",
    "edition": 3,
    "revision": "2016 v1",
    "keywords": [
        "Khador",
        "Warcaster"
    ],
    "warjack points": 28,
    "field allowance": "C",
    "models": [
        {
            "Vladimir 1": {
                "spd": 6,
                "str": 6,
                "mat": 7,
                "rat": 5,
                "def": 15,
                "arm": 16,
                "focus": 7,
                "cmd": 9,
                "boxes": 18,
                "advantages": ["Parry"],
                "base size": 30,
                "attacks": [
                    {
                        "Skirmisher": {
                            "type": "melee",
                            "rng": 1,
                            "pow": 7,
                            "p+s": 13,
                            "weapon qualities": ["Damage Type: Magical"]
                        }
                    },
                    {
                        "Ruin": {
                            "type": "melee",
                            "rng": 1,
                            "pow": 4,
                            "p+s": 10,
                            "weapon qualities": ["Damage Type: Magical"]
                        }
                    }
                ],
                "abilities": ["Blood Boon"],
                "feat": {
                    "name": "Forced March",
                    "flavor": "The strategic and tactical prowess of the Dark Prince of Umbrey is legendary across the Motherland and respected throughout the Iron Kingdoms. Vladimir carefully conserves the power of his warjacks to expend it in one great battlefield maneuver.",
                    "text": "Warjacks in Vladimir's battlegroup beginning their activations in his control range double their base SPD and can run, charge, and make power attacks without spending focus. Forced March lasts for one turn."
                },
                "spells": [
                    "Blood Of Kings",
                    "Boundless Charge",
                    "Razor Wind",
                    "Signs & Portents",
                    "Wind Wall"
                ]
            }
        }
    ]
}
