{
    "name": "Widowmaker Marksman",
    "edition": 3,
    "revision": "2021 v1",
    "keywords": [
        "Khador",
        "Solo"
    ],
    "point cost": 3,
    "field allowance": 1,
    "models": [
        {
            "Marksman": {
                "spd": 6,
                "str": 5,
                "mat": 4,
                "rat": 8,
                "def": 14,
                "arm": 11,
                "cmd": 8,
                "boxes": 5,
                "advantages": [
                    "Advance Deploy",
                    "Pathfinder",
                    "Stealth"
                ],
                "base size": 30,
                "attacks": [
                    {
                        "Vanar Liberator": {
                            "type": "ranged",
                            "rng": 14,
                            "rof": 1,
                            "pow": 12,
                            "abilities": ["Deadly Shot"]
                        }
                    },
                    {
                        "Sword": {
                            "type": "melee",
                            "rng": 0.5,
                            "pow": 3,
                            "p+s": 8
                        }
                    }
                ],
                "abilities": [
                    "Leadership [Widowmakers]",
                    "Marksman",
                    "Swift Hunter"    
                ]
            }
        }
    ]
}
