{
    "name": "Winter Guard Gun Carriage",
    "edition": 3,
    "revision": "2017 v1",
    "keywords": [
        "Khador",
        "Battle Engine"
    ],
    "point cost": 17,
    "field allowance": 2,
    "models": [
        {
            "Gun Carriage": {
                "spd": 8,
                "str": 14,
                "mat": 6,
                "rat": 5,
                "def": 9,
                "arm": 20,
                "cmd": 10,
                "boxes": 38,
                "advantages": [
                    "Cavalry",
                    "Construct",
                    "Pathfinder"
                ],
                "base size": 120,
                "attacks": [
                    {
                        "Military Rifle": {
                            "type": "ranged",
                            "rng": 10,
                            "rof": 1,
                            "pow": 11,
                            "abilities": ["Rear Attack"]
                        }
                    },
                    {
                        "Mount": {
                            "type": "mount",
                            "rng": 0.5,
                            "pow": 14,
                            "abilities": [
                                "Knockdown",
                                "Ton Of Bricks",
                                "Trampling Hooves"
                            ]
                        }
                    },
                    {
                        "Heavy Cannon": {
                            "type": "ranged",
                            "field of fire": "Left",
                            "loc": "L",
                            "rng": 10,
                            "rof": 1,
                            "aoe": 4,
                            "pow": 16,
                            "abilities": ["Crater"]
                        }
                    },
                    {
                        "Heavy Cannon": {
                            "type": "ranged",
                            "field of fire": "Right",
                            "loc": "R",
                            "rng": 10,
                            "rof": 1,
                            "aoe": 4,
                            "pow": 16,
                            "abilities": ["Crater"]
                        }
                    }
                ],
                "abilities": [
                    "Crushing Weight",
                    "Dual Attack",
                    "Line Breaker",
                    "Reposition [3\"]"
                ]
            }
        }
    ]
}
