{
    "name": "Winter Guard Rocketeer",
    "edition": 3,
    "revision": "2016 v1",
    "keywords": [
        "Khador",
        "Weapon Attachment"
    ],
    "point cost": 2,
    "field allowance": "U",
    "models": [
        {
            "Rocketeer": {
                "spd": 6,
                "str": 5,
                "mat": 5,
                "rat": 5,
                "def": 12,
                "arm": 13,
                "cmd": 7,
                "boxes": 1,
                "base size": 30,
                "attacks": [
                    {
                        "Rocket": {
                            "type": "ranged",
                            "rng": 14,
                            "rof": 1,
                            "aoe": 3,
                            "pow": 12,
                            "abilities": ["Brutal Damage"]
                        }
                    },
                    {
                        "Axe": {
                            "type": "melee",
                            "rng": 0.5,
                            "pow": 3,
                            "p+s": 8
                        }
                    }
                ],
                "abilities": ["Attachment: Winter Guard Infantry or Winter Guard Rifle Corps"]
            }
        }
    ]
}
