{
    "name": "Winter Guard Infantry Officer & Standard",
    "edition": 3,
    "revision": "2021 v1",
    "keywords": [
        "Khador",
        "Command Attachment"
    ],
    "point cost": 3,
    "field allowance": "U",
    "models": [
        {
            "Officer": {
                "spd": 6,
                "str": 5,
                "mat": 6,
                "rat": 6,
                "def": 12,
                "arm": 13,
                "cmd": 7,
                "boxes": 5,
                "advantages": [
                    "Combined Ranged Attack",
                    "Officer"
                ],
                "base size": 30,
                "attacks": [
                    {
                        "Blunderbuss": {
                            "type": "ranged",
                            "rng": 8,
                            "rof": 1,
                            "pow": 12
                        }
                    },
                    {
                        "Axe": {
                            "type": "melee",
                            "rng": 0.5,
                            "pow": 3,
                            "p+s": 8
                        }
                    }
                ],
                "abilities": [
                    "Attachment [Winter Guard Infantry]",
                    "Granted: Reposition [3\"]",
                    "Grapeshot"
                ]
            }
        },
        {
            "Standard Bearer": {
                "spd": 6,
                "str": 5,
                "mat": 5,
                "rat": 5,
                "def": 12,
                "arm": 13,
                "cmd": 7,
                "boxes": 1,
                "advantages": ["Combined Ranged Attack"],
                "base size": 30,
                "attacks": [
                    {
                        "Blunderbuss": {
                            "type": "ranged",
                            "rng": 8,
                            "rof": 1,
                            "pow": 12
                        }
                    },
                    {
                        "Axe": {
                            "type": "melee",
                            "rng": 0.5,
                            "pow": 3,
                            "p+s": 8
                        }
                    }
                ],
                "abilities": [
                    "Standard Bearer",
                    "Take Up"
                ]
            }
        }
    ]
}
