{
    "name": "Tyrant",
    "keywords": [
        "Orgoth",
        "Sea Raider",
        "Heavy",
        "Warjack"
    ],
    "field allowance": 4,
    "models": [
        {
            "Tyrant": {
                "spd": 5,
                "mat": 7,
                "rat": 5,
                "def": 11,
                "arm": 19,
                "advantages": [
                    "Construct",
                    "Dual Attack",
                    "Headbutt Power Attack",
                    "Slam Power Attack",
                    "Trample Power Attack"
                ],
                "base size": 50,
                "boxes": {
                    "grid": [
                        [2,1],
                        [3,1],
                        [4,1],
                        [5,1],
                        [1,2],
                        [2,2],
                        [3,2],
                        [4,2],
                        [5,2],
                        [6,2],
                        [1,3],
                        [2,3],
                        [3,3],
                        [4,3],
                        [5,3],
                        [6,3],
                        [1,4],
                        [2,4],
                        [3,4],
                        [4,4],
                        [5,4],
                        [6,4],
                        [1,5],
                        [2,5],
                        [3,5],
                        [4,5],
                        [5,5],
                        [6,5],
                        [2,6],
                        [3,6],
                        [4,6],
                        [5,6]
                    ],
                    "systems": [
                        {
                            "Left Arm": [
                                [5,1],
                                [4,2],
                                [5,2]
                            ]
                        },
                        {
                            "Movement": [
                                [6,2],
                                [5,3],
                                [6,3]
                            ]
                        },
                        {
                            "Head": [
                                [4,3],
                                [4,4]
                            ]
                        },
                        {
                            "Cortex": [
                                [5,4],
                                [6,4],
                                [6,5]
                            ]
                        },
                        {
                            "Right Arm": [
                                [4,5],
                                [5,5],
                                [5,6]
                            ]
                        }
                    ]
                },
                "head options": [
                    {
                        "Head A": {
                            "point cost": 4,
                            "granted abilities":["Overtake"]
                        }
                    },
                    {
                        "Head B": {
                            "point cost": 2,
                            "granted abilities":["Hunter"]
                        }
                    },
                    {
                        "Head C": {
                            "point cost": 2,
                            "granted abilities":["Relentless Charge"]
                        }
                    },
                    {
                        "Head D": {
                            "point cost": 5,
                            "granted abilities":["Arcane Vortex"]
                        }
                    }
                ],
                "right arm options": [
                    {
                        "Right Arm A": {
                            "point cost": 7,
                            "granted weapons": [
                                {
                                    "Belcher": {
                                        "type": "Ranged",
                                        "loc": "R",
                                        "rng": 12,
                                        "rof": 1,
                                        "aoe": 3,
                                        "pow": "14/10",
                                        "weapon qualities": ["Critical Fire"]
                                    }
                                }
                            ]
                        }
                    },
                    {
                        "Right Arm B": {
                            "point cost": 6,
                            "granted weapons": [
                                {
                                    "Harpoon": {
                                        "type": "ranged",
                                        "loc": "R",
                                        "rng": 10,
                                        "rof": 1,
                                        "pow": 14,
                                        "abilities": ["Skewer"]
                                    }
                                },
                                {
                                    "Harpoon": {
                                        "type": "melee",
                                        "loc": "R",
                                        "rng": 2,
                                        "pow": 12
                                    }
                                }
                            ]
                        }
                    },
                    {
                        "Right Arm C": {
                            "point cost": 8,
                            "granted weapons": [
                                {
                                    "Shredder": {
                                        "type": "ranged",
                                        "loc": "R",
                                        "rng": 14,
                                        "rof": 1,
                                        "pow": 16,
                                        "weapon qualities": [
                                            "Blessed",
                                            "Damage Type: Magical"
                                        ],
                                        "abilities": ["Powerful Attack"]
                                    }
                                }
                            ]
                        }
                    },
                    {
                        "Right Arm D": {
                            "point cost": 8,
                            "granted weapons": [
                                {
                                    "Melee": {
                                        "type": "melee",
                                        "loc": "R",
                                        "rng": 2,
                                        "pow": 18,
                                        "weapon qualities": [
                                            "Chain Weapon",
                                            "Damage Type: Magical"
                                        ],
                                        "abilities": ["Thresher"]
                                    }
                                }
                            ]
                        }
                    }
                ],
                "left arm options": [
                    {
                        "Left Arm A": {
                            "point cost": 6,
                            "granted weapons": [
                                {
                                    "Cannon": {
                                        "type": "ranged",
                                        "loc": "L",
                                        "rng": 10,
                                        "rof": 1,
                                        "pow": 12,
                                        "weapon qualities": ["Pistol"]
                                    }
                                },
                                {
                                    "Shield": {
                                        "type": "melee",
                                        "loc": "L",
                                        "rng": 1,
                                        "pow": 13,
                                        "weapon qualities": ["Shield"]
                                    }
                                }
                            ]
                        }
                    },
                    {
                        "Left Arm B": {
                            "point cost": 3,
                            "granted weapons": [
                                {
                                    "Claw": {
                                        "type": "melee",
                                        "loc": "L",
                                        "rng": 1,
                                        "pow": 15,
                                        "weapon qualities": ["Throw Power Attack"]
                                    }
                                }
                            ]
                        }
                    },
                    {
                        "Left Arm C": {
                            "point cost": 7,
                            "granted weapons": [
                                {
                                    "Quad Bolt Thrower": {
                                        "type": "ranged",
                                        "loc": "L",
                                        "rng": 12,
                                        "rof": "d3+1",
                                        "pow": 13,
                                        "abilities": ["Volume Fire"]
                                    }
                                }
                            ]
                        }
                    },
                    {
                        "Left Arm D": {
                            "point cost": 5,
                            "granted weapons": [
                                {
                                    "Ripper": {
                                        "type": "melee",
                                        "loc": "L",
                                        "rng": 1,
                                        "pow": 17,
                                        "abilities": ["Critical Shred"]
                                    }
                                }
                            ]
                        }
                    }
                ],
                "abilities": ["Hyper-Aggressive"]
            }
        }
    ]
}
