{
    "name": "Cultist Band",
    "edition": 3,
    "revision": "2019 v1",
    "keywords": [
        "Infernal",
        "Unit"
    ],
    "unit size": [
        {
            "min": [
                {"Leader": 1},
                {"Grunts": 3},
                {"point cost": 5}
            ]
        },
        {
            "max": [
                {"Leader": 1},
                {"Grunts": 5},
                {"point cost": 7}
            ]
        }
    ],
    "field allowance": 3,
    "models": [
        {
            "Leader & Grunts": {
                "spd": 6,
                "str": 5,
                "mat": 5,
                "rat": 3,
                "def": 12,
                "arm": 12,
                "cmd": 6,
                "boxes": 1,
                "base size": 30,
                "attacks": [
                    {
                        "Hand Weapon": {
                            "type": "melee",
                            "rng": 1,
                            "pow": 4,
                            "p+s": 9
                        }
                    }
                ],
                "abilities": [
                    "Gang",
                    {
                        "Magic Ability": [
                            "Rituals of Shadow",
                            "Touch of Darkness"
                        ]
                    }
                ]
            }
        }
    ]
}
