{
    "name": "Dark Sentinel",
    "edition": 3,
    "revision": "2021 v1",
    "keywords": [
        "Infernal",
        "Cultist",
        "Weapon Attachment"
    ],
    "point cost": 2,
    "field allowance": "U",
    "models": [
        {
            "Sentinel": {
                "spd": 6,
                "str": 5,
                "mat": 6,
                "rat": 3,
                "def": 12,
                "arm": 16,
                "cmd": 6,
                "boxes": 1,
                "base size": 30,
                "attacks": [
                    {
                        "Great Sword": {
                            "type": "melee",
                            "rng": 2,
                            "pow": 7,
                            "p+s": 12,
                            "weapon qualities": ["Damage Type: Magical"]
                        }
                    }
                ],
                "abilities": [
                    "Attachment [Cultist Band]",
                    "Battle Wizard",
                    "Gang",
                    {
                        "Magic Ability [6]": [
                            "Hex Bolt",
                            "Rituals of Shadow",
                            "Touch of Darkness"
                        ]
                    }
                ]
            }
        }
    ]
}
