{
    "name": "Lynda The Forgotten",
    "edition": 3,
    "revision": "2020 v1",
    "keywords": [
        "Infernal",
        "Cultist",
        "Solo"
    ],
    "point cost": 4,
    "field allowance": "C",
    "models": [
        {
            "Lynda 1": {
                "spd": 6,
                "str": 5,
                "mat": 6,
                "rat": 3,
                "def": 12,
                "arm": 13,
                "cmd": 5,
                "boxes": 5,
                "advantages": ["Advance Deploy"],
                "base size": 30,
                "attacks": [
                    {
                        "Ritual Dagger": {
                            "type": "melee",
                            "rng": 0.5,
                            "pow": 4,
                            "p+s": 9,
                            "weapon qualities": ["Damage Type: Magical"]
                        }
                    },
                    {
                        "Ritual Dagger": {
                            "type": "melee",
                            "rng": 0.5,
                            "pow": 4,
                            "p+s": 9,
                            "weapon qualities": ["Damage Type: Magical"]
                        }
                    }
                ],
                "abilities": [
                    {
                        "Ill-Gotten Relics": [
                            "Effigy of War",
                            "Hierphant's Eulogy",
                            "Tome of Living Shade",
                            "Wilting Horn"
                        ]
                    },
                    "Low Priority",
                    "Marked Soul"
                ]
            }
        }
    ]
}
