{
    "name": "Omodamos, The Black Gate",
    "edition": 3,
    "revision": "2021 v1",
    "keywords": [
        "Infernal",
        "Infernal Master"
    ],
    "horror points": 30,
    "field allowance": "C",
    "models": [
        {
            "Omodamos 1": {
                "spd": 5,
                "str": 9,
                "mat": 8,
                "rat": 3,
                "def": 14,
                "arm": 18,
                "essence": 6,
                "cmd": 12,
                "boxes": 19,
                "advantages": ["Pathfinder"],
                "base size": 50,
                "attacks": [
                    {
                        "Flail": {
                            "type": "melee",
                            "rng": 2,
                            "pow": 6,
                            "p+s": 15,
                            "weapon qualities": [
                                "Chain Weapon",
                                "Damage Type: Magical"
                            ]
                        }
                    },
                    {
                        "Flail": {
                            "type": "melee",
                            "rng": 2,
                            "pow": 6,
                            "p+s": 15,
                            "weapon qualities": [
                                "Chain Weapon",
                                "Damage Type: Magical"
                            ]
                        }
                    }
                ],
                "abilities": [
                    "Hellhounds",
                    "Soul Taker: Cull Soul"
                ],
                "feat": {
                    "name": "Shadows of Annihilation",
                    "flavor": "Omodamos has but to exert his will to invoke utter annihilation. The winds of the Outer Abyss flow through the Black Gate to speed him forward, his army of otherworldly horrors brought with him, while barriers that were once solid turn ephemeral and prove no hindrance.",
                    "text": "Omodamos immediately casts Locked Horns without spending essence. Omodamos and friendly Faction models activating in his control range gain +2 SPD and Ghostly. Shadows of Annihilation lasts for one turn."
                },
                "spells": [
                    "Breath of Corruption",
                    "Flashing Blade",
                    "Locked Horns",
                    "Synergy"
                ]
            }
        }
    ]
}
