{
    "name": "Shrieker",
    "edition": 3,
    "revision": "2021 v1",
    "keywords": [
        "Infernal",
        "Light",
        "Horror"
    ],
    "point cost": 9,
    "field allowance": "U",
    "models": [
        {
            "Shrieker": {
                "spd": 6,
                "str": 7,
                "mat": 3,
                "rat": 6,
                "def": 13,
                "arm": 15,
                "essence": 3,
                "cmd": 5,
                "boxes": {
                    "outer ring": 9,
                    "center ring": 5,
                    "inner ring": 3
                },
                "advantages": [
                    "Gunfighter",
                    "Soulless"
                ],
                "base size": 40,
                "attacks": [
                    {
                        "Spectral Fire": {
                            "type": "ranged",
                            "rng": 10,
                            "rof": 1,
                            "pow": 13,
                            "weapon qualities": ["Damage Type: Magical"],
                            "abilities": ["Admonisher"]
                        }
                    }
                ],
                "abilities": [
                    "True Sight",
                    "Wailing"
                ]
            }
        }
    ]
}
