{
    "name": "Aradus Scarab",
    "edition": 3,
    "revision": "2019 v1",
    "keywords": [
        "Skorne",
        "Lesser",
        "Warbeast"
    ],
    "point cost": 3,
    "field allowance": "U",
    "models": [
        {
            "Scarab": {
                "spd": 5,
                "str": 5,
                "mat": 5,
                "rat": 1,
                "def": 11,
                "arm": 12,
                "cmd": 3,
                "base size": 30,
                "fury": 2,
                "threshold": 7,
                "boxes": {
                    "Spiral 1": 3,
                    "Spiral 2": 3,
                    "Spiral 3": 4,
                    "Spiral 4": 3,
                    "Spiral 5": 3,
                    "Spiral 6": 3
                },
                "attacks": [
                    {
                        "Mandibles": {
                            "type": "melee",
                            "rng": 0.5,
                            "pow": 3,
                            "p+s": 8,
                            "abilities": ["Critical Paralysis"]
                        }
                    }
                ],
                "abilities": [
                    "Carapace",
                    "Hunting Pack",
                    "Steady"
                ],
                "animus": "Scuttler"
            }
        }
    ]
}
