{
    "name": "Cataphract Incindiarii",
    "edition": 3,
    "revision": "2021 v1",
    "keywords": [
        "Skorne",
        "Unit"
    ],
    "unit size": [
        {
            "min": [
                {"Leader": 1},
                {"Grunts": 3},
                {"point cost": 7}
            ]
        },
        {
            "max": [
                {"Leader": 1},
                {"Grunts": 5},
                {"point cost": 11}
            ]
        }
    ],
    "field allowance": 2,
    "models": [
        {
            "Leader & Grunts": {
                "spd": 5,
                "str": 7,
                "mat": 7,
                "rat": 6,
                "def": 11,
                "arm": 16,
                "cmd": 7,
                "boxes": [
                    {"Model A": 5},
                    {"Model B": 5},
                    {"Model C": 5},
                    {"Model D": 5},
                    {"Model E": 5},
                    {"Model F": 5}
                ],
                "advantages": [
                    "Combine Ranged Attack",
                    "Tough"
                ],
                "base size": 40,
                "attacks": [
                    {
                        "Incindus": {
                            "type": "ranged",
                            "rng": 10,
                            "rof": 1,
                            "aoe": 3,
                            "pow": 13,
                            "weapon qualities": [
                                "Continuous Effect: Fire",
                                "Damage Type: Fire"
                            ]
                        }
                    },
                    {
                        "Incindus Blade": {
                            "type": "melee",
                            "rng": 1,
                            "pow": 4,
                            "p+s": 11
                        }
                    }
                ]
            }
        }
    ]
}
