{
    "name": "Desert Hydra",
    "edition": 3,
    "revision": "2021 v1",
    "keywords": [
        "Skorne",
        "Gargantuan",
        "Warbeast"
    ],
    "point cost": 34,
    "field allowance": 2,
    "models": [
        {
            "Desert Hydra": {
                "spd": 5,
                "str": 14,
                "mat": 6,
                "rat": 6,
                "def": 10,
                "arm": 19,
                "cmd": 6,
                "advantages": ["Pathfinder"],
                "base size": 120,
                "fury": 4,
                "threshold": 8,
                "boxes": {
                    "Spiral 1": 8,
                    "Spiral 2": 8,
                    "Spiral 3": 12,
                    "Spiral 4": 12,
                    "Spiral 5": 9,
                    "Spiral 6": 9
                },
                "attacks": [
                    {
                        "Acid Spray": {
                            "type": "ranged",
                            "rng": "SP 8",
                            "rof": 1,
                            "pow": 14,
                            "weapon qualities": [
                                "Continuous Effect: Corrosion",
                                "Damage Type: Corrosion"
                            ]
                        }
                    },
                    {
                        "Bite": {
                            "type": "melee",
                            "rng": 2,
                            "pow": 4,
                            "p+s": 18
                        }
                    }
                ],
                "abilities": [
                    "Circular Vision",
                    "Multiple Heads [5]",
                    "Regeneration [d3 + 3]",
                    "Snacking"
                ],
                "animus": "Sand Storm"
            }
        }
    ]
}
