{
    "name": "Despoiler",
    "edition": 3,
    "revision": "2021 v1",
    "keywords": [
        "Skorne",
        "Heavy",
        "Warbeast"
    ],
    "point cost": 14,
    "field allowance": "C",
    "models": [
        {
            "Despoiler 1": {
                "spd": 5,
                "str": 10,
                "mat": 6,
                "rat": 3,
                "def": 11,
                "arm": 18,
                "cmd": 4,
                "advantages": ["Eyeless Sight"],
                "base size": 50,
                "fury": 4,
                "threshold": 10,
                "boxes": {
                    "Spiral 1": 5,
                    "Spiral 2": 5,
                    "Spiral 3": 6,
                    "Spiral 4": 6,
                    "Spiral 5": 6,
                    "Spiral 6": 6
                },
                "attacks": [
                    {
                        "Claw": {
                            "type": "melee",
                            "rng": 1,
                            "pow": 3,
                            "p+s": 13,
                            "weapon qualities": ["Open Fist"]
                        }
                    },
                    {
                        "Claw": {
                            "type": "melee",
                            "rng": 1,
                            "pow": 3,
                            "p+s": 13,
                            "weapon qualities": ["Open Fist"]
                        }
                    },
                    {
                        "Tail": {
                            "type": "melee",
                            "rng": 2,
                            "pow": 5,
                            "p+s": 15,
                            "abilities": ["Critical Brutal Damage"]
                        }
                    }
                ],
                "abilities": [
                    "Black Arts",
                    "Bond [Mordikaar]",
                    "Dark Shroud"
                ],
                "animus": "Arcane Suppression"
            }
        }
    ]
}
