{
    "name": "Dominar Morghoul & Escorts",
    "edition": 3,
    "revision": "2017 v1",
    "keywords": [
        "Skorne",
        "Paingiver",
        "Warlock",
        "Unit"
    ],
    "warbeast points": 25,
    "field allowance": "C",
    "models": [
        {
            "Morghoul 3": {
                "spd": 7,
                "str": 6,
                "mat": 8,
                "rat": 4,
                "def": 16,
                "arm": 14,
                "fury": 6,
                "cmd": 8,
                "boxes": 15,
                "advantages": [
                    "Officer",
                    "Parry",
                    "Pathfinder",
                    "Stealth"
                ],
                "base size": 30,
                "attacks": [
                    {
                        "Mercy": {
                            "type": "melee",
                            "rng": 1,
                            "pow": 7,
                            "p+s": 13,
                            "weapon qualities": [
                                "Blessed",
                                "Damage Type: Magical"
                            ],
                            "abilities": ["Critical Decapitation"]
                        }
                    }
                ],
                "abilities": [
                    "Acrobatics",
                    "Granted: Reposition [3\"]",
                    "Hidden Blade",
                    "Steady",
                    "Warlock Unit"
                ],
                "feat": {
                    "name": "Death Wind",
                    "flavor": "Morghoul unleashes a rippling wave of mortitheurgical energy through his troops, allowing them to move like sand on the wind. His host dissipates only a reform next to their targets and slit their feeble throats before moving to fresh prey.",
                    "text": "Dominar Morghoul & Escorts and friendly faction warrior models beginning their activations in Morghoul's control range gain Acrobatics, Overtake, and Parry. Death Wind lasts for on turn."
                },
                "spells": [
                    "Flashing Blade",
                    "Mirage",
                    "Night's Reflection",
                    "Occultation"
                ]
            }
        },
        {
            "Escort": {
                "spd": 7,
                "str": 6,
                "mat": 7,
                "rat": 4,
                "def": 16,
                "arm": 12,
                "cmd": 6,
                "boxes": 5,
                "advantages": [
                    "Pathfinder",
                    "Stealth"
                ],
                "base size": 30,
                "attacks": [
                    {
                        "Fan of Shadows": {
                            "type": "melee",
                            "rng": 0.5,
                            "pow": 2,
                            "p+s": 8,
                            "weapon qualities": ["Damage Type: Magical"],
                            "abilities": ["Blind"]
                        }
                    }
                ],
                "abilities": ["Anatomical Precision"]
            }
        },
        {
            "Escort": {
                "spd": 7,
                "str": 6,
                "mat": 7,
                "rat": 4,
                "def": 16,
                "arm": 12,
                "cmd": 6,
                "boxes": 5,
                "advantages": [
                    "Pathfinder",
                    "Stealth"
                ],
                "base size": 30,
                "attacks": [
                    {
                        "Fan of Shadows": {
                            "type": "melee",
                            "rng": 0.5,
                            "pow": 2,
                            "p+s": 8,
                            "weapon qualities": ["Damage Type: Magical"],
                            "abilities": ["Blind"]
                        }
                    }
                ],
                "abilities": ["Anatomical Precision"]
            }
        }
    ]
}
