{
    "name": "Makeda of House Balaash",
    "edition": 3,
    "revision": "2021 v1",
    "keywords": [
        "Skorne",
        "Solo"
    ],
    "point cost": 4,
    "field allowance": "C",
    "models": [
        {
            "Makeda 0": {
                "spd": 6,
                "str": 6,
                "mat": 6,
                "rat": 4,
                "def": 14,
                "arm": 16,
                "cmd": 7,
                "fury": 4,
                "boxes": 5,
                "base size": 30,
                "attacks": [
                    {
                        "The Teeth of Vaactash": {
                            "type": "melee",
                            "rng": 2,
                            "pow": 5,
                            "p+s": 11,
                            "weapon qualities": [
                                "Damage Type: Magical",
                                "Weapon Master"
                            ]
                        }
                    }
                ],
                "abilities": [
                   "Hero of the People",
                   "Lesser Warlock",
                   "Sacrificial Pawn [Warrior]",
                   "Understudy" 
                ],
                "spells": [
                    "Celerity",
                    "Flashing Blade"
                ]
            }
        }
    ]
}
