{
    "name": "Mammoth",
    "edition": 3,
    "revision": "2021 v1",
    "keywords": [
        "Skorne",
        "Gargantuan",
        "Warbeast"
    ],
    "point cost": 32,
    "field allowance": 2,
    "models": [
        {
            "Mammoth": {
                "spd": 4,
                "str": 15,
                "mat": 6,
                "rat": 5,
                "def": 8,
                "arm": 20,
                "cmd": 6,
                "advantages": ["Pathfinder"],
                "base size": 120,
                "fury": 5,
                "threshold": 9,
                "boxes": {
                    "Spiral 1": 8,
                    "Spiral 2": 7,
                    "Spiral 3": 13,
                    "Spiral 4": 13,
                    "Spiral 5": 11,
                    "Spiral 6": 10
                },
                "attacks": [
                    {
                        "Siege Battery": {
                            "type": "ranged",
                            "rng": 14,
                            "rof": "d3+1",
                            "aoe": 3,
                            "pow": 15,
                            "abilities": ["Full Battery Fire"]
                        }
                    },
                    {
                        "Tusks": {
                            "type": "melee",
                            "rng": 3,
                            "pow": 3,
                            "p+s": 18,
                            "abilities": ["Critical Pitch"]
                        }
                    },
                    {
                        "War Gauntlet": {
                            "type": "melee",
                            "field of fire": "Left",
                            "loc": "L",
                            "rng": 2,
                            "pow": 4,
                            "p+s": 19,
                            "weapon qualities": ["Open Fist"]
                        }
                    },
                    {
                        "War Gauntlet": {
                            "type": "melee",
                            "field of fire": "Right",
                            "loc": "R",
                            "rng": 2,
                            "pow": 4,
                            "p+s": 19,
                            "weapon qualities": ["Open Fist"]
                        }
                    }
                ],
                "abilities": ["Bulldoze"],
                "animus": "Counterblast"
            }
        }
    ]
}
