{
    "name": "Nihilators",
    "edition": 3,
    "revision": "2021 v1",
    "keywords": [
        "Skorne",
        "Unit"
    ],
    "unit size": [
        {
            "min": [
                {"Leader": 1},
                {"Grunts": 5},
                {"point cost": 9}
            ]
        },
        {
            "max": [
                {"Leader": 1},
                {"Grunts": 9},
                {"point cost": 15}
            ]
        }
    ],
    "field allowance": 2,
    "models": [
        {
            "Leader & Grunts": {
                "spd": 6,
                "str": 7,
                "mat": 7,
                "rat": 4,
                "def": 13,
                "arm": 13,
                "cmd": 7,
                "boxes": 1,
                "advantages": ["Tough"],
                "base size": 30,
                "attacks": [
                    {
                        "Great Sword": {
                            "type": "melee",
                            "rng": 2,
                            "pow": 6,
                            "p+s": 13
                        }
                    }
                ],
                "abilities": [
                    "Berserk",
                    "Pain-Induced Bliss",
                    "Rise"
                ]
            }
        }
    ]
}
