{
    "name": "Paingiver Bloodrunner Master Tormentor",
    "edition": 3,
    "revision": "2017 v1",
    "keywords": [
        "Skorne",
        "Solo"
    ],
    "point cost": 4,
    "field allowance": 2,
    "models": [
        {
            "Master Tormentor": {
                "spd": 6,
                "str": 5,
                "mat": 8,
                "rat": 4,
                "def": 14,
                "arm": 13,
                "cmd": 9,
                "boxes": 5,
                "advantages": [
                    "Advance Deploy",
                    "Pathfinder",
                    "Stealth"
                ],
                "base size": 30,
                "attacks": [
                    {
                        "Barbed Whip": {
                            "type": "melee",
                            "rng": 2,
                            "pow": 3,
                            "p+s": 8,
                            "weapon qualities": [
                                "Chain Weapon",
                                "Weapon Master"
                            ],
                            "abilities": ["Thresher"]
                        }
                    }
                ],
                "abilities": [
                    "Anatomical Precision",
                    "Apparition",
                    "Sprint",
                    "Veteran Leader [Paingiver]"
                ]
            }
        }
    ]
}
