{
    "name": "Paingiver Task Master",
    "edition": 3,
    "revision": "2017 v2",
    "keywords": [
        "Skorne",
        "Solo"
    ],
    "point cost": 3,
    "field allowance": 2,
    "models": [
        {
            "Task Master": {
                "spd": 6,
                "str": 6,
                "mat": 6,
                "rat": 4,
                "def": 13,
                "arm": 13,
                "cmd": 7,
                "boxes": 5,
                "base size": 30,
                "attacks": [
                    {
                        "Man Catcher": {
                            "type": "melee",
                            "rng": 2,
                            "pow": 4,
                            "p+s": 10,
                            "abilities": ["Man Catcher"]
                        }
                    }
                ],
                "abilities": [
                    "No Sleeping On The Job [Minion]",
                    "Pain Driver",
                    "Scutter [Paingiver Task Master]",
                    "Temper Flesh"
                ]
            }
        }
    ]
}
