{
    "name": "Siege Animantarax",
    "edition": 3,
    "revision": "2017 v2",
    "keywords": [
        "Skorne",
        "Battle Engine"
    ],
    "point cost": 17,
    "field allowance": 2,
    "models": [
        {
            "Siege Animantarax": {
                "spd": 8,
                "str": 15,
                "mat": 6,
                "rat": 5,
                "def": 10,
                "arm": 20,
                "cmd": 10,
                "boxes": 35,
                "advantages": [
                    "Cavalry",
                    "Pathfinder"
                ],
                "base size": 120,
                "attacks": [
                    {
                        "Double Reiver": {
                            "type": "ranged",
                            "rng": 12,
                            "rof": "d3+1",
                            "pow": 13,
                            "abilities": ["Volume Fire"]
                        }
                    },
                    {
                        "Club Tail": {
                            "type": "melee",
                            "rng": 2,
                            "pow": 3,
                            "p+s": 18,
                            "abilities": ["Knockdown"]
                        }
                    },
                    {
                        "Mount": {
                            "type": "mount",
                            "rng": 1,
                            "pow": 15
                        }
                    },
                    {
                        "Spear": {
                            "type": "melee",
                            "field of fire": "Left",
                            "loc": "L",
                            "rng": 2,
                            "pow": "*",
                            "p+s": "*",
                            "abilities": ["Independent Attack"]
                        }
                    },
                    {
                        "Spear": {
                            "type": "melee",
                            "field of fire": "Right",
                            "loc": "R",
                            "rng": 2,
                            "pow": "*",
                            "p+s": "*",
                            "abilities": ["Independent Attack"]
                        }
                    }
                ],
                "abilities": [
                    "Beast",
                    "Cantankerous",
                    "Dual Attack",
                    "Reposition [3\"]",
                    "Trample Power Attack"
                ]
            }
        }
    ]
}
