{
    "name": "Tiberion",
    "edition": 3,
    "revision": "2021 v1",
    "keywords": [
        "Skorne",
        "Titan",
        "Heavy",
        "Warbeast"
    ],
    "point cost": 16,
    "field allowance": "C",
    "models": [
        {
            "Tiberion 1": {
                "spd": 4,
                "str": 12,
                "mat": 7,
                "rat": 3,
                "def": 10,
                "arm": 19,
                "cmd": 6,
                "base size": 50,
                "fury": 4,
                "threshold": 10,
                "boxes": {
                    "Spiral 1": 6,
                    "Spiral 2": 6,
                    "Spiral 3": 7,
                    "Spiral 4": 7,
                    "Spiral 5": 6,
                    "Spiral 6": 6
                },
                "attacks": [
                    {
                        "Shield": {
                            "type": "melee",
                            "rng": 1,
                            "pow": 2,
                            "p+s": 14,
                            "weapon qualities": ["Shield"]
                        }
                    },
                    {
                        "Tetsubo": {
                            "type": "melee",
                            "rng": 2,
                            "pow": 6,
                            "p+s": 18,
                            "abilities": ["Critical Strike"]
                        }
                    },
                    {
                        "Tusks": {
                            "type": "melee",
                            "rng": 1,
                            "pow": 3,
                            "p+s": 15,
                            "abilities": ["Hard Head"]
                        }
                    }
                ],
                "abilities": [
                    "Bond [Xerxis]",
                    "Immovable Object",
                    "Shield Guard"
                ],
                "animus": "Irresistible Force"
            }
        }
    ]
}
