{
    "name": "Tyrant Rhadeim",
    "edition": 3,
    "revision": "2021 v1",
    "keywords": [
        "Skorne",
        "Praetorian",
        "Ferox",
        "Dragoon",
        "Solo"
    ],
    "point cost": 8,
    "field allowance": "C",
    "models": [
        {
            "Rhadeim 1 (Mounted)": {
                "spd": 8,
                "str": 7,
                "mat": 8,
                "rat": 4,
                "def": 13,
                "arm": 17,
                "cmd": 10,
                "boxes": 10,
                "advantages": [
                    "Cavalry",
                    "Pathfinder"
                ],
                "base size": 50,
                "attacks": [
                    {
                        "Lance of Bashek": {
                            "type": "melee",
                            "rng": 2,
                            "pow": 5,
                            "p+s": 12,
                            "weapon qualities": ["Damage Type: Magical"],
                            "abilities": ["Armor-Piercing (special attack)"]
                        }
                    },
                    {
                        "Mount": {
                            "type": "mount",
                            "rng": 0.5,
                            "pow": 12
                        }
                    }
                ],
                "abilities": [
                    "Dodge",
                    "Jump",
                    "Leadership [Praetorian Ferox]",
                    "Reposition [3\"]",
                    "Steady",
                    "Pounce"
                ]
            }
        },
        {
            "Rhadeim 1 (Dismounted)": {
                "spd": 6,
                "str": 7,
                "mat": 8,
                "rat": 4,
                "def": 13,
                "arm": 15,
                "cmd": 10,
                "boxes": 5,
                "base size": 30,
                "attacks": [
                    {
                        "Lance of Bashek": {
                            "type": "melee",
                            "rng": 2,
                            "pow": 5,
                            "p+s": 12,
                            "weapon qualities": ["Damage Type: Magical"],
                            "abilities": ["Armor-Piercing (special attack)"]
                        }
                    }
                ],
                "abilities": [
                    "Dodge",
                    "Leadership [Praetorian Ferox]"
                ]
            }
        }
    ]
}
