{
    "name": "Venator Reivers",
    "edition": 3,
    "revision": "2021 v1",
    "keywords": [
        "Skorne",
        "Unit"
    ],
    "unit size": [
        {
            "min": [
                {"Leader": 1},
                {"Grunts": 5},
                {"point cost": 8}
            ]
        },
        {
            "max": [
                {"Leader": 1},
                {"Grunts": 9},
                {"point cost": 13}
            ]
        }
    ],
    "field allowance": "U",
    "models": [
        {
            "Leader & Grunts": {
                "spd": 6,
                "str": 5,
                "mat": 5,
                "rat": 5,
                "def": 13,
                "arm": 13,
                "cmd": 8,
                "boxes": 1,
                "advantages": ["Combined Ranged Attack"],
                "base size": 30,
                "attacks": [
                    {
                        "Reiver": {
                            "type": "ranged",
                            "rng": 12,
                            "rof": 1,
                            "pow": 10,
                            "abilities": [
                                "Burst Fire"
                            ]
                        }
                    },
                    {
                        "Sword": {
                            "type": "melee",
                            "rng": 0.5,
                            "pow": 3,
                            "p+s": 8
                        }
                    }
                ],
                "abilities": ["Combined Arms"]
            }
        }
    ]
}
