{
    "name": "Venator Reiver Officer & Standard",
    "edition": 3,
    "revision": "2017 v1",
    "keywords": [
        "Skorne",
        "Command Attachment"
    ],
    "point cost": 4,
    "field allowance": "U",
    "models": [
        {
            "Officer": {
                "spd": 6,
                "str": 5,
                "mat": 6,
                "rat": 6,
                "def": 13,
                "arm": 13,
                "cmd": 8,
                "boxes": 5,
                "advantages": [
                    "Combined Ranged Attack",
                    "Officer"
                ],
                "base size": 30,
                "attacks": [
                    {
                        "Reiver": {
                            "type": "ranged",
                            "rng": 12,
                            "rof": 1,
                            "pow": 10,
                            "weapon qualities": ["Burst Fire"]
                        }
                    },
                    {
                        "Sword": {
                            "type": "melee",
                            "rng": 0.5,
                            "pow": 3,
                            "p+s": 8
                        }
                    }
                ],
                "abilities": [
                    "Attachment [Venator Reivers]",
                    "Extended Fire",
                    "Granted: Combined Arms",
                    "Tactics: Reposition [3\"]"
                ]
            }
        },
        {
            "Standard Bearer": {
                "spd": 6,
                "str": 5,
                "mat": 5,
                "rat": 5,
                "def": 13,
                "arm": 13,
                "cmd": 8,
                "boxes": 1,
                "base size": 30,
                "attacks": [
                    {
                        "Sword": {
                            "type": "melee",
                            "rng": 0.5,
                            "pow": 3,
                            "p+s": 8
                        }
                    }
                ],
                "abilities": [
                    "Standard Bearer",
                    "Take Up"
                ]
            }
        }
    ]
}
