{
    "name": "Afflictor",
    "edition": 3,
    "revision": "2021 v1",
    "keywords": [
        "Legion",
        "Light",
        "Warbeast"
    ],
    "point cost": 6,
    "field allowance": "U",
    "models": [
        {
            "Afflictor": {
                "spd": 6,
                "str": 7,
                "mat": 6,
                "rat": 4,
                "def": 13,
                "arm": 15,
                "cmd": 4,
                "advantages": [
                    "Eyeless Sight",
                    "Flight",
                    "Soulless"
                ],
                "base size": 40,
                "fury": 3,
                "threshold": 9,
                "boxes": {
                    "Spiral 1": 4,
                    "Spiral 2": 4,
                    "Spiral 3": 4,
                    "Spiral 4": 3,
                    "Spiral 5": 5,
                    "Spiral 6": 4
                },
                "attacks": [
                    {
                        "Ovipositor": {
                            "type": "melee",
                            "rng": 1,
                            "pow": 5,
                            "p+s": 12,
                            "abilities": ["Infection"]
                        }
                    }
                ],
                "abilities": [
                    "Inscrutable",
                    "Overtake"
                ],
                "animus": "Attractor"
            }
        }
    ]
}
