{
    "name": "Bethayne, Voice of Everblight",
    "edition": 3,
    "revision": "2020 v1",
    "keywords": [
        "Legion",
        "Blighted",
        "Nyss",
        "Warlock"
    ],
    "warbeast points": 22,
    "field allowance": "C",
    "models": [
        {
            "Bethayne 1": {
                "spd": 6,
                "str": 5,
                "mat": 6,
                "rat": 4,
                "def": 17,
                "arm": 13,
                "fury": 7,
                "cmd": 9,
                "boxes": 14,
                "base size": 30,
                "attacks": [
                    {
                        "Blighted Talon": {
                            "type": "melee",
                            "rng": 0.5,
                            "pow": 5,
                            "p+s": 10,
                            "weapon qualities": [
                                "Continuous Effect: Corrosion",
                                "Damage Type: Magical"
                            ]
                        }
                    },
                    {
                        "Blighted Talon": {
                            "type": "melee",
                            "rng": 0.5,
                            "pow": 5,
                            "p+s": 10,
                            "weapon qualities": [
                                "Continuous Effect: Corrosion",
                                "Damage Type: Magical"
                            ]
                        }
                    }
                ],
                "abilities": [
                    "Flesh Meld"
                ],
                "feat": {
                    "name": "Arcane Symbiosis",
                    "flavor": "Bethayne channels the will of Everblight into her forces, increasing their arcane might tenfold as they obliterate their foes with blighted magic.",
                    "text": "While in Bethayne's control range, friendly models gain boosted magic attack rolls and magic attack damage rolls. Arcane Symbiosis lasts for one round."
                },
                "spells": [
                    "Blood Thorn",
                    "Deceleration",
                    "Disintegration",
                    "Hex Blast",
                    "Invocation of Blood"
                ]
            }
        }
    ]
}
