{
    "name": "Blackfrost Shard",
    "edition": 3,
    "revision": "2020 v1",
    "keywords": [
        "Legion",
        "Blighted",
        "Nyss",
        "Unit"
    ],
    "unit size": [
        {
            "only": [
                {"Sevryn": 1},
                {"Rhylyss": 1},
                {"Vysarr": 1},
                {"point cost": 9}
            ]
        }
    ],
    "field allowance": "C",
    "models": [
        {
            "Sevryn 1": {
                "spd": 6,
                "str": 5,
                "mat": 7,
                "rat": 4,
                "def": 14,
                "arm": 12,
                "cmd": 6,
                "boxes": 5,
                "advantages": [
                    "Immunity: Cold",
                    "Officer",
                    "Pathfinder"
                ],
                "base size": 30,
                "attacks": [
                    {
                        "Nyss Claymore": {
                            "type": "melee",
                            "rng": 1,
                            "pow": 4,
                            "p+s": 9,
                            "weapon qualities": [
                                "Damage Type: Magical",
                                "Weapon Master"
                            ]
                        }
                    }
                ],
                "abilities": [
                    "Battle Wizard",
                    "Combat Caster",
                    {
                        "Magic Ability [7]": [
                            "Ice Bolt",
                            "Ice Cage",
                            "Unbinding"
                        ]
                    }
                ]
            }
        },
        {
            "Rhylyss 1": {
                "spd": 6,
                "str": 5,
                "mat": 7,
                "rat": 4,
                "def": 14,
                "arm": 12,
                "cmd": 6,
                "boxes": 5,
                "advantages": [
                    "Immunity: Cold",
                    "Pathfinder"
                ],
                "base size": 30,
                "attacks": [
                    {
                        "Nyss Claymore": {
                            "type": "melee",
                            "rng": 1,
                            "pow": 4,
                            "p+s": 9,
                            "weapon qualities": [
                                "Damage Type: Magical",
                                "Weapon Master"
                            ]
                        }
                    }
                ],
                "abilities": [
                    "Battle Wizard",
                    "Combat Caster",
                    {
                        "Magic Ability [7]": [
                            "Ice Bolt",
                            "Ice Cage",
                            "Kiss of Lyliss"
                        ]
                    }
                ]
            }
        },
        {
            "Vysarr": {
                "spd": 6,
                "str": 5,
                "mat": 7,
                "rat": 4,
                "def": 14,
                "arm": 12,
                "cmd": 6,
                "boxes": 5,
                "advantages": [
                    "Immunity: Cold",
                    "Pathfinder"
                ],
                "base size": 30,
                "attacks": [
                    {
                        "Nyss Claymore": {
                            "type": "melee",
                            "rng": 1,
                            "pow": 4,
                            "p+s": 9,
                            "weapon qualities": [
                                "Damage Type: Magical",
                                "Weapon Master"
                            ]
                        }
                    }
                ],
                "abilities": [
                    "Battle Wizard",
                    "Combat Caster",
                    {
                        "Magic Ability [7]": [
                            "Cloak of Mist",
                            "Ice Bolt",
                            "Ice Cage"
                        ]
                    }
                ]
            }
        }
    ]
}
