{
    "name": "Blighted Nyss Shepherd",
    "edition": 3,
    "revision": "2021 v1",
    "keywords": [
        "Legion",
        "Solo"
    ],
    "point cost": 1,
    "field allowance": 3,
    "models": [
        {
            "Shepherd": {
                "spd": 6,
                "str": 5,
                "mat": 5,
                "rat": 4,
                "def": 13,
                "arm": 12,
                "cmd": 8,
                "boxes": 1,
                "base size": 30,
                "attacks": [
                    {
                        "Crooked Staff": {
                            "type": "melee",
                            "rng": 2,
                            "pow": 4,
                            "p+s": 9
                        }
                    }
                ],
                "abilities": [
                    "Beast Master",
                    "Condition",
                    "Cower",
                    "Medicate [d3]"
                ]
            }
        }
    ]
}
