{
    "name": "Blight Wasp",
    "edition": 3,
    "revision": "2021 v1",
    "keywords": [
        "Legion",
        "Lesser",
        "Warbeast"
    ],
    "point cost": 3,
    "field allowance": "U",
    "models": [
        {
            "Wasp": {
                "spd": 7,
                "str": 5,
                "mat": 5,
                "rat": 1,
                "def": 13,
                "arm": 11,
                "cmd": 2,
                "advantages": [
                    "Eyeless Sight",
                    "Flight",
                    "Soulless"
                ],
                "base size": 30,
                "fury": 2,
                "threshold": 7,
                "boxes": {
                    "Spiral 1": 3,
                    "Spiral 2": 3,
                    "Spiral 3": 3,
                    "Spiral 4": 3,
                    "Spiral 5": 4,
                    "Spiral 6": 3
                },
                "attacks": [
                    {
                        "Stringer": {
                            "type": "melee",
                            "rng": 0.5,
                            "pow": 5,
                            "p+s": 10,
                            "abilities": ["Critical Poison"]
                        }
                    }
                ],
                "abilities": ["Hunting Pack"],
                "animus": "Hornet's Nest"
            }
        }
    ]
}
