{
    "name": "Blighted Nyss Hex Hunters",
    "edition": 3,
    "revision": "2020 v1",
    "keywords": [
        "Legion",
        "Unit"
    ],
    "unit size": [
        {
            "min": [
                {"Leader": 1},
                {"Grunts": 5},
                {"point cost": 9}
            ]
        },
        {
            "max": [
                {"Leader": 1},
                {"Grunts": 9},
                {"point cost": 15}
            ]
        }
    ],
    "field allowance": 2,
    "models": [
        {
            "Leader & Grunts": {
                "spd": 6,
                "str": 6,
                "mat": 7,
                "rat": 4,
                "def": 14,
                "arm": 12,
                "cmd": 8,
                "boxes": 1,
                "advantages": [
                    "Pathfinder",
                    "Stealth"
                ],
                "base size": 30,
                "attacks": [
                    {
                        "Hex Razor": {
                            "type": "melee",
                            "rng": 0.5,
                            "pow": 4,
                            "p+s": 10,
                            "weapon qualities": ["Damage Type: Magical"]
                        }
                    }
                ],
                "abilities": [
                    "Apparition",
                    "Battle Wizard",
                    {
                        "Magic Ability [6]": [
                            "Hex Bolt"
                        ]
                    }
                ]
            }
        }
    ]
}
