{
    "name": "Blightbringer",
    "edition": 3,
    "revision": "2021 v1",
    "keywords": [
        "Legion",
        "Gargantuan",
        "Warbeast"
    ],
    "point cost": 30,
    "field allowance": 2,
    "models": [
        {
            "Blightbringer": {
                "spd": 5,
                "str": 14,
                "mat": 6,
                "rat": 5,
                "def": 9,
                "arm": 19,
                "cmd": 6,
                "advantages": [
                    "Eyeless Sight",
                    "Pathfinder",
                    "Soulless"
                ],
                "base size": 120,
                "fury": 5,
                "threshold": 7,
                "boxes": {
                    "Spiral 1": 9,
                    "Spiral 2": 9,
                    "Spiral 3": 13,
                    "Spiral 4": 13,
                    "Spiral 5": 8,
                    "Spiral 6": 8
                },
                "attacks": [
                    {
                        "Blight Fire": {
                            "type": "ranged",
                            "rng": 14,
                            "rof": 1,
                            "aoe": 5,
                            "pow": 15,
                            "weapon qualities": ["Damage Type: Fire"],
                            "abilities": ["Blight Ash"]
                        }
                    },
                    {
                        "Tail": {
                            "type": "melee",
                            "rng": 2,
                            "pow": 4,
                            "p+s": 18,
                            "abilities": ["Critical Poison"]
                        }
                    },
                    {
                        "Impaling Spike": {
                            "type": "melee",
                            "field of fire": "Left",
                            "location": "L",
                            "rng": 2,
                            "pow": 3,
                            "p+s": 17
                        }
                    },
                    {
                        "Impaling Spike": {
                            "type": "melee",
                            "field of fire": "Right",
                            "location": "R",
                            "rng": 2,
                            "pow": 3,
                            "p+s": 17
                        }
                    }
                ],
                "abilities": [
                    {
                        "Blighted Breath": [
                            "Dragon's Breath",
                            "Spiritual Corruption",
                            "Withering Ash"
                        ]
                    }
                ],
                "animus": "Boiling Blood"
            }
        }
    ]
}
