{
    "name": "Craelix, Fang of Everblight",
    "edition": 3,
    "revision": "2020 v1",
    "keywords": [
        "Legion",
        "Succubus",
        "Solo"
    ],
    "point cost": 5,
    "field allowance": "C",
    "models": [
        {
            "Craelix 1": {
                "spd": 6,
                "str": 6,
                "mat": 6,
                "rat": 7,
                "def": 15,
                "arm": 14,
                "cmd": 6,
                "boxes": 5,
                "advantages": ["Pathfinder"],
                "base size": 30,
                "attacks": [
                    {
                        "Nyss Longbow": {
                            "type": "ranged",
                            "rng": 12,
                            "rof": 3,
                            "pow": 10,
                            "weapon qualities": ["Blessed"],
                            "abilities": [
                                "Arcing Fire",
                                {
                                    "Attack Type": [
                                        "Blight Spasm",
                                        "Poison",
                                        "Weaken"
                                    ]
                                }
                            ]
                        }
                    },
                    {
                        "Sword": {
                            "type": "melee",
                            "rng": 0.5,
                            "pow": 4,
                            "p+s": 10,
                            "abilities": ["Poison"]
                        }
                    }
                ],
                "abilities": [
                    "Sacrificial Pawn [Blighted Nyss Archer]",
                    "Steady",
                    "Swift Hunter"
                ]
            }
        }
    ]
}
