{
    "name": "Fyanna the Lash",
    "edition": 3,
    "revision": "2021 v1",
    "keywords": [
        "Legion",
        "Strider",
        "Solo"
    ],
    "point cost": 4,
    "field allowance": "C",
    "models": [
        {
            "Fyanna 1": {
                "spd": 7,
                "str": 7,
                "mat": 7,
                "rat": 3,
                "def": 15,
                "arm": 12,
                "cmd": 6,
                "boxes": 5,
                "advantages": [
                    "Parry",
                    "Pathfinder"
                ],
                "base size": 30,
                "attacks": [
                    {
                        "Barbed Lash": {
                            "type": "melee",
                            "rng": 2,
                            "pow": 5,
                            "p+s": 12,
                            "weapon qualities": ["Chain Weapon"],
                            "abilities": [
                                {
                                    "Attack Type": [
                                        "Beat Back",
                                        "Dismember",
                                        "Pitch"
                                    ]
                                },
                                "Chain Strike"
                            ]
                        }
                    }
                ],
                "abilities": [
                    "Dodge",
                    "Prowl",
                    "Rapid Strike"
                ]
            }
        }
    ]
}
