{
    "name": "Gorag Rotteneye",
    "edition": 3,
    "revision": "2018 v1",
    "keywords": [
        "Legion",
        "Blighted",
        "Ogrun",
        "Warmonger",
        "Command Attachment"
    ],
    "point cost": 6,
    "field allowance": "C",
    "models": [
        {
            "Gorag 1": {
                "spd": 5,
                "str": 9,
                "mat": 7,
                "rat": 3,
                "def": 12,
                "arm": 16,
                "cmd": 8,
                "boxes": 8,
                "advantages": [
                    "Officer",
                    "Tough"
                ],
                "base size": 40,
                "attacks": [
                    {
                        "Great Mace": {
                            "type": "melee",
                            "rng": 2,
                            "pow": 5,
                            "p+s": 14,
                            "abilities": ["Powerful Charge"]
                        }
                    },
                    {
                        "Horns": {
                            "type": "melee",
                            "rng": 1,
                            "pow": 3,
                            "p+s": 12,
                            "abilities": ["Critical Knockdown"]
                        }
                    }
                ],
                "abilities": [
                    "Attachment [Blighted Ogrun Warmongers]",
                    "Berserk",
                    "No Quarter",
                    "Paralyzing Gaze",
                    "Unyielding"
                ]
            }
        }
    ]
}
