{
    "name": "Naga Nightlurker",
    "edition": 3,
    "revision": "2021 v1",
    "keywords": [
        "Legion",
        "Light",
        "Warbeast"
    ],
    "point cost": 7,
    "field allowance": "U",
    "models": [
        {
            "Naga": {
                "spd": 6,
                "str": 6,
                "mat": 5,
                "rat": 6,
                "def": 13,
                "arm": 15,
                "cmd": 4,
                "advantages": [
                    "Eyeless Sight",
                    "Pathfinder",
                    "Soulless"
                ],
                "base size": 40,
                "fury": 3,
                "threshold": 8,
                "boxes": {
                    "Spiral 1": 5,
                    "Spiral 2": 4,
                    "Spiral 3": 4,
                    "Spiral 4": 3,
                    "Spiral 5": 5,
                    "Spiral 6": 4 
                },
                "attacks": [
                    {
                        "Night's Venom": {
                            "type": "ranged",
                            "rng": 10,
                            "rof": 1,
                            "pow": 12,
                            "weapon qualities": ["Damage Type: Magical"],
                            "abilities": ["Critical Shadow Bind"]
                        }
                    },
                    {
                        "Bite": {
                            "type": "melee",
                            "rng": 1,
                            "pow": 4,
                            "p+s": 10,
                            "abilities": ["Critical Shadow Bind"]
                        }
                    }
                ],
                "abilities": [
                    "Prowl",
                    "Serpentine"
                ],
                "animus": "Wraithbane"
            }
        }
    ]
}
