{
    "name": "Nephilim Bolt Thrower",
    "edition": 3,
    "revision": "2021 v1",
    "keywords": [
        "Legion",
        "Light",
        "Warbeast"
    ],
    "point cost": 9,
    "field allowance": "U",
    "models": [
        {
            "Bolt Thrower": {
                "spd": 6,
                "str": 8,
                "mat": 6,
                "rat": 5,
                "def": 13,
                "arm": 16,
                "cmd": 5,
                "advantages": ["Eyeless Sight"],
                "base size": 40,
                "fury": 3,
                "threshold": 10,
                "boxes": {
                    "Spiral 1": 5,
                    "Spiral 2": 5,
                    "Spiral 3": 5,
                    "Spiral 4": 4,
                    "Spiral 5": 5,
                    "Spiral 6": 4
                },
                "attacks": [
                    {
                        "Ballista": {
                            "type": "ranged",
                            "rng": 10,
                            "rof": 1,
                            "pow": 14,
                            "abilities": ["Thunderbolt"]
                        }
                    },
                    {
                        "Bow Blade": {
                            "type": "melee",
                            "rng": 1,
                            "pow": 3,
                            "p+s": 11
                        }
                    }
                ],
                "abilities": ["Quick Work"],
                "animus": "Far Strike"
            }
        }
    ]
}
