{
    "name": "Nephilim Protector",
    "edition": 3,
    "revision": "2021 v1",
    "keywords": [
        "Legion",
        "Light",
        "Warbeast"
    ],
    "point cost": 8,
    "field allowance": "U",
    "models": [
        {
            "Protector": {
                "spd": 5,
                "str": 8,
                "mat": 6,
                "rat": 3,
                "def": 12,
                "arm": 18,
                "cmd": 5,
                "advantages": ["Eyeless Sight"],
                "base size": 40,
                "fury": 3,
                "threshold": 10,
                "boxes": {
                    "Spiral 1": 5,
                    "Spiral 2": 5,
                    "Spiral 3": 5,
                    "Spiral 4": 4,
                    "Spiral 5": 5,
                    "Spiral 6": 4
                },
                "attacks": [
                    {
                        "Halberd": {
                            "type": "melee",
                            "rng": 2,
                            "pow": 4,
                            "p+s": 12
                        }
                    }
                ],
                "abilities": [
                    "Guard Dog",
                    "Shield Guard"
                ],
                "animus": "Safeguard"
            }
        }
    ]
}
