{
    "name": "Succubus",
    "edition": 3,
    "revision": "2021 v1",
    "keywords": [
        "Legion",
        "Solo"
    ],
    "point cost": 2,
    "field allowance": 1,
    "models": [
        {
            "Succubus": {
                "spd": 6,
                "str": 4,
                "mat": 4,
                "rat": 3,
                "def": 14,
                "arm": 12,
                "cmd": 6,
                "boxes": 5,
                "base size": 30,
                "abilities": [
                    "Attached",
                    "Arcane Assist",
                    {
                        "Magic Ability [7]": [
                            "Blizzard",
                            "Hex Bolt",
                            "Influence"
                        ]
                    }
                ]
            }
        }
    ]
}
