{
    "name": "Teraph",
    "edition": 3,
    "revision": "2021 v1",
    "keywords": [
        "Legion",
        "Light",
        "Warbeast"
    ],
    "point cost": 9,
    "field allowance": "U",
    "models": [
        {
            "Teraph": {
                "spd": 5,
                "str": 8,
                "mat": 5,
                "rat": 5,
                "def": 13,
                "arm": 16,
                "cmd": 7,
                "advantages": [
                    "Advance Deploy",
                    "Eyeless Sight",
                    "Pathfinder",
                    "Soulless"
                ],
                "base size": 40,
                "fury": 3,
                "threshold": 9,
                "boxes": {
                    "Spiral 1": 4,
                    "Spiral 2": 4,
                    "Spiral 3": 5,
                    "Spiral 4": 4,
                    "Spiral 5": 5,
                    "Spiral 6": 4
                },
                "attacks": [
                    {
                        "Blight Blast": {
                            "type": "ranged",
                            "rng": 12,
                            "rof": 1,
                            "aoe": 4,
                            "pow": 13,
                            "weapon qualities": [
                                "Continuous Effect: Fire",
                                "Damage Type: Fire"
                            ],
                            "abilities": ["Burning Ground"]
                        }
                    },
                    {
                        "Tail Strike": {
                            "type": "melee",
                            "rng": 2,
                            "pow": 4,
                            "p+s": 12,
                            "abilities": ["Critical Poison"]
                        }
                    },
                    {
                        "Bite": {
                            "type": "melee",
                            "rng": 0.5,
                            "pow": 3,
                            "p+s": 11
                        }
                    }
                ],
                "abilities": ["Dig In"],
                "animus": "Counterblast"
            }
        }
    ]
}
