{
    "name": "Vayl, Disciple of Everblight",
    "edition": 3,
    "revision": "2021 v1",
    "keywords": [
        "Legion",
        "Blighted",
        "Nyss",
        "Warlock"
    ],
    "warbeast points": 27,
    "field allowance": "C",
    "models": [
        {
            "Vayl 1": {
                "spd": 6,
                "str": 5,
                "mat": 3,
                "rat": 6,
                "def": 15,
                "arm": 14,
                "fury": 8,
                "cmd": 12,
                "boxes": 14,
                "advantages": ["Immunity: Cold"],
                "base size": 30,
                "attacks": [
                    {
                        "Oraculus": {
                            "type": "ranged",
                            "rng": 8,
                            "rof": 1,
                            "pow": 8,
                            "weapon qualities": ["Damage Type: Magical"],
                            "abilities": [
                                "Guided",
                                "Spellbound"
                            ]
                        }
                    }
                ],
                "abilities": [
                    "Dark Sentinel",
                    "Snow-Wreathed",
                    "Talion"
                ],
                "feat": {
                    "name": "Cat & Mouse",
                    "flavor": "Through the Oraculus, Vayl gains a unique perspective on the future flow of battle. She can then channel the dragon's predatory instincts to move her minions like pieces on a board, letting them react to her enemy's every movement as part of her unfolding strategy.",
                    "text": "At the end of this turn after all friendly models have ended their activations, each other friendly Faction model in Vayl's control range can make a full advance. During this movement, the affected model cannot be targeted by free strikes."
                },
                "spells": [
                    "Frost Field",
                    "Hoarfrost",
                    "Incite",
                    "Leash",
                    "Malice"
                ]
            }
        }
    ]
}
