{
    "name": "Dire Wolf",
    "keywords": [
        "Khador",
        "Winter Korps",
        "Heavy",
        "Warjack"
    ],
    "field allowance": 4,
    "models": [
        {
            "Dire Wolf": {
                "spd": 5,
                "mat": 6,
                "rat": 4,
                "def": 11,
                "arm": 19,
                "advantages": [
                    "Construct",
                    "Dual Attack",
                    "Headbutt Power Attack",
                    "Slam Power Attack",
                    "Trample Power Attack"
                ],
                "base size": 50,
                "boxes": {
                    "grid": [
                        [2,1],
                        [3,1],
                        [4,1],
                        [5,1],
                        [2,2],
                        [3,2],
                        [4,2],
                        [5,2],
                        [6,2],
                        [1,3],
                        [2,3],
                        [3,3],
                        [4,3],
                        [5,3],
                        [6,3],
                        [1,4],
                        [2,4],
                        [3,4],
                        [4,4],
                        [5,4],
                        [6,4],
                        [2,5],
                        [3,5],
                        [4,5],
                        [5,5],
                        [6,5],
                        [2,6],
                        [3,6],
                        [4,6],
                        [5,6]
                    ],
                    "systems": [
                        {
                            "Left Arm": [
                                [5,1],
                                [4,2],
                                [5,2]
                            ]
                        },
                        {
                            "Movement": [
                                [6,2],
                                [5,3],
                                [6,3]
                            ]
                        },
                        {
                            "Head": [
                                [4,3],
                                [4,4]
                            ]
                        },
                        {
                            "Cortex": [
                                [5,4],
                                [6,4],
                                [6,5]
                            ]
                        },
                        {
                            "Right Arm": [
                                [4,5],
                                [5,5],
                                [5,6]
                            ]
                        }
                    ]
                },
                "head options": [
                    {
                        "Head A": {
                            "point cost": 3,
                            "granted abilities":["Overtake"]
                        }
                    },
                    {
                        "Head B": {
                            "point cost": 2,
                            "granted advantages":["Pathfinder"]
                        }
                    },
                    {
                        "Head C": {
                            "point cost": 1,
                            "granted abilities":["Shield Guard"]
                        }
                    },
                    {
                        "Head D": {
                            "point cost": 2,
                            "granted abilities":["Evasive"]
                        }
                    }
                ],
                "right arm options": [
                    {
                        "Right Arm A": {
                            "point cost": 5,
                            "granted weapons": [
                                {
                                    "Long Axe": {
                                        "type": "melee",
                                        "loc": "R",
                                        "rng": 2,
                                        "pow": 16
                                    }
                                }
                            ]
                        }
                    },
                    {
                        "Right Arm B": {
                            "point cost": 4,
                            "granted weapons": [
                                {
                                    "Ice Hammer": {
                                        "type": "melee",
                                        "loc": "R",
                                        "rng": 1,
                                        "pow": 17,
                                        "abilities": ["Critical Freeze"]
                                    }
                                }
                            ]
                        }
                    },
                    {
                        "Right Arm C": {
                            "point cost": 5,
                            "granted weapons": [
                                {
                                    "Cannon": {
                                        "type": "ranged",
                                        "loc": "R",
                                        "rng": 12,
                                        "rof": 1,
                                        "pow": 15,
                                        "abilities": [
                                            "Beat Back",
                                            "Critical Knockdown"
                                        ]
                                    }
                                }
                            ]
                        }
                    },
                    {
                        "Right Arm D": {
                            "point cost": 6,
                            "granted weapons": [
                                {
                                    "Bombard": {
                                        "type": "ranged",
                                        "loc": "R",
                                        "rng": 12,
                                        "rof": 1,
                                        "aoe": 2,
                                        "pow": "14/8",
                                        "abilities": ["Arcing Fire"]
                                    }
                                }
                            ]
                        }
                    }
                ],
                "left arm options": [
                    {
                        "Left Arm A": {
                            "point cost": 4,
                            "granted advantages": ["Resistance: Blast"],
                            "granted abilities": ["Girded"],
                            "granted weapons": [
                                {
                                    "Plow-Shield": {
                                        "type": "melee",
                                        "loc": "L",
                                        "rng": 1,
                                        "pow": 14,
                                        "weapon qualities": ["Shield"]
                                    }
                                }
                            ]
                        }
                    },
                    {
                        "Left Arm B": {
                            "point cost": 5,
                            "granted weapons": [
                                {
                                    "Flame Fist": {
                                        "type": "ranged",
                                        "loc": "L",
                                        "rng": "SP 8",
                                        "rof": 1,
                                        "pow": 12,
                                        "weapon qualities": [
                                            "Continuous Effect: Fire",
                                            "Damage Type: Fire",
                                            "Pistol"
                                        ]
                                    }
                                },
                                {
                                    "Open Fist": {
                                        "type": "melee",
                                        "loc": "L",
                                        "rng": 1,
                                        "pow": 14,
                                        "weapon qualities": ["Throw Power Attack"]
                                    }
                                }
                            ]
                        }
                    },
                    {
                        "Left Arm C": {
                            "point cost": 3,
                            "granted weapons": [
                                {
                                    "Scrap Saw": {
                                        "type": "melee",
                                        "loc": "L",
                                        "rng": 1,
                                        "pow": 15,
                                        "abilities": ["Critical Shred"]
                                    }
                                }
                            ]
                        }
                    },
                    {
                        "Left Arm D": {
                            "point cost": 6,
                            "granted weapons": [
                                {
                                    "Heavy Chain Gun": {
                                        "type": "ranged",
                                        "loc": "L",
                                        "rng": 10,
                                        "rof": "d3+1",
                                        "pow": 12,
                                        "abilities": ["Volume Fire"]
                                    }
                                }
                            ]
                        }
                    }
                ],
                "abilities": [
                    "Anchor"
                ]
            }
        }
    ]
}
