{
    "name": "Kapitan Ekaterina Baranova",
    "keywords": [
        "Khador",
        "Winter Korps",
        "Warcaster"
    ],
    "field allowance": "C",
    "models": [
        {
            "Baranova 1": {
                "spd": 6,
                "aat": 7,
                "mat": 6,
                "rat": 6,
                "def": 15,
                "arm": 15,
                "arc": 7,
                "ctrl": 14,
                "boxes": 16,
                "advantages": [
                    "Dual Attack"
                ],
                "base size": 30,
                "attacks": [
                    {
                        "Blade Pistol": {
                            "type": "ranged",
                            "rng": 8,
                            "rof": 1,
                            "weapon qualities": ["Pistol"]
                        }
                    },
                    {
                        "Doomsayer": {
                            "type": "melee",
                            "rng": 1,
                            "pow": 12,
                            "weapon qualities": ["Damage Type: Magical"],
                            "abilities": ["Dispel"]
                        }
                    },
                    {
                        "Blade": {
                            "type": "melee",
                            "rng": 1,
                            "pow": 10,
                            "weapon qualities": ["Damage Type: Magical"]
                        }
                    }
                ],
                "abilities": [
                    "Long Shadows",
                    "Field Marshal [[Arc Node]]"
                ],
                "feat": {
                    "name": "Storm of Ages",
                    "text": "Enemy models/units activating in Baranova's control range suffer -2 SPD, cannot charge, and cannot make slam or trample power attacks. When a friendly model in Baranova's control range is targeted by a ranged or arcane attack, the attack suffers -4 RNG. Storm of Ages lasts for one round."
                },
                "spells": [
                    {"spell rack options": 3},
                    "Banishing Ward",
                    "Gallows",
                    "Invocations of Wrath"
                ]
            }
        }
    ]
}
