{
    "name": "Battle Boar",
    "edition": 3,
    "revision": "2022 v1",
    "keywords": [
        "Minion",
        "Farrow",
        "Light",
        "Warbeast"
    ],
    "point cost": 6,
    "field allowance": "U",
    "models": [
        {
            "Battle Boar": {
                "spd": 5,
                "str": 8,
                "mat": 5,
                "rat": 3,
                "def": 12,
                "arm": 17,
                "cmd": 5,
                "base size": 40,
                "fury": 3,
                "threshold": 7,
                "boxes": {
                    "Spiral 1": 4,
                    "Spiral 2": 2,
                    "Spiral 3": 6,
                    "Spiral 4": 4,
                    "Spiral 5": 4,
                    "Spiral 6": 2
                },
                "attacks": [
                    {
                        "Claw": {
                            "type": "melee",
                            "rng": 0.5,
                            "pow": 4,
                            "p+s": 12
                        }
                    },
                    {
                        "Claw": {
                            "type": "melee",
                            "rng": 0.5,
                            "pow": 4,
                            "p+s": 12
                        }
                    }
                ],
                "abilities": [
                    "Adrenalize"
                ],
                "animus": "Primal"
            }
        }
    ]
}
