{
    "name": "Boneswarm",
    "edition": 3,
    "revision": "2022 v1",
    "keywords": [
        "Minion",
        "Gatorman",
        "Light",
        "Warbeast"
    ],
    "point cost": 7,
    "field allowance": "U",
    "models": [
        {
            "Boneswarm": {
                "spd": 5,
                "str": 8,
                "mat": 6,
                "rat": 4,
                "def": 13,
                "arm": 15,
                "cmd": 2,
                "advantages": [
                    "Amphibious",
                    "Pathfinder",
                    "Undead"
                ],
                "base size": 40,
                "fury": 3,
                "threshold": 9,
                "boxes": {
                    "Spiral 1": 4,
                    "Spiral 2": 1,
                    "Spiral 3": 6,
                    "Spiral 4": 3,
                    "Spiral 5": 4,
                    "Spiral 6": 2
                },
                "attacks": [
                    {
                        "Bone Strike": {
                            "type": "melee",
                            "rng": 1,
                            "pow": 4,
                            "p+s": 12
                        }
                    },
                    {
                        "Bone Strike": {
                            "type": "melee",
                            "rng": 1,
                            "pow": 4,
                            "p+s": 12
                        }
                    }
                ],
                "abilities": [
                    "Bone Picker",
                    "Death Feast",
                    "Death-Powered",
                    "Steady"
                ],
                "animus": "Swarm"
            }
        }
    ]
}
