{
    "name": "Brine",
    "edition": 3,
    "revision": "2016 v1",
    "keywords": [
        "Mercenary",
        "Minion",
        "Farrow",
        "Heavy",
        "Warbeast"
    ],
    "field allowance": "C",
    "models": [
        {
            "Brine 1": {
                "spd": 5,
                "str": 11,
                "mat": 6,
                "rat": 1,
                "def": 12,
                "arm": 17,
                "cmd": 2,
                "base size": 50,
                "fury": 4,
                "threshold": 8,
                "boxes": {
                    "Spiral 1": 4,
                    "Spiral 2": 1,
                    "Spiral 3": 7,
                    "Spiral 4": 5,
                    "Spiral 5": 6,
                    "Spiral 6": 3
                },
                "attacks": [
                    {
                        "Claw": {
                            "type": "melee",
                            "rng": 1,
                            "pow": 3,
                            "p+s": 14,
                            "weapon qualities": ["Open Fist"]
                        }
                    },
                    {
                        "Claw": {
                            "type": "melee",
                            "rng": 1,
                            "pow": 3,
                            "p+s": 14,
                            "weapon qualities": ["Open Fist"]
                        }
                    },
                    {
                        "Gore": {
                            "type": "melee",
                            "rng": 1,
                            "pow": 4,
                            "p+s": 15,
                            "abilities": [
                                "Critical Knockdown",
                                "Hard Head"
                            ]
                        }
                    }
                ],
                "abilities": [
                    "Bacon",
                    "Companion [Rorsh]",
                    "Extended Control Range",
                    "Pain Response",
                    "Retaliatory Strike"
                ],
                "animus": "Pig Farm"
            }
        }
    ]
}
