{
    "name": "Croak Hunter",
    "edition": 3,
    "revision": "2022 v1",
    "keywords": [
        "Minion",
        "Solo"
    ],
    "point cost": 3,
    "field allowance": 3,
    "models": [
        {
            "Hunter": {
                "spd": 6,
                "str": 6,
                "mat": 6,
                "rat": 6,
                "def": 14,
                "arm": 14,
                "cmd": 6,
                "boxes": 5,
                "advantages": [
                    "Advance Deploy",
                    "Amphibious",
                    "Immunity: Corrosion",
                    "Pathfinder",
                    "Stealth"
                ],
                "base size": 30,
                "attacks": [
                    {
                        "Thrown Spear": {
                            "type": "ranged",
                            "rng": 8,
                            "rof": 1,
                            "pow": 10,
                            "abilities": [
                                "Poison",
                                "Thrown"
                            ]
                        }
                    },
                    {
                        "Spear": {
                            "type": "melee",
                            "rng": 2,
                            "pow": 4,
                            "p+s": 10,
                            "abilities": ["Poison"]
                        }
                    }
                ],
                "abilities": [
                    {
                        "Minion": [
                            "Circle",
                            "Legion",
                            "Skorne",
                            "Trollbloods"
                        ]
                    },
                    "Gang Fighter",
                    "Hunter",
                    "Quick Work",
                    "Reposition [3\"]"
                ]
            }
        }
    ]
}
