{
    "name": "Dhunian Archon",
    "edition": 3,
    "revision": "2019 v1",
    "keywords": [
        "Minion",
        "Solo"
    ],
    "point cost": 6,
    "field allowance": 2,
    "models": [
        {
            "Archon": {
                "spd": 5,
                "str": 7,
                "mat": 7,
                "rat": 3,
                "def": 13,
                "arm": 17,
                "cmd": 10,
                "boxes": 10,
                "advantages": [
                    "Pathfinder",
                    "Tough"
                ],
                "base size": 40,
                "attacks": [
                    {
                        "Old Oak": {
                            "type": "melee",
                            "rng": 2,
                            "pow": 5,
                            "p+s": 12,
                            "weapon qualities": ["Damage Type: Magical"],
                            "abilities": ["Dispel"]
                        }
                    }
                ],
                "abilities": [
                    {
                        "Minion": [
                            "Circle",
                            "Trollbloods"
                        ]
                    },
                    "Partisan [Trollbloods]",
                    "Divine Manifestation",
                    "Mother's Embrace",
                    "Righteous Fury",
                    "Shepherd's Call",
                    "Soul Ward",
                    "Threads of Life"
                ]
            }
        }
    ]
}
