{
    "name": "Dr. Arkadius",
    "edition": 3,
    "revision": "2022 v1",
    "keywords": [
        "Minion",
        "Warlock"
    ],
    "warbeast points": 32,
    "field allowance": "C",
    "models": [
        {
            "Arkadius 1": {
                "spd": 6,
                "str": 4,
                "mat": 5,
                "rat": 4,
                "def": 15,
                "arm": 14,
                "fury": 7,
                "cmd": 8,
                "boxes": 15,
                "base size": 30,
                "attacks": [
                    {
                        "Combat Syringe": {
                            "type": "melee",
                            "rng": 0.5,
                            "weapon qualities": ["Damage Type: Magical"],
                            "abilities": [
                                {
                                    "Attack Type": [
                                        "Anesthesia",
                                        "Brain Damage",
                                        "Raw Adrenaline"
                                    ]
                                },
                                "Needle"
                            ]
                        }
                    }
                ],
                "abilities": [
                    {
                        "Minion": [
                            "Circle",
                            "Legion",
                            "Skorne"
                        ]
                    },
                    "Limited Battlegroup (Arkadius 1)",
                    "Maltreatment",
                    "Reposition [3\"]"
                ],
                "feat": {
                    "name": "Monster Mayhem",
                    "flavor": "Arkadius has delved into the minds of his freakish beasts with methods both cruel and cunning, and his mastery of their bodies and spirits is absolute. By his will and the power of his magic he can unleash the full destructive potential that might otherwise remain contained within mere flesh and bone.",
                    "text": "Warbeasts in Arkadius' battlegroup can immediately frenzy. A model can frenzy even if it has already activated this turn, and it can activate later this turn even if it frenzies as a result of Monster Mayhem. When a warbeast frenzies as a result of Monster Mayhem, you can choose the warbeast's frenzy target if the target is currently in Arkadius' control range."
                },
                "spells": [
                    "Aggravator",
                    "Crippling Grasp",
                    "Forced Evolution",
                    "Guardian Beast",
                    "Primal Shock",
                    "Psycho Surgery"
                ]
            }
        }
    ]
}
