{
    "name": "Farrow Valkyries",
    "edition": 3,
    "revision": "2022 v1",
    "keywords": [
        "Minion",
        "Unit"
    ],
    "unit size": [
        {
            "min": [
                {"Leader": 1},
                {"Grunts": 2},
                {"point cost": 8}
            ]
        }
    ],
    "field allowance": 3,
    "models": [
        {
            "Leader & Grunts": {
                "spd": 5,
                "str": 6,
                "mat": 6,
                "rat": 6,
                "def": 13,
                "arm": 16,
                "cmd": 7,
                "boxes": [
                    {"Model A": 5},
                    {"Model B": 5},
                    {"Model C": 5}
                ],
                "advantages": ["Tough"],
                "base size": 30,
                "attacks": [
                    {
                        "Buckler Cannon": {
                            "type": "ranged",
                            "rng": 8,
                            "rof": 1,
                            "pow": 12,
                            "weapon qualities": ["Buckler"]
                        }
                    },
                    {
                        "War Hammer": {
                            "type": "melee",
                            "rng": 2,
                            "pow": 4,
                            "p+s": 10,
                            "abilities": ["Critical Knockdown"]
                        }
                    }
                ],
                "abilities": [
                    {
                        "Minions": [
                            "Circle",
                            "Legion",
                            "Skorne",
                            "Trollbloods"
                        ]
                    },
                    "Gang",
                    "Point-Blank",
                    "Shield Guard",
                    "Vengeance"
                ]
            }
        }
    ]
}
