{
    "name": "Gatorman Soul Slave",
    "edition": 3,
    "revision": "2017 v1",
    "keywords": [
        "Minion",
        "Solo"
    ],
    "point cost": 5,
    "field allowance": 1,
    "models": [
        {
            "Soul Slave": {
                "spd": 5,
                "str": 8,
                "mat": 5,
                "rat": 2,
                "def": 10,
                "arm": 17,
                "cmd": 5,
                "boxes": 8,
                "advantages": [
                    "Amphibious",
                    "Undead"
                ],
                "base size": 40,
                "attacks": [
                    {
                        "Bite": {
                            "type": "melee",
                            "rng": 0.5,
                            "pow": 4,
                            "p+s": 12
                        }
                    }
                ],
                "abilities": [
                    {
                        "Minion": [
                            "Circle",
                            "Legion",
                            "Skorne",
                            "Trollbloods"
                        ]
                    },
                    "Attached",
                    "Arcane Assist",
                    {
                        "Magic Ability [4]": [
                            "Bone Shaker",
                            "Spell Slave"
                        ]
                    },
                    "Mental Force"
                ]
            }
        }
    ]
}
