{
    "name": "Gatorman Witch Doctor",
    "edition": 3,
    "revision": "2017 v1",
    "keywords": [
        "Minion",
        "Solo"
    ],
    "point cost": 4,
    "field allowance": 2,
    "models": [
        {
            "Witch Doctor": {
                "spd": 5,
                "str": 7,
                "mat": 6,
                "rat": 3,
                "def": 12,
                "arm": 16,
                "cmd": 8,
                "boxes": 5,
                "advantages": [
                    "Amphibious",
                    "Tough"
                ],
                "base size": 40,
                "attacks": [
                    {
                        "Bite": {
                            "type": "melee",
                            "rng": 0.5,
                            "pow": 5,
                            "p+s": 12
                        }
                    },
                    {
                        "Sacral Blade": {
                            "type": "melee",
                            "rng": 0.5,
                            "pow": 4,
                            "p+s": 11,
                            "weapon qualities": ["Damage Type: Magical"]
                        }
                    }
                ],
                "abilities": [
                    {
                        "Minion": [
                            "Circle",
                            "Legion",
                            "Skorne",
                            "Trollbloods"
                        ]
                    },
                    {
                        "Magic Ability": [
                            "Death Ride",
                            "Sacrificial Strike",
                            "Shadow Walk"
                        ]
                    }
                ]
            }
        }
    ]
}
