{
    "name": "Helga The Conqueror",
    "edition": 3,
    "revision": "2017 v1",
    "keywords": [
        "Minion",
        "Farrow",
        "Warlock"
    ],
    "warbeast points": 29,
    "field allowance": "C",
    "models": [
        {
            "Helga 1": {
                "spd": 5,
                "str": 7,
                "mat": 6,
                "rat": 6,
                "def": 15,
                "arm": 15,
                "fury": 6,
                "cmd": 8,
                "boxes": 15,
                "advantages": [
                    "Assault",
                    "Tough"
                ],
                "base size": 30,
                "attacks": [
                    {
                        "Shield Cannon": {
                            "type": "ranged",
                            "rng": 10,
                            "rof": 1,
                            "pow": 13,
                            "weapon qualities": ["Shield"]
                        }
                    },
                    {
                        "Hunting Spear": {
                            "type": "melee",
                            "rng": 2,
                            "pow": 5,
                            "p+s": 12,
                            "weapon qualities": ["Damage Type: Magical"],
                            "abilities": ["Inflict Pain"]
                        }
                    }
                ],
                "abilities": [
                    {
                        "Minion": [
                            "Circle",
                            "Legion",
                            "Skorne",
                            "Trollbloods"
                        ]
                    },
                    "Farrow Warlock",
                    "Field Marshal [Gang Fighter]",
                    "Gang Fighter",
                    "Set Defense",
                    "Veteran Leader [Farrow Valkyries]"
                ],
                "feat": {
                    "name": "Grand Finale",
                    "flavor": "The great warlord Helga can draw on her arcane reserves to bestow mystical strength on the minions fighting beside her. Their every blow becomes a battering ram, capable of sending enemies flying back to shatter through walls, trees, or anything else in their way.",
                    "text": "When a friendly Faction model in Helga's control range hits an enemy model with a basic melee attack, instead of making a normal damage roll, the enemy model can be slammed d6\" directly away from the attacking model. The POW of the slam damage roll is equal to the P+S of the attack. The POW of collateral damage rolls is equal to the STR of the attacking model. Grand Finale lasts for one turn."
                },
                "spells": [
                    "Cyclone",
                    "Dash",
                    "Defender's Ward",
                    "Distraction",
                    "Muzzle"
                ]
            }
        }
    ]
}
