{
    "name": "Hutchuk, Ogrun Bounty Hunter",
    "edition": 3,
    "revision": "2019 v1",
    "keywords": [
        "Mercenary",
        "Minion",
        "Solo"
    ],
    "point cost": 6,
    "field allowance": "C",
    "models": [
        {
            "Hutchuk 1": {
                "spd": 5,
                "str": 9,
                "mat": 6,
                "rat": 6,
                "def": 13,
                "arm": 16,
                "cmd": 6,
                "boxes": 8,
                "advantages": ["Tough"],
                "base size": 40,
                "attacks": [
                    {
                        "Alchemical Grenades": {
                            "type": "ranged",
                            "rng": 8,
                            "rof": 1,
                            "aoe": 3,
                            "pow": 12,
                            "abilities": [
                                {
                                    "Attack Type": [
                                        "Brain Damage",
                                        "Quake",
                                        "Rust"
                                    ]
                                }
                            ]
                        }
                    },
                    {
                        "Mace": {
                            "type": "melee",
                            "rng": 2,
                            "pow": 5,
                            "p+s": 14
                        }
                    }
                ],
                "abilities": [
                    {
                        "Mercenary": [
                            "Crucible Guard",
                            "Cygnar",
                            "Khador"
                        ]
                    },
                    {
                        "Minion": [
                            "Circle",
                            "Skorne",
                            "Trollbloods"
                        ]
                    },
                    "Partisan [Crucible Guard]",
                    "Alchemical Mask",
                    "Ambush",
                    "Take Down",
                    "Wild Shot"
                ]
            }
        }
    ]
}
