{
    "name": "Ironback Spitter",
    "edition": 3,
    "revision": "2022 v1",
    "keywords": [
        "Minion",
        "Gatorman",
        "Heavy",
        "Warbeast"
    ],
    "point cost": 12,
    "field allowance": "U",
    "models": [
        {
            "Spitter": {
                "spd": 4,
                "str": 10,
                "mat": 6,
                "rat": 5,
                "def": 10,
                "arm": 18,
                "cmd": 6,
                "advantages": ["Amphibious"],
                "base size": 50,
                "fury": 3,
                "threshold": 9,
                "boxes": {
                    "Spiral 1": 6,
                    "Spiral 2": 3,
                    "Spiral 3": 7,
                    "Spiral 4": 4,
                    "Spiral 5": 6,
                    "Spiral 6": 3
                },
                "attacks": [
                    {
                        "Spit Blast": {
                            "type": "ranged",
                            "rng": 12,
                            "rof": 1,
                            "aoe": 4,
                            "pow": 14,
                            "weapon qualities": [
                                "Continous Effect: Corrosion",
                                "Damage Type: Corrosion"
                            ]
                        }
                    },
                    {
                        "Bite": {
                            "type": "melee",
                            "rng": 1,
                            "pow": 5,
                            "p+s": 15
                        }
                    },
                    {
                        "Claw": {
                            "type": "melee",
                            "rng": 1,
                            "pow": 3,
                            "p+s": 13,
                            "weapon qualities": ["Open Fist"]
                        }
                    },
                    {
                        "Claw": {
                            "type": "melee",
                            "rng": 1,
                            "pow": 3,
                            "p+s": 13,
                            "weapon qualities": ["Open Fist"]
                        }
                    }
                ],
                "abilities": [
                    "Carapace",
                    "Retaliatory Strike"
                ],
                "animus": "Counterblast"
            }
        }
    ]
}
