{
    "name": "Lynus Wesselbaum & Edrea Lloryrr",
    "edition": 3,
    "revision": "2018 v1",
    "keywords": [
        "Mercenary",
        "Minion",
        "Unit"
    ],
    "unit size": [
        {
            "only": [
                {"Lynus": 1},
                {"Edrea": 1},
                {"point cost": 5}
            ]
        }
    ],
    "field allowance": "C",
    "models": [
        {
            "Lynus 1": {
                "spd": 6,
                "str": 5,
                "mat": 5,
                "rat": 5,
                "def": 14,
                "arm": 12,
                "cmd": 6,
                "boxes": 5,
                "advantages": ["Officer"],
                "base size": 30,
                "attacks": [
                    {
                        "Military Rifle": {
                            "type": "ranged",
                            "rng": 10,
                            "rof": 1,
                            "pow": 11
                        }
                    },
                    {
                        "Great Sword": {
                            "type": "melee",
                            "rng": 2,
                            "pow": 5,
                            "p+s": 10
                        }
                    }
                ],
                "abilities": [
                    {
                        "Mercenaries": [
                            "Crucible Guard",
                            "Cygnar",
                            "Retribution"
                        ]
                    },
                    {
                        "Minions": [
                            "Circle",
                            "Trollbloods"
                        ] 
                    },
                    "Animosity [Saxon Orrik]",
                    "Applied Knowledge",
                    "First Aid [d3]"
                ]
            }
        },
        {
            "Edrea 1": {
                "spd": 6,
                "str": 4,
                "mat": 5,
                "rat": 5,
                "def": 14,
                "arm": 12,
                "cmd": 6,
                "boxes": 5,
                "base size": 30,
                "attacks": [
                    {
                        "Military Rifle": {
                            "type": "ranged",
                            "rng": 10,
                            "rof": 1,
                            "pow": 11
                        }
                    },
                    {
                        "Sword": {
                            "type": "melee",
                            "rng": 0.5,
                            "pow": 3,
                            "p+s": 7
                        }
                    }
                ],
                "abilities": [
                    {
                        "Magic Ability [7]": [
                            "Wind Barrier",
                            "Wind Burst",
                            "Zephyr"
                        ]
                    },
                    "True Sight"
                ]
            }
        }
    ]
}
