{
    "name": "Rorsh",
    "edition": 3,
    "revision": "2016 v1",
    "keywords": [
        "Mercenary",
        "Minion",
        "Farrow",
        "Solo"
    ],
    "point cost": 15,
    "field allowance": "C",
    "models": [
        {
            "Rorsh 1": {
                "spd": 6,
                "str": 7,
                "mat": 7,
                "rat": 5,
                "def": 13,
                "arm": 16,
                "cmd": 7,
                "boxes": 8,
                "advantages": ["Tough"],
                "base size": 30,
                "attacks": [
                    {
                        "Dynomite": {
                            "type": "ranged",
                            "rng": 6,
                            "rof": 1,
                            "aoe": 4,
                            "pow": 12
                        }
                    },
                    {
                        "Level-Action Pig Iron": {
                            "type": "ranged",
                            "rng": 10,
                            "rof": 2,
                            "pow": 12
                        }
                    },
                    {
                        "Cleaver": {
                            "type": "melee",
                            "rng": 0.5,
                            "pow": 4,
                            "p+s": 11
                        }
                    }
                ],
                "abilities": [
                    {
                        "Mercenaries": [
                            "Cryx",
                            "Cygnar",
                            "Khador",
                            "Protectorate"
                        ]
                    },
                    {
                        "Minion": [
                            "Circle",
                            "Legion",
                            "Skorne",
                            "Trollbloods"
                        ]
                    },
                    "Diversionary Tactics",
                    "Farrow Warlock",
                    "Feign Death",
                    "Lesser Warlock",
                    "Souie"
                ],
                "spells": ["Pigpen"]
            }
        }
    ]
}
