{
    "name": "Sacral Vault",
    "edition": 3,
    "revision": "2019 v1",
    "keywords": [
        "Minion",
        "Gatorman",
        "Battle Engine"
    ],
    "point cost": 17,
    "field allowance": 2,
    "models": [
        {
            "Sacral Vault": {
                "spd": 4,
                "str": 10,
                "rat": 6,
                "def": 9,
                "arm": 20,
                "cmd": 10,
                "boxes": 30,
                "advantages": [
                    "Construct",
                    "Eyeless Sight",
                    "Gunfighter",
                    "Pathfinder"
                ],
                "base size": 120,
                "attacks": [
                    {
                        "Spectral Fury": {
                            "type": "ranged",
                            "rng": 12,
                            "rof": 1,
                            "pow": 13,
                            "weapon qualities": ["Damage Type: Magical"],
                            "abilities": [
                                "Deathly Dominiation",
                                "Reload [2]"
                            ]
                        }
                    }
                ],
                "abilities": [
                    {
                        "Minion": [
                            "Circle",
                            "Legion",
                            "Trollbloods"
                        ]
                    },
                    "Soulstorm",
                    {
                        "Soul Taker: Crypt of Souls": [
                            "Arcane Vortex",
                            "Strength of Death"
                        ]
                    },
                    "Telemetry"
                ]
            }
        }
    ]
}
