{
    "name": "Totem Hunter",
    "edition": 3,
    "revision": "2022 v1",
    "keywords": [
        "Minion",
        "Solo"
    ],
    "point cost": 5,
    "field allowance": 1,
    "models": [
        {
            "Totem Hunter": {
                "spd": 7,
                "str": 8,
                "mat": 8,
                "rat": 4,
                "def": 14,
                "arm": 15,
                "cmd": 7,
                "boxes": 8,
                "advantages": [
                    "Pathfinder",
                    "Stealth"
                ],
                "base size": 40,
                "attacks": [
                    {
                        "Kelkax": {
                            "type": "melee",
                            "rng": 2,
                            "pow": 6,
                            "p+s": 14,
                            "abilities": []
                        }
                    },
                    {
                        "Spiked Buckler": {
                            "type": "melee",
                            "rng": 0.5,
                            "pow": 3,
                            "p+s": 11,
                            "weapon qualities": ["Buckler"]
                        }
                    }
                ],
                "abilities": [
                    {
                        "Minion": [
                            "Circle",
                            "Legion",
                            "Skorne",
                            "Trollbloods"
                        ]
                    },
                    "Jump",
                    "Prey",
                    "Sprint",
                    "Tracker" 
                ]
            }
        }
    ]
}
