{
    "name": "War Hog",
    "edition": 3,
    "revision": "2022 v2",
    "keywords": [
        "Minion",
        "Farrow",
        "Heavy",
        "Warbeast"
    ],
    "point cost": 14,
    "field allowance": "U",
    "models": [
        {
            "War Hog": {
                "spd": 5,
                "str": 12,
                "mat": 6,
                "rat": 1,
                "def": 12,
                "arm": 18,
                "cmd": 2,
                "base size": 50,
                "fury": 4,
                "threshold": 8,
                "boxes": {
                    "Spiral 1": 5,
                    "Spiral 2": 2,
                    "Spiral 3": 8,
                    "Spiral 4": 6,
                    "Spiral 5": 6,
                    "Spiral 6": 3
                },
                "attacks": [
                    {
                        "War Cleaver": {
                            "type": "melee",
                            "rng": 1,
                            "pow": 5,
                            "p+s": 17
                        }
                    },
                    {
                        "War Cleaver": {
                            "type": "melee",
                            "rng": 1,
                            "pow": 5,
                            "p+s": 17
                        }
                    },
                    {
                        "Gore": {
                            "type": "melee",
                            "rng": 1,
                            "pow": 4,
                            "p+s": 16,
                            "abilities": ["Critical Knockdown"]
                        }
                    }
                ],
                "abilities": ["Aggression Dial"],
                "animus": "Irresistable Force"
            }
        }
    ]
}
