{
    "name": "Activate Exponent Servitor",
    "edition": 3,
    "text": "At the end of your Control Phase, you can put one Exponent Servitor into play completely within 2\" of this model if there are fewer than two Exponent Servitors in play in Directrix's battlegroup."
}
