{
    "name": "Adapt",
    "edition": 3,
    "text": "When Cankerworm uses the Salvage ability, you can have the Replicator gain the special rules and weapon qualities of one of the destroyed warjack's weapons. The Replicator becomes the type of weapon adapted (melee or ranged) and uses that weapon's RNG, ROF, AOE, and POW. This effects lasts until Cankerworm uses Adapt again."
}
