{
    "name": "Alpha Hunter",
    "edition": 3,
    "text": "Warbeasts in this model's battlegroup beginning their activations in its control range can run, charge, or make power attacks without being forced. When this model destroys one or more enemy models during its activation, warbeasts in its battlegroup beginning their activations in its control range gain +2 SPD and MAT for one turn."
}
