{
    "name": "Ancillary Attack (Powder Monkey)",
    "edition": 3,
    "type": "special action",
    "text": "RNG 3. Target friendly Faction Privateer warjack. If the Privateer warjack is in range, it immediately makes one basic melee or ranged attack. A Privateer warjack can be targeted by an Ancillary Attack special action only once per turn."
}
