{
    "name": "Arcane Hemorrhage",
    "edition": 3,
    "text": "When this model hits another model with an attack, the model hit loses d3 focus, fury, or essence points on it, and upkeep spells it cast immediately expire."
}
