{
    "name": "Arcane Pattern Array",
    "edition": 3,
    "text": "When another model within 10\" of this model casts a spell, this model gains one power token. This model can have up to three power tokens at any time. During its Combat Action, this model can spend power tokens to boost one attack or damage roll for each token spent."
}
