{
    "name": "Arcane Nexus",
    "edition": 3,
    "text": "When this model casts a spell, the Egregore is the spell's point of origin. This model must have LOS to the target, but the Egregore does not. All LOS modifiers are based on the model's LOS. This model can channel spells normally."
}
