{
    "name": "Arms Caddy", 
    "edition": 3, 
    "text": "Once per turn at any time during its activation and while within 5\" of Mr. Clog, Gearhart can use Arms Caddy. Replace his ranged weapon with one of the weapons in Mr. Clogg's card. Gearhart keeps that weapon until he uses Arms Caddy again."
}
