{
    "name": "Avatar",
    "edition": 3,
    "text": "This model cannot be part of a battlegroup or be jack marshaled and does not have a functional cortex. This model can have up to 4 focus points at any time. During the focus allocation step of your Control Phase, this model receives d3 + 1 focus points."
}
