{
    "name": "Ayisla's Veil",
    "edition": 3,
    "type": "special action",
    "text": "Aiyana gains Stealth. While Holt is B2B with her, he also gains Stealth. Ayisla's Veil lasts for one round."
}
