{
    "name": "Battery Fire",
    "edition": 3,
    "type": "special action",
    "text": "RNG CMD. Target friendly Faction weapon crew model. If the model is in range, it can make one additional ranged attack during its activation this turn."
}
