{
    "name": "Black Water",
    "edition": 3,
    "type": "special action",
    "text": "While within 5\" of this model, living models lose Tough and treat open terrain as shallow water. Black Waters lasts for one round."
}
