{
    "name": "Blight Spasm",
    "edition": 3,
    "text": "When this model boxes an enemy model with this weapon, each enemy model within 1\" of the boxed model suffers a damage roll with a POW equal to the boxed model's STR. These additional damage rolls are not considered to have been caused by an attack. Blight Spasm damage rolls are simultaneous."
}
