{
    "name": "Blighted Breath",
    "edition": 3,
    "text": "At the beginning of this model's activation, choose one of the following Blighted Breath effects. While in this model's command range, models are affected by the chosen effect. Blighted Breath effects last for one round. If this model frenzies, it must choose Withering Ash at the start of its activation."
}
