{
    "name": "Blood-Quenched",
    "edition": 3,
    "text": "This model gains a cumulative +1 STR and ARM for each enemy model it destroys with a melee attack during its activation. This bonus lasts for one round."
}
