{
    "name": "Bond [Bethayne, Voice of Everblight]",
    "edition": 3,
    "text": "This model begins the game bonded to Bethayne, Voice of Everblight. This model is not considered to be bonded while under your opponent's control. While this model is in Bethayne's control range, she can channel spells through it. Once per turn, when Bethayne channels a spell through this model she can reduce the COST of the spell by 1, to a minimum of 1."
}
