{
    "name": "Bond [Kreoss]",
    "edition": 3,
    "text": "If this model begins the game  in Kreoss' battlegroup, it is bonded to him. This model is not considered to be honded while under your opponent's control. While this model is bonded to Kreoss and in his control range, it gains Divine Inspiration."
}
