{
    "name": "Bond [Xerxis]",
    "edition": 3,
    "text": "If this model begins the game in Xerxis' battlegroup, it is bonded to him. This model is not considerd to be bonded while under your opponent's control. While this model is bonded to Xerxis and in his control range, it gains Overtake."
}
