{
    "name": "Bond [Kaya the Moonhunter]",
    "edition": 3,
    "text": "This model begins the game bonded to Kaya the Moonhunter. This model is not considered to be bonded while under your opponent's control. While this model is bonded to Kaya and in her control range, she can channel spells through it."
}
