{
    "name": "Bond [Reznik]",
    "edition": 3,
    "text": "If this model begins the game in Reznik's battlegroup, it is bonded to him. This model is not considered to be bonded while under your opponent's control. Once per turn when Reznik destroys an enemy model or causes it to be removed from play as a result of a melee attack while this model is bonded to him and in his control range, immediately after the attack is resolved this model can make a full advance."
}
