{
    "name": "Bond [Rhyas or Saeryn]",
    "edition": 3,
    "text": "If this model begins the game in Rhyas' or Saeryn's battlegroup, it is bonded to that model. If it begins the game in a battlegroup shared by Rhyas and Saeryn it is considered to be bonded to both. This model is not considered to be bonded while under your opponent's control, While this model is bonded to Rhyas and in her control range, it gains Stealth. While this model is bonded to Saeryn and in her control range, Saeryn can channel spells through it."
}
