{
    "name": "Bond [Vyros]",
    "edition": 3,
    "text": "If this model begins the game in Vyros' battlegroup, it is bonded to him. This model is not considered to be bonded while uner your opponent's control. While this model is bonded to Vyros and in his control range, it can run or charge without spending focus."
}
