{
    "name": "Bond [Mordikaar]",
    "edition": 3,
    "text": "If this model begins the game in Mordikaar's battlegroup, it is bonded to him. This model is not considered to be bonded while under your opponent's control. While this model is bonded to Mordikaar and in his control range, once per round when a living enemy warrior model is boxed while within 5\" of this model, remove the boxed model from play and replae it with a Void Spirit model."
}
