{
    "name": "Bond [Thagrosh]",
    "edition": 3,
    "text": "If this model begins the game in Thagrosh's battlegroup, it is bonded to him. This model is not considered to be bonded while under your opponent's control. When this model is forced to use Regeneration while bonded to Thagrosh and in his control range, instead of rolling to determine how many damage points this model removes, this model and Thagrosh can each remove up to 3 damage points."
}
