{
    "name": "Bonds of Faith",
    "edition": 3,
    "text": "This model can use this miracle once per turn at any time during its activation. Remove d3 damage points from other friendly Faction models in this model's command range. Additionally, when this miracle is used, enemy upkeep spells and animi on models/units in this model's command range immediately expire. A spellcaster can keep any of its upkeep spells in play by suffering d3 damage points per spell."
}
