{
    "name": "Bond [Tanith]",
    "edition": 3,
    "text": "If this model begins the game in Tanith's battlegroup, it is bonded to her. This model is not considered to be bonded while udner your opponent's control. While this model bonded to Tanith and in her control range, it gains Prowl."
}
