{
    "name": "Both Barrels",
    "edition": 3,
    "type": "special attack",
    "text": "This model gains +4 to the damage roll for this attack. This model cannot make additional ranged attacks with this weapon during an activation in which it makes a Both Barrels attack."
}
