{
    "name": "Broadcast Power",
    "edition": 3,
    "text": "Other friendly Faction warjacks that activate within 3\" of this model gain 1 focus point at the start of their activations. A warjack can gain only 1 focus point per round as a result of Broadcast Power."
}
