{
    "name": "Build Up Power [[x]]",
    "edition": 3,
    "text": "If this model advances during its Normal Movement, it gains [x] power tokens. This model can have up to three power tokens at any time. During its activation, this model does not spend power tokens to boost one attack or damage roll for each token spent."
}
