{
    "name": "Bull Rush (Order)",
    "edition": 3,
    "type": "order",
    "text": "Affected models must run, charge, or make a a slam power attack this activation. If an affected model makes a slam power attack, instead of resolving damage rolls using the model's STR, use the current POW of its Mount. After resolving a slam power attack, this model can make one basic melee attack."
}
