{
    "name": "Bull Rush",
    "edition": 3,
    "text": "This model can make slam power attacks. Instead of resolving damamge rolls using this model's STR, use the current POW of this model's Mount. After resolving a slam power attack, this model can make one basic melee attack."
}
