{
    "name": "Bullet Hell",
    "edition": 3,
    "text": "This model can use Bullet Hell once per game at any time during its activation. This activation, this model gains Shooting Gallery and its ranged weapons lose Cumbersome."
}
