{
    "name": "Carried",
    "edition": 3,
    "text": "This model is not a warrior model. It can advance only during its unit's Normal Movement. When it advances, it can move up to 1\" for each Grunt in this unit within 2\" of it at the beginning of this unit's activation. This model is automatically hit by melee attacks. It cannot become stationary or knocked down and never suffers Blind."
}
