{
    "name": "Catastrophic Explosion",
    "edition": 3,
    "text": "When this model is disabled by an enemy attack, choose a point 2d6 + 3\" from this model and roll deviation from that point, with direction 4 on the deviation template pointing directly toward the read edge of your deployment zone. Center a 4\" AOE on the point of impact. Then remove this model from play. Models in the AOE suffer an unboostable POW 12 fire damage roll and the Fire continuous effect."
}
