{
    "name": "Clamp",
    "edition": 3,
    "text": "An enemy model with an equal or smaller base hit by this weapon suffers -2 DEF and for one round cannot advance while within this model's melee range."
}
