{
    "name": "Client",
    "edition": 3,
    "text": "Before the start of the game, choose one friendly warcaster, warlock, solo, or unit commander to be the Bokur's client. This model cannot be the client of another Bokur or have the same client as another Bokur. If its client leaves play, the Bokur loses all client benefits even if the client is replaced by another model. While within 6\" of its client this model gains +2 to attack and damage rolls. If this model's client has Advance Deployment, this model gains Advance Deployment."
}
