{
    "name": "Cloud Cover",
    "edition": 3,
    "type": "special action",
    "text": "Place a 3\" AOE cloud effect in play with its center point within 1\" of the Leader. If the Grunt is B2B with the Leader, place a 5\" AOE instead. This AOE remains in play for one round."
}
