{
    "name": "Combustion",
    "edition": 3,
    "type": "special attack",
    "text": "This attack does not need a target. Other models within 2\" of this model suffer a POW 12 fire damage roll and the Fire continuous effect. Combustion damage is simultaneous. This model can make additional melee attacks after making this special attack."
}
