{
    "name": "Courage of the Forefathers",
    "edition": 3,
    "text": "RNG CMD. Target friendly Winter Guard unit. If the unit is in range, models in the unit gain Tough. Courage of the Forefathers lasts for one round."
}
