{
    "name": "Coven",
    "edition": 3,
    "text": "The Witch Coven of Garlghast is made up of Helleana, Morgaen, and Selene. The Coven shares a single focus pool, and Coven models do not receive focus individually. The Coven's base FOCUS is three times the number of models in the Coven that are in play. When the Coven replenishes its focus, the Egregore receives those focus points. The Coven's control range is measured from the Egregore. Any Coven model in the Coven's control range can spend focus points on the Egregore. Effects that reduce or remove focus never affect the Egregore. The Coven can use its feat only once. The Coven counts as a single warcaster when calculating Field Allowance. The Coven can have up to one attached model, which is attached to the Coven, not to an individual model in the Coven. The Coven can have only one of each of its upkeep spells in play at any time."
}
