{
    "name": "Critical Ram",
    "edition": 3,
    "text": "On a critical hit against an enemy model during this model's Combat Action, the enemy model becomes knocked down and can be pushed 1\" directly away from this model. If it is pushed, this model can immediately advance 1\" directly toward it."
}
