{
    "name": "Cry of Defiance",
    "edition": 3,
    "text": "RNG 5. Target friendly Faction warrior model/unit. If the model/unit is in range, affected models do not lose Tough while knocked down. Cry of Defiance lasts for one round."
}
