{
    "name": "Dark Sentinel",
    "edition": 3,
    "text": "Once per turn, when an enemy model advances and ends its Normal Movement within 5\" of this model, a friendly Faction warbeast within 5\" of this model can immediately make a full advance followered by a basic melee or ranged attack targeting the enemy model. The warbeast gains boosted attack and damage rolls against the enemy model."
}
