{
    "name": "Death Burst",
    "edition": 3,
    "type": "special attack",
    "text": "This model makes a melee attack. If that attack hits, instead of dealing damage normally, center a 4\" AOE on the model hit and remove this model from play. The model hit suffers a POW 16 damage roll. If the attack misses, center the AOE on this model and remove this model from play. Other than the model directly hit, models in the AOE are hit and suffer a POW 8 blast damage roll. Death Burst is unboostable."
}
