{
    "name": "Death Rage",
    "edition": 3,
    "text": "When a model with Death Rage is disabled by an enemy attack at any time except while it is advancing, it can immediately advance up to 3\" and can make one basic melee attack, then the model is removed from play. When making this attack, ignore the effects of crippled aspects on affected warbeasts. The model cannot be targeted by free strikes during this movement."
}
