{
    "name": "Deathwalk",
    "edition": 3,
    "text": "When this model boxes a living enemy warrior model with an attack with this weapon and the Deathwalker is not in play, remove the boxed movel from play and replace it with the Deathwalker."
}
