{
    "name": "Death Boon",
    "edition": 3,
    "text": "When a model in this model's unit makes an attack or damage roll during its activation, this model can spend one soul token to cause that model to reroll that roll. A roll can be rerolled only once as a result of Death Boon."
}
