{
    "name": "Death Rattle",
    "edition": 3,
    "type": "special attack",
    "text": "Death Rattle is a RNG 8, POW 12 magic attack. When Death Rattle boxes a living or undead non-warcaster, non-warlock enemy warrior model, you can immediately take control of the model. The boxed model immediately makes one basic attack, then it is removed from play."
}

