{
    "name": "Defensive Strike",
    "edition": 3,
    "text": "Once per turn, when an enemy model advanced into and ends its movement in this model's melee range, this model can immediately make one basic melee attack against it."
}
