{
    "name": "Direct Current",
    "edition": 3,
    "text": "If this attack directly hits, you can choose to have all models whose bases are intersected by a line drawn between the center of the model directly hit and the center of this model suffer an unboostable POW 10 electrical damage roll. This damage is not considered to have been caused by an attack. Resolve Direct Current damage rolls simultaneously with the damage resulting from the attack that caused them."
}
