{
    "name": "Divine Manifestation",
    "edition": 3,
    "text": "This model is not a living model, cannot become knocked down, and never suffers Blind. Opponents cannot take control of this model."
}
