{
    "name": "Divine Inspiration",
    "edition": 3,
    "text": "A model with Divine Inspiration gains an additional die on melee attack and melee damage rolls. Discard the lowest die on each roll."
}
