{
    "name": "Double Time",
    "edition": 3,
    "type": "order",
    "text": "Models receiving this order must make a full advance during their Normal Movement. After all models in this unit have completed their Combat Actions, each can make a full advance."
}
