{
    "name": "Drag Below",
    "edition": 3,
    "text": "During this model's activation, when this model boxes an enemy warrior model, this model can use Drag Below to remove the boxed model from play. Immediately after resolving this attack, this model can make a full advance and then perform the Dig In special action, then its activation ends. This model cannot be targeted by free strikes during this movement."
}
