{
    "name": "Empower",
    "edition": 3,
    "type": "special action",
    "text": "RNG CMD. Target friendly Faction warjack. If the target warjack is in range and it was suffering Disruption, it is no longer disrupted. The warjack also gains 1 focus point."
}
