{
    "name": "Empowered Shot",
    "edition": 3,
    "text": "When this model makes an attack with this weapon, before the attack roll it can sepnd 1 focus point to gain one of the following special rules. Empowered Shot cam be used only once per attack."
}
