{
    "name": "Energy Siphon",
    "edition": 3,
    "text": "When this attack hits an enemy model with 1 or more focus, fury, or essence points on it, that model loses 1 focus, fury, or essence point and this model gains 1 focus point."
}
