{
    "name": "Eruption of Flies",
    "edition": 3,
    "text": "When this model suffers damage as a result of an enemy attack at any time except while it is advancing, after the attack is resolved this model can target the attacking model with a PS 8, POW 14 ranged attack that causes corrosion damage. Models hit suffer the Corrosion continuous effect. This model can make this ranged attack even while in melee."
}
