{
    "name": "Exhaust Fumes",
    "edition": 3,
    "text": "When this model advances during its Normal Movement, for one round other friendly models gain concealment while within 3\" of this model."
}
