{
    "name": "Exothermic Reaction",
    "edition": 3,
    "text": "When this attack boxes a living or undead model, center a 4\" AOE on the boxed model, then remove the model from play. Models in the AOE are hit and suffer an unboostable POW 12 fire damage roll and suffer the Fire continuous effect. This damage is not considered to have been caused by an attack. This model is not affected by Exothermic Reaction."
}
