{
    "name": "Extraction",
    "edition": 3,
    "text": "When an enemy model is destroyed by this attack, one warjack in this model's battlegroup that is in its contol range gains 1 focus point."
}
