{
    "name": "Fate of Heathens",
    "edition": 3,
    "text": "This model can use this miracle once per turn at any time during its activation. This turn, this model's Divine Wrath becomes ROF 2 and gains +4 RNG."
}
