{
    "name": "Feretory",
    "edition": 3,
    "text": "This model ignores concealment and Stealth. Additionally, this model's weapons gain Damage Type: Magical. While its S system is disabled, this model loses the benefits of Feretory."
}
