{
    "name": "Field Dependent (Helios)",
    "edition": 3,
    "text": "While its Field Generator system is crippled, this model loses Force Barrier and Force Gate and cannot make Tractor Beam attacks."
}
