{
    "name": "Field Work",
    "edition": 3,
    "text": "This model can use one of the following special rules at the start of its unit's activation. Each model in this unti gains the benefits listed while in formation."
}
