{
    "name": "Fighting Dirty",
    "edition": 3,
    "text": "RNG 5. Target friendly Faction warrior model. If the model is in range, a model hit by its next basic melee attack this turn becomes knocked down."
}
