{
    "name": "Flak Field",
    "edition": 3,
    "text": "This model can use Flak Field once per turn at any time during its activation. Whien this model uses Flak Field, models B2B with it suffer an unboostable POW 12 blast damage roll and other models within 2\" of it suffer an unboostable POW 6 blast damage roll. This model is not affected by Flak Field."
}
