{
    "name": "Flank [x]",
    "edition": 3,
    "text": "When a model with Flank [x] makes a melee attack against an enemy model engaged by [x], the model with Flank gains +2 to attack rolls and gains an additional damage die."
}
