{
    "name": "Flesh-Hardening",
    "edition": 3,
    "type": "special action",
    "text": "RNG CMD. Target friendly Faction living warrior model/unit. If the model/unit is in range, continuous effects on it immediately expire and it gains Tough for one round."
}
