{
    "name": "Flying High",
    "edition": 3,
    "text": "Ranged attacks targeting this model suffer -3 RNG. Friendly models can advance through this model if they have enough movement to move completely past its base. This model loses Flying High if it loses Flight."
}
