{
    "name": "Fly's Kiss",
    "edition": 3,
    "type": "special attack",
    "text": "Fly's Kiss is a RNG 8, POW 12 magic attack. If this attack boxes a living or undead model, center a 4\" AOE on the boxed model, then remove the model from play. Models in the AOE are hit and suffer an unboostable POW 10 corrosion damage roll. This damage is not considered to have been caused by an attack."
}
