{
    "name": "Follow The Leader",
    "edition": 3,
    "text": "This model can use one of the following special rules at any time during each of its unit's activations. Each model in this unit gains the benefits listed."
}
