{
    "name": "Fury-Linked",
    "edition": 3,
    "text": "At any time during its unit's activation, this mdoel can spend fury points on its unit commander to boost one attack or damage roll for each fury point spent."
}
