{
    "name": "Gallows Fruit",
    "edition": 3,
    "text": "During a friendly Faction warcaster's activation, it can remove 1 corpse token from this model if this model is in its control range. When a friendly Faction warccaster removes a corpse token from this model, the warcaster can gain either 1 focus point or 1 corpse token. Each warcaster can do this only once per turn."
}
