{
    "name": "Get Down!",
    "edition": 3,
    "text": "RNG 5. Target friendly Pyg model/unit. If the model/unit is in range, it immediately becomes dug in. Models are not affected while out of formation."
}
