{
    "name": "Grave Summons",
    "edition": 3,
    "type": "special action",
    "text": "When this model uses Grave Summons it can spend any number of soul tokens. For each soul token spent put one friendly Thrall Warrior solo into play anywhere completely within 3\" of this model."
}
