{
    "name": "Grave Door",
    "edition": 3,
    "text": "A model disabled by this weapon cannot make a Tough roll. When a living or undead enemy model is boxed by this attack you can choose to take control of it. If you do, remove 1 damage point from it, causing it to no longer be boxed. You can then immediately change its facing. For the rest of the turn, this model can channel spells through the affected model while it is in this model's control range. This model can channel spells even while engaged. The affected model cannot activate. At the end of the turn, the affected model is destroyed."
}
