{
    "name": "Grim Salvation",
    "edition": 3,
    "text": "If this model is directly hit by a basic attack made by an enemy model, choose a friendly non-incorporeal warrior model within 3\" of it to be directly hit instead. That model is automatically hit and suffers all damage and effects."
}
