{
    "name": "Grip",
    "edition": 3,
    "text": "If this weapon hits a large-based or smaller enemy model, immediately after the attack is resolved this model can be removed from play. When it is, the model hit is pushed directly toward The Hellmouth unit it contacts a model, an obstacle, or an obstruction. After the model is moved, The Hellmouth can immediately make one basic melee attack against it."
}
