{
    "name": "Guard Dog",
    "edition": 3,
    "text": "While this model is within 3\" of its warcaster and is not knocked down or stationary, its warcaster gains Parry and +2 DEF against melee attack rolls, and models attacking the warcaster do not gain back strike bonuses."
}
