{
    "name": "Hat Trick",
    "edition": 3,
    "text": "When an enemy model is boxed while in this model's control range, you can replace the boxed model with a Phantasm model with the same or smaller base size. The replaced model is removed from play. You can have only one Phantasm model of each base size in play at any time."
}
