{
    "name": "Heart Eater",
    "edition": 3,
    "text": "When this model destroys a living or undead enemy model with a melee attack, it gains the destroyed model's corpse token. This model can have up to three corpse tokens at any time. During its activation, this model can spend corpse tokens to make additional melee attacks or to boost melee attack or melee damage rolls. It can make one additional attack or boost one roll for each token spent."
}
