{
    "name": "Hog Wild",
    "edition": 3,
    "type": "order",
    "text": "Affected models can make on basic ranged attack this activation before this unit makes its Normal Movement. During an activation in which this order is given, models in this unit that are in formation must use their Normal Movement to run or charge. If a model in the unit cannot run, instead of running or charging it can forfeit its Combat Action and make a full advance, then its activation ends."
}
