{
    "name": "Host",
    "edition": 3,
    "text": "Incubus models do not begin the game in play. When a friendly living non-Incubus, non-warlock, small-based Faction warrior model is destroyed by an enemy attack, collateral damage, or a continuous effect, you can replace it with an Incubus model that has not been put into play."
}

