{
    "name": "Ice Bolt",
    "edition": 3,
    "type": "special attack",
    "edition": "Ice Bolt is a RNG 10 magic attack. A model hit suffers a POW 12 cold damage roll. On a critical hit, the model hit becomes stationary for one round unless it has Immunity: Cold."
}
