{
    "name": "Induction Relay",
    "edition": 3,
    "text": "While in this model's command range, when a friendly Faction warjack with an interface node gives focus to another warjack, increase the Focus Induction range by 3\"."
}
