{
    "name": "Intuition",
    "edition": 3,
    "text": "When an enermy model targets this model with an attack and the attack roll results in a hit, you can immediately force this model to cause the enemy model to reroll the attack roll."
}
