{
    "name": "Iron Horse",
    "edition": 3,
    "text": "Light and heavy warjacks in this model's battlegroup gain Cavalry, Pathfinder, and Reposition [5\"]. When an affected warjack makes an impact attack, that attack has a base POW equal to its STR. The melee range of impact attacks is 0.5\". Affected warjacks do not gain Mount attacks from Iron Horse."
}
