{
    "name": "Jaws of Urcaen",
    "edition": 3,
    "text": "If this attack's original target is an enemy model and that model is boxed by this attack, you can make a SP 6 attack using the boxed model as the attack's point of origin. The SP 6 attack can targed models in the boxed model's back arc. Models hit suffer a POW 14 magical damage roll. Models boxed by an attack with this weapon are removed from play."
}
