{
    "name": "Kingdom of Silence",
    "edition": 3,
    "text": "Once per turn, when a warbeast in this model's battlegroup is destroyed by an enemy attack, immediately after the attack is resolved this model can cast a spell without spending fury."
}
