{
    "name": "Kiss of Lyliss",
    "edition": 3,
    "type": "special attack",
    "text": "Kill of Lyliss is a RNG 10 magic attack. When a friendly Faction model makes a damage roll against a model/unit hit by Kiss of Lyliss, add +2 to the roll. Kiss of Lyliss lasts for one turn."
}
