{
    "name": "Leadership [Basilisks]",
    "edition": 3,
    "text": "When another friendly Basilisk model ends its activation in this model's command range, you can remove 1 fury point from that model."
}
