{
    "name": "Leap",
    "edition": 3,
    "text": "After it makes a full advance during its Normal Movement but not during its combat action, you can place this model anywhere completely within 5\" of its current location this activation."
}
