{
    "name": "Lightning Generator",
    "edition": 3,
    "text": "When a model is directly hit with a basic attack made with this weapon, lighting arcs from the model hit to d3 consecutive additional models. The lightning arcs to the nearest model it has not already arced to within 4\" of the last model it arced to, ignoring this model. Each model the lightning arcs to suffers an unboostable POW 10 electrical damage roll. Lightning arc damage rolls are not considered to have been caused by an attack. Resolving lightning arc damage rolls simultaneously with the damage resulting from the attack that caused the lightning arc."
}
