{
    "name": "Maleficium",
    "edition": 3,
    "text": "When this model summons a horror, do not choose a marked soul to be removed from play. Instead this model spends essence to summon the horror and the horror is placed B2B with this model."
}
