{
    "name": "Malign Alignment",
    "edition": 3,
    "text": "While this model is in play, models in its unit that are in formation and warjacks in its battlegroup gain Dark Shroud. Additionall, while B2B with this model, a warjack in its battlegroup can spend focus points on it."
}
