{
    "name": "Mastermind (strict) [[x]]",
    "edition": 3,
    "text": "This model can be included in any army that also includes another [x] model, regardless of theme force restrictions. This model cannot be included in any army that doesn't also include another [x] model."
}
