{
    "name": "Meat For The Beast",
    "edition": 3,
    "text": "Once durring each of your turns when a model in this model's battlegroup destroys an enemy model with a melee attack while in this model's control range, immediately after the attack is resolved this model can cast a spell without spending focus."
}
