{
    "name": "Medicate [[x]]",
    "edition": 3,
    "type": "special action",
    "text": "RNG B2B. Target friendly Faction living warbeast. If the warbeast is in range, remove [x] damage points from it."
}

