{
    "name": "Miracle Manifest",
    "edition": 3,
    "text": "This model suffers 1 damage point each time it uses one of the following miracles. This damage is suffered before the miracle takes effect."
}
