{
    "name": "Monster In The Machine",
    "edition": 3,
    "text": "Karchev & Deathjack is both a living model and a construct model but is neither a warjack nor a warrior model. Karchev & Deathjack can make slam, trample, and throw power attacks without spending focus but cannot make throw power attacks while his Open Fist is cripple. Effects modifying the amount of damage or the manner in which damage is applied to a warjack also apply to them. Karchev & Deathjack cannot spend focus points to remove damage."
}
