{
    "name": "Morrow's Name",
    "edition": 3,
    "text": "Once per game at any time during its unit's activation, this model can use Morrow's Name. This activation, models in this unit gain an additional die on melee damage rolls."
}
