{
    "name": "Object of Desire",
    "edition": 3,
    "text": "While in this model's command range, friendly Sea Dog models gain an additional damage die on Hand Weapon attacks against warrior models."
}
