{
    "name": "Overload",
    "edition": 3,
    "text": "Once per activation, you can roll one to three dice. This model gains a STR bonus equal to the total of that roll. Then roll the same dice again. This model suffers damage equal to the total of that roll. This model cannot spend a focus point to reduce this damage. This bonus expires at the end of this model's activation."
}
