{
    "name": "Paymaster [[x]]",
    "edition": 3,
    "text": "At any time during this model's activation, you can mark one or more coin boxes on its card. For each coin box you mark, you can use Paymaster once. When you do, choose one of the following incentives. Incentives are RNG CMD and can target only friendly [x] units. A [x] unit can be affected by only one incentive per turn. When all five of its coin boxes have been marked, this model loses Paymaster for the rest of the game."
}
