{
    "name": "Perfect Storm",
    "edition": 3,
    "text": "If this model uses its Normal Movement to aim, its control range is extended by 2\" for one round. Additionally, when this model uses its Normal Movement to aim, choose one of the following benefits:"
}
