{
    "name": "Phantom Protocol",
    "edition": 3,
    "text": "While in this model's command range, fiendly models with Flight gain Dodge and Reposition [5\"]. Phantom Protocol lasts for one round."
}
