{
    "name": "Phase Slide",
    "edition": 3,
    "type": "special action",
    "edition": "Place this model anywhere comepletely within 5\" of its current location, then this model is pushed d3\" in a direction determined by the deviation template. Then this model can make one basic attack."
}
