{
    "name": "Poisoned Fate",
    "edition": 3,
    "text": "If Holden is in play during your Maintenance Phase roll a d6 (or flip a coin). On a roll of 1-3 (heads), this model's weapons gain Bane this turn. One a roll of 4-6 (tails), this model's weapons gain Weaken this turn."
}
