{
    "name": "Polarity Wall",
    "edition": 3,
    "text": "While this model is B2B with one or more models in its unit, it cannot be charged or slam power attacked by a model beginning the charge or slame in this model's front arc."
}
