{
    "name": "Power Swell",
    "edition": 3,
    "text": "This model can use Power Swell once per game at any time during its unit's activation. This activation, models in this unit gain an additional die on melee damage rolls."
}
