{
    "name": "Power Transfer",
    "edition": 3,
    "type": "special action",
    "text": "RNG 5. Target friendly Faction warjack in this model's battlegroup. If the warjack is in range, this model can give that warjack any number of its focus points."
}
