{
    "name": "Precision Fire",
    "edition": 3,
    "text": "While this model is in formation, models in its unit can reroll ranged attack damage rolls. Each attack roll can be rerolled only once as a result of Precision Fire."
}
