{
    "name": "Press The Advantage",
    "edition": 3,
    "text": "RNG CMD. Target friendly Faction Trencher model/unit. If the model/unit is in range, it gains Swift Hunter. Press The Advantage lasts for one turn."
}
