{
    "name": "Psychokinetic Shield",
    "edition": 3,
    "type": "special action",
    "text": "While within 5\" of the spellcaster, enemy models suffer -2 MAT and -2 RAT. Additionally, enemy models activating within 5\" of the spellcaster cannot run, charge, or make slam or trample power attacks. Psychokinetic Shield lasts for one round."
}
