{
    "name": "Bile Thralls",
    "edition": 3,
    "type": "special attack",
    "text": "Make an attack with this weapon. Each model covered by the spray template is automatically hit unless this model's LOS to it is blocked by terrain. After this attack is resolved, remove this model from play. Purge damage is simultaneous."
}
