{
    "name": "Quick Work",
    "edition": 3,
    "text": "When this model destroys one or more enemy models with a melee attack during its Combat Action, immediately after that attack is resolved this model can make one basic ranged attack."
}
