{
    "name": "Rattle Bones",
    "edition": 3,
    "text": "While this model has one or more corpse tokens and is in its battlegroup controller's control range, the battlegroup controller can channel spells through it."
}
