{
    "name": "Reanimation",
    "edition": 3,
    "text": "When a model with Reanimation boxes a living enemy warrior model with an attack, add one Grunt to this unit and then remove the boxed model from play. Place the Grunt in formation and completely within 3\" of the attacking model. This Grunt cannot activate this turn."
}
