{
    "name": "Reliquary",
    "edition": 3,
    "text": "This model gains an additional die on attack and damage rolls. Discard the lowest die of each roll. While its S system is disabled, this model loses the benefits of Reliquary."
}
