{
    "name": "Repel",
    "text": "When this model hits an enemy model with this weapon during its activation, the model hit is pushed 1\" directly away from this model. When this model is hit with a melee attack made by a model in its front arc, after the attack is resolved the attacking model is pushed 1\" directly away from this model. This model loses Repel while this weapon system is crippled."
}
