{
    "name": "Reserve Accumulator",
    "edition": 3,
    "text": "Once per turn during your Control Phase after replenishing focus, if this model is within 5\" of its controlling warcaster, you can mark one unmarked accumulator circle on this model's card to give 1 focus point to its warcaster."
}
