{
    "name": "Resonance [[x]]",
    "edition": 3,
    "text": "An [x] model/unit activating within 5\" of this model gains +2 movement when advancing as part of its Normal Movement that activation."
}
