{
    "name": "Retaliation",
    "edition": 3,
    "text": "If a model with Retaliation was damaged by an enemy attack during the last round, during your Maintenance Phase it can advance up to 3\" and make one basic melee attack."
}
