{
    "name": "Return (War Dog)",
    "edition": 3,
    "text": "Immediately after resolving a charge attack, this model can make a full advance toward its warcaster. This model cannot be targeted by free strikes this movement."
}
