{
    "name": "Righteous Fury",
    "edition": 3,
    "text": "When one or more friendly Faction warrior models are destroyed by an enemy attack while in this model's command range, this model gains +2 STR and ARM for one round."
}
