{
    "name": "Run & Gun",
    "edition": 3,
    "text": "At the end of its activation, if this model destroyed one or more enemy models with ranged attacks that activation, it can make a full advance."
}
