{
    "name": "Sacrificial Pawn [Unit]",
    "edition": 3,
    "text": "When this model is directly hit by an enemy ranged attack. you can have one friendly, non-incorporeal model in this unit within 3\" of it directly hit instead. That model is automatically hit and suffers all damage and effects. The Sacrificial Pawn special rule can only trigger once per attack roll."
}
