{
    "name": "Salvage",
    "edition": 3,
    "text": "When a warjack is destroyed is destroyed while in this model's melee range, remove d6 damage points from this model. If the destroyed warjack was a heavy warjack or colossal, remove +3 additional damage points from this model."
}
