{
    "name": "Scouring Flame",
    "edition": 3,
    "text": "This model can use Scouring Flames once per game at any time during its unit's activation. This activation, the base RNG of Purifier weapons in this unit becomes SP 10."
}
