{
    "name": "Scroll of Grindar's Perseverance",
    "edition": 3,
    "text": "This model can use Scroll of Grindar's Perseverance once per game when directly hit by an attack. This model suffers no damage roll from the attack. Declare use of the scroll after this model is hit but before the damage roll is made."
}
