{
    "name": "Scroll of the Call of Troqal",
    "edition": 3,
    "text": "While in Doomshaper's control range, each warbeast in his battlegroup can gain 0 fury when force to use its animus instead of gainin fury poits equal to the COST of the animus. Scroll of the Call of Troqal lasts for one turn."
}
