{
    "name": "Sentry Fire",
    "edition": 3,
    "text": "Once per turn, when an enemy model advances into and ends its movement within 8\" of this model, this model can immediately make one basic ranged attack targeting that model."
}
