{
    "name": "Servitor Launch",
    "edition": 3,
    "text": "When this model directly hits an enemy model with this weapon during its activation, if this model is a Convergence model, you can immediately place one servitor solo into play completely within 2\" of the enemy model hit. The solo must forfeit its Combat Action the turn it is put into play."
}
