{
    "name": "Siege Tactics",
    "edition": 3,
    "type": "special action",
    "text": "RNG CMD. Target friendly Faction weapon crew. If the weapon crew is in range, the next ranged attack made by this unit gains Siege Weapon. Siege Tactics lasts for one turn."
}
