{
    "name": "Sleepwalker",
    "edition": 3,
    "text": "This attack causes no damage. Instead, a living warrior model hit by this attack becomes stationary for one round. On a critical hit on a non-warcaster, non-warlock living enemy warrior model, before it becomes stationary you take control of the model hit. You can immediately make a full advance with the enemy model followed by a basic attack, then the enemy model reverts to your opponent's control and becomes stationary for one round. The enemy model cannot be targeted by free strikes during this movement."
}
