{
    "name": "Snacking",
    "edition": 3,
    "text": "When a model with Snacking boxes a living model with a melee attack, it can choose to remove the boxed model from play. When it does, this model can remove d3 damage points."
}
