{
    "name": "Something Wicked",
    "edition": 3,
    "text": "While in this model's command range, the Monkey gains an additional die on melee attack and melee damage rolls and Killing Spree. Something Wicked lasts for one activation."
}
