{
    "name": "Soul Food",
    "edition": 3,
    "text": "Once per activation, immediately afer resolving an attack in which it destroyed an enemy warbeast with this weapon, this model can cast a spell with COST 3 or less or cast the destroyed warbeast's animus without spending fury."
}
