{
    "name": "Soul Reaper",
    "edition": 3,
    "type": "special action",
    "text": "Place a 5\" AOE anywhere completely within this model's control range. The AOE remainns in play for one round. When a living enemy model is destroyed in the AOE, this model gains the destroyed model's soul token regardless of the proximity of other models or any other special rules. While the AOE is in play, this model cannot attack with Daeamortus and has no melee range."
}
