{
    "name": "Soul Taker: Collector",
    "edition": 3,
    "text": "This model can gain souls. When a living enemy model is destroyed while in this model's command range, this model gains the destroyed model's soul token. This model can have up to three soul tokens at any time. This model can spend soul tokens for the following:"
}
