{
    "name": "Soul Converter",
    "edition": 3,
    "text": "Once per turn at any time during its activation, this model can spend 1 fury point to give each friendly Exalted model with Soul Taker: Gatekeeper currently in its control range one soul token."
}
