{
    "name": "Soul Weaver",
    "edition": 3,
    "text": "Once per turn at any time during its activation, this model can remove soul tokens from one friendly Faction model in its command range and place them on themselves."
}
