{
    "name": "Soul Shatter",
    "edition": 3,
    "text": "Once per turn, when a living enemy model without Soulless advances and ends its movement within 4\" of this model, this model can spend 1 essence point. If it does, the enemy model gains Soulless and this model's controller gains a soul token."
}
