{
    "name": "Soul Transfer",
    "edition": 3,
    "type": "special action",
    "text": "RNG 5. Target friendly Faction model with a Soul Taker special rule. If the model is in range, remove any number of soul tokens from this model and place them on the friendly model."
}
