{
    "name": "Spawn Horror",
    "edition": 3,
    "type": "special action",
    "text": "Remove three corpse tokens from this model and place a non-character Faction lesser warbeast into play under your control. Place the warbeast completely within 3\" of this model and choose a friendly Faction battlegroup commander. This warbeast becomes part of that battlegroup commander's battlegroup."
}
