{
    "name": "Spectral Leech",
    "edition": 3,
    "type": "special attack",
    "text": "Spectral Leech is a RNG 10 magica attack that causes no damage. Instead, remove d3 focus or fury points from target model hit."
}
