{
    "name": "Spectral Flicker",
    "edition": 3,
    "text": "Once per turn during its activation, when this model hits an enemy model with a melee attack, you can place this model anywhere completely within 2\" of its current location after the attack is resolved."
}
