{
    "name": "Spell Breaker",
    "edition": 3,
    "text": "When this model hits another model with an attack, enemy upkeep spells on the model hit expire. A spellcaster can keep its upkeep spells in play by suffering d3 damage points."
}
