{
    "name": "Spell Driver",
    "edition": 3,
    "text": "When this model casts a spell, you can use another model in its battlegroup and in its control range as the point of origin for the spell. If you do, the model chosen as the point of origin suffers d3 + 1 damage points after the spell is resolved."
}
