{
    "name": "Spell Vortex",
    "edition": 3,
    "text": "If an enemy model cast a spell in this model's control range last turn, this model can cast one spell without spending focus during its activation this turn."
}
