{
    "name": "Spine Burst",
    "edition": 3,
    "type": "special attack",
    "text": "Spine Burst is a RNG 10, POW 10 magic attack. If target model is hit, the d3 nearest models with 5\" of it suffer a POW 10 magic damage roll. These additional damage rolls are not considered to have been caused by an attack. Spine burst damage rolls are simultaneous."
}
