{
    "name": "Spite",
    "edition": 3,
    "text": "When a spell or special rule on an enemy model causes one or more of this model's upkeep spells to expire, thie enemy model suffers 1 damage for each anger token on this model and the Fire Continuous effect."
}
