{
    "name": "Starve",
    "edition": 3,
    "text": "A model damaged by a weapon with Starve must forfeit either its Normal Movement or its COmbat Action during its next activation, as its controller chooses. Starve can be shaken."
}
