{
    "name": "Stone Form",
    "edition": 3,
    "text": "This model can be forced to use Stone Form at any time during its activation. For one round or until it advances, this model gains +4 ARM, its base DEF is reduced to 5, and it is automatically hit by melee attacks."
}
