{
    "name": "Stone Cold",
    "edition": 3,
    "text": "While within the area affected by this unit's Protective Aura, friendly Northkin warrior models gain +2 STR. Stone Cold lasts for one round."
}
