{
    "name": "Strangle Gas",
    "edition": 3,
    "text": "This attack causes no damage. If it misses, nothing happens. On a direct hit, center a 3\" AOE on the model hit. The AOE is a gas effect that remains in play for one round. While in the AOE, living models lose Tough and cannot have damage removed from them."
}
