{
    "name": "Synergistic Magic",
    "edition": 3,
    "text": "This model can gain power tokens. When this model destroys an enemy model with an attack, this model gains a power token. This model can spend power tokens to upkeep and cast upkeep spells as if they were focus."
}
