{
    "name": "Target Acquired!",
    "edition": 3,
    "text": "RNG 5. Target friendly Faction warrior model/unit. If the model/unit is in range, it gains Deadly Precision for one turn. Models are not affected while out of formation."
}
