{
    "name": "The Last Ride",
    "edition": 3,
    "text": "This model can use The Last Ride once per game at the start of its activation. This activation, this model gains the effects of all four of its The End Of All Things special rules."
}
