{
    "name": "The Button",
    "edition": 3,
    "text": "This model can use The Button once per game at the start of its activation. This model gains the benefit of all of its Arcane Machinery effects this activation."
}
