{
    "name": "Threads of Life",
    "edition": 3,
    "text": "Once per turn when a friendly non-warlock living warrior model in this model's command range is hit by an enemy attack, this mdoel can suffer d3 damage points. The friendly model does not suffer a damage roll from the attack."
}
