{
    "name": "Throat Cutter",
    "edition": 3,
    "text": "RNG 5. Target friendly Faction warrior model/unit. If the model/unit is in range, it gains Backstab. Throat Cutter lasts for one turn."
}
