{
    "name": "Thunderbolt",
    "edition": 3,
    "text": "Enemy models hit are pushed d3\" directly away from the attacking model. On a critical hit, the enemy model becomes knocked down after being pushed."
}
