{
    "name": "Thunder Charge",
    "edition": 3,
    "text": "A small- or medium-based model without Immunity: Electricity hit by this attack is slammed d3\" directly away from this model. The POW of collateral damage is equal to the POW of this weapon. In addition to suffering a normal damage roll, large-based models without Immunity: Electricity hit by this attack become knocked down."
}
