{
    "name": "Tide of Skulls",
    "edition": 3,
    "text": "During your Control Phase, this model can spend one or more corpse tokens to add Bone Shaker models to this unit. For each corpse token spent, add one Bone Shaker model. Place each added model in formation within 3\" of another model in its unit. Added models must forfeit their Combat Action the turn they are put into play. This unit cannot have more than three Bone Shaker models in play at any time."
}
