{
    "name": "Tome of Living Shade",
    "edition": 3,
    "text": "While within 8\" of this model, enemy models suffer -2 RNG on their ranged and magic attacks. Tome of Living Shade lasts for one round."
}
