{
    "name": "Ton of Bricks",
    "edition": 3,
    "text": "A model hit by a non-impact attack with this weapon is slammed d3\" directly away from this model. The POW of collateral damage is equal to the POW of this weapon."
}
