{
    "name": "Touch of Darkness",
    "edition": 3,
    "type": "special action",
    "text": "RNG 3. Target friendly living soulless model. If the model is in range, remove d3 damage points from it."
}
