{
    "name": "Toxic Blizzard",
    "edition": 3,
    "type": "special attack",
    "text": "Toxic Blizzard is a RNG 10, AOE 4 magic attack. Models hit suffer a POW 10 cold damage roll and the Corrosion continuous effect."
}
