{
    "name": "Triangulation",
    "edition": 3,
    "type": "special attack",
    "text": "When this model makes a Triangulation special attack, choose two other friendly Stormsmith Stormcallers. If at the time this model makes this special attack it and the other two Stormsmiths are all within 20\" of  each other, this model can target up to three models whose bases are within the triangular area between all three Stormsmiths. This model then makes a Storm Strike attack against each model targeted, ignoring the RNG of this weapon. Models can be targeted only once per Triangulation special attack. If this model and the chosen models are not all within 20\" of each other when this model makes this special attack, nothing happens."
}
