{
    "name": "Unstable",
    "edition": 3,
    "text": "At the end of an activation in which a model with Unstable spent more than 1 focus point, roll a d6. If the roll is equal to or less than the number of focus points spent, the model with Unstable explodes and other models within 3\" of it suffer an unboostable POW 14 blast damage roll. Remove the model with Unstable from play."
}
