{
    "name": "Vampiric Reaving",
    "edition": 3,
    "text": "This model can reave fury points from enemy warbeasts destroyed in its control range if it is closer to the warbeast than all other models that could reave its fury."
}
