{
    "name": "Veneficium",
    "edition": 3,
    "text": "When a spell or special rule on an enemy model causes one or more of this model's upkeep spells to expire, the enemy model suffers d3 damage points for each of this model's upkeep spells that expire."
}
