{
    "name": "Void Field",
    "edition": 3,
    "text": "This attack's AOE is a hazard that remains in play for one round. Non-undead models entering or ending their activations in the AOE suffer 1 point of corrosion damage."
}
