{
    "name": "Whites Of Their Eyes",
    "edition": 3,
    "text": "This model can use Whites of Their Eyes once per game at any time during its unit's activation. This activation, models in this unit gain Trained Fire."
}
