{
    "name": "Wild Ride",
    "edition": 3,
    "text": "Warbeasts in this model's battlegroup and friendly Meat Threshers gain Cavalry, Pathfinder, and Reposition [3\"]. When an affected model makes an impact attack, that attack has a base POW equal to its STR. The melee range of impact attacks is 0.5\". Affected models do not gain Mount attacks from Wild Ride."
}
