{
    "name": "Winter Storm",
    "edition": 3,
    "type": "special action",
    "text": "Enemy models that begin their activations in the model's command range lose Eyeless Sight. Flight, and Pathfinder that activation. Winter Storm lasts for one round."
}
