{
    "name": "Winter Magic",
    "edition": 3,
    "text": "When a friendly model makes a cold damage roll while within the area affected by this unit's Protective Aura, add +2 to the roll. Winter Magic lasts for one turn."
}
