{
    "name": "Absorb Flesh",
    "edition": 3,
    "cost": 1,
    "rng": 6,
    "off": "NO",
    "text": "Remove target friendly living warbeast from play. Bethayne immediately gains d3+1 fury points and removes d6+1 damage points from herself. Bethayne cannot reave fury points from warbeasts targeted by this spell and can gain the benefit of Absorb Flesh only once per round."
}
