{
    "name": "Artifice of Deviation",
    "edition": 3,
    "cost": 2,
    "rng": "CTRL",
    "aoe": 5,
    "dur": "UP",
    "off": "NO",
    "text": "Place a 5\" AOE anywhere completely within the spellcaster's control range. While completely within the AOE, friendly Faction models gain cover. Enemy models treat the AOE as rough terrain."
}
