{
    "name": "Attractor",
    "edition": 3,
    "cost": 1,
    "rng": "SELF",
    "off": "NO",
    "text": "Enemy models currently within 2\"  of this model are immediately pushed 2\" directly toward it in the order you choose."
}
