{
    "name": "Avalanche",
    "edition": 3,
    "cost": 3,
    "rng": 8,
    "aoe": 4,
    "pow": 14,
    "off": "YES",
    "text": "On a critical hit, models hit by this attack become knocked down."
}
