{
    "name": "Battle Lust",
    "edition": 3,
    "cost": 3,
    "rng": 6,
    "dur": "TURN",
    "off": "NO",
    "text": "Target friendly Faction warrior model/unit gains an additional die on melee damage rolls. Battle Lust lasts for one turn."
}
