{
    "name": "Blight Burst",
    "edition": 3,
    "cost": 3,
    "rng": 10,
    "aoe": 4,
    "pow": 13,
    "dur": "RND",
    "off": "YES",
    "text": "The AOE remains in play for one round. while in the AOE, enemy non-warcaster models cannot spend focus points, be used to channel spells, or be forced."
}
