{
    "name": "Blow The Man Down",
    "edition": 3,
    "cost": 3,
    "rng": 8,
    "pow": 15,
    "off": "YES",
    "text": "A model hit by Blow the Man Down becomes knocked down. On a critical hit, instead of suffering a normal damage roll a non-incorporeal model hit is slammed d6\" directly away from the spell's point of origin. Collateral damage from this slam is POW 15."
}
