{
    "name": "Brand of Fire",
    "edition": 3,
    "cost": 3,
    "rng": 10,
    "pow": 14,
    "off": "YES",
    "text": "Brand of Fire causes fire damage. On a hit, the target model and the d3 nearest models within 5\" of it suffer the Fire continuous effect."
}
