{
    "name": "Broadside",
    "edition": 3,
    "cost": 3,
    "rng": "SELF",
    "aoe": "CTRL",
    "off": "NO",
    "text": "Models in the spellcaster's battlegroup currently in its control range can immediately make one basic ranged attack. Broadside can be cast only once per activation."
}
