{
    "name": "Castigate",
    "edition": 3,
    "cost": 2,
    "rng": "SELF",
    "aoe": "CTRL",
    "dur": "RND",
    "off": "NO",
    "text": "Enemy models cannot be used to channel spells or be forced to cast an animus while in the spellcaster's control range. Castigate lasts for one round."
}
