{
    "name": "Caustic Mist",
    "edition": 3,
    "cost": 2,
    "rng": "CTRL",
    "aoe": 3,
    "dur": "RND",
    "off": "NO",
    "text": "Place a 3\" AOE cloud effect completely within the spellcaster's control range. A model entering or ending its activation in the AOE suffers the Corrosion continuous effect. Caustic Mist lasts for one round."
}
