{
    "name": "Chosen Ground",
    "edition": 3,
    "cost": 2,
    "rng": "SELF",
    "aoe": "CTRL",
    "dur": "UP",
    "off": "NO",
    "text": "While in the spellcaster's control range, models in its battlegroup gain Pathfinder and Steady."
}
