{
    "name": "Dark Fire",
    "edition": 3,
    "cost": 2,
    "rng": 10,
    "pow": 12,
    "off": "YES",
    "text": "When a living enemy model is destroyed by Dark Fire, the spellcaster gains the destroyed model's soul token regardless of the proximity of other models."
}
