{
    "name": "Dauntless Resolve",
    "edition": 3,
    "cost": 2,
    "rng": 6,
    "dur": "UP",
    "off": "NO",
    "text": "Target friendly Faction warrior model/unit gains +3 ARM and Tough. Models are not affected while out of formation."
}
