{
    "name": "Death Sentence",
    "edition": 3,
    "cost": 2,
    "rng": 8,
    "dur": "UP",
    "off": "YES",
    "text": "When a friendly Faction model misses target enemy model/unit with an attack, it can reroll the attack roll. Each attack roll can be rerolled only once as a result of Death Sentence."
}
