{
    "name": "Dissolution",
    "edition": 3,
    "cost": 4,
    "rng": "SELF",
    "aoe": "CTRL",
    "off": "NO",
    "text": "Enemy upkeep spells in the spellcaster's control range immediately expire. When an upkeep spell expires as a result of Dissolution, the model maintaining the spell suffers d3 damage points."
}
