{
    "name": "Domination",
    "edition": 3,
    "cost": 4,
    "rng": 8,
    "off": "YES",
    "text": "Take control of target enemy  warjack that has a non-crippled cortex. You can make a full advance with the warjack and can then make one basic attack, then Domination expires. The enemy warjack cannot be targeted by free strikes during this movement. Domination can be cast only once per activation. A warjack can be affected by Domination only once per turn."
}
