{
    "name": "Doppler Bark",
    "edition": 3,
    "cost": 2,
    "rng": "SELF",
    "aoe": "*",
    "off": "NO",
    "text": "Living or undead enemy models currently within 2\" of the spellcaster have their base DEF reduced to 5 and cannot run, charge, or make slam or trample power attacks for one round."
}
