{
    "name": "Draconic Blessing",
    "edition": 3,
    "cost": 2,
    "rng": 6,
    "dur": "UP",
    "off": "NO",
    "text": "Target friendly Faction model/unit gains +2 STR and Immunity: Fire. Models are not affected while out of formation."
}
