{
    "name": "Dragon's Blood",
    "edition": 3,
    "cost": 2,
    "rng": 6,
    "dur": "UP",
    "off": "NO",
    "text": "Target friendly Faction model/unit gains +2 ARM. When an affected model is disabled by a melee attack, the attacker suffers the Corrosion continuous  effect. Models are not affected while out of formation."
}
