{
    "name": "Eliminator",
    "edition": 3,
    "cost": 3,
    "rng": 8,
    "aoe": 3,
    "pow": 13,
    "off": "YES",
    "text": "Immediately after this attack is resolved, the spellcaster can advance up to 2\" for each enemy model destroyed by the attack."
}
