{
    "name": "Expose",
    "edition": 3,
    "cost": 2,
    "rng": "CTRL",
    "aoe": 5,
    "dur": "UP",
    "off": "NO",
    "text": "Place a 5\" AOE completely within the spellcaster's control range. While within the AOE, enemy models lose and cannot gain Stealth or Shield Guard and do not gain bonuses from spells, including animi, that add to their ARM or DEF."
}
