{
    "name": "Feat of Worms",
    "edition": 3,
    "cost": 4,
    "rng": 10,
    "aoe": 4,
    "pow": 12,
    "dur": "UP",
    "off": "YES",
    "text": "While in the AOE, enemy models suffer -2 ARM. When a living enemy model is destroyed in the AOE, the spellcaster gains the destroyed model's soul token regardless of the proximity of other models. The AOE remains in play as long as the upkeep is paid."
}
