{
    "name": "First Blood",
    "edition": 3,
    "cost": 2,
    "rng": 10,
    "pow": 10,
    "off": "YES",
    "text": "When an enemy model is damaged by First Blood, immediately after the attack is resolved one warbeast in the spellcaster's battlegroup that is currently in its control range can make a full advance toward the nearest enemy model. A model can advance as a result of First Blood only once per turn."
}
