{
    "name": "Flashing Blade",
    "edition": 3,
    "cost": 2,
    "rng": "SELF",
    "off": "NO",
    "text": "The spellcaster immediately makes one basic attack with one of its melee weapons against each enemy model in its LOS that is in the weapon's melee range. These attacks are simultaneous."
}
