{
    "name": "Forced Induction",
    "edition": 3,
    "cost": 2,
    "rng": 10,
    "aoe": "*",
    "pow": "*",
    "off": "*",
    "text": "Target warjack gains 1 focus point. Then the warjack and enemy models within 1\" for each focus point on it suffer an unboostable POW 10 electrical damage roll. When Forced Induction targets an enemy model, it is an offensive spell and requires a magic attack roll."
}
