{
    "name": "Foxhole",
    "edition": 3,
    "cost": 2,
    "rng": "CTRL",
    "aoe": 5,
    "dur": "UP",
    "off": "NO",
    "text": "Place a 5\" AOE anywhere completely within the spellcaster's control range where it does not touch a model's base, an obstruction, or an obstacle. Models completely within the AOE have cover and do not suffer blast damage. When drawing LOS to a model not completely within the AOE, ignore intervening models completely within the AOE."
}
