{
    "name": "Frost Field",
    "edition": 3,
    "cost": 2,
    "rng": 6,
    "dur": "UP",
    "off": "NO",
    "text": "Target friendly Faction model/unit gains Chiller. Models are not affected while out of formation."
}
