{
    "name": "Frost Hammer",
    "edition": 3,
    "cost": 2,
    "rng": "SP 8",
    "pow": 12,
    "dur": "*",
    "off": "YES",
    "text": "Frost Hammer causes cold damage. On a critical hit, the model hit becomes stationary for one round unless it has Immunity: Cold."
}
