{
    "name": "Grind",
    "edition": 3,
    "cost": 3,
    "rng": 10,
    "pow": 14,
    "off": "YES",
    "text": "When a warjack is hit by Grind, it suffers 1 damage point to its first available Movement system box."
}
