{
    "name": "Harvest",
    "edition": 3,
    "cost": 2,
    "rng": "SELF",
    "aoe": "CTRL",
    "dur": "UP",
    "off": "NO",
    "text": "When a living or undead enemy model is destroyed in the spellcaster's control range, the spellcaster can gain 1 fury point. The spellcaster's fury point total cannot exceed its FURY as a result of Harvest."
}
