{
    "name": "Hellmouth",
    "edition": 3,
    "cost": 4,
    "rng": 8,
    "aoe": "*",
    "pow": 12,
    "off": "YES",
    "text": "If this attack misses, nothing happens. If it hits, before making the damage roll, push models within 3\" of the model hit 3\" directly toward it in the order you choose. Then center a 3\" AOE on the model hit. Models hit suffer a POW 12 damage roll. Models boxed by Hellmouth are removed from play."
}
