{
    "name": "Hornet's Nest",
    "edition": 3,
    "cost": 2,
    "rng": 6,
    "dur": "TURN",
    "off": "NO",
    "text": "When target friendly Faction lesser warbeast destroys an enemy model with a basic melee attack during its Combat Action, after the attack is resolved it can advance up to 1\" and make an additional melee attack. Hornet's Nest lasts for one turn."
}
