{
    "name": "Incite",
    "edition": 3,
    "cost": 4,
    "rng": "SELF",
    "dur": "TURN",
    "off": "NO",
    "text": "Friendly Faction models gain +2 to attack and damage rolls against enemy models while the enemy models are in the spellcaster's command range. Incite lasts for one turn."
}
