{
    "name": "Inhospitable Ground",
    "edition": 3,
    "cost": 3,
    "rng": "SELF",
    "aoe": "CTRL",
    "dur": "RND",
    "off": "NO",
    "text": "While in the spellcaster's control range, enemy models treat open terrain as rough terrain. Inhospitable Ground lasts for one round."
}
