{
    "name": "Invocation of Blood",
    "edition": 3,
    "cost": 2,
    "rng": "SELF",
    "off": "NO",
    "text": "If Bethayne is flesh melded with Belphagor when this spell is cast, Belphagor gains +2 SPD, STR, DEF, and ARM for one round. Otherwise, Bethayne immediately makes a full advance toward Belphagor. Invocation of Blood can be cast only once per activation."
}
