{
    "name": "Jumpstart",
    "edition": 3,
    "cost": 1,
    "rng": "SELF",
    "aoe": "CTRL",
    "off": "OFF",
    "text": "Models in the spellcaster's battlegroup that are currently in its control range stand up and are no longer stationary. Affected models can turn to face any direction. Models that were knocked down this turn are not affected by Jumpstart."
}
