{
    "name": "Killing Ground",
    "edition": 3,
    "cost": 3,
    "rng": "SELF",
    "aoe": "CTRL",
    "dur": "TURN",
    "off": "NO",
    "text": "Friendly Faction models beginning a charge in the spellcaster's control range gain Pathfinder. Warbeasts in the spellcaster's battlegroup beginning their activations in its control range can charge or make slam power attacks against enemy models without being forced. Killing Ground lasts for one turn."
}
