{
    "name": "Lightning Storm",
    "edition": 3,
    "cost": 3,
    "rng": 8,
    "aoe": 3,
    "pow": 10,
    "dur": "RND",
    "off": "YES",
    "text": "Models hit suffer a POW 10 electrical damage roll. This spell's AOE is a hazard that remains in play for one round. Models entering or ending their activations in the AOE suffer a POW 10 electrical damage roll."
}
