{
    "name": "Magic Bullet",
    "edition": 3,
    "cost": 2,
    "rng": 6,
    "dur": "TURN",
    "off": "NO",
    "text": "If target friendly Faction model's next basic ranged attack directly hits, after resolving the attack choose another model within 4\" of the model hit. The chosen model suffers an unboostable POW 12 magical damage roll. The point of origin for this damage is the model hit. This damage is not considered to have been caused by an attack. After resolving this damage roll, Magic Bullet expires. Magic Bullet lasts for one turn."
}
