{
    "name": "Magnetic Field",
    "edition": 3,
    "cost": 2,
    "rng": "SELF",
    "aoe": "CTRL",
    "dur": "UP",
    "off": "NO",
    "text": "While in the spellcaster's control range, models in its battlegroup cannot become knocked down, cannot be placed or pushed, and cannot be moved by a slam."
}
