{
    "name": "Mobility",
    "edition": 3,
    "cost": 3,
    "rng": "SELF",
    "aoe": "CTRL",
    "dur": "TURN",
    "off": "NO",
    "text": "Models in the spellcaster's battlegroup currently in its control range gain +2 SPD and Pathfinder for one turn."
}
