{
    "name": "Mosh Pit",
    "edition": 3,
    "cost": 3,
    "rng": "SELF",
    "aoe": "CTRL",
    "dur": "TURN",
    "off": "NO",
    "text": "Knocked down friendly Faction models in the spellcaster's control range immediately stand up. Models that became knocked down this turn are not affected by Mosh Pit. While in the spellcaster's control range, friendly Faction models gain Knockdown on their melee weapons. Mosh Pit lasts for one turn."
}
