{
    "name": "Murderous Intent",
    "edition": 3,
    "cost": 2,
    "rng": "SELF",
    "aoe": "CTRL",
    "dur": "RND",
    "off": "NO",
    "text": "While in the spellcaster's control range, models in this model's battlegroup gain Murderous for one round."
}
