{
    "name": "Mutagenesis",
    "edition": 3,
    "cost": 3,
    "rng": 8,
    "pow": 12,
    "off": "YES",
    "text": "Target model boxed by Mutagenesis is removed from play. When Mutagenesis boxes an enemy model and the spellcaster was the spell's point of origin, the spellcaster can replace the boxed model when it is removed from play. The spellcaster cannot advance this activation after replacing another model as a result of Mutagenesis. Mutagenesis can be cast only once per activation."
}
