{
    "name": "Open Fire",
    "edition": 3,
    "cost": 1,
    "rng": "CTRL",
    "off": "NO",
    "text": "Target warjack in this model's battlegroup that is in its control range can immediately make one basic melee or ranged attack. A model can be targeted by Open Fire only once per turn."
}
