{
    "name": "Parasite",
    "edition": 3,
    "cost": 1,
    "rng": "SELF",
    "off": "NO",
    "text": "Place the spellcaster anywherer completely within 3\" of its current location. Vanish can be cast only once per activation."
}
