{
    "name": "Playing God",
    "edition": 3,
    "cost": 2,
    "rng": 6,
    "dur": "UP",
    "off": "NO",
    "text": "Target friendly living Faction warbeast is affected by Spontaneous Mutation effects while they affect Absylonia. Additionally, once per turn Absylonia can transfer  damage to the affected warbeast without spending fury."
}
