{
    "name": "Positive Charge",
    "edition": 3,
    "cost": 2,
    "rng": 6,
    "dur": "TURN",
    "off": "NO",
    "text": "Target friendly Faction warjack gains +2 to melee attack and melee damage rolls. While within 3\" of the affected warjack, friendly Faction models gain +2 on melee attack and melee damage rolls. Positive Charge lasts ofr one turn."
}
