{
    "name": "Pulverizer",
    "edition": 3,
    "cost": 2,
    "rng": 6,
    "dur": "UP",
    "off": "NO",
    "text": "Target friendly Faction model/unit gains +2 STR and its melee weapons gain Beatback."
}
