{
    "name": "Quagmire",
    "edition": 3,
    "cost": 2,
    "rng": 6,
    "dur": "UP",
    "off": "NO",
    "text": "While B2B with target friendly Faction model/unit, enemy models suffer -2 DEF and cannot advance except to change facing."
}
