{
    "name": "Rapid Growth",
    "edition": 3,
    "cost": 2,
    "rng": "CTRL",
    "aoe": 4,
    "dur": "UP",
    "off": "NO",
    "text": "Place the AOE completely within the spellcaster's control range. The AOE is a forest that remains in play as long as its upkeep is paid."
}
