{
    "name": "Ravager",
    "edition": 3,
    "cost": 2,
    "rng": 6,
    "dur": "TURN",
    "off": "NO",
    "text": "Target warjack in the spellcaster's battlegroup gains Berserk for one turn. While affected by Ravager, a model cannot make Chain Attacks."
}
