{
    "name": "Redline",
    "edition": 3,
    "cost": 2,
    "rng": 6,
    "dur": "UP",
    "off": "NO",
    "text": "Target warjack in the spellcaster's battlegroup gains +2 STR and SPD and can run, charge, or make slam or trample power attacks without spending focus. At the end of each of its activations, the affected warjack suffers d3 damage points."
}
