{
    "name": "Return Fire",
    "edition": 3,
    "cost": 1,
    "rng": 6,
    "dur": "RND",
    "off": "NO",
    "text": "When target friendly Faction model is targeted by an enemy ranged attack, after the attack is resolved the affected model can make one basic melee or ranged attack, then Return Fire expires. Return Fire lasts for one round."
}
