{
    "name": "Rough Seas",
    "edition": 3,
    "cost": 3,
    "rng": "SELF",
    "aoe": "CTRL",
    "dur": "RND",
    "off": "NO",
    "text": "When a friendly model is targeted by a ranged attack while in the spellcaster's control range, the attack suffers -3 RNG. Rough Seas lasts for one round."
}
