{
    "name": "Sacrosanct",
    "edition": 3,
    "cost": 3,
    "rng": "SELF",
    "aoe": "*",
    "dur": "RND",
    "off": "NO",
    "text": "When an enemy non-warcasterr, non-warlock warrior model destroys one or more friendly Faction models in the spellcaster's command range with an attack, immediately after the attack is resolved the attakcing model becomes knocked down."
}
