{
    "name": "Sand Storm",
    "edition": 3,
    "cost": 2,
    "rng": "SELF",
    "aoe": "*",
    "dur": "RND",
    "off": "NO",
    "text": "When an enemy model targets a model in the spellcaster's command range with a ranged attack that is greater than RNG 8, the attack suffers -3 RNG to a minimum of 8. Sand Storm lasts for one round."
}
