{
    "name": "See In The Dark",
    "edition": 3,
    "cost": 1,
    "rng": "SELF",
    "dur": "TURN",
    "off": "NO",
    "text": "The spellcaster can ignore cloud effects when determining LOS. Additionally, the spellcaster can ignore Stealth. See In The Dark lasts for one turn."
}
