{
    "name": "Shadow Step",
    "edition": 3,
    "cost": 2,
    "rng": "SELF",
    "aoe": "*",
    "off": "NO",
    "text": "Enemy models currently within 2\" of the spellcaster suffer Shadow Bind for one round. Additionall, you can place the spell caster anywhere completely within 3\" of its current location. Shadow Step can be cast only once per activation."
}
