{
    "name": "Shrapnel Swarm",
    "edition": 3,
    "cost": 3,
    "rng": 8,
    "aoe": "*",
    "pow": 13,
    "off": "YES",
    "text": "On a direct hit against an enemy model, center a 4\" AOE on the model hit. After resolving the damage roll, models in the AOE are hit and suffer 1 point of damage."
}
