{
    "name": "Solid Ground",
    "edition": 3,
    "cost": 2,
    "rng": "SELF",
    "aoe": "CTRL",
    "dur": "UP",
    "off": "NO",
    "text": "While in the spellcaster's control range, friendly Faction models cannot become knocked down and gain Blast Resistance."
}
