{
    "name": "Soul Gate",
    "edition": 3,
    "cost": 3,
    "rng": "CTRL",
    "off": "NO",
    "text": "Remove a friendly trooper model in the spellcaster's control range from play and replace it with target warjack in the spellcaster's battlegroup that is in its control range. The warjack cannot activate this turn after being placed by Soul Gate."
}
