{
    "name": "Soul Slave",
    "edition": 3,
    "cost": 2,
    "rng": 6,
    "dur": "UP",
    "off": "NO",
    "text": "Target warbeast in the spellcaster's battlegroup automatically passes threshold checks. The spellcaster can channel spells through that warbeast."
}
