{
    "name": "Spirit Fang",
    "edition": 3,
    "cost": 2,
    "rng": 10,
    "pow": 12,
    "dur": "*",
    "off": "YES",
    "text": "A model damaged by this attack suffers -2 SPD and DEF for one round."
}
