{
    "name": "Star-Crossed",
    "edition": 3,
    "cost": 3,
    "rng": "SELF",
    "aoe": "CTRL",
    "dur": ""RND",
    "off": "NO",
    "text": "While in the spellcaster's control range, enemy models gain an additional die on attack rolls. Discard the highest die of each roll. Star-Crossed lasts for one round."
}
