{
    "name": "Storm Rager",
    "edition": 3,
    "cost": 3,
    "rng": 6,
    "dur": "UP",
    "off": "NO",
    "text": "Target friendly Faction warrior model gains +2 STR, MAT, and ARM and cannot be targeted by combined ranged attacks or combined melee attacks."
}
