{
    "name": "Stranglehold",
    "edition": 3,
    "cost": 2,
    "rng": 10,
    "pow": 11,
    "dur": "*",
    "off": "YES",
    "text": "A model damaged by Stranglehold forfeits either its Normal Movement or its Combat Action during its next activation, as its controller chooses."
}
