{
    "name": "Tag Team",
    "edition": 3,
    "cost": 3,
    "rng": "SELF",
    "aoe": "CTRL",
    "dur": "UP",
    "off": "NO",
    "text": "While in the spellcaster's control range, models in its battlegroup gain +2 on melee attack and melee damage rolls against models within melee range of another model in the spellcaster's battlegroup."
}
