{
    "name": "Temporal Distortion",
    "edition": 3,
    "cost": 2,
    "rng": "SELF",
    "dur": "RND",
    "off": "NO",
    "text": "Models in this unit gain +2 DEF. While within 5\" of a model in this unit, friendly Faction models gain +2 DEF and enemy models suffer -2 DEF. Temporal Distortion lasts for one round."
}
