{
    "name": "The Flesh Is Weak",
    "edition": 3,
    "cost": 3,
    "rng": 8,
    "aoe": 4,
    "pow": 13,
    "dur": "*",
    "off": "YES",
    "text": "Living and undead models hit by The Flesh Is Weak cannot run, charge, or make slam or trample power attacks for one round."
}
