{
    "name": "Time Lock",
    "edition": 3,
    "cost": 1,
    "rng": "SELF",
    "dur": "RND",
    "off": "NO",
    "text": "Enemy models activating within 6\" of the spellcaster suffer -2 SPD that activation. Time Lock lasts for one round."
}
