{
    "name": "Tornado",
    "edition": 3,
    "cost": 4,
    "rng": 10,
    "pow": 13,
    "off": "YES",
    "text": "Instead of suffering a normal damage roll, a non-incorporeal model hit by Tornado is thrown d6\" directly away from the spell's point of origin and suffers a POW 13 damage roll. The model thrown does not deviate. Collateral damage from this throw is POW 11."
}
