{
    "name": "Twisted Form",
    "edition": 3,
    "cost": 2,
    "rng": 8,
    "dur": "RND",
    "off": "YES",
    "text": "Target warbeast suffers -2 FURY, cannot have damage removed from it, and cannot have damage transferred to it. Twisted Form lasts for one round. Twisted Form can be cast only once per activation."
}
