{
    "name": "Void Gate",
    "edition": 3,
    "cost": 3,
    "rng": 10,
    "aoe": 3,
    "pow": 13,
    "dur": "RND",
    "off": "YES",
    "text": "The AOE remains in play for one round. While in the AOE, enemy models cannot cast or channel spells."
}
