{
    "name": "Vortex of the Deep",
    "edition": 3,
    "cost": 2,
    "rng": 8,
    "aoe": 4,
    "dur": "RND",
    "off": "YES",
    "text": "On a direct hit, push models within 2\" of the model directly hit 2\" directly toward it in the order you choose. This spell's AOE is shallow water that remains in play for one round."
}
