{
    "name": "White Squall",
    "edition": 3,
    "cost": 3,
    "rng": 8,
    "pow": 12,
    "off": "YES",
    "text": "Instead of suffering a normal damage roll, a non-incorporeal model hit by White Squall is thrown d6\" directly away from the spell's point of origin and suffers a POW 12 damage roll. The model thrown does not deviate. Collateral damage from this throw is POW 12."
}
