{
    "name": "Wild Growth",
    "edition": 3,
    "cost": 2,
    "rng": "SELF",
    "aoe": 4,
    "dur": "RND",
    "off": "NO",
    "text": "Center a 4\" AOE on the spellcaster. The AOE is a forest that remains in play for one round. The spellcaster cannot move or be placed after casting Wild Growth. Wild Growth lasts for one round."
}
