{
    "name": "Wind Rush",
    "edition": 3,
    "cost": 2,
    "rng": "SELF",
    "off": "NO",
    "text": "The spellcaster can immediately make a full advance and gains +2 DEF for one round. Wind Rush can be cast only once per activation."
}
