{
    "name": "Windstorm",
    "edition": 3,
    "cost": 3,
    "rng": "SELF",
    "aoe": "CTRL",
    "dur": "RND",
    "off": "NO",
    "text": "While in the spellcaster's control range, enemy model with a RNG greater than 8\" suffer -3 RNG to a minimum of 8\" on their ranged attacks. When an enemy AOE ranged attack deviations from a point in this model's control range, after determining the deviation distance, you choose the deviation direction. Windstorm lasts for one round."
}
