{
    "name": "Winter Coat",
    "edition": 3,
    "cost": 1,
    "rng": "SELF",
    "dur": "RND",
    "off": "NO",
    "text": "The spellcaster gains Immunity: Cold and Freezer. Winter Coat lasts for one turn."
}
