{
    "name": "Witch Bond",
    "edition": 3,
    "cost": 2,
    "rng": 6,
    "dur": "UP",
    "off": "NO",
    "text": "When target warjack in this model's battlegroup destroys a living enemy model with an attack, the spellcaster gains the destroyed model's soul token regardless of the proximity of other models. Additionally, when checking to see if the affected warjack is in its controller's control range, double the range."
}
